benchmark       FP           Other       
basicmath       0.39         99.61       
bitcount        0.0          100.0       
blowfish-e      0.0          100.0       
cnn             38.98        61.02       
CRC32           0.0          100.0       
dijkstra        0.0          100.0       
FFT             0.43         99.57       
FFT-i           0.96         99.04       
gsm-d           0.15         99.85       
gsm-e           0.0          100.0       
h264            0.0          100.0       
jpeg-d          0.0          100.0       
jpeg-e          0.0          100.0       
patricia        0.03         99.97       
qsort           0.0          100.0       
rsynth          62.88        37.12       
sha             0.0          100.0       
stringsearch    0.0          100.0       
susan-c         2.49         97.51       
susan-e         1.47         98.53       
susan-s         0.14         99.86       
correlation     57.31        42.69       
gemm            65.18        34.82       
gesummv         56.77        43.23       
2mm             58.48        41.52       
3mm             56.17        43.83       
cholesky        61.05        38.95       
durbin          39.39        60.61       
gramschmidt     58.57        41.43       
ludcmp          59.15        40.85       
floyd-warshall  0.0          100.0       
jacobi-1d       65.53        34.47       
