{
  "workloads": [
    {
      "workload": {
        "benchmark": "basicmath",
        "file_big": "basicmathA15.out",
        "file_little": "basicmathA7.out",
        "critical": false,
        "integer" : false
      }
    },
    {
      "workload": {
        "benchmark": "qsort",
        "file_big": "qsortA15.out",
        "file_little": "qsortA7.out",
        "critical": false,
        "integer" : false
      }
    },
    {
      "workload": {
        "benchmark": "stringsearch",
        "file_big": "stringsearchA15.out",
        "file_little": "stringsearchA7.out",
        "critical": false,
        "integer" : true
      }
    },
    {
      "workload": {
        "benchmark": "bitcount",
        "file_big": "bitcountA15.out",
        "file_little": "bitcountA7.out",
        "critical": false,
        "integer" : true
      }
    },
    {
      "workload": {
        "benchmark": "bitcount",
        "file_big": "bitcountA15.out",
        "file_little": "bitcountA7.out",
        "critical": false,
        "integer" : true
      }
    },
    {
      "workload": {
        "benchmark": "bitcount",
        "file_big": "bitcountA15.out",
        "file_little": "bitcountA7.out",
        "critical": false,
        "integer" : true
      }
    },
    {
      "workload": {
        "benchmark": "bitcount",
        "file_big": "bitcountA15.out",
        "file_little": "bitcountA7.out",
        "critical": false,
        "integer" : true
      }
    },
    {
      "workload": {
        "benchmark": "3mm",
        "file_big": "3mmA15.out",
        "file_little": "3mmA7.out",
        "critical": false,
        "integer" : false
      }
    },    
    {
      "workload": {
        "benchmark": "3mm",
        "file_big": "3mmA15.out",
        "file_little": "3mmA7.out",
        "critical": false,
        "integer" : false
      }
    },
    {
      "workload": {
        "benchmark": "atax",
        "file_big": "ataxA15.out",
        "file_little": "ataxA7.out",
        "critical": false,
        "integer" : false
      }
    },
    {
      "workload": {
        "benchmark": "atax",
        "file_big": "ataxA15.out",
        "file_little": "ataxA7.out",
        "critical": false,
        "integer" : false
      }
    },
    {
      "workload": {
        "benchmark": "dynprog",
        "file_big": "3mmA15.out",
        "file_little": "3mmA7.out",
        "critical": false,
        "integer" : true
      }
    }, 
    {
      "workload": {
        "benchmark": "dynprog",
        "file_big": "3mmA15.out",
        "file_little": "3mmA7.out",
        "critical": false,
        "integer" : true
      }
    }, 
    {
      "workload": {
        "benchmark": "correlation",
        "file_big": "3mmA15.out",
        "file_little": "3mmA7.out",
        "critical": false,
        "integer" : false
      }
    },
    {
      "workload": {
        "benchmark": "correlation",
        "file_big": "3mmA15.out",
        "file_little": "3mmA7.out",
        "critical": false,
        "integer" : false
      }
    }
  ]
  
}