{
    "workloads": [
      {
        "workload": {
          "benchmark": "FFT-i",
          "file_big": "FFT-iA15.out",
          "file_little": "FFT-iA7.out",
          "critical": false,
          "integer" : false
        }
      },
      {
        "workload": {
          "benchmark": "FFT",
          "file_big": "FFTA15.out",
          "file_little": "FFTA7.out",
          "critical": false,
          "integer" : false
        }
      },
      {
        "workload": {
          "benchmark": "rsynth",
          "file_big": "rsynthA15.out",
          "file_little": "rsynthA7.out",
          "critical": false,
          "integer" : false
        }
      },
      {
        "workload": {
          "benchmark": "jpeg-d",
          "file_big": "jpeg-dA15.out",
          "file_little": "jpeg-dA7.out",
          "critical": false,
          "integer" : true
        }
      },
      {
        "workload": {
          "benchmark": "qsort",
          "file_big": "qsortA15.out",
          "file_little": "qsortA7.out",
          "critical": false,
          "integer" : true
        }
      },
      {
        "workload": {
          "benchmark": "susan-c",
          "file_big": "susan-cA15.out",
          "file_little": "susan-cA7.out",
          "critical": false,
          "integer" : false
        }
      },
      {
        "workload": {
          "benchmark": "susan-e",
          "file_big": "susan-eA15.out",
          "file_little": "susan-eA7.out",
          "critical": false,
          "integer" : false
        }
      },
      {
        "workload": {
          "benchmark": "stringsearch",
          "file_big": "stringsearchA15.out",
          "file_little": "stringsearchA7.out",
          "critical": false,
          "integer" : true
        }
      },
      {
        "workload": {
          "benchmark": "CRC32",
          "file_big": "CRC32A15.out",
          "file_little": "CRC32A7.out",
          "critical": false,
          "integer" : true
        }
      }
    ]
}