{
    "workloads": [
      {
        "workload": {
          "benchmark": "simple",
          "file_big": "simpleA15.out",
          "file_little": "simpleA7.out",
          "critical": false,
          "integer" : false
        }
      },
      {
        "workload": {
          "benchmark": "simple",
          "file_big": "simpleA15.out",
          "file_little": "simpleA7.out",
          "critical": false,
          "integer" : false
        }
      }
    ]
}