{
    "workloads": [
      {
        "workload": {
          "benchmark": "rsynth",
          "file_big": "rsynthA15.out",
          "file_little": "rsynthA7.out",
          "critical": false,
          "integer" : false
        }
      },
      {
        "workload": {
          "benchmark": "qsort",
          "file_big": "qsortA15.out",
          "file_little": "qsortA7.out",
          "critical": false,
          "integer" : true
        }
      },
      {
        "workload": {
          "benchmark": "jpeg-d",
          "file_big": "jpeg-dA15.out",
          "file_little": "jpeg-dA7.out",
          "critical": false,
          "integer" : true
        }
      },
      {
        "workload": {
          "benchmark": "susan-s",
          "file_big": "susan-sA15.out",
          "file_little": "susan-sA7.out",
          "critical": false,
          "integer" : false
        }
      },
      {
        "workload": {
          "benchmark": "susan-s",
          "file_big": "susan-sA15.out",
          "file_little": "susan-sA7.out",
          "critical": false,
          "integer" : false
        }
      },
      {
        "workload": {
          "benchmark": "stringsearch",
          "file_big": "stringsearchA15.out",
          "file_little": "stringsearchA7.out",
          "critical": false,
          "integer" : true
        }
      }
    ]
}