  92500: system.cpu.commit: 92500;s;i;0
19868125: system.cpu.commit: 19868125;f;i;0
19868125: system.cpu.commit: 19868125;s;f;0
42049375: system.cpu.commit: 42049375;f;f;0
42049375: system.cpu.commit: 42049375;s;i;1
48217500: system.cpu.commit: 48217500;f;i;1
48218125: system.cpu.commit: 48218125;s;i;2
54387500: system.cpu.commit: 54387500;f;i;2
54388125: system.cpu.commit: 54388125;s;i;3
60558125: system.cpu.commit: 60558125;f;i;3
60559375: system.cpu.commit: 60559375;s;i;4
66728125: system.cpu.commit: 66728125;f;i;4
66728750: system.cpu.commit: 66728750;s;i;5
73031250: system.cpu.commit: 73031250;f;i;5
73031250: system.cpu.commit: 73031250;s;i;6
79205000: system.cpu.commit: 79205000;f;i;6
79205625: system.cpu.commit: 79205625;s;i;7
85380000: system.cpu.commit: 85380000;f;i;7
85380000: system.cpu.commit: 85380000;s;i;8
91542500: system.cpu.commit: 91542500;f;i;8
91543125: system.cpu.commit: 91543125;s;i;9
97711250: system.cpu.commit: 97711250;f;i;9
97711250: system.cpu.commit: 97711250;s;i;10
103946875: system.cpu.commit: 103946875;f;i;10
103948125: system.cpu.commit: 103948125;s;i;11
110118750: system.cpu.commit: 110118750;f;i;11
110119375: system.cpu.commit: 110119375;s;i;12
116286250: system.cpu.commit: 116286250;f;i;12
116286250: system.cpu.commit: 116286250;s;i;13
122453750: system.cpu.commit: 122453750;f;i;13
122453750: system.cpu.commit: 122453750;s;i;14
128658125: system.cpu.commit: 128658125;f;i;14
128658750: system.cpu.commit: 128658750;s;i;15
134843125: system.cpu.commit: 134843125;f;i;15
134845000: system.cpu.commit: 134845000;s;i;16
141011250: system.cpu.commit: 141011250;f;i;16
141011875: system.cpu.commit: 141011875;s;i;17
147173125: system.cpu.commit: 147173125;f;i;17
147173750: system.cpu.commit: 147173750;s;i;18
153335000: system.cpu.commit: 153335000;f;i;18
153335000: system.cpu.commit: 153335000;s;i;19
159524375: system.cpu.commit: 159524375;f;i;19
159526250: system.cpu.commit: 159526250;s;i;20
165693125: system.cpu.commit: 165693125;f;i;20
165693125: system.cpu.commit: 165693125;s;i;21
171861250: system.cpu.commit: 171861250;f;i;21
171861250: system.cpu.commit: 171861250;s;i;22
178030000: system.cpu.commit: 178030000;f;i;22
178030000: system.cpu.commit: 178030000;s;i;23
184196250: system.cpu.commit: 184196250;f;i;23
184196250: system.cpu.commit: 184196250;s;i;24
190376250: system.cpu.commit: 190376250;f;i;24
190376875: system.cpu.commit: 190376875;s;i;25
196545625: system.cpu.commit: 196545625;f;i;25
196546250: system.cpu.commit: 196546250;s;i;26
202712500: system.cpu.commit: 202712500;f;i;26
202712500: system.cpu.commit: 202712500;s;i;27
208881250: system.cpu.commit: 208881250;f;i;27
208881875: system.cpu.commit: 208881875;s;i;28
215052500: system.cpu.commit: 215052500;f;i;28
215055000: system.cpu.commit: 215055000;s;i;29
221234375: system.cpu.commit: 221234375;f;i;29
221234375: system.cpu.commit: 221234375;s;i;30
227402500: system.cpu.commit: 227402500;f;i;30
227404375: system.cpu.commit: 227404375;s;i;31
233572500: system.cpu.commit: 233572500;f;i;31
233576875: system.cpu.commit: 233576875;s;i;32
239747500: system.cpu.commit: 239747500;f;i;32
239747500: system.cpu.commit: 239747500;s;i;33
245920625: system.cpu.commit: 245920625;f;i;33
245921250: system.cpu.commit: 245921250;s;i;34
252094375: system.cpu.commit: 252094375;f;i;34
252095000: system.cpu.commit: 252095000;s;i;35
258261250: system.cpu.commit: 258261250;f;i;35
258263125: system.cpu.commit: 258263125;s;i;36
264429375: system.cpu.commit: 264429375;f;i;36
264430000: system.cpu.commit: 264430000;s;i;37
270600625: system.cpu.commit: 270600625;f;i;37
270601250: system.cpu.commit: 270601250;s;i;38
276766875: system.cpu.commit: 276766875;f;i;38
276766875: system.cpu.commit: 276766875;s;i;39
288776875: system.cpu.commit: 288776875;f;i;39
288776875: system.cpu.commit: 288776875;s;i;40
294944375: system.cpu.commit: 294944375;f;i;40
294945625: system.cpu.commit: 294945625;s;i;41
301110000: system.cpu.commit: 301110000;f;i;41
301112500: system.cpu.commit: 301112500;s;i;42
307278125: system.cpu.commit: 307278125;f;i;42
307278125: system.cpu.commit: 307278125;s;i;43
313458750: system.cpu.commit: 313458750;f;i;43
313460000: system.cpu.commit: 313460000;s;i;44
319641250: system.cpu.commit: 319641250;f;i;44
319641250: system.cpu.commit: 319641250;s;i;45
325803750: system.cpu.commit: 325803750;f;i;45
325803750: system.cpu.commit: 325803750;s;i;46
331965625: system.cpu.commit: 331965625;f;i;46
331965625: system.cpu.commit: 331965625;s;i;47
338131250: system.cpu.commit: 338131250;f;i;47
338131875: system.cpu.commit: 338131875;s;i;48
344300000: system.cpu.commit: 344300000;f;i;48
344300000: system.cpu.commit: 344300000;s;i;49
350485000: system.cpu.commit: 350485000;f;i;49
350485000: system.cpu.commit: 350485000;s;i;50
356653750: system.cpu.commit: 356653750;f;i;50
356654375: system.cpu.commit: 356654375;s;i;51
362819375: system.cpu.commit: 362819375;f;i;51
362820000: system.cpu.commit: 362820000;s;i;52
368988750: system.cpu.commit: 368988750;f;i;52
368988750: system.cpu.commit: 368988750;s;i;53
375157500: system.cpu.commit: 375157500;f;i;53
375158125: system.cpu.commit: 375158125;s;i;54
381336250: system.cpu.commit: 381336250;f;i;54
381336875: system.cpu.commit: 381336875;s;i;55
387505000: system.cpu.commit: 387505000;f;i;55
387505000: system.cpu.commit: 387505000;s;i;56
393673750: system.cpu.commit: 393673750;f;i;56
393675000: system.cpu.commit: 393675000;s;i;57
399845625: system.cpu.commit: 399845625;f;i;57
399845625: system.cpu.commit: 399845625;s;i;58
406015625: system.cpu.commit: 406015625;f;i;58
406015625: system.cpu.commit: 406015625;s;i;59
412196250: system.cpu.commit: 412196250;f;i;59
412196250: system.cpu.commit: 412196250;s;i;60
418367500: system.cpu.commit: 418367500;f;i;60
418370000: system.cpu.commit: 418370000;s;i;61
424545000: system.cpu.commit: 424545000;f;i;61
424545000: system.cpu.commit: 424545000;s;i;62
430706875: system.cpu.commit: 430706875;f;i;62
430707500: system.cpu.commit: 430707500;s;i;63
436874375: system.cpu.commit: 436874375;f;i;63
436876250: system.cpu.commit: 436876250;s;i;64
443051875: system.cpu.commit: 443051875;f;i;64
443051875: system.cpu.commit: 443051875;s;i;65
449223125: system.cpu.commit: 449223125;f;i;65
449223750: system.cpu.commit: 449223750;s;i;66
455391250: system.cpu.commit: 455391250;f;i;66
455391250: system.cpu.commit: 455391250;s;i;67
461558750: system.cpu.commit: 461558750;f;i;67
461558750: system.cpu.commit: 461558750;s;i;68
467723750: system.cpu.commit: 467723750;f;i;68
467724375: system.cpu.commit: 467724375;s;i;69
473913125: system.cpu.commit: 473913125;f;i;69
473913125: system.cpu.commit: 473913125;s;i;70
480080625: system.cpu.commit: 480080625;f;i;70
480081250: system.cpu.commit: 480081250;s;i;71
486243125: system.cpu.commit: 486243125;f;i;71
486243125: system.cpu.commit: 486243125;s;i;72
492405000: system.cpu.commit: 492405000;f;i;72
492405000: system.cpu.commit: 492405000;s;i;73
498571875: system.cpu.commit: 498571875;f;i;73
498571875: system.cpu.commit: 498571875;s;i;74
504748125: system.cpu.commit: 504748125;f;i;74
504750625: system.cpu.commit: 504750625;s;i;75
510918750: system.cpu.commit: 510918750;f;i;75
510918750: system.cpu.commit: 510918750;s;i;76
517087500: system.cpu.commit: 517087500;f;i;76
517087500: system.cpu.commit: 517087500;s;i;77
523253125: system.cpu.commit: 523253125;f;i;77
523253750: system.cpu.commit: 523253750;s;i;78
529422500: system.cpu.commit: 529422500;f;i;78
529422500: system.cpu.commit: 529422500;s;i;79
537188750: system.cpu.commit: 537188750;f;i;79
537188750: system.cpu.commit: 537188750;s;i;80
543360000: system.cpu.commit: 543360000;f;i;80
543362500: system.cpu.commit: 543362500;s;i;81
549537500: system.cpu.commit: 549537500;f;i;81
549537500: system.cpu.commit: 549537500;s;i;82
555699375: system.cpu.commit: 555699375;f;i;82
555700000: system.cpu.commit: 555700000;s;i;83
561866875: system.cpu.commit: 561866875;f;i;83
561868750: system.cpu.commit: 561868750;s;i;84
568044375: system.cpu.commit: 568044375;f;i;84
568044375: system.cpu.commit: 568044375;s;i;85
574215625: system.cpu.commit: 574215625;f;i;85
574216250: system.cpu.commit: 574216250;s;i;86
580383750: system.cpu.commit: 580383750;f;i;86
580383750: system.cpu.commit: 580383750;s;i;87
586551250: system.cpu.commit: 586551250;f;i;87
586551250: system.cpu.commit: 586551250;s;i;88
592716250: system.cpu.commit: 592716250;f;i;88
592716875: system.cpu.commit: 592716875;s;i;89
598905625: system.cpu.commit: 598905625;f;i;89
598905625: system.cpu.commit: 598905625;s;i;90
605073125: system.cpu.commit: 605073125;f;i;90
605073750: system.cpu.commit: 605073750;s;i;91
611235625: system.cpu.commit: 611235625;f;i;91
611235625: system.cpu.commit: 611235625;s;i;92
617397500: system.cpu.commit: 617397500;f;i;92
617397500: system.cpu.commit: 617397500;s;i;93
623564375: system.cpu.commit: 623564375;f;i;93
623564375: system.cpu.commit: 623564375;s;i;94
629740625: system.cpu.commit: 629740625;f;i;94
629743125: system.cpu.commit: 629743125;s;i;95
635911250: system.cpu.commit: 635911250;f;i;95
635911250: system.cpu.commit: 635911250;s;i;96
642080000: system.cpu.commit: 642080000;f;i;96
642080000: system.cpu.commit: 642080000;s;i;97
648245625: system.cpu.commit: 648245625;f;i;97
648246250: system.cpu.commit: 648246250;s;i;98
654415000: system.cpu.commit: 654415000;f;i;98
654415000: system.cpu.commit: 654415000;s;i;99
660595000: system.cpu.commit: 660595000;f;i;99
660595625: system.cpu.commit: 660595625;s;i;100
666762500: system.cpu.commit: 666762500;f;i;100
666762500: system.cpu.commit: 666762500;s;i;101
672931250: system.cpu.commit: 672931250;f;i;101
672931250: system.cpu.commit: 672931250;s;i;102
679101250: system.cpu.commit: 679101250;f;i;102
679102500: system.cpu.commit: 679102500;s;i;103
685283125: system.cpu.commit: 685283125;f;i;103
685284375: system.cpu.commit: 685284375;s;i;104
691451250: system.cpu.commit: 691451250;f;i;104
691452500: system.cpu.commit: 691452500;s;i;105
697621875: system.cpu.commit: 697621875;f;i;105
697622500: system.cpu.commit: 697622500;s;i;106
703796250: system.cpu.commit: 703796250;f;i;106
703797500: system.cpu.commit: 703797500;s;i;107
709970625: system.cpu.commit: 709970625;f;i;107
709970625: system.cpu.commit: 709970625;s;i;108
716144375: system.cpu.commit: 716144375;f;i;108
716144375: system.cpu.commit: 716144375;s;i;109
722310625: system.cpu.commit: 722310625;f;i;109
722311250: system.cpu.commit: 722311250;s;i;110
728478750: system.cpu.commit: 728478750;f;i;110
728479375: system.cpu.commit: 728479375;s;i;111
734650000: system.cpu.commit: 734650000;f;i;111
734650625: system.cpu.commit: 734650625;s;i;112
740816875: system.cpu.commit: 740816875;f;i;112
740816875: system.cpu.commit: 740816875;s;i;113
746995000: system.cpu.commit: 746995000;f;i;113
746995000: system.cpu.commit: 746995000;s;i;114
753161875: system.cpu.commit: 753161875;f;i;114
753162500: system.cpu.commit: 753162500;s;i;115
759340625: system.cpu.commit: 759340625;f;i;115
759342500: system.cpu.commit: 759342500;s;i;116
765507500: system.cpu.commit: 765507500;f;i;116
765508125: system.cpu.commit: 765508125;s;i;117
771669375: system.cpu.commit: 771669375;f;i;117
771669375: system.cpu.commit: 771669375;s;i;118
778856250: system.cpu.commit: 778856250;f;i;118
778856250: system.cpu.commit: 778856250;s;i;119
785025000: system.cpu.commit: 785025000;f;i;119
785025625: system.cpu.commit: 785025625;s;i;120
791192500: system.cpu.commit: 791192500;f;i;120
791192500: system.cpu.commit: 791192500;s;i;121
797361250: system.cpu.commit: 797361250;f;i;121
797361250: system.cpu.commit: 797361250;s;i;122
803531250: system.cpu.commit: 803531250;f;i;122
803532500: system.cpu.commit: 803532500;s;i;123
809713125: system.cpu.commit: 809713125;f;i;123
809714375: system.cpu.commit: 809714375;s;i;124
815881250: system.cpu.commit: 815881250;f;i;124
815882500: system.cpu.commit: 815882500;s;i;125
822051875: system.cpu.commit: 822051875;f;i;125
822052500: system.cpu.commit: 822052500;s;i;126
828226250: system.cpu.commit: 828226250;f;i;126
828227500: system.cpu.commit: 828227500;s;i;127
834400625: system.cpu.commit: 834400625;f;i;127
834400625: system.cpu.commit: 834400625;s;i;128
840574375: system.cpu.commit: 840574375;f;i;128
840574375: system.cpu.commit: 840574375;s;i;129
846740625: system.cpu.commit: 846740625;f;i;129
846741250: system.cpu.commit: 846741250;s;i;130
852908750: system.cpu.commit: 852908750;f;i;130
852909375: system.cpu.commit: 852909375;s;i;131
859080000: system.cpu.commit: 859080000;f;i;131
859080625: system.cpu.commit: 859080625;s;i;132
865246875: system.cpu.commit: 865246875;f;i;132
865246875: system.cpu.commit: 865246875;s;i;133
871425000: system.cpu.commit: 871425000;f;i;133
871425000: system.cpu.commit: 871425000;s;i;134
877591875: system.cpu.commit: 877591875;f;i;134
877592500: system.cpu.commit: 877592500;s;i;135
883770625: system.cpu.commit: 883770625;f;i;135
883772500: system.cpu.commit: 883772500;s;i;136
889937500: system.cpu.commit: 889937500;f;i;136
889938125: system.cpu.commit: 889938125;s;i;137
896099375: system.cpu.commit: 896099375;f;i;137
896099375: system.cpu.commit: 896099375;s;i;138
902273750: system.cpu.commit: 902273750;f;i;138
902273750: system.cpu.commit: 902273750;s;i;139
908439375: system.cpu.commit: 908439375;f;i;139
908439375: system.cpu.commit: 908439375;s;i;140
914606250: system.cpu.commit: 914606250;f;i;140
914607500: system.cpu.commit: 914607500;s;i;141
920774375: system.cpu.commit: 920774375;f;i;141
920776250: system.cpu.commit: 920776250;s;i;142
926943125: system.cpu.commit: 926943125;f;i;142
926943125: system.cpu.commit: 926943125;s;i;143
933120000: system.cpu.commit: 933120000;f;i;143
933121875: system.cpu.commit: 933121875;s;i;144
939290000: system.cpu.commit: 939290000;f;i;144
939290625: system.cpu.commit: 939290625;s;i;145
945459375: system.cpu.commit: 945459375;f;i;145
945459375: system.cpu.commit: 945459375;s;i;146
951625625: system.cpu.commit: 951625625;f;i;146
951626250: system.cpu.commit: 951626250;s;i;147
957795000: system.cpu.commit: 957795000;f;i;147
957795625: system.cpu.commit: 957795625;s;i;148
963975625: system.cpu.commit: 963975625;f;i;148
963975625: system.cpu.commit: 963975625;s;i;149
970147500: system.cpu.commit: 970147500;f;i;149
970148125: system.cpu.commit: 970148125;s;i;150
976317500: system.cpu.commit: 976317500;f;i;150
976317500: system.cpu.commit: 976317500;s;i;151
982490000: system.cpu.commit: 982490000;f;i;151
982490625: system.cpu.commit: 982490625;s;i;152
988660625: system.cpu.commit: 988660625;f;i;152
988660625: system.cpu.commit: 988660625;s;i;153
994847500: system.cpu.commit: 994847500;f;i;153
994847500: system.cpu.commit: 994847500;s;i;154
1001008125: system.cpu.commit: 1001008125;f;i;154
1001008750: system.cpu.commit: 1001008750;s;i;155
1007176250: system.cpu.commit: 1007176250;f;i;155
1007176250: system.cpu.commit: 1007176250;s;i;156
1013343125: system.cpu.commit: 1013343125;f;i;156
1013343750: system.cpu.commit: 1013343750;s;i;157
1019514375: system.cpu.commit: 1019514375;f;i;157
1019515000: system.cpu.commit: 1019515000;s;i;158
1026511875: system.cpu.commit: 1026511875;f;i;158
1026511875: system.cpu.commit: 1026511875;s;i;159
1032677500: system.cpu.commit: 1032677500;f;i;159
1032677500: system.cpu.commit: 1032677500;s;i;160
1038844375: system.cpu.commit: 1038844375;f;i;160
1038845625: system.cpu.commit: 1038845625;s;i;161
1045012500: system.cpu.commit: 1045012500;f;i;161
1045014375: system.cpu.commit: 1045014375;s;i;162
1051181250: system.cpu.commit: 1051181250;f;i;162
1051181250: system.cpu.commit: 1051181250;s;i;163
1057358125: system.cpu.commit: 1057358125;f;i;163
1057360000: system.cpu.commit: 1057360000;s;i;164
1063528125: system.cpu.commit: 1063528125;f;i;164
1063528750: system.cpu.commit: 1063528750;s;i;165
1069697500: system.cpu.commit: 1069697500;f;i;165
1069697500: system.cpu.commit: 1069697500;s;i;166
1075863750: system.cpu.commit: 1075863750;f;i;166
1075864375: system.cpu.commit: 1075864375;s;i;167
1082033125: system.cpu.commit: 1082033125;f;i;167
1082033750: system.cpu.commit: 1082033750;s;i;168
1088213750: system.cpu.commit: 1088213750;f;i;168
1088213750: system.cpu.commit: 1088213750;s;i;169
1094385625: system.cpu.commit: 1094385625;f;i;169
1094386250: system.cpu.commit: 1094386250;s;i;170
1100555625: system.cpu.commit: 1100555625;f;i;170
1100555625: system.cpu.commit: 1100555625;s;i;171
1106728125: system.cpu.commit: 1106728125;f;i;171
1106728750: system.cpu.commit: 1106728750;s;i;172
1112898750: system.cpu.commit: 1112898750;f;i;172
1112898750: system.cpu.commit: 1112898750;s;i;173
1119085625: system.cpu.commit: 1119085625;f;i;173
1119085625: system.cpu.commit: 1119085625;s;i;174
1125246250: system.cpu.commit: 1125246250;f;i;174
1125246875: system.cpu.commit: 1125246875;s;i;175
1131414375: system.cpu.commit: 1131414375;f;i;175
1131414375: system.cpu.commit: 1131414375;s;i;176
1137581250: system.cpu.commit: 1137581250;f;i;176
1137581875: system.cpu.commit: 1137581875;s;i;177
1143752500: system.cpu.commit: 1143752500;f;i;177
1143753125: system.cpu.commit: 1143753125;s;i;178
1149930625: system.cpu.commit: 1149930625;f;i;178
1149931875: system.cpu.commit: 1149931875;s;i;179
1156096250: system.cpu.commit: 1156096250;f;i;179
1156098750: system.cpu.commit: 1156098750;s;i;180
1162264375: system.cpu.commit: 1162264375;f;i;180
1162264375: system.cpu.commit: 1162264375;s;i;181
1168445000: system.cpu.commit: 1168445000;f;i;181
1168446250: system.cpu.commit: 1168446250;s;i;182
1174610000: system.cpu.commit: 1174610000;f;i;182
1174610625: system.cpu.commit: 1174610625;s;i;183
1180783750: system.cpu.commit: 1180783750;f;i;183
1180783750: system.cpu.commit: 1180783750;s;i;184
1186945625: system.cpu.commit: 1186945625;f;i;184
1186945625: system.cpu.commit: 1186945625;s;i;185
1193111250: system.cpu.commit: 1193111250;f;i;185
1193111875: system.cpu.commit: 1193111875;s;i;186
1199280000: system.cpu.commit: 1199280000;f;i;186
1199280000: system.cpu.commit: 1199280000;s;i;187
1205458750: system.cpu.commit: 1205458750;f;i;187
1205458750: system.cpu.commit: 1205458750;s;i;188
1211627500: system.cpu.commit: 1211627500;f;i;188
1211628125: system.cpu.commit: 1211628125;s;i;189
1217793125: system.cpu.commit: 1217793125;f;i;189
1217793750: system.cpu.commit: 1217793750;s;i;190
1223962500: system.cpu.commit: 1223962500;f;i;190
1223962500: system.cpu.commit: 1223962500;s;i;191
1230131250: system.cpu.commit: 1230131250;f;i;191
1230131875: system.cpu.commit: 1230131875;s;i;192
1236310000: system.cpu.commit: 1236310000;f;i;192
1236310625: system.cpu.commit: 1236310625;s;i;193
1242478750: system.cpu.commit: 1242478750;f;i;193
1242478750: system.cpu.commit: 1242478750;s;i;194
1248647500: system.cpu.commit: 1248647500;f;i;194
1248648750: system.cpu.commit: 1248648750;s;i;195
1254819375: system.cpu.commit: 1254819375;f;i;195
1254819375: system.cpu.commit: 1254819375;s;i;196
1260989375: system.cpu.commit: 1260989375;f;i;196
1260989375: system.cpu.commit: 1260989375;s;i;197
1267812500: system.cpu.commit: 1267812500;f;i;197
1267812500: system.cpu.commit: 1267812500;s;i;198
1274098750: system.cpu.commit: 1274098750;f;i;198
1274100000: system.cpu.commit: 1274100000;s;i;199
1280264375: system.cpu.commit: 1280264375;f;i;199
1280266875: system.cpu.commit: 1280266875;s;i;200
1286432500: system.cpu.commit: 1286432500;f;i;200
1286432500: system.cpu.commit: 1286432500;s;i;201
1292613125: system.cpu.commit: 1292613125;f;i;201
1292614375: system.cpu.commit: 1292614375;s;i;202
1298789375: system.cpu.commit: 1298789375;f;i;202
1298789375: system.cpu.commit: 1298789375;s;i;203
1304951875: system.cpu.commit: 1304951875;f;i;203
1304951875: system.cpu.commit: 1304951875;s;i;204
1311113750: system.cpu.commit: 1311113750;f;i;204
1311113750: system.cpu.commit: 1311113750;s;i;205
1317279375: system.cpu.commit: 1317279375;f;i;205
1317280000: system.cpu.commit: 1317280000;s;i;206
1323448125: system.cpu.commit: 1323448125;f;i;206
1323448125: system.cpu.commit: 1323448125;s;i;207
1329626875: system.cpu.commit: 1329626875;f;i;207
1329626875: system.cpu.commit: 1329626875;s;i;208
1335795625: system.cpu.commit: 1335795625;f;i;208
1335796250: system.cpu.commit: 1335796250;s;i;209
1341961250: system.cpu.commit: 1341961250;f;i;209
1341961875: system.cpu.commit: 1341961875;s;i;210
1348130625: system.cpu.commit: 1348130625;f;i;210
1348130625: system.cpu.commit: 1348130625;s;i;211
1354299375: system.cpu.commit: 1354299375;f;i;211
1354300000: system.cpu.commit: 1354300000;s;i;212
1360478125: system.cpu.commit: 1360478125;f;i;212
1360478750: system.cpu.commit: 1360478750;s;i;213
1366646875: system.cpu.commit: 1366646875;f;i;213
1366646875: system.cpu.commit: 1366646875;s;i;214
1372815625: system.cpu.commit: 1372815625;f;i;214
1372816875: system.cpu.commit: 1372816875;s;i;215
1378987500: system.cpu.commit: 1378987500;f;i;215
1378987500: system.cpu.commit: 1378987500;s;i;216
1385157500: system.cpu.commit: 1385157500;f;i;216
1385157500: system.cpu.commit: 1385157500;s;i;217
1391338125: system.cpu.commit: 1391338125;f;i;217
1391338125: system.cpu.commit: 1391338125;s;i;218
1397509375: system.cpu.commit: 1397509375;f;i;218
1397511875: system.cpu.commit: 1397511875;s;i;219
1403686875: system.cpu.commit: 1403686875;f;i;219
1403686875: system.cpu.commit: 1403686875;s;i;220
1409848750: system.cpu.commit: 1409848750;f;i;220
1409849375: system.cpu.commit: 1409849375;s;i;221
1416016250: system.cpu.commit: 1416016250;f;i;221
1416018125: system.cpu.commit: 1416018125;s;i;222
1422193750: system.cpu.commit: 1422193750;f;i;222
1422193750: system.cpu.commit: 1422193750;s;i;223
1428365000: system.cpu.commit: 1428365000;f;i;223
1428365625: system.cpu.commit: 1428365625;s;i;224
1434533125: system.cpu.commit: 1434533125;f;i;224
1434533125: system.cpu.commit: 1434533125;s;i;225
1440700625: system.cpu.commit: 1440700625;f;i;225
1440700625: system.cpu.commit: 1440700625;s;i;226
1446865625: system.cpu.commit: 1446865625;f;i;226
1446866250: system.cpu.commit: 1446866250;s;i;227
1453055000: system.cpu.commit: 1453055000;f;i;227
1453055000: system.cpu.commit: 1453055000;s;i;228
1459222500: system.cpu.commit: 1459222500;f;i;228
1459223125: system.cpu.commit: 1459223125;s;i;229
1465385000: system.cpu.commit: 1465385000;f;i;229
1465385000: system.cpu.commit: 1465385000;s;i;230
1471546875: system.cpu.commit: 1471546875;f;i;230
1471546875: system.cpu.commit: 1471546875;s;i;231
1477713750: system.cpu.commit: 1477713750;f;i;231
1477713750: system.cpu.commit: 1477713750;s;i;232
1483890000: system.cpu.commit: 1483890000;f;i;232
1483892500: system.cpu.commit: 1483892500;s;i;233
1490060625: system.cpu.commit: 1490060625;f;i;233
1490060625: system.cpu.commit: 1490060625;s;i;234
1496229375: system.cpu.commit: 1496229375;f;i;234
1496229375: system.cpu.commit: 1496229375;s;i;235
1502395000: system.cpu.commit: 1502395000;f;i;235
1502395625: system.cpu.commit: 1502395625;s;i;236
1508564375: system.cpu.commit: 1508564375;f;i;236
1508564375: system.cpu.commit: 1508564375;s;i;237
1515521250: system.cpu.commit: 1515521250;f;i;237
1515521250: system.cpu.commit: 1515521250;s;i;238
1521692500: system.cpu.commit: 1521692500;f;i;238
1521695000: system.cpu.commit: 1521695000;s;i;239
1527870000: system.cpu.commit: 1527870000;f;i;239
1527870000: system.cpu.commit: 1527870000;s;i;240
1534031875: system.cpu.commit: 1534031875;f;i;240
1534032500: system.cpu.commit: 1534032500;s;i;241
1540199375: system.cpu.commit: 1540199375;f;i;241
1540201250: system.cpu.commit: 1540201250;s;i;242
1546376875: system.cpu.commit: 1546376875;f;i;242
1546376875: system.cpu.commit: 1546376875;s;i;243
1552548125: system.cpu.commit: 1552548125;f;i;243
1552548750: system.cpu.commit: 1552548750;s;i;244
1558716250: system.cpu.commit: 1558716250;f;i;244
1558716250: system.cpu.commit: 1558716250;s;i;245
1564883750: system.cpu.commit: 1564883750;f;i;245
1564883750: system.cpu.commit: 1564883750;s;i;246
1571048750: system.cpu.commit: 1571048750;f;i;246
1571049375: system.cpu.commit: 1571049375;s;i;247
1577238125: system.cpu.commit: 1577238125;f;i;247
1577238125: system.cpu.commit: 1577238125;s;i;248
1583405625: system.cpu.commit: 1583405625;f;i;248
1583406250: system.cpu.commit: 1583406250;s;i;249
1589568125: system.cpu.commit: 1589568125;f;i;249
1589568125: system.cpu.commit: 1589568125;s;i;250
1595730000: system.cpu.commit: 1595730000;f;i;250
1595730000: system.cpu.commit: 1595730000;s;i;251
1601896875: system.cpu.commit: 1601896875;f;i;251
1601896875: system.cpu.commit: 1601896875;s;i;252
1608073125: system.cpu.commit: 1608073125;f;i;252
1608075625: system.cpu.commit: 1608075625;s;i;253
1614243750: system.cpu.commit: 1614243750;f;i;253
1614243750: system.cpu.commit: 1614243750;s;i;254
1620412500: system.cpu.commit: 1620412500;f;i;254
1620412500: system.cpu.commit: 1620412500;s;i;255
1626578125: system.cpu.commit: 1626578125;f;i;255
1626578750: system.cpu.commit: 1626578750;s;i;256
1632747500: system.cpu.commit: 1632747500;f;i;256
1632747500: system.cpu.commit: 1632747500;s;i;257
1638927500: system.cpu.commit: 1638927500;f;i;257
1638928125: system.cpu.commit: 1638928125;s;i;258
1645095000: system.cpu.commit: 1645095000;f;i;258
1645095000: system.cpu.commit: 1645095000;s;i;259
1651263750: system.cpu.commit: 1651263750;f;i;259
1651263750: system.cpu.commit: 1651263750;s;i;260
1657433750: system.cpu.commit: 1657433750;f;i;260
1657435000: system.cpu.commit: 1657435000;s;i;261
1663605000: system.cpu.commit: 1663605000;f;i;261
1663605000: system.cpu.commit: 1663605000;s;i;262
1669783750: system.cpu.commit: 1669783750;f;i;262
1669785000: system.cpu.commit: 1669785000;s;i;263
1675954375: system.cpu.commit: 1675954375;f;i;263
1675955000: system.cpu.commit: 1675955000;s;i;264
1682128750: system.cpu.commit: 1682128750;f;i;264
1682130000: system.cpu.commit: 1682130000;s;i;265
1688303125: system.cpu.commit: 1688303125;f;i;265
1688303125: system.cpu.commit: 1688303125;s;i;266
1694466250: system.cpu.commit: 1694466250;f;i;266
1694466875: system.cpu.commit: 1694466875;s;i;267
1700643125: system.cpu.commit: 1700643125;f;i;267
1700643750: system.cpu.commit: 1700643750;s;i;268
1706811250: system.cpu.commit: 1706811250;f;i;268
1706811875: system.cpu.commit: 1706811875;s;i;269
1712982500: system.cpu.commit: 1712982500;f;i;269
1712983125: system.cpu.commit: 1712983125;s;i;270
1719149375: system.cpu.commit: 1719149375;f;i;270
1719149375: system.cpu.commit: 1719149375;s;i;271
1725327500: system.cpu.commit: 1725327500;f;i;271
1725327500: system.cpu.commit: 1725327500;s;i;272
1731494375: system.cpu.commit: 1731494375;f;i;272
1731495000: system.cpu.commit: 1731495000;s;i;273
1737673125: system.cpu.commit: 1737673125;f;i;273
1737675000: system.cpu.commit: 1737675000;s;i;274
1743840000: system.cpu.commit: 1743840000;f;i;274
1743840625: system.cpu.commit: 1743840625;s;i;275
1750001875: system.cpu.commit: 1750001875;f;i;275
1750001875: system.cpu.commit: 1750001875;s;i;276
1756514375: system.cpu.commit: 1756514375;f;i;276
1756515000: system.cpu.commit: 1756515000;s;i;277
1763097500: system.cpu.commit: 1763097500;f;i;277
1763098125: system.cpu.commit: 1763098125;s;i;278
1769265000: system.cpu.commit: 1769265000;f;i;278
1769265000: system.cpu.commit: 1769265000;s;i;279
1775433750: system.cpu.commit: 1775433750;f;i;279
1775433750: system.cpu.commit: 1775433750;s;i;280
1781603750: system.cpu.commit: 1781603750;f;i;280
1781605000: system.cpu.commit: 1781605000;s;i;281
1787775000: system.cpu.commit: 1787775000;f;i;281
1787775000: system.cpu.commit: 1787775000;s;i;282
1793953750: system.cpu.commit: 1793953750;f;i;282
1793955000: system.cpu.commit: 1793955000;s;i;283
1800124375: system.cpu.commit: 1800124375;f;i;283
1800125000: system.cpu.commit: 1800125000;s;i;284
1806298750: system.cpu.commit: 1806298750;f;i;284
1806300000: system.cpu.commit: 1806300000;s;i;285
1812473125: system.cpu.commit: 1812473125;f;i;285
1812473125: system.cpu.commit: 1812473125;s;i;286
1818646875: system.cpu.commit: 1818646875;f;i;286
1818646875: system.cpu.commit: 1818646875;s;i;287
1824813125: system.cpu.commit: 1824813125;f;i;287
1824813750: system.cpu.commit: 1824813750;s;i;288
1830981250: system.cpu.commit: 1830981250;f;i;288
1830981875: system.cpu.commit: 1830981875;s;i;289
1837152500: system.cpu.commit: 1837152500;f;i;289
1837153125: system.cpu.commit: 1837153125;s;i;290
1843319375: system.cpu.commit: 1843319375;f;i;290
1843319375: system.cpu.commit: 1843319375;s;i;291
1849497500: system.cpu.commit: 1849497500;f;i;291
1849497500: system.cpu.commit: 1849497500;s;i;292
1855664375: system.cpu.commit: 1855664375;f;i;292
1855665000: system.cpu.commit: 1855665000;s;i;293
1861843125: system.cpu.commit: 1861843125;f;i;293
1861845000: system.cpu.commit: 1861845000;s;i;294
1868010000: system.cpu.commit: 1868010000;f;i;294
1868010625: system.cpu.commit: 1868010625;s;i;295
1874171875: system.cpu.commit: 1874171875;f;i;295
1874171875: system.cpu.commit: 1874171875;s;i;296
1880346250: system.cpu.commit: 1880346250;f;i;296
1880346250: system.cpu.commit: 1880346250;s;i;297
1886511875: system.cpu.commit: 1886511875;f;i;297
1886511875: system.cpu.commit: 1886511875;s;i;298
1892678750: system.cpu.commit: 1892678750;f;i;298
1892680000: system.cpu.commit: 1892680000;s;i;299
1898846875: system.cpu.commit: 1898846875;f;i;299
1898848750: system.cpu.commit: 1898848750;s;i;300
1905015625: system.cpu.commit: 1905015625;f;i;300
1905015625: system.cpu.commit: 1905015625;s;i;301
1911192500: system.cpu.commit: 1911192500;f;i;301
1911194375: system.cpu.commit: 1911194375;s;i;302
1917362500: system.cpu.commit: 1917362500;f;i;302
1917363125: system.cpu.commit: 1917363125;s;i;303
1923531875: system.cpu.commit: 1923531875;f;i;303
1923531875: system.cpu.commit: 1923531875;s;i;304
1929698125: system.cpu.commit: 1929698125;f;i;304
1929698750: system.cpu.commit: 1929698750;s;i;305
1935867500: system.cpu.commit: 1935867500;f;i;305
1935868125: system.cpu.commit: 1935868125;s;i;306
1942048125: system.cpu.commit: 1942048125;f;i;306
1942048125: system.cpu.commit: 1942048125;s;i;307
1948220000: system.cpu.commit: 1948220000;f;i;307
1948220625: system.cpu.commit: 1948220625;s;i;308
1954390000: system.cpu.commit: 1954390000;f;i;308
1954390000: system.cpu.commit: 1954390000;s;i;309
1960562500: system.cpu.commit: 1960562500;f;i;309
1960563125: system.cpu.commit: 1960563125;s;i;310
1966733125: system.cpu.commit: 1966733125;f;i;310
1966733125: system.cpu.commit: 1966733125;s;i;311
1972920000: system.cpu.commit: 1972920000;f;i;311
1972920000: system.cpu.commit: 1972920000;s;i;312
1979080625: system.cpu.commit: 1979080625;f;i;312
1979081250: system.cpu.commit: 1979081250;s;i;313
1985248750: system.cpu.commit: 1985248750;f;i;313
1985248750: system.cpu.commit: 1985248750;s;i;314
1991415625: system.cpu.commit: 1991415625;f;i;314
1991416250: system.cpu.commit: 1991416250;s;i;315
1997586875: system.cpu.commit: 1997586875;f;i;315
1997587500: system.cpu.commit: 1997587500;s;i;316
2004510000: system.cpu.commit: 2004510000;f;i;316
2004510000: system.cpu.commit: 2004510000;s;i;317
2010675625: system.cpu.commit: 2010675625;f;i;317
2010675625: system.cpu.commit: 2010675625;s;i;318
2016842500: system.cpu.commit: 2016842500;f;i;318
2016843750: system.cpu.commit: 2016843750;s;i;319
2023010625: system.cpu.commit: 2023010625;f;i;319
2023012500: system.cpu.commit: 2023012500;s;i;320
2029179375: system.cpu.commit: 2029179375;f;i;320
2029179375: system.cpu.commit: 2029179375;s;i;321
2035356250: system.cpu.commit: 2035356250;f;i;321
2035358125: system.cpu.commit: 2035358125;s;i;322
2041526250: system.cpu.commit: 2041526250;f;i;322
2041526875: system.cpu.commit: 2041526875;s;i;323
2047695625: system.cpu.commit: 2047695625;f;i;323
2047695625: system.cpu.commit: 2047695625;s;i;324
2053861875: system.cpu.commit: 2053861875;f;i;324
2053862500: system.cpu.commit: 2053862500;s;i;325
2060031250: system.cpu.commit: 2060031250;f;i;325
2060031875: system.cpu.commit: 2060031875;s;i;326
2066211875: system.cpu.commit: 2066211875;f;i;326
2066211875: system.cpu.commit: 2066211875;s;i;327
2072383750: system.cpu.commit: 2072383750;f;i;327
2072384375: system.cpu.commit: 2072384375;s;i;328
2078553750: system.cpu.commit: 2078553750;f;i;328
2078553750: system.cpu.commit: 2078553750;s;i;329
2084726250: system.cpu.commit: 2084726250;f;i;329
2084726875: system.cpu.commit: 2084726875;s;i;330
2090896875: system.cpu.commit: 2090896875;f;i;330
2090896875: system.cpu.commit: 2090896875;s;i;331
2097083750: system.cpu.commit: 2097083750;f;i;331
2097083750: system.cpu.commit: 2097083750;s;i;332
2103244375: system.cpu.commit: 2103244375;f;i;332
2103245000: system.cpu.commit: 2103245000;s;i;333
2109412500: system.cpu.commit: 2109412500;f;i;333
2109412500: system.cpu.commit: 2109412500;s;i;334
2115579375: system.cpu.commit: 2115579375;f;i;334
2115580000: system.cpu.commit: 2115580000;s;i;335
2121750625: system.cpu.commit: 2121750625;f;i;335
2121751250: system.cpu.commit: 2121751250;s;i;336
2127928750: system.cpu.commit: 2127928750;f;i;336
2127930000: system.cpu.commit: 2127930000;s;i;337
2134094375: system.cpu.commit: 2134094375;f;i;337
2134096875: system.cpu.commit: 2134096875;s;i;338
2140262500: system.cpu.commit: 2140262500;f;i;338
2140262500: system.cpu.commit: 2140262500;s;i;339
2146443125: system.cpu.commit: 2146443125;f;i;339
2146444375: system.cpu.commit: 2146444375;s;i;340
2152608125: system.cpu.commit: 2152608125;f;i;340
2152608750: system.cpu.commit: 2152608750;s;i;341
2158781875: system.cpu.commit: 2158781875;f;i;341
2158781875: system.cpu.commit: 2158781875;s;i;342
2164943750: system.cpu.commit: 2164943750;f;i;342
2164943750: system.cpu.commit: 2164943750;s;i;343
2171109375: system.cpu.commit: 2171109375;f;i;343
2171110000: system.cpu.commit: 2171110000;s;i;344
2177278125: system.cpu.commit: 2177278125;f;i;344
2177278125: system.cpu.commit: 2177278125;s;i;345
2183446250: system.cpu.commit: 2183446250;f;i;345
2183446875: system.cpu.commit: 2183446875;s;i;346
2189625625: system.cpu.commit: 2189625625;f;i;346
2189626250: system.cpu.commit: 2189626250;s;i;347
2195791250: system.cpu.commit: 2195791250;f;i;347
2195791875: system.cpu.commit: 2195791875;s;i;348
2201960625: system.cpu.commit: 2201960625;f;i;348
2201960625: system.cpu.commit: 2201960625;s;i;349
2208129375: system.cpu.commit: 2208129375;f;i;349
2208130000: system.cpu.commit: 2208130000;s;i;350
2214298125: system.cpu.commit: 2214298125;f;i;350
2214298125: system.cpu.commit: 2214298125;s;i;351
2220476875: system.cpu.commit: 2220476875;f;i;351
2220476875: system.cpu.commit: 2220476875;s;i;352
2226645625: system.cpu.commit: 2226645625;f;i;352
2226646875: system.cpu.commit: 2226646875;s;i;353
2232817500: system.cpu.commit: 2232817500;f;i;353
2232817500: system.cpu.commit: 2232817500;s;i;354
2238987500: system.cpu.commit: 2238987500;f;i;354
2238987500: system.cpu.commit: 2238987500;s;i;355
2245369375: system.cpu.commit: 2245369375;f;i;355
2245369375: system.cpu.commit: 2245369375;s;i;356
2252079375: system.cpu.commit: 2252079375;f;i;356
2252080625: system.cpu.commit: 2252080625;s;i;357
2258245000: system.cpu.commit: 2258245000;f;i;357
2258247500: system.cpu.commit: 2258247500;s;i;358
2264413125: system.cpu.commit: 2264413125;f;i;358
2264413125: system.cpu.commit: 2264413125;s;i;359
2270593750: system.cpu.commit: 2270593750;f;i;359
2270595000: system.cpu.commit: 2270595000;s;i;360
2276758750: system.cpu.commit: 2276758750;f;i;360
2276759375: system.cpu.commit: 2276759375;s;i;361
2282932500: system.cpu.commit: 2282932500;f;i;361
2282932500: system.cpu.commit: 2282932500;s;i;362
2289094375: system.cpu.commit: 2289094375;f;i;362
2289094375: system.cpu.commit: 2289094375;s;i;363
2295260000: system.cpu.commit: 2295260000;f;i;363
2295260625: system.cpu.commit: 2295260625;s;i;364
2301428750: system.cpu.commit: 2301428750;f;i;364
2301428750: system.cpu.commit: 2301428750;s;i;365
2307596875: system.cpu.commit: 2307596875;f;i;365
2307597500: system.cpu.commit: 2307597500;s;i;366
2313776250: system.cpu.commit: 2313776250;f;i;366
2313776875: system.cpu.commit: 2313776875;s;i;367
2319941875: system.cpu.commit: 2319941875;f;i;367
2319942500: system.cpu.commit: 2319942500;s;i;368
2326111250: system.cpu.commit: 2326111250;f;i;368
2326111250: system.cpu.commit: 2326111250;s;i;369
2332280000: system.cpu.commit: 2332280000;f;i;369
2332280625: system.cpu.commit: 2332280625;s;i;370
2338458750: system.cpu.commit: 2338458750;f;i;370
2338459375: system.cpu.commit: 2338459375;s;i;371
2344627500: system.cpu.commit: 2344627500;f;i;371
2344627500: system.cpu.commit: 2344627500;s;i;372
2350796250: system.cpu.commit: 2350796250;f;i;372
2350797500: system.cpu.commit: 2350797500;s;i;373
2356968125: system.cpu.commit: 2356968125;f;i;373
2356968125: system.cpu.commit: 2356968125;s;i;374
2363138125: system.cpu.commit: 2363138125;f;i;374
2363138125: system.cpu.commit: 2363138125;s;i;375
2369318750: system.cpu.commit: 2369318750;f;i;375
2369318750: system.cpu.commit: 2369318750;s;i;376
2375490000: system.cpu.commit: 2375490000;f;i;376
2375492500: system.cpu.commit: 2375492500;s;i;377
2381667500: system.cpu.commit: 2381667500;f;i;377
2381667500: system.cpu.commit: 2381667500;s;i;378
2387829375: system.cpu.commit: 2387829375;f;i;378
2387830000: system.cpu.commit: 2387830000;s;i;379
2393996875: system.cpu.commit: 2393996875;f;i;379
2393998750: system.cpu.commit: 2393998750;s;i;380
2400174375: system.cpu.commit: 2400174375;f;i;380
2400174375: system.cpu.commit: 2400174375;s;i;381
2406345625: system.cpu.commit: 2406345625;f;i;381
2406346250: system.cpu.commit: 2406346250;s;i;382
2412513750: system.cpu.commit: 2412513750;f;i;382
2412513750: system.cpu.commit: 2412513750;s;i;383
2418681250: system.cpu.commit: 2418681250;f;i;383
2418681250: system.cpu.commit: 2418681250;s;i;384
2424846250: system.cpu.commit: 2424846250;f;i;384
2424846875: system.cpu.commit: 2424846875;s;i;385
2431035625: system.cpu.commit: 2431035625;f;i;385
2431035625: system.cpu.commit: 2431035625;s;i;386
2437203125: system.cpu.commit: 2437203125;f;i;386
2437203750: system.cpu.commit: 2437203750;s;i;387
2443365625: system.cpu.commit: 2443365625;f;i;387
2443365625: system.cpu.commit: 2443365625;s;i;388
2449527500: system.cpu.commit: 2449527500;f;i;388
2449527500: system.cpu.commit: 2449527500;s;i;389
2455694375: system.cpu.commit: 2455694375;f;i;389
2455694375: system.cpu.commit: 2455694375;s;i;390
2461870625: system.cpu.commit: 2461870625;f;i;390
2461873125: system.cpu.commit: 2461873125;s;i;391
2468041250: system.cpu.commit: 2468041250;f;i;391
2468041250: system.cpu.commit: 2468041250;s;i;392
2474210000: system.cpu.commit: 2474210000;f;i;392
2474210000: system.cpu.commit: 2474210000;s;i;393
2480375625: system.cpu.commit: 2480375625;f;i;393
2480376250: system.cpu.commit: 2480376250;s;i;394
2486545000: system.cpu.commit: 2486545000;f;i;394
2486545000: system.cpu.commit: 2486545000;s;i;395
2493628750: system.cpu.commit: 2493628750;f;i;395
2493628750: system.cpu.commit: 2493628750;s;i;396
2499798750: system.cpu.commit: 2499798750;f;i;396
2499798750: system.cpu.commit: 2499798750;s;i;397
2505970625: system.cpu.commit: 2505970625;f;i;397
2505971250: system.cpu.commit: 2505971250;s;i;398
2512149375: system.cpu.commit: 2512149375;f;i;398
2512149375: system.cpu.commit: 2512149375;s;i;399
2518309375: system.cpu.commit: 2518309375;f;i;399
2518310000: system.cpu.commit: 2518310000;s;i;400
2524488125: system.cpu.commit: 2524488125;f;i;400
2524488125: system.cpu.commit: 2524488125;s;i;401
2530655000: system.cpu.commit: 2530655000;f;i;401
2530655000: system.cpu.commit: 2530655000;s;i;402
2536826250: system.cpu.commit: 2536826250;f;i;402
2536826875: system.cpu.commit: 2536826875;s;i;403
2542994375: system.cpu.commit: 2542994375;f;i;403
2542994375: system.cpu.commit: 2542994375;s;i;404
2549160000: system.cpu.commit: 2549160000;f;i;404
2549160000: system.cpu.commit: 2549160000;s;i;405
2555338750: system.cpu.commit: 2555338750;f;i;405
2555339375: system.cpu.commit: 2555339375;s;i;406
2561507500: system.cpu.commit: 2561507500;f;i;406
2561508125: system.cpu.commit: 2561508125;s;i;407
2567685000: system.cpu.commit: 2567685000;f;i;407
2567685000: system.cpu.commit: 2567685000;s;i;408
2573847500: system.cpu.commit: 2573847500;f;i;408
2573847500: system.cpu.commit: 2573847500;s;i;409
2580008750: system.cpu.commit: 2580008750;f;i;409
2580009375: system.cpu.commit: 2580009375;s;i;410
2586183750: system.cpu.commit: 2586183750;f;i;410
2586184375: system.cpu.commit: 2586184375;s;i;411
2592352500: system.cpu.commit: 2592352500;f;i;411
2592352500: system.cpu.commit: 2592352500;s;i;412
2598520000: system.cpu.commit: 2598520000;f;i;412
2598522500: system.cpu.commit: 2598522500;s;i;413
2604690625: system.cpu.commit: 2604690625;f;i;413
2604691250: system.cpu.commit: 2604691250;s;i;414
2610856875: system.cpu.commit: 2610856875;f;i;414
2610856875: system.cpu.commit: 2610856875;s;i;415
2617036250: system.cpu.commit: 2617036250;f;i;415
2617037500: system.cpu.commit: 2617037500;s;i;416
2623205625: system.cpu.commit: 2623205625;f;i;416
2623206250: system.cpu.commit: 2623206250;s;i;417
2629373750: system.cpu.commit: 2629373750;f;i;417
2629373750: system.cpu.commit: 2629373750;s;i;418
2635540000: system.cpu.commit: 2635540000;f;i;418
2635542500: system.cpu.commit: 2635542500;s;i;419
2641710625: system.cpu.commit: 2641710625;f;i;419
2641711250: system.cpu.commit: 2641711250;s;i;420
2647891250: system.cpu.commit: 2647891250;f;i;420
2647891250: system.cpu.commit: 2647891250;s;i;421
2654061875: system.cpu.commit: 2654061875;f;i;421
2654062500: system.cpu.commit: 2654062500;s;i;422
2660233125: system.cpu.commit: 2660233125;f;i;422
2660233750: system.cpu.commit: 2660233750;s;i;423
2666405000: system.cpu.commit: 2666405000;f;i;423
2666405000: system.cpu.commit: 2666405000;s;i;424
2672582500: system.cpu.commit: 2672582500;f;i;424
2672582500: system.cpu.commit: 2672582500;s;i;425
2678755625: system.cpu.commit: 2678755625;f;i;425
2678755625: system.cpu.commit: 2678755625;s;i;426
2684921250: system.cpu.commit: 2684921250;f;i;426
2684921875: system.cpu.commit: 2684921875;s;i;427
2691088125: system.cpu.commit: 2691088125;f;i;427
2691089375: system.cpu.commit: 2691089375;s;i;428
2697260000: system.cpu.commit: 2697260000;f;i;428
2697260625: system.cpu.commit: 2697260625;s;i;429
2703428750: system.cpu.commit: 2703428750;f;i;429
2703428750: system.cpu.commit: 2703428750;s;i;430
2709606250: system.cpu.commit: 2709606250;f;i;430
2709606250: system.cpu.commit: 2709606250;s;i;431
2715773750: system.cpu.commit: 2715773750;f;i;431
2715773750: system.cpu.commit: 2715773750;s;i;432
2721946875: system.cpu.commit: 2721946875;f;i;432
2721950625: system.cpu.commit: 2721950625;s;i;433
2728118125: system.cpu.commit: 2728118125;f;i;433
2728118125: system.cpu.commit: 2728118125;s;i;434
2734280625: system.cpu.commit: 2734280625;f;i;434
2734280625: system.cpu.commit: 2734280625;s;i;435
2741356250: system.cpu.commit: 2741356250;f;i;435
2741357500: system.cpu.commit: 2741357500;s;i;436
2747526250: system.cpu.commit: 2747526250;f;i;436
2747526875: system.cpu.commit: 2747526875;s;i;437
2753693750: system.cpu.commit: 2753693750;f;i;437
2753696250: system.cpu.commit: 2753696250;s;i;438
2759862500: system.cpu.commit: 2759862500;f;i;438
2759862500: system.cpu.commit: 2759862500;s;i;439
2766031250: system.cpu.commit: 2766031250;f;i;439
2766031250: system.cpu.commit: 2766031250;s;i;440
2772208750: system.cpu.commit: 2772208750;f;i;440
2772209375: system.cpu.commit: 2772209375;s;i;441
2778381875: system.cpu.commit: 2778381875;f;i;441
2778381875: system.cpu.commit: 2778381875;s;i;442
2784553125: system.cpu.commit: 2784553125;f;i;442
2784553750: system.cpu.commit: 2784553750;s;i;443
2790722500: system.cpu.commit: 2790722500;f;i;443
2790723750: system.cpu.commit: 2790723750;s;i;444
2796892500: system.cpu.commit: 2796892500;f;i;444
2796895625: system.cpu.commit: 2796895625;s;i;445
2803073750: system.cpu.commit: 2803073750;f;i;445
2803080000: system.cpu.commit: 2803080000;s;i;446
2809247500: system.cpu.commit: 2809247500;f;i;446
2809247500: system.cpu.commit: 2809247500;s;i;447
2815412500: system.cpu.commit: 2815412500;f;i;447
2815413125: system.cpu.commit: 2815413125;s;i;448
2821580000: system.cpu.commit: 2821580000;f;i;448
2821580000: system.cpu.commit: 2821580000;s;i;449
2827749375: system.cpu.commit: 2827749375;f;i;449
2827751250: system.cpu.commit: 2827751250;s;i;450
2833928750: system.cpu.commit: 2833928750;f;i;450
2833929375: system.cpu.commit: 2833929375;s;i;451
2840093750: system.cpu.commit: 2840093750;f;i;451
2840096875: system.cpu.commit: 2840096875;s;i;452
2846263125: system.cpu.commit: 2846263125;f;i;452
2846263750: system.cpu.commit: 2846263750;s;i;453
2852432500: system.cpu.commit: 2852432500;f;i;453
2852432500: system.cpu.commit: 2852432500;s;i;454
2858621875: system.cpu.commit: 2858621875;f;i;454
2858623125: system.cpu.commit: 2858623125;s;i;455
2864785625: system.cpu.commit: 2864785625;f;i;455
2864785625: system.cpu.commit: 2864785625;s;i;456
2870947500: system.cpu.commit: 2870947500;f;i;456
2870947500: system.cpu.commit: 2870947500;s;i;457
2877108750: system.cpu.commit: 2877108750;f;i;457
2877108750: system.cpu.commit: 2877108750;s;i;458
2883277500: system.cpu.commit: 2883277500;f;i;458
2883277500: system.cpu.commit: 2883277500;s;i;459
2889455000: system.cpu.commit: 2889455000;f;i;459
2889455625: system.cpu.commit: 2889455625;s;i;460
2895623750: system.cpu.commit: 2895623750;f;i;460
2895624375: system.cpu.commit: 2895624375;s;i;461
2901791250: system.cpu.commit: 2901791250;f;i;461
2901791250: system.cpu.commit: 2901791250;s;i;462
2907961250: system.cpu.commit: 2907961250;f;i;462
2907961250: system.cpu.commit: 2907961250;s;i;463
2914130000: system.cpu.commit: 2914130000;f;i;463
2914130625: system.cpu.commit: 2914130625;s;i;464
2920307500: system.cpu.commit: 2920307500;f;i;464
2920308125: system.cpu.commit: 2920308125;s;i;465
2926475625: system.cpu.commit: 2926475625;f;i;465
2926475625: system.cpu.commit: 2926475625;s;i;466
2932642500: system.cpu.commit: 2932642500;f;i;466
2932644375: system.cpu.commit: 2932644375;s;i;467
2938815000: system.cpu.commit: 2938815000;f;i;467
2938816250: system.cpu.commit: 2938816250;s;i;468
2944986875: system.cpu.commit: 2944986875;f;i;468
2944986875: system.cpu.commit: 2944986875;s;i;469
2951165000: system.cpu.commit: 2951165000;f;i;469
2951165000: system.cpu.commit: 2951165000;s;i;470
2957336875: system.cpu.commit: 2957336875;f;i;470
2957337500: system.cpu.commit: 2957337500;s;i;471
2963515625: system.cpu.commit: 2963515625;f;i;471
2963520000: system.cpu.commit: 2963520000;s;i;472
2969680625: system.cpu.commit: 2969680625;f;i;472
2969680625: system.cpu.commit: 2969680625;s;i;473
2975846250: system.cpu.commit: 2975846250;f;i;473
2975846250: system.cpu.commit: 2975846250;s;i;474
2982820625: system.cpu.commit: 2982820625;f;i;474
2982821250: system.cpu.commit: 2982821250;s;i;475
2989000625: system.cpu.commit: 2989000625;f;i;475
2989001875: system.cpu.commit: 2989001875;s;i;476
2995166250: system.cpu.commit: 2995166250;f;i;476
2995166875: system.cpu.commit: 2995166875;s;i;477
3001327500: system.cpu.commit: 3001327500;f;i;477
3001328125: system.cpu.commit: 3001328125;s;i;478
3007489375: system.cpu.commit: 3007489375;f;i;478
3007490000: system.cpu.commit: 3007490000;s;i;479
3013667500: system.cpu.commit: 3013667500;f;i;479
3013668125: system.cpu.commit: 3013668125;s;i;480
3019835625: system.cpu.commit: 3019835625;f;i;480
3019836875: system.cpu.commit: 3019836875;s;i;481
3026004375: system.cpu.commit: 3026004375;f;i;481
3026005000: system.cpu.commit: 3026005000;s;i;482
3032171250: system.cpu.commit: 3032171250;f;i;482
3032171250: system.cpu.commit: 3032171250;s;i;483
3038338125: system.cpu.commit: 3038338125;f;i;483
3038341250: system.cpu.commit: 3038341250;s;i;484
3044518750: system.cpu.commit: 3044518750;f;i;484
3044519375: system.cpu.commit: 3044519375;s;i;485
3050687500: system.cpu.commit: 3050687500;f;i;485
3050688125: system.cpu.commit: 3050688125;s;i;486
3056854375: system.cpu.commit: 3056854375;f;i;486
3056856875: system.cpu.commit: 3056856875;s;i;487
3063023750: system.cpu.commit: 3063023750;f;i;487
3063023750: system.cpu.commit: 3063023750;s;i;488
3069196875: system.cpu.commit: 3069196875;f;i;488
3069196875: system.cpu.commit: 3069196875;s;i;489
3075376250: system.cpu.commit: 3075376250;f;i;489
3075376250: system.cpu.commit: 3075376250;s;i;490
3081545625: system.cpu.commit: 3081545625;f;i;490
3081546250: system.cpu.commit: 3081546250;s;i;491
3087718750: system.cpu.commit: 3087718750;f;i;491
3087718750: system.cpu.commit: 3087718750;s;i;492
3093888750: system.cpu.commit: 3093888750;f;i;492
3093888750: system.cpu.commit: 3093888750;s;i;493
3100062500: system.cpu.commit: 3100062500;f;i;493
3100062500: system.cpu.commit: 3100062500;s;i;494
3106236875: system.cpu.commit: 3106236875;f;i;494
3106237500: system.cpu.commit: 3106237500;s;i;495
3112404375: system.cpu.commit: 3112404375;f;i;495
3112405000: system.cpu.commit: 3112405000;s;i;496
3118571875: system.cpu.commit: 3118571875;f;i;496
3118572500: system.cpu.commit: 3118572500;s;i;497
3124743125: system.cpu.commit: 3124743125;f;i;497
3124743750: system.cpu.commit: 3124743750;s;i;498
3130908125: system.cpu.commit: 3130908125;f;i;498
3130908750: system.cpu.commit: 3130908750;s;i;499
3137088750: system.cpu.commit: 3137088750;f;i;499
3137089375: system.cpu.commit: 3137089375;s;i;500
3143254375: system.cpu.commit: 3143254375;f;i;500
3143254375: system.cpu.commit: 3143254375;s;i;501
3149436250: system.cpu.commit: 3149436250;f;i;501
3149436875: system.cpu.commit: 3149436875;s;i;502
3155600625: system.cpu.commit: 3155600625;f;i;502
3155600625: system.cpu.commit: 3155600625;s;i;503
3161761250: system.cpu.commit: 3161761250;f;i;503
3161762500: system.cpu.commit: 3161762500;s;i;504
3167935625: system.cpu.commit: 3167935625;f;i;504
3167935625: system.cpu.commit: 3167935625;s;i;505
3174101875: system.cpu.commit: 3174101875;f;i;505
3174102500: system.cpu.commit: 3174102500;s;i;506
3180270000: system.cpu.commit: 3180270000;f;i;506
3180270000: system.cpu.commit: 3180270000;s;i;507
3186438750: system.cpu.commit: 3186438750;f;i;507
3186438750: system.cpu.commit: 3186438750;s;i;508
3192605625: system.cpu.commit: 3192605625;f;i;508
3192606250: system.cpu.commit: 3192606250;s;i;509
3198783750: system.cpu.commit: 3198783750;f;i;509
3198783750: system.cpu.commit: 3198783750;s;i;510
3204952500: system.cpu.commit: 3204952500;f;i;510
3204953125: system.cpu.commit: 3204953125;s;i;511
3211121875: system.cpu.commit: 3211121875;f;i;511
3211122500: system.cpu.commit: 3211122500;s;i;512
3217290000: system.cpu.commit: 3217290000;f;i;512
3217290625: system.cpu.commit: 3217290625;s;i;513
3223457500: system.cpu.commit: 3223457500;f;i;513
3223457500: system.cpu.commit: 3223457500;s;i;514
3230474375: system.cpu.commit: 3230474375;f;i;514
3230474375: system.cpu.commit: 3230474375;s;i;515
3236634375: system.cpu.commit: 3236634375;f;i;515
3236634375: system.cpu.commit: 3236634375;s;i;516
3242800625: system.cpu.commit: 3242800625;f;i;516
3242801250: system.cpu.commit: 3242801250;s;i;517
3248968750: system.cpu.commit: 3248968750;f;i;517
3248969375: system.cpu.commit: 3248969375;s;i;518
3255140000: system.cpu.commit: 3255140000;f;i;518
3255140625: system.cpu.commit: 3255140625;s;i;519
3261317500: system.cpu.commit: 3261317500;f;i;519
3261319375: system.cpu.commit: 3261319375;s;i;520
3267485000: system.cpu.commit: 3267485000;f;i;520
3267485000: system.cpu.commit: 3267485000;s;i;521
3273651875: system.cpu.commit: 3273651875;f;i;521
3273652500: system.cpu.commit: 3273652500;s;i;522
3279830625: system.cpu.commit: 3279830625;f;i;522
3279832500: system.cpu.commit: 3279832500;s;i;523
3285997500: system.cpu.commit: 3285997500;f;i;523
3285998125: system.cpu.commit: 3285998125;s;i;524
3292171875: system.cpu.commit: 3292171875;f;i;524
3292172500: system.cpu.commit: 3292172500;s;i;525
3298333750: system.cpu.commit: 3298333750;f;i;525
3298333750: system.cpu.commit: 3298333750;s;i;526
3304499375: system.cpu.commit: 3304499375;f;i;526
3304499375: system.cpu.commit: 3304499375;s;i;527
3310666250: system.cpu.commit: 3310666250;f;i;527
3310667500: system.cpu.commit: 3310667500;s;i;528
3316834375: system.cpu.commit: 3316834375;f;i;528
3316836250: system.cpu.commit: 3316836250;s;i;529
3323013125: system.cpu.commit: 3323013125;f;i;529
3323015625: system.cpu.commit: 3323015625;s;i;530
3329180000: system.cpu.commit: 3329180000;f;i;530
3329181875: system.cpu.commit: 3329181875;s;i;531
3335350000: system.cpu.commit: 3335350000;f;i;531
3335350625: system.cpu.commit: 3335350625;s;i;532
3341519375: system.cpu.commit: 3341519375;f;i;532
3341519375: system.cpu.commit: 3341519375;s;i;533
3347685625: system.cpu.commit: 3347685625;f;i;533
3347686250: system.cpu.commit: 3347686250;s;i;534
3353865000: system.cpu.commit: 3353865000;f;i;534
3353865000: system.cpu.commit: 3353865000;s;i;535
3360035625: system.cpu.commit: 3360035625;f;i;535
3360035625: system.cpu.commit: 3360035625;s;i;536
3366207500: system.cpu.commit: 3366207500;f;i;536
3366208125: system.cpu.commit: 3366208125;s;i;537
3372377500: system.cpu.commit: 3372377500;f;i;537
3372377500: system.cpu.commit: 3372377500;s;i;538
3378556875: system.cpu.commit: 3378556875;f;i;538
3378558125: system.cpu.commit: 3378558125;s;i;539
3384729375: system.cpu.commit: 3384729375;f;i;539
3384730000: system.cpu.commit: 3384730000;s;i;540
3390907500: system.cpu.commit: 3390907500;f;i;540
3390907500: system.cpu.commit: 3390907500;s;i;541
3397068125: system.cpu.commit: 3397068125;f;i;541
3397068750: system.cpu.commit: 3397068750;s;i;542
3403236250: system.cpu.commit: 3403236250;f;i;542
3403236250: system.cpu.commit: 3403236250;s;i;543
3409413125: system.cpu.commit: 3409413125;f;i;543
3409413125: system.cpu.commit: 3409413125;s;i;544
3415585000: system.cpu.commit: 3415585000;f;i;544
3415585000: system.cpu.commit: 3415585000;s;i;545
3421752500: system.cpu.commit: 3421752500;f;i;545
3421753750: system.cpu.commit: 3421753750;s;i;546
3427918125: system.cpu.commit: 3427918125;f;i;546
3427920625: system.cpu.commit: 3427920625;s;i;547
3434086250: system.cpu.commit: 3434086250;f;i;547
3434086250: system.cpu.commit: 3434086250;s;i;548
3440266250: system.cpu.commit: 3440266250;f;i;548
3440271875: system.cpu.commit: 3440271875;s;i;549
3446443125: system.cpu.commit: 3446443125;f;i;549
3446443125: system.cpu.commit: 3446443125;s;i;550
3452605625: system.cpu.commit: 3452605625;f;i;550
3452605625: system.cpu.commit: 3452605625;s;i;551
3458767500: system.cpu.commit: 3458767500;f;i;551
3458767500: system.cpu.commit: 3458767500;s;i;552
3464933125: system.cpu.commit: 3464933125;f;i;552
3464933750: system.cpu.commit: 3464933750;s;i;553
3471874375: system.cpu.commit: 3471874375;f;i;553
3471875000: system.cpu.commit: 3471875000;s;i;554
3478043750: system.cpu.commit: 3478043750;f;i;554
3478043750: system.cpu.commit: 3478043750;s;i;555
3484211875: system.cpu.commit: 3484211875;f;i;555
3484212500: system.cpu.commit: 3484212500;s;i;556
3490382500: system.cpu.commit: 3490382500;f;i;556
3490383125: system.cpu.commit: 3490383125;s;i;557
3496551250: system.cpu.commit: 3496551250;f;i;557
3496554375: system.cpu.commit: 3496554375;s;i;558
3502731250: system.cpu.commit: 3502731250;f;i;558
3502734375: system.cpu.commit: 3502734375;s;i;559
3508903125: system.cpu.commit: 3508903125;f;i;559
3508903750: system.cpu.commit: 3508903750;s;i;560
3515071875: system.cpu.commit: 3515071875;f;i;560
3515073750: system.cpu.commit: 3515073750;s;i;561
3521255000: system.cpu.commit: 3521255000;f;i;561
3521255625: system.cpu.commit: 3521255625;s;i;562
3527415000: system.cpu.commit: 3527415000;f;i;562
3527415625: system.cpu.commit: 3527415625;s;i;563
3533593125: system.cpu.commit: 3533593125;f;i;563
3533593750: system.cpu.commit: 3533593750;s;i;564
3539760625: system.cpu.commit: 3539760625;f;i;564
3539761250: system.cpu.commit: 3539761250;s;i;565
3545929375: system.cpu.commit: 3545929375;f;i;565
3545930625: system.cpu.commit: 3545930625;s;i;566
3552098750: system.cpu.commit: 3552098750;f;i;566
3552098750: system.cpu.commit: 3552098750;s;i;567
3558266250: system.cpu.commit: 3558266250;f;i;567
3558266250: system.cpu.commit: 3558266250;s;i;568
3564443750: system.cpu.commit: 3564443750;f;i;568
3564444375: system.cpu.commit: 3564444375;s;i;569
3570613750: system.cpu.commit: 3570613750;f;i;569
3570613750: system.cpu.commit: 3570613750;s;i;570
3576790625: system.cpu.commit: 3576790625;f;i;570
3576791250: system.cpu.commit: 3576791250;s;i;571
3582953125: system.cpu.commit: 3582953125;f;i;571
3582953125: system.cpu.commit: 3582953125;s;i;572
3589115000: system.cpu.commit: 3589115000;f;i;572
3589115000: system.cpu.commit: 3589115000;s;i;573
3595290000: system.cpu.commit: 3595290000;f;i;573
3595290000: system.cpu.commit: 3595290000;s;i;574
3601458125: system.cpu.commit: 3601458125;f;i;574
3601458750: system.cpu.commit: 3601458750;s;i;575
3607624375: system.cpu.commit: 3607624375;f;i;575
3607625625: system.cpu.commit: 3607625625;s;i;576
3613793750: system.cpu.commit: 3613793750;f;i;576
3613794375: system.cpu.commit: 3613794375;s;i;577
3619960000: system.cpu.commit: 3619960000;f;i;577
3619961250: system.cpu.commit: 3619961250;s;i;578
3626141250: system.cpu.commit: 3626141250;f;i;578
3626142500: system.cpu.commit: 3626142500;s;i;579
3632310625: system.cpu.commit: 3632310625;f;i;579
3632311250: system.cpu.commit: 3632311250;s;i;580
3638476875: system.cpu.commit: 3638476875;f;i;580
3638477500: system.cpu.commit: 3638477500;s;i;581
3644645625: system.cpu.commit: 3644645625;f;i;581
3644646250: system.cpu.commit: 3644646250;s;i;582
3650816875: system.cpu.commit: 3650816875;f;i;582
3650816875: system.cpu.commit: 3650816875;s;i;583
3656996250: system.cpu.commit: 3656996250;f;i;583
3656996250: system.cpu.commit: 3656996250;s;i;584
3663168125: system.cpu.commit: 3663168125;f;i;584
3663168125: system.cpu.commit: 3663168125;s;i;585
3669338125: system.cpu.commit: 3669338125;f;i;585
3669338125: system.cpu.commit: 3669338125;s;i;586
3675510000: system.cpu.commit: 3675510000;f;i;586
3675510625: system.cpu.commit: 3675510625;s;i;587
3681688750: system.cpu.commit: 3681688750;f;i;587
3681688750: system.cpu.commit: 3681688750;s;i;588
3687861875: system.cpu.commit: 3687861875;f;i;588
3687861875: system.cpu.commit: 3687861875;s;i;589
3694027500: system.cpu.commit: 3694027500;f;i;589
3694027500: system.cpu.commit: 3694027500;s;i;590
3700194375: system.cpu.commit: 3700194375;f;i;590
3700194375: system.cpu.commit: 3700194375;s;i;591
3706365625: system.cpu.commit: 3706365625;f;i;591
3706366250: system.cpu.commit: 3706366250;s;i;592
3712533750: system.cpu.commit: 3712533750;f;i;592
3712533750: system.cpu.commit: 3712533750;s;i;593
3719463750: system.cpu.commit: 3719463750;f;i;593
3719463750: system.cpu.commit: 3719463750;s;i;594
3725625000: system.cpu.commit: 3725625000;f;i;594
3725625625: system.cpu.commit: 3725625625;s;i;595
3731791875: system.cpu.commit: 3731791875;f;i;595
3731791875: system.cpu.commit: 3731791875;s;i;596
3737960625: system.cpu.commit: 3737960625;f;i;596
3737961250: system.cpu.commit: 3737961250;s;i;597
3744129375: system.cpu.commit: 3744129375;f;i;597
3744129375: system.cpu.commit: 3744129375;s;i;598
3750307500: system.cpu.commit: 3750307500;f;i;598
3750307500: system.cpu.commit: 3750307500;s;i;599
3756473750: system.cpu.commit: 3756473750;f;i;599
3756474375: system.cpu.commit: 3756474375;s;i;600
3762643750: system.cpu.commit: 3762643750;f;i;600
3762644375: system.cpu.commit: 3762644375;s;i;601
3768812500: system.cpu.commit: 3768812500;f;i;601
3768813750: system.cpu.commit: 3768813750;s;i;602
3774980625: system.cpu.commit: 3774980625;f;i;602
3774981875: system.cpu.commit: 3774981875;s;i;603
3781159375: system.cpu.commit: 3781159375;f;i;603
3781160000: system.cpu.commit: 3781160000;s;i;604
3787332500: system.cpu.commit: 3787332500;f;i;604
3787333125: system.cpu.commit: 3787333125;s;i;605
3793500625: system.cpu.commit: 3793500625;f;i;605
3793501250: system.cpu.commit: 3793501250;s;i;606
3799670000: system.cpu.commit: 3799670000;f;i;606
3799673125: system.cpu.commit: 3799673125;s;i;607
3805841875: system.cpu.commit: 3805841875;f;i;607
3805841875: system.cpu.commit: 3805841875;s;i;608
3812025000: system.cpu.commit: 3812025000;f;i;608
3812025000: system.cpu.commit: 3812025000;s;i;609
3818198750: system.cpu.commit: 3818198750;f;i;609
3818198750: system.cpu.commit: 3818198750;s;i;610
3824362500: system.cpu.commit: 3824362500;f;i;610
3824363125: system.cpu.commit: 3824363125;s;i;611
3830530000: system.cpu.commit: 3830530000;f;i;611
3830530625: system.cpu.commit: 3830530625;s;i;612
3836698750: system.cpu.commit: 3836698750;f;i;612
3836699375: system.cpu.commit: 3836699375;s;i;613
3842878750: system.cpu.commit: 3842878750;f;i;613
3842879375: system.cpu.commit: 3842879375;s;i;614
3849044375: system.cpu.commit: 3849044375;f;i;614
3849044375: system.cpu.commit: 3849044375;s;i;615
3855213750: system.cpu.commit: 3855213750;f;i;615
3855213750: system.cpu.commit: 3855213750;s;i;616
3861383125: system.cpu.commit: 3861383125;f;i;616
3861383750: system.cpu.commit: 3861383750;s;i;617
3867560625: system.cpu.commit: 3867560625;f;i;617
3867560625: system.cpu.commit: 3867560625;s;i;618
3873736250: system.cpu.commit: 3873736250;f;i;618
3873736875: system.cpu.commit: 3873736875;s;i;619
3879897500: system.cpu.commit: 3879897500;f;i;619
3879897500: system.cpu.commit: 3879897500;s;i;620
3886059375: system.cpu.commit: 3886059375;f;i;620
3886060000: system.cpu.commit: 3886060000;s;i;621
3892225625: system.cpu.commit: 3892225625;f;i;621
3892228125: system.cpu.commit: 3892228125;s;i;622
3898406250: system.cpu.commit: 3898406250;f;i;622
3898406250: system.cpu.commit: 3898406250;s;i;623
3904574375: system.cpu.commit: 3904574375;f;i;623
3904575000: system.cpu.commit: 3904575000;s;i;624
3910740625: system.cpu.commit: 3910740625;f;i;624
3910741875: system.cpu.commit: 3910741875;s;i;625
3916910625: system.cpu.commit: 3916910625;f;i;625
3916911250: system.cpu.commit: 3916911250;s;i;626
3923078125: system.cpu.commit: 3923078125;f;i;626
3923080625: system.cpu.commit: 3923080625;s;i;627
3929257500: system.cpu.commit: 3929257500;f;i;627
3929258125: system.cpu.commit: 3929258125;s;i;628
3935426250: system.cpu.commit: 3935426250;f;i;628
3935426250: system.cpu.commit: 3935426250;s;i;629
3941593125: system.cpu.commit: 3941593125;f;i;629
3941593750: system.cpu.commit: 3941593750;s;i;630
3947766250: system.cpu.commit: 3947766250;f;i;630
3947766250: system.cpu.commit: 3947766250;s;i;631
3953937500: system.cpu.commit: 3953937500;f;i;631
3953938125: system.cpu.commit: 3953938125;s;i;632
3960217500: system.cpu.commit: 3960217500;f;i;632
3960217500: system.cpu.commit: 3960217500;s;f;1
3968271875: system.cpu.commit: 3968271875;f;f;1
3968271875: system.cpu.commit: 3968271875;s;f;2
3975306875: system.cpu.commit: 3975306875;f;f;2
3975306875: system.cpu.commit: 3975306875;s;f;3
3982259375: system.cpu.commit: 3982259375;f;f;3
3982259375: system.cpu.commit: 3982259375;s;f;4
3989308125: system.cpu.commit: 3989308125;f;f;4
3989308125: system.cpu.commit: 3989308125;s;f;5
3996262500: system.cpu.commit: 3996262500;f;f;5
3996262500: system.cpu.commit: 3996262500;s;f;6
4003306875: system.cpu.commit: 4003306875;f;f;6
4003306875: system.cpu.commit: 4003306875;s;f;7
4010258750: system.cpu.commit: 4010258750;f;f;7
4010258750: system.cpu.commit: 4010258750;s;f;8
4017309375: system.cpu.commit: 4017309375;f;f;8
4017309375: system.cpu.commit: 4017309375;s;f;9
4024263125: system.cpu.commit: 4024263125;f;f;9
4024263125: system.cpu.commit: 4024263125;s;f;10
4031295000: system.cpu.commit: 4031295000;f;f;10
4031295000: system.cpu.commit: 4031295000;s;f;11
4038247500: system.cpu.commit: 4038247500;f;f;11
4038247500: system.cpu.commit: 4038247500;s;f;12
4045281250: system.cpu.commit: 4045281250;f;f;12
4045281250: system.cpu.commit: 4045281250;s;f;13
4052231250: system.cpu.commit: 4052231250;f;f;13
4052231250: system.cpu.commit: 4052231250;s;f;14
4059265000: system.cpu.commit: 4059265000;f;f;14
4059265000: system.cpu.commit: 4059265000;s;f;15
4066221250: system.cpu.commit: 4066221250;f;f;15
4066221250: system.cpu.commit: 4066221250;s;f;16
4073240000: system.cpu.commit: 4073240000;f;f;16
4073240000: system.cpu.commit: 4073240000;s;f;17
4080204375: system.cpu.commit: 4080204375;f;f;17
4080204375: system.cpu.commit: 4080204375;s;f;18
4087241875: system.cpu.commit: 4087241875;f;f;18
4087241875: system.cpu.commit: 4087241875;s;f;19
4094191250: system.cpu.commit: 4094191250;f;f;19
4094191250: system.cpu.commit: 4094191250;s;f;20
4101221875: system.cpu.commit: 4101221875;f;f;20
4101221875: system.cpu.commit: 4101221875;s;f;21
4108173750: system.cpu.commit: 4108173750;f;f;21
4108173750: system.cpu.commit: 4108173750;s;f;22
4115206875: system.cpu.commit: 4115206875;f;f;22
4115206875: system.cpu.commit: 4115206875;s;f;23
4122236875: system.cpu.commit: 4122236875;f;f;23
4122236875: system.cpu.commit: 4122236875;s;f;24
4129503750: system.cpu.commit: 4129503750;f;f;24
4129503750: system.cpu.commit: 4129503750;s;f;25
4136536875: system.cpu.commit: 4136536875;f;f;25
4136536875: system.cpu.commit: 4136536875;s;f;26
4143488750: system.cpu.commit: 4143488750;f;f;26
4143488750: system.cpu.commit: 4143488750;s;f;27
4150523125: system.cpu.commit: 4150523125;f;f;27
4150523125: system.cpu.commit: 4150523125;s;f;28
4157485625: system.cpu.commit: 4157485625;f;f;28
4157485625: system.cpu.commit: 4157485625;s;f;29
4164528750: system.cpu.commit: 4164528750;f;f;29
4164528750: system.cpu.commit: 4164528750;s;f;30
4171481250: system.cpu.commit: 4171481250;f;f;30
4171481250: system.cpu.commit: 4171481250;s;f;31
4176150625: system.cpu.commit: 4176150625;f;f;31
