  75746: system.cpu.execute: 75746;s;i;0
21268350: system.cpu.execute: 21268350;f;i;0
21268350: system.cpu.execute: 21268350;s;f;0
46094571: system.cpu.execute: 46094571;f;f;0
46094571: system.cpu.execute: 46094571;s;f;1
65788531: system.cpu.execute: 65788531;f;f;1
65788531: system.cpu.execute: 65788531;s;f;2
84835207: system.cpu.execute: 84835207;f;f;2
84835207: system.cpu.execute: 84835207;s;f;3
104186432: system.cpu.execute: 104186432;f;f;3
104186432: system.cpu.execute: 104186432;s;f;4
114603072: system.cpu.execute: 114603072;f;f;4
114603072: system.cpu.execute: 114603072;s;f;5
123394929: system.cpu.execute: 123394929;f;f;5
123394929: system.cpu.execute: 123394929;s;f;6
131340121: system.cpu.execute: 131340121;f;f;6
131340121: system.cpu.execute: 131340121;s;f;7
139352608: system.cpu.execute: 139352608;f;f;7
139352608: system.cpu.execute: 139352608;s;f;8
147299365: system.cpu.execute: 147299365;f;f;8
147299365: system.cpu.execute: 147299365;s;f;9
155351916: system.cpu.execute: 155351916;f;f;9
155351916: system.cpu.execute: 155351916;s;f;10
163328408: system.cpu.execute: 163328408;f;f;10
163328408: system.cpu.execute: 163328408;s;f;11
171405060: system.cpu.execute: 171405060;f;f;11
171405060: system.cpu.execute: 171405060;s;f;12
179457924: system.cpu.execute: 179457924;f;f;12
179457924: system.cpu.execute: 179457924;s;f;13
187507345: system.cpu.execute: 187507345;f;f;13
187507345: system.cpu.execute: 187507345;s;f;14
195556140: system.cpu.execute: 195556140;f;f;14
195556140: system.cpu.execute: 195556140;s;f;15
203585216: system.cpu.execute: 203585216;f;f;15
203585216: system.cpu.execute: 203585216;s;f;16
211548249: system.cpu.execute: 211548249;f;f;16
211548249: system.cpu.execute: 211548249;s;f;17
219454003: system.cpu.execute: 219454003;f;f;17
219454003: system.cpu.execute: 219454003;s;f;18
227295279: system.cpu.execute: 227295279;f;f;18
227295279: system.cpu.execute: 227295279;s;f;19
235150327: system.cpu.execute: 235150327;f;f;19
235150327: system.cpu.execute: 235150327;s;f;20
242941523: system.cpu.execute: 242941523;f;f;20
242941523: system.cpu.execute: 242941523;s;f;21
250749621: system.cpu.execute: 250749621;f;f;21
250749621: system.cpu.execute: 250749621;s;f;22
258537061: system.cpu.execute: 258537061;f;f;22
258537061: system.cpu.execute: 258537061;s;f;23
266280994: system.cpu.execute: 266280994;f;f;23
266280994: system.cpu.execute: 266280994;s;f;24
273978290: system.cpu.execute: 273978290;f;f;24
273978290: system.cpu.execute: 273978290;s;f;25
281720658: system.cpu.execute: 281720658;f;f;25
281720658: system.cpu.execute: 281720658;s;f;26
289473042: system.cpu.execute: 289473042;f;f;26
289473042: system.cpu.execute: 289473042;s;f;27
297170338: system.cpu.execute: 297170338;f;f;27
297170338: system.cpu.execute: 297170338;s;f;28
304928982: system.cpu.execute: 304928982;f;f;28
304928982: system.cpu.execute: 304928982;s;f;29
312676671: system.cpu.execute: 312676671;f;f;29
312676671: system.cpu.execute: 312676671;s;f;30
320551751: system.cpu.execute: 320551751;f;f;30
320551751: system.cpu.execute: 320551751;s;f;31
328411807: system.cpu.execute: 328411807;f;f;31
328411807: system.cpu.execute: 328411807;s;f;32
336409896: system.cpu.execute: 336409896;f;f;32
336409896: system.cpu.execute: 336409896;s;f;33
344355088: system.cpu.execute: 344355088;f;f;33
344355088: system.cpu.execute: 344355088;s;f;34
352318121: system.cpu.execute: 352318121;f;f;34
352318121: system.cpu.execute: 352318121;s;f;35
360281154: system.cpu.execute: 360281154;f;f;35
360281154: system.cpu.execute: 360281154;s;f;36
368242309: system.cpu.execute: 368242309;f;f;36
368242309: system.cpu.execute: 368242309;s;f;37
376241650: system.cpu.execute: 376241650;f;f;37
376241650: system.cpu.execute: 376241650;s;f;38
384189659: system.cpu.execute: 384189659;f;f;38
384189659: system.cpu.execute: 384189659;s;f;39
392141424: system.cpu.execute: 392141424;f;f;39
392141424: system.cpu.execute: 392141424;s;f;40
400149216: system.cpu.execute: 400149216;f;f;40
400149216: system.cpu.execute: 400149216;s;f;41
408137915: system.cpu.execute: 408137915;f;f;41
408137915: system.cpu.execute: 408137915;s;f;42
416138195: system.cpu.execute: 416138195;f;f;42
416138195: system.cpu.execute: 416138195;s;f;43
423972585: system.cpu.execute: 423972585;f;f;43
423972585: system.cpu.execute: 423972585;s;f;44
431871140: system.cpu.execute: 431871140;f;f;44
431871140: system.cpu.execute: 431871140;s;f;45
439654511: system.cpu.execute: 439654511;f;f;45
439654511: system.cpu.execute: 439654511;s;f;46
447518323: system.cpu.execute: 447518323;f;f;46
447518323: system.cpu.execute: 447518323;s;f;47
455309519: system.cpu.execute: 455309519;f;f;47
455309519: system.cpu.execute: 455309519;s;f;48
463175835: system.cpu.execute: 463175835;f;f;48
463175835: system.cpu.execute: 463175835;s;f;49
471043716: system.cpu.execute: 471043716;f;f;49
471043716: system.cpu.execute: 471043716;s;f;50
478838355: system.cpu.execute: 478838355;f;f;50
478838355: system.cpu.execute: 478838355;s;f;51
486709366: system.cpu.execute: 486709366;f;f;51
486709366: system.cpu.execute: 486709366;s;f;52
494498684: system.cpu.execute: 494498684;f;f;52
494498684: system.cpu.execute: 494498684;s;f;53
502361557: system.cpu.execute: 502361557;f;f;53
502361557: system.cpu.execute: 502361557;s;f;54
510150249: system.cpu.execute: 510150249;f;f;54
510150249: system.cpu.execute: 510150249;s;f;55
518109213: system.cpu.execute: 518109213;f;f;55
518109213: system.cpu.execute: 518109213;s;f;56
526061291: system.cpu.execute: 526061291;f;f;56
526061291: system.cpu.execute: 526061291;s;f;57
534068457: system.cpu.execute: 534068457;f;f;57
534068457: system.cpu.execute: 534068457;s;f;58
542129772: system.cpu.execute: 542129772;f;f;58
542129772: system.cpu.execute: 542129772;s;f;59
550080911: system.cpu.execute: 550080911;f;f;59
550080911: system.cpu.execute: 550080911;s;f;60
558026416: system.cpu.execute: 558026416;f;f;60
558026416: system.cpu.execute: 558026416;s;f;61
565947194: system.cpu.execute: 565947194;f;f;61
565947194: system.cpu.execute: 565947194;s;f;62
573959055: system.cpu.execute: 573959055;f;f;62
573959055: system.cpu.execute: 573959055;s;f;63
581931478: system.cpu.execute: 581931478;f;f;63
581931478: system.cpu.execute: 581931478;s;f;64
589882930: system.cpu.execute: 589882930;f;f;64
589882930: system.cpu.execute: 589882930;s;f;65
597846276: system.cpu.execute: 597846276;f;f;65
597846276: system.cpu.execute: 597846276;s;f;66
605782704: system.cpu.execute: 605782704;f;f;66
605782704: system.cpu.execute: 605782704;s;f;67
613690336: system.cpu.execute: 613690336;f;f;67
613690336: system.cpu.execute: 613690336;s;f;68
621498747: system.cpu.execute: 621498747;f;f;68
621498747: system.cpu.execute: 621498747;s;f;69
629266468: system.cpu.execute: 629266468;f;f;69
629266468: system.cpu.execute: 629266468;s;f;70
637013844: system.cpu.execute: 637013844;f;f;70
637013844: system.cpu.execute: 637013844;s;f;71
644711140: system.cpu.execute: 644711140;f;f;71
644711140: system.cpu.execute: 644711140;s;f;72
652453821: system.cpu.execute: 652453821;f;f;72
652453821: system.cpu.execute: 652453821;s;f;73
660151430: system.cpu.execute: 660151430;f;f;73
660151430: system.cpu.execute: 660151430;s;f;74
669100100: system.cpu.execute: 669100100;f;f;74
669100100: system.cpu.execute: 669100100;s;f;75
678434073: system.cpu.execute: 678434073;f;f;75
678434073: system.cpu.execute: 678434073;s;f;76
686215253: system.cpu.execute: 686215253;f;f;76
686215253: system.cpu.execute: 686215253;s;f;77
693944162: system.cpu.execute: 693944162;f;f;77
693944162: system.cpu.execute: 693944162;s;f;78
701671819: system.cpu.execute: 701671819;f;f;78
701671819: system.cpu.execute: 701671819;s;f;79
709481795: system.cpu.execute: 709481795;f;f;79
709481795: system.cpu.execute: 709481795;s;f;80
717246073: system.cpu.execute: 717246073;f;f;80
717246073: system.cpu.execute: 717246073;s;f;81
724975921: system.cpu.execute: 724975921;f;f;81
724975921: system.cpu.execute: 724975921;s;f;82
732709525: system.cpu.execute: 732709525;f;f;82
732709525: system.cpu.execute: 732709525;s;f;83
740433739: system.cpu.execute: 740433739;f;f;83
740433739: system.cpu.execute: 740433739;s;f;84
748187375: system.cpu.execute: 748187375;f;f;84
748187375: system.cpu.execute: 748187375;s;f;85
755985144: system.cpu.execute: 755985144;f;f;85
755985144: system.cpu.execute: 755985144;s;f;86
763724695: system.cpu.execute: 763724695;f;f;86
763724695: system.cpu.execute: 763724695;s;f;87
771457986: system.cpu.execute: 771457986;f;f;87
771457986: system.cpu.execute: 771457986;s;f;88
779198789: system.cpu.execute: 779198789;f;f;88
779198789: system.cpu.execute: 779198789;s;f;89
786934584: system.cpu.execute: 786934584;f;f;89
786934584: system.cpu.execute: 786934584;s;f;90
794644400: system.cpu.execute: 794644400;f;f;90
794644400: system.cpu.execute: 794644400;s;f;91
802319160: system.cpu.execute: 802319160;f;f;91
802319160: system.cpu.execute: 802319160;s;f;92
810071544: system.cpu.execute: 810071544;f;f;92
810071544: system.cpu.execute: 810071544;s;f;93
817828936: system.cpu.execute: 817828936;f;f;93
817828936: system.cpu.execute: 817828936;s;f;94
825556280: system.cpu.execute: 825556280;f;f;94
825556280: system.cpu.execute: 825556280;s;f;95
833273295: system.cpu.execute: 833273295;f;f;95
833273295: system.cpu.execute: 833273295;s;f;96
840959949: system.cpu.execute: 840959949;f;f;96
840959949: system.cpu.execute: 840959949;s;f;97
848710455: system.cpu.execute: 848710455;f;f;97
848710455: system.cpu.execute: 848710455;s;f;98
856480993: system.cpu.execute: 856480993;f;f;98
856480993: system.cpu.execute: 856480993;s;f;99
864140416: system.cpu.execute: 864140416;f;f;99
864140416: system.cpu.execute: 864140416;s;f;100
871795144: system.cpu.execute: 871795144;f;f;100
871795144: system.cpu.execute: 871795144;s;f;101
879373500: system.cpu.execute: 879373500;f;f;101
879373500: system.cpu.execute: 879373500;s;f;102
886989416: system.cpu.execute: 886989416;f;f;102
886989416: system.cpu.execute: 886989416;s;f;103
894577788: system.cpu.execute: 894577788;f;f;103
894577788: system.cpu.execute: 894577788;s;f;104
902196208: system.cpu.execute: 902196208;f;f;104
902196208: system.cpu.execute: 902196208;s;f;105
909840607: system.cpu.execute: 909840607;f;f;105
909840607: system.cpu.execute: 909840607;s;f;106
917561378: system.cpu.execute: 917561378;f;f;106
917561378: system.cpu.execute: 917561378;s;f;107
925253666: system.cpu.execute: 925253666;f;f;107
925253666: system.cpu.execute: 925253666;s;f;108
932993217: system.cpu.execute: 932993217;f;f;108
932993217: system.cpu.execute: 932993217;s;f;109
940714614: system.cpu.execute: 940714614;f;f;109
940714614: system.cpu.execute: 940714614;s;f;110
948477953: system.cpu.execute: 948477953;f;f;110
948477953: system.cpu.execute: 948477953;s;f;111
956301075: system.cpu.execute: 956301075;f;f;111
956301075: system.cpu.execute: 956301075;s;f;112
964033114: system.cpu.execute: 964033114;f;f;112
964033114: system.cpu.execute: 964033114;s;f;113
971772352: system.cpu.execute: 971772352;f;f;113
971772352: system.cpu.execute: 971772352;s;f;114
979493749: system.cpu.execute: 979493749;f;f;114
979493749: system.cpu.execute: 979493749;s;f;115
987224536: system.cpu.execute: 987224536;f;f;115
987224536: system.cpu.execute: 987224536;s;f;116
994940299: system.cpu.execute: 994940299;f;f;116
994940299: system.cpu.execute: 994940299;s;f;117
1002708646: system.cpu.execute: 1002708646;f;f;117
1002708646: system.cpu.execute: 1002708646;s;f;118
1010439120: system.cpu.execute: 1010439120;f;f;118
1010439120: system.cpu.execute: 1010439120;s;f;119
1018218422: system.cpu.execute: 1018218422;f;f;119
1018218422: system.cpu.execute: 1018218422;s;f;120
1025963607: system.cpu.execute: 1025963607;f;f;120
1025963607: system.cpu.execute: 1025963607;s;f;121
1033694394: system.cpu.execute: 1033694394;f;f;121
1033694394: system.cpu.execute: 1033694394;s;f;122
1041393881: system.cpu.execute: 1041393881;f;f;122
1041393881: system.cpu.execute: 1041393881;s;f;123
1049129989: system.cpu.execute: 1049129989;f;f;123
1049129989: system.cpu.execute: 1049129989;s;f;124
1056880182: system.cpu.execute: 1056880182;f;f;124
1056880182: system.cpu.execute: 1056880182;s;f;125
1064570279: system.cpu.execute: 1064570279;f;f;125
1064570279: system.cpu.execute: 1064570279;s;f;126
1072309517: system.cpu.execute: 1072309517;f;f;126
1072309517: system.cpu.execute: 1072309517;s;f;127
1080021524: system.cpu.execute: 1080021524;f;f;127
1080021524: system.cpu.execute: 1080021524;s;f;128
1087767335: system.cpu.execute: 1087767335;f;f;128
1087767335: system.cpu.execute: 1087767335;s;f;129
1095570738: system.cpu.execute: 1095570738;f;f;129
1095570738: system.cpu.execute: 1095570738;s;f;130
1103325626: system.cpu.execute: 1103325626;f;f;130
1103325626: system.cpu.execute: 1103325626;s;f;131
1111065803: system.cpu.execute: 1111065803;f;f;131
1111065803: system.cpu.execute: 1111065803;s;f;132
1118826325: system.cpu.execute: 1118826325;f;f;132
1118826325: system.cpu.execute: 1118826325;s;f;133
1126569006: system.cpu.execute: 1126569006;f;f;133
1126569006: system.cpu.execute: 1126569006;s;f;134
1134315130: system.cpu.execute: 1134315130;f;f;134
1134315130: system.cpu.execute: 1134315130;s;f;135
1142023381: system.cpu.execute: 1142023381;f;f;135
1142023381: system.cpu.execute: 1142023381;s;f;136
1149784216: system.cpu.execute: 1149784216;f;f;136
1149784216: system.cpu.execute: 1149784216;s;f;137
1157526584: system.cpu.execute: 1157526584;f;f;137
1157526584: system.cpu.execute: 1157526584;s;f;138
1165258310: system.cpu.execute: 1165258310;f;f;138
1165258310: system.cpu.execute: 1165258310;s;f;139
1172746522: system.cpu.execute: 1172746522;f;f;139
