
---------- Begin Simulation Statistics ----------
sim_seconds                                  0.011962                       # Number of seconds simulated
sim_ticks                                 11961621772                       # Number of ticks simulated
final_tick                                11961621772                       # Number of ticks from beginning of simulation (restored from checkpoints and never reset)
sim_freq                                 1000000000000                       # Frequency of simulated ticks
host_inst_rate                                 216000                       # Simulator instruction rate (inst/s)
host_op_rate                                   216000                       # Simulator op (including micro ops) rate (op/s)
host_tick_rate                               61772793                       # Simulator tick rate (ticks/s)
host_mem_usage                                 684000                       # Number of bytes of host memory used
host_seconds                                   193.64                       # Real time elapsed on the host
sim_insts                                    41826015                       # Number of instructions simulated
sim_ops                                      41826015                       # Number of ops (including micro ops) simulated
system.clk_domain.voltage_domain.voltage            1                       # Voltage in Volts
system.clk_domain.clock                           313                       # Clock period in ticks
system.mem_ctrl.pwrStateResidencyTicks::UNDEFINED  11961621772                       # Cumulative time (in ticks) in various power states
system.mem_ctrl.bytes_read::cpu.inst            24000                       # Number of bytes read from this memory
system.mem_ctrl.bytes_read::cpu.data            20992                       # Number of bytes read from this memory
system.mem_ctrl.bytes_read::l2cache.prefetcher         2176                       # Number of bytes read from this memory
system.mem_ctrl.bytes_read::total               47168                       # Number of bytes read from this memory
system.mem_ctrl.bytes_inst_read::cpu.inst        24000                       # Number of instructions bytes read from this memory
system.mem_ctrl.bytes_inst_read::total          24000                       # Number of instructions bytes read from this memory
system.mem_ctrl.num_reads::writebacks               0                       # Number of read requests responded to by this memory
system.mem_ctrl.num_reads::functional               0                       # Number of read requests responded to by this memory
system.mem_ctrl.num_reads::interrupt                0                       # Number of read requests responded to by this memory
system.mem_ctrl.num_reads::cpu.inst               375                       # Number of read requests responded to by this memory
system.mem_ctrl.num_reads::cpu.data               328                       # Number of read requests responded to by this memory
system.mem_ctrl.num_reads::l2cache.prefetcher           34                       # Number of read requests responded to by this memory
system.mem_ctrl.num_reads::total                  737                       # Number of read requests responded to by this memory
system.mem_ctrl.num_writes::writebacks              0                       # Number of write requests responded to by this memory
system.mem_ctrl.num_writes::functional              0                       # Number of write requests responded to by this memory
system.mem_ctrl.num_writes::interrupt               0                       # Number of write requests responded to by this memory
system.mem_ctrl.num_writes::cpu.inst                0                       # Number of write requests responded to by this memory
system.mem_ctrl.num_writes::cpu.data                0                       # Number of write requests responded to by this memory
system.mem_ctrl.num_writes::l2cache.prefetcher            0                       # Number of write requests responded to by this memory
system.mem_ctrl.num_writes::total                   0                       # Number of write requests responded to by this memory
system.mem_ctrl.bw_read::cpu.inst             2006417                       # Total read bandwidth from this memory (bytes/s)
system.mem_ctrl.bw_read::cpu.data             1754946                       # Total read bandwidth from this memory (bytes/s)
system.mem_ctrl.bw_read::l2cache.prefetcher       181915                       # Total read bandwidth from this memory (bytes/s)
system.mem_ctrl.bw_read::total                3943278                       # Total read bandwidth from this memory (bytes/s)
system.mem_ctrl.bw_inst_read::cpu.inst        2006417                       # Instruction read bandwidth from this memory (bytes/s)
system.mem_ctrl.bw_inst_read::total           2006417                       # Instruction read bandwidth from this memory (bytes/s)
system.mem_ctrl.bw_total::cpu.inst            2006417                       # Total bandwidth to/from this memory (bytes/s)
system.mem_ctrl.bw_total::cpu.data            1754946                       # Total bandwidth to/from this memory (bytes/s)
system.mem_ctrl.bw_total::l2cache.prefetcher       181915                       # Total bandwidth to/from this memory (bytes/s)
system.mem_ctrl.bw_total::total               3943278                       # Total bandwidth to/from this memory (bytes/s)
system.mem_ctrl.readReqs                          737                       # Number of read requests accepted
system.mem_ctrl.writeReqs                           0                       # Number of write requests accepted
system.mem_ctrl.readBursts                        737                       # Number of DRAM read bursts, including those serviced by the write queue
system.mem_ctrl.writeBursts                         0                       # Number of DRAM write bursts, including those merged in the write queue
system.mem_ctrl.bytesReadDRAM                   47168                       # Total number of bytes read from DRAM
system.mem_ctrl.bytesReadWrQ                        0                       # Total number of bytes read from write queue
system.mem_ctrl.bytesWritten                        0                       # Total number of bytes written to DRAM
system.mem_ctrl.bytesReadSys                    47168                       # Total read bytes from the system interface side
system.mem_ctrl.bytesWrittenSys                     0                       # Total written bytes from the system interface side
system.mem_ctrl.servicedByWrQ                       0                       # Number of DRAM read bursts serviced by the write queue
system.mem_ctrl.mergedWrBursts                      0                       # Number of DRAM write bursts merged with an existing one
system.mem_ctrl.neitherReadNorWriteReqs             0                       # Number of requests that are neither read nor write
system.mem_ctrl.perBankRdBursts::0                151                       # Per bank write bursts
system.mem_ctrl.perBankRdBursts::1                 72                       # Per bank write bursts
system.mem_ctrl.perBankRdBursts::2                110                       # Per bank write bursts
system.mem_ctrl.perBankRdBursts::3                 60                       # Per bank write bursts
system.mem_ctrl.perBankRdBursts::4                 33                       # Per bank write bursts
system.mem_ctrl.perBankRdBursts::5                  6                       # Per bank write bursts
system.mem_ctrl.perBankRdBursts::6                  5                       # Per bank write bursts
system.mem_ctrl.perBankRdBursts::7                  0                       # Per bank write bursts
system.mem_ctrl.perBankRdBursts::8                 18                       # Per bank write bursts
system.mem_ctrl.perBankRdBursts::9                  2                       # Per bank write bursts
system.mem_ctrl.perBankRdBursts::10                 0                       # Per bank write bursts
system.mem_ctrl.perBankRdBursts::11                65                       # Per bank write bursts
system.mem_ctrl.perBankRdBursts::12                64                       # Per bank write bursts
system.mem_ctrl.perBankRdBursts::13                65                       # Per bank write bursts
system.mem_ctrl.perBankRdBursts::14                68                       # Per bank write bursts
system.mem_ctrl.perBankRdBursts::15                18                       # Per bank write bursts
system.mem_ctrl.perBankWrBursts::0                  0                       # Per bank write bursts
system.mem_ctrl.perBankWrBursts::1                  0                       # Per bank write bursts
system.mem_ctrl.perBankWrBursts::2                  0                       # Per bank write bursts
system.mem_ctrl.perBankWrBursts::3                  0                       # Per bank write bursts
system.mem_ctrl.perBankWrBursts::4                  0                       # Per bank write bursts
system.mem_ctrl.perBankWrBursts::5                  0                       # Per bank write bursts
system.mem_ctrl.perBankWrBursts::6                  0                       # Per bank write bursts
system.mem_ctrl.perBankWrBursts::7                  0                       # Per bank write bursts
system.mem_ctrl.perBankWrBursts::8                  0                       # Per bank write bursts
system.mem_ctrl.perBankWrBursts::9                  0                       # Per bank write bursts
system.mem_ctrl.perBankWrBursts::10                 0                       # Per bank write bursts
system.mem_ctrl.perBankWrBursts::11                 0                       # Per bank write bursts
system.mem_ctrl.perBankWrBursts::12                 0                       # Per bank write bursts
system.mem_ctrl.perBankWrBursts::13                 0                       # Per bank write bursts
system.mem_ctrl.perBankWrBursts::14                 0                       # Per bank write bursts
system.mem_ctrl.perBankWrBursts::15                 0                       # Per bank write bursts
system.mem_ctrl.numRdRetry                          0                       # Number of times read queue was full causing retry
system.mem_ctrl.numWrRetry                          0                       # Number of times write queue was full causing retry
system.mem_ctrl.totGap                    11961264952                       # Total gap between requests
system.mem_ctrl.readPktSize::0                      0                       # Read request sizes (log2)
system.mem_ctrl.readPktSize::1                      0                       # Read request sizes (log2)
system.mem_ctrl.readPktSize::2                      0                       # Read request sizes (log2)
system.mem_ctrl.readPktSize::3                      0                       # Read request sizes (log2)
system.mem_ctrl.readPktSize::4                      0                       # Read request sizes (log2)
system.mem_ctrl.readPktSize::5                      0                       # Read request sizes (log2)
system.mem_ctrl.readPktSize::6                    737                       # Read request sizes (log2)
system.mem_ctrl.writePktSize::0                     0                       # Write request sizes (log2)
system.mem_ctrl.writePktSize::1                     0                       # Write request sizes (log2)
system.mem_ctrl.writePktSize::2                     0                       # Write request sizes (log2)
system.mem_ctrl.writePktSize::3                     0                       # Write request sizes (log2)
system.mem_ctrl.writePktSize::4                     0                       # Write request sizes (log2)
system.mem_ctrl.writePktSize::5                     0                       # Write request sizes (log2)
system.mem_ctrl.writePktSize::6                     0                       # Write request sizes (log2)
system.mem_ctrl.rdQLenPdf::0                      585                       # What read queue length does an incoming req see
system.mem_ctrl.rdQLenPdf::1                      129                       # What read queue length does an incoming req see
system.mem_ctrl.rdQLenPdf::2                       23                       # What read queue length does an incoming req see
system.mem_ctrl.rdQLenPdf::3                        0                       # What read queue length does an incoming req see
system.mem_ctrl.rdQLenPdf::4                        0                       # What read queue length does an incoming req see
system.mem_ctrl.rdQLenPdf::5                        0                       # What read queue length does an incoming req see
system.mem_ctrl.rdQLenPdf::6                        0                       # What read queue length does an incoming req see
system.mem_ctrl.rdQLenPdf::7                        0                       # What read queue length does an incoming req see
system.mem_ctrl.rdQLenPdf::8                        0                       # What read queue length does an incoming req see
system.mem_ctrl.rdQLenPdf::9                        0                       # What read queue length does an incoming req see
system.mem_ctrl.rdQLenPdf::10                       0                       # What read queue length does an incoming req see
system.mem_ctrl.rdQLenPdf::11                       0                       # What read queue length does an incoming req see
system.mem_ctrl.rdQLenPdf::12                       0                       # What read queue length does an incoming req see
system.mem_ctrl.rdQLenPdf::13                       0                       # What read queue length does an incoming req see
system.mem_ctrl.rdQLenPdf::14                       0                       # What read queue length does an incoming req see
system.mem_ctrl.rdQLenPdf::15                       0                       # What read queue length does an incoming req see
system.mem_ctrl.rdQLenPdf::16                       0                       # What read queue length does an incoming req see
system.mem_ctrl.rdQLenPdf::17                       0                       # What read queue length does an incoming req see
system.mem_ctrl.rdQLenPdf::18                       0                       # What read queue length does an incoming req see
system.mem_ctrl.rdQLenPdf::19                       0                       # What read queue length does an incoming req see
system.mem_ctrl.rdQLenPdf::20                       0                       # What read queue length does an incoming req see
system.mem_ctrl.rdQLenPdf::21                       0                       # What read queue length does an incoming req see
system.mem_ctrl.rdQLenPdf::22                       0                       # What read queue length does an incoming req see
system.mem_ctrl.rdQLenPdf::23                       0                       # What read queue length does an incoming req see
system.mem_ctrl.rdQLenPdf::24                       0                       # What read queue length does an incoming req see
system.mem_ctrl.rdQLenPdf::25                       0                       # What read queue length does an incoming req see
system.mem_ctrl.rdQLenPdf::26                       0                       # What read queue length does an incoming req see
system.mem_ctrl.rdQLenPdf::27                       0                       # What read queue length does an incoming req see
system.mem_ctrl.rdQLenPdf::28                       0                       # What read queue length does an incoming req see
system.mem_ctrl.rdQLenPdf::29                       0                       # What read queue length does an incoming req see
system.mem_ctrl.rdQLenPdf::30                       0                       # What read queue length does an incoming req see
system.mem_ctrl.rdQLenPdf::31                       0                       # What read queue length does an incoming req see
system.mem_ctrl.wrQLenPdf::0                        0                       # What write queue length does an incoming req see
system.mem_ctrl.wrQLenPdf::1                        0                       # What write queue length does an incoming req see
system.mem_ctrl.wrQLenPdf::2                        0                       # What write queue length does an incoming req see
system.mem_ctrl.wrQLenPdf::3                        0                       # What write queue length does an incoming req see
system.mem_ctrl.wrQLenPdf::4                        0                       # What write queue length does an incoming req see
system.mem_ctrl.wrQLenPdf::5                        0                       # What write queue length does an incoming req see
system.mem_ctrl.wrQLenPdf::6                        0                       # What write queue length does an incoming req see
system.mem_ctrl.wrQLenPdf::7                        0                       # What write queue length does an incoming req see
system.mem_ctrl.wrQLenPdf::8                        0                       # What write queue length does an incoming req see
system.mem_ctrl.wrQLenPdf::9                        0                       # What write queue length does an incoming req see
system.mem_ctrl.wrQLenPdf::10                       0                       # What write queue length does an incoming req see
system.mem_ctrl.wrQLenPdf::11                       0                       # What write queue length does an incoming req see
system.mem_ctrl.wrQLenPdf::12                       0                       # What write queue length does an incoming req see
system.mem_ctrl.wrQLenPdf::13                       0                       # What write queue length does an incoming req see
system.mem_ctrl.wrQLenPdf::14                       0                       # What write queue length does an incoming req see
system.mem_ctrl.wrQLenPdf::15                       0                       # What write queue length does an incoming req see
system.mem_ctrl.wrQLenPdf::16                       0                       # What write queue length does an incoming req see
system.mem_ctrl.wrQLenPdf::17                       0                       # What write queue length does an incoming req see
system.mem_ctrl.wrQLenPdf::18                       0                       # What write queue length does an incoming req see
system.mem_ctrl.wrQLenPdf::19                       0                       # What write queue length does an incoming req see
system.mem_ctrl.wrQLenPdf::20                       0                       # What write queue length does an incoming req see
system.mem_ctrl.wrQLenPdf::21                       0                       # What write queue length does an incoming req see
system.mem_ctrl.wrQLenPdf::22                       0                       # What write queue length does an incoming req see
system.mem_ctrl.wrQLenPdf::23                       0                       # What write queue length does an incoming req see
system.mem_ctrl.wrQLenPdf::24                       0                       # What write queue length does an incoming req see
system.mem_ctrl.wrQLenPdf::25                       0                       # What write queue length does an incoming req see
system.mem_ctrl.wrQLenPdf::26                       0                       # What write queue length does an incoming req see
system.mem_ctrl.wrQLenPdf::27                       0                       # What write queue length does an incoming req see
system.mem_ctrl.wrQLenPdf::28                       0                       # What write queue length does an incoming req see
system.mem_ctrl.wrQLenPdf::29                       0                       # What write queue length does an incoming req see
system.mem_ctrl.wrQLenPdf::30                       0                       # What write queue length does an incoming req see
system.mem_ctrl.wrQLenPdf::31                       0                       # What write queue length does an incoming req see
system.mem_ctrl.wrQLenPdf::32                       0                       # What write queue length does an incoming req see
system.mem_ctrl.wrQLenPdf::33                       0                       # What write queue length does an incoming req see
system.mem_ctrl.wrQLenPdf::34                       0                       # What write queue length does an incoming req see
system.mem_ctrl.wrQLenPdf::35                       0                       # What write queue length does an incoming req see
system.mem_ctrl.wrQLenPdf::36                       0                       # What write queue length does an incoming req see
system.mem_ctrl.wrQLenPdf::37                       0                       # What write queue length does an incoming req see
system.mem_ctrl.wrQLenPdf::38                       0                       # What write queue length does an incoming req see
system.mem_ctrl.wrQLenPdf::39                       0                       # What write queue length does an incoming req see
system.mem_ctrl.wrQLenPdf::40                       0                       # What write queue length does an incoming req see
system.mem_ctrl.wrQLenPdf::41                       0                       # What write queue length does an incoming req see
system.mem_ctrl.wrQLenPdf::42                       0                       # What write queue length does an incoming req see
system.mem_ctrl.wrQLenPdf::43                       0                       # What write queue length does an incoming req see
system.mem_ctrl.wrQLenPdf::44                       0                       # What write queue length does an incoming req see
system.mem_ctrl.wrQLenPdf::45                       0                       # What write queue length does an incoming req see
system.mem_ctrl.wrQLenPdf::46                       0                       # What write queue length does an incoming req see
system.mem_ctrl.wrQLenPdf::47                       0                       # What write queue length does an incoming req see
system.mem_ctrl.wrQLenPdf::48                       0                       # What write queue length does an incoming req see
system.mem_ctrl.wrQLenPdf::49                       0                       # What write queue length does an incoming req see
system.mem_ctrl.wrQLenPdf::50                       0                       # What write queue length does an incoming req see
system.mem_ctrl.wrQLenPdf::51                       0                       # What write queue length does an incoming req see
system.mem_ctrl.wrQLenPdf::52                       0                       # What write queue length does an incoming req see
system.mem_ctrl.wrQLenPdf::53                       0                       # What write queue length does an incoming req see
system.mem_ctrl.wrQLenPdf::54                       0                       # What write queue length does an incoming req see
system.mem_ctrl.wrQLenPdf::55                       0                       # What write queue length does an incoming req see
system.mem_ctrl.wrQLenPdf::56                       0                       # What write queue length does an incoming req see
system.mem_ctrl.wrQLenPdf::57                       0                       # What write queue length does an incoming req see
system.mem_ctrl.wrQLenPdf::58                       0                       # What write queue length does an incoming req see
system.mem_ctrl.wrQLenPdf::59                       0                       # What write queue length does an incoming req see
system.mem_ctrl.wrQLenPdf::60                       0                       # What write queue length does an incoming req see
system.mem_ctrl.wrQLenPdf::61                       0                       # What write queue length does an incoming req see
system.mem_ctrl.wrQLenPdf::62                       0                       # What write queue length does an incoming req see
system.mem_ctrl.wrQLenPdf::63                       0                       # What write queue length does an incoming req see
system.mem_ctrl.bytesPerActivate::samples          100                       # Bytes accessed per row activation
system.mem_ctrl.bytesPerActivate::mean     456.320000                       # Bytes accessed per row activation
system.mem_ctrl.bytesPerActivate::gmean    287.238296                       # Bytes accessed per row activation
system.mem_ctrl.bytesPerActivate::stdev    375.463912                       # Bytes accessed per row activation
system.mem_ctrl.bytesPerActivate::0-127            24     24.00%     24.00% # Bytes accessed per row activation
system.mem_ctrl.bytesPerActivate::128-255           17     17.00%     41.00% # Bytes accessed per row activation
system.mem_ctrl.bytesPerActivate::256-383           13     13.00%     54.00% # Bytes accessed per row activation
system.mem_ctrl.bytesPerActivate::384-511            7      7.00%     61.00% # Bytes accessed per row activation
system.mem_ctrl.bytesPerActivate::512-639            7      7.00%     68.00% # Bytes accessed per row activation
system.mem_ctrl.bytesPerActivate::640-767            4      4.00%     72.00% # Bytes accessed per row activation
system.mem_ctrl.bytesPerActivate::768-895            3      3.00%     75.00% # Bytes accessed per row activation
system.mem_ctrl.bytesPerActivate::896-1023            3      3.00%     78.00% # Bytes accessed per row activation
system.mem_ctrl.bytesPerActivate::1024-1151           22     22.00%    100.00% # Bytes accessed per row activation
system.mem_ctrl.bytesPerActivate::total           100                       # Bytes accessed per row activation
system.mem_ctrl.totQLat                      10007907                       # Total ticks spent queuing
system.mem_ctrl.totMemAccLat                 23826657                       # Total ticks spent from burst creation until serviced by the DRAM
system.mem_ctrl.totBusLat                     3685000                       # Total ticks spent in databus transfers
system.mem_ctrl.avgQLat                      13579.25                       # Average queueing delay per DRAM burst
system.mem_ctrl.avgBusLat                     5000.00                       # Average bus latency per DRAM burst
system.mem_ctrl.avgMemAccLat                 32329.25                       # Average memory access latency per DRAM burst
system.mem_ctrl.avgRdBW                          3.94                       # Average DRAM read bandwidth in MiByte/s
system.mem_ctrl.avgWrBW                          0.00                       # Average achieved write bandwidth in MiByte/s
system.mem_ctrl.avgRdBWSys                       3.94                       # Average system read bandwidth in MiByte/s
system.mem_ctrl.avgWrBWSys                       0.00                       # Average system write bandwidth in MiByte/s
system.mem_ctrl.peakBW                       12800.00                       # Theoretical peak bandwidth in MiByte/s
system.mem_ctrl.busUtil                          0.03                       # Data bus utilization in percentage
system.mem_ctrl.busUtilRead                      0.03                       # Data bus utilization in percentage for reads
system.mem_ctrl.busUtilWrite                     0.00                       # Data bus utilization in percentage for writes
system.mem_ctrl.avgRdQLen                        1.00                       # Average read queue length when enqueuing
system.mem_ctrl.avgWrQLen                        0.00                       # Average write queue length when enqueuing
system.mem_ctrl.readRowHits                       632                       # Number of row buffer hits during reads
system.mem_ctrl.writeRowHits                        0                       # Number of row buffer hits during writes
system.mem_ctrl.readRowHitRate                  85.75                       # Row buffer hit rate for reads
system.mem_ctrl.writeRowHitRate                   nan                       # Row buffer hit rate for writes
system.mem_ctrl.avgGap                    16229667.51                       # Average gap between requests
system.mem_ctrl.pageHitRate                     85.75                       # Row buffer hit rate, read and write combined
system.mem_ctrl_0.actEnergy                    492660                       # Energy for activate commands per rank (pJ)
system.mem_ctrl_0.preEnergy                    250470                       # Energy for precharge commands per rank (pJ)
system.mem_ctrl_0.readEnergy                  3120180                       # Energy for read commands per rank (pJ)
system.mem_ctrl_0.writeEnergy                       0                       # Energy for write commands per rank (pJ)
system.mem_ctrl_0.refreshEnergy          9834240.000000                       # Energy for refresh commands per rank (pJ)
system.mem_ctrl_0.actBackEnergy               7237290                       # Energy for active background per rank (pJ)
system.mem_ctrl_0.preBackEnergy                384000                       # Energy for precharge background per rank (pJ)
system.mem_ctrl_0.actPowerDownEnergy         31472550                       # Energy for active power-down per rank (pJ)
system.mem_ctrl_0.prePowerDownEnergy         10606560                       # Energy for precharge power-down per rank (pJ)
system.mem_ctrl_0.selfRefreshEnergy        2844651180                       # Energy for self refresh per rank (pJ)
system.mem_ctrl_0.totalEnergy              2908049130                       # Total energy per rank (pJ)
system.mem_ctrl_0.averagePower             243.114954                       # Core power per rank (mW)
system.mem_ctrl_0.totalIdleTime           11944424770                       # Total Idle time Per DRAM Rank
system.mem_ctrl_0.memoryStateTime::IDLE        600260                       # Time in different power states
system.mem_ctrl_0.memoryStateTime::REF        4172000                       # Time in different power states
system.mem_ctrl_0.memoryStateTime::SREF   11848111360                       # Time in different power states
system.mem_ctrl_0.memoryStateTime::PRE_PDN     27622149                       # Time in different power states
system.mem_ctrl_0.memoryStateTime::ACT       12098932                       # Time in different power states
system.mem_ctrl_0.memoryStateTime::ACT_PDN     69017071                       # Time in different power states
system.mem_ctrl_1.actEnergy                    257040                       # Energy for activate commands per rank (pJ)
system.mem_ctrl_1.preEnergy                    129030                       # Energy for precharge commands per rank (pJ)
system.mem_ctrl_1.readEnergy                  2142000                       # Energy for read commands per rank (pJ)
system.mem_ctrl_1.writeEnergy                       0                       # Energy for write commands per rank (pJ)
system.mem_ctrl_1.refreshEnergy          6146400.000000                       # Energy for refresh commands per rank (pJ)
system.mem_ctrl_1.actBackEnergy               4548030                       # Energy for active background per rank (pJ)
system.mem_ctrl_1.preBackEnergy                613920                       # Energy for precharge background per rank (pJ)
system.mem_ctrl_1.actPowerDownEnergy         22689420                       # Energy for active power-down per rank (pJ)
system.mem_ctrl_1.prePowerDownEnergy          4282080                       # Energy for precharge power-down per rank (pJ)
system.mem_ctrl_1.selfRefreshEnergy        2853946140                       # Energy for self refresh per rank (pJ)
system.mem_ctrl_1.totalEnergy              2894754060                       # Total energy per rank (pJ)
system.mem_ctrl_1.averagePower             242.003477                       # Core power per rank (mW)
system.mem_ctrl_1.totalIdleTime           11949417883                       # Total Idle time Per DRAM Rank
system.mem_ctrl_1.memoryStateTime::IDLE       1344274                       # Time in different power states
system.mem_ctrl_1.memoryStateTime::REF        2606000                       # Time in different power states
system.mem_ctrl_1.memoryStateTime::SREF   11889140480                       # Time in different power states
system.mem_ctrl_1.memoryStateTime::PRE_PDN     11150752                       # Time in different power states
system.mem_ctrl_1.memoryStateTime::ACT        7622630                       # Time in different power states
system.mem_ctrl_1.memoryStateTime::ACT_PDN     49757636                       # Time in different power states
system.pwrStateResidencyTicks::UNDEFINED  11961621772                       # Cumulative time (in ticks) in various power states
system.cpu.branchPred.lookups                 3122664                       # Number of BP lookups
system.cpu.branchPred.condPredicted           2006402                       # Number of conditional branches predicted
system.cpu.branchPred.condIncorrect             69773                       # Number of conditional branches incorrect
system.cpu.branchPred.BTBLookups              2428576                       # Number of BTB lookups
system.cpu.branchPred.BTBHits                 2272214                       # Number of BTB hits
system.cpu.branchPred.BTBCorrect                    0                       # Number of correct BTB predictions (this stat may not work properly.
system.cpu.branchPred.BTBHitPct             93.561577                       # BTB Hit Percentage
system.cpu.branchPred.usedRAS                       0                       # Number of times the RAS was used to get a target.
system.cpu.branchPred.RASInCorrect                  0                       # Number of incorrect RAS predictions.
system.cpu.branchPred.indirectLookups          149851                       # Number of indirect predictor lookups.
system.cpu.branchPred.indirectHits             146907                       # Number of indirect target hits.
system.cpu.branchPred.indirectMisses             2944                       # Number of indirect misses.
system.cpu.branchPredindirectMispredicted         2419                       # Number of mispredicted indirect branches.
system.cpu.dtb.read_hits                            0                       # DTB read hits
system.cpu.dtb.read_misses                          0                       # DTB read misses
system.cpu.dtb.read_accesses                        0                       # DTB read accesses
system.cpu.dtb.write_hits                           0                       # DTB write hits
system.cpu.dtb.write_misses                         0                       # DTB write misses
system.cpu.dtb.write_accesses                       0                       # DTB write accesses
system.cpu.dtb.hits                                 0                       # DTB hits
system.cpu.dtb.misses                               0                       # DTB misses
system.cpu.dtb.accesses                             0                       # DTB accesses
system.cpu.itb.read_hits                            0                       # DTB read hits
system.cpu.itb.read_misses                          0                       # DTB read misses
system.cpu.itb.read_accesses                        0                       # DTB read accesses
system.cpu.itb.write_hits                           0                       # DTB write hits
system.cpu.itb.write_misses                         0                       # DTB write misses
system.cpu.itb.write_accesses                       0                       # DTB write accesses
system.cpu.itb.hits                                 0                       # DTB hits
system.cpu.itb.misses                               0                       # DTB misses
system.cpu.itb.accesses                             0                       # DTB accesses
system.cpu.workload.numSyscalls                  1527                       # Number of system calls
system.cpu.pwrStateResidencyTicks::ON     11961621772                       # Cumulative time (in ticks) in various power states
system.cpu.numCycles                         38216044                       # number of cpu cycles simulated
system.cpu.numWorkItemsStarted                      0                       # number of work items this cpu started
system.cpu.numWorkItemsCompleted                    0                       # number of work items this cpu completed
system.cpu.committedInsts                    41826015                       # Number of instructions committed
system.cpu.committedOps                      41826015                       # Number of ops (including micro ops) committed
system.cpu.discardedOps                         14461                       # Number of ops (including micro ops) which were discarded before commit
system.cpu.numFetchSuspends                         0                       # Number of times Execute suspended instruction fetching
system.cpu.cpi                               0.913691                       # CPI: cycles per instruction
system.cpu.ipc                               1.094462                       # IPC: instructions per cycle
system.cpu.op_class_0::No_OpClass                1527      0.00%      0.00% # Class of committed instruction
system.cpu.op_class_0::IntAdd                       0      0.00%      0.00% # Class of committed instruction
system.cpu.op_class_0::IntSub                       0      0.00%      0.00% # Class of committed instruction
system.cpu.op_class_0::IntMult                  38993      0.09%      0.10% # Class of committed instruction
system.cpu.op_class_0::IntDiv                       2      0.00%      0.10% # Class of committed instruction
system.cpu.op_class_0::IntLogic                     0      0.00%      0.10% # Class of committed instruction
system.cpu.op_class_0::IntShift                     0      0.00%      0.10% # Class of committed instruction
system.cpu.op_class_0::IntMov                       0      0.00%      0.10% # Class of committed instruction
system.cpu.op_class_0::IntCtrl                      0      0.00%      0.10% # Class of committed instruction
system.cpu.op_class_0::IntALU                31235913     74.68%     74.78% # Class of committed instruction
system.cpu.op_class_0::FloatAdd                     0      0.00%     74.78% # Class of committed instruction
system.cpu.op_class_0::FloatCmp                     0      0.00%     74.78% # Class of committed instruction
system.cpu.op_class_0::FloatCvt                     0      0.00%     74.78% # Class of committed instruction
system.cpu.op_class_0::FloatMult                    0      0.00%     74.78% # Class of committed instruction
system.cpu.op_class_0::FloatMultAcc                 0      0.00%     74.78% # Class of committed instruction
system.cpu.op_class_0::FloatDiv                     0      0.00%     74.78% # Class of committed instruction
system.cpu.op_class_0::FloatMisc                    0      0.00%     74.78% # Class of committed instruction
system.cpu.op_class_0::FloatSqrt                    0      0.00%     74.78% # Class of committed instruction
system.cpu.op_class_0::SimdAdd                      0      0.00%     74.78% # Class of committed instruction
system.cpu.op_class_0::SimdAddAcc                   0      0.00%     74.78% # Class of committed instruction
system.cpu.op_class_0::SimdAlu                      0      0.00%     74.78% # Class of committed instruction
system.cpu.op_class_0::SimdCmp                      0      0.00%     74.78% # Class of committed instruction
system.cpu.op_class_0::SimdCvt                      0      0.00%     74.78% # Class of committed instruction
system.cpu.op_class_0::SimdMisc                     0      0.00%     74.78% # Class of committed instruction
system.cpu.op_class_0::SimdMult                     0      0.00%     74.78% # Class of committed instruction
system.cpu.op_class_0::SimdMultAcc                  0      0.00%     74.78% # Class of committed instruction
system.cpu.op_class_0::SimdShift                    0      0.00%     74.78% # Class of committed instruction
system.cpu.op_class_0::SimdShiftAcc                 0      0.00%     74.78% # Class of committed instruction
system.cpu.op_class_0::SimdSqrt                     0      0.00%     74.78% # Class of committed instruction
system.cpu.op_class_0::SimdFloatAdd                 0      0.00%     74.78% # Class of committed instruction
system.cpu.op_class_0::SimdFloatAlu                 0      0.00%     74.78% # Class of committed instruction
system.cpu.op_class_0::SimdFloatCmp                 0      0.00%     74.78% # Class of committed instruction
system.cpu.op_class_0::SimdFloatCvt                 0      0.00%     74.78% # Class of committed instruction
system.cpu.op_class_0::SimdFloatDiv                 0      0.00%     74.78% # Class of committed instruction
system.cpu.op_class_0::SimdFloatMisc                0      0.00%     74.78% # Class of committed instruction
system.cpu.op_class_0::SimdFloatMult                0      0.00%     74.78% # Class of committed instruction
system.cpu.op_class_0::SimdFloatMultAcc             0      0.00%     74.78% # Class of committed instruction
system.cpu.op_class_0::SimdFloatSqrt                0      0.00%     74.78% # Class of committed instruction
system.cpu.op_class_0::MemRead                8546088     20.43%     95.21% # Class of committed instruction
system.cpu.op_class_0::MemWrite               2003492      4.79%    100.00% # Class of committed instruction
system.cpu.op_class_0::FloatMemRead                 0      0.00%    100.00% # Class of committed instruction
system.cpu.op_class_0::FloatMemWrite                0      0.00%    100.00% # Class of committed instruction
system.cpu.op_class_0::IprAccess                    0      0.00%    100.00% # Class of committed instruction
system.cpu.op_class_0::InstPrefetch                 0      0.00%    100.00% # Class of committed instruction
system.cpu.op_class_0::total                 41826015                       # Class of committed instruction
system.cpu.tickCycles                        37628207                       # Number of cycles that the object actually ticked
system.cpu.idleCycles                          587837                       # Total number of cycles that the object has spent stopped
system.cpu.fetch2.int_instructions           31320868                       # Number of integer instructions successfully decoded
system.cpu.fetch2.fp_instructions                   0                       # Number of floating point instructions successfully decoded
system.cpu.fetch2.vec_instructions                  0                       # Number of SIMD instructions successfully decoded
system.cpu.fetch2.load_instructions           8579392                       # Number of memory load instructions successfully decoded
system.cpu.fetch2.store_instructions          2008353                       # Number of memory store instructions successfully decoded
system.cpu.dcache.tags.pwrStateResidencyTicks::UNDEFINED  11961621772                       # Cumulative time (in ticks) in various power states
system.cpu.dcache.tags.replacements                 0                       # number of replacements
system.cpu.dcache.tags.tagsinuse           356.147164                       # Cycle average of tags in use
system.cpu.dcache.tags.total_refs            10571003                       # Total number of references to valid blocks.
system.cpu.dcache.tags.sampled_refs               360                       # Sample count of references to valid blocks.
system.cpu.dcache.tags.avg_refs          29363.897222                       # Average number of references to valid blocks.
system.cpu.dcache.tags.warmup_cycle            526466                       # Cycle when the warmup percentage was hit.
system.cpu.dcache.tags.occ_blocks::cpu.data   356.147164                       # Average occupied blocks per requestor
system.cpu.dcache.tags.occ_percent::cpu.data     0.695600                       # Average percentage of cache occupancy
system.cpu.dcache.tags.occ_percent::total     0.695600                       # Average percentage of cache occupancy
system.cpu.dcache.tags.occ_task_id_blocks::1024          360                       # Occupied blocks per task id
system.cpu.dcache.tags.age_task_id_blocks_1024::0            3                       # Occupied blocks per task id
system.cpu.dcache.tags.age_task_id_blocks_1024::4          357                       # Occupied blocks per task id
system.cpu.dcache.tags.occ_task_id_percent::1024     0.703125                       # Percentage of cache occupancy per task id
system.cpu.dcache.tags.tag_accesses          42286028                       # Number of tag accesses
system.cpu.dcache.tags.data_accesses         42286028                       # Number of data accesses
system.cpu.dcache.pwrStateResidencyTicks::UNDEFINED  11961621772                       # Cumulative time (in ticks) in various power states
system.cpu.dcache.ReadReq_hits::cpu.data      8548136                       # number of ReadReq hits
system.cpu.dcache.ReadReq_hits::total         8548136                       # number of ReadReq hits
system.cpu.dcache.WriteReq_hits::cpu.data      2022867                       # number of WriteReq hits
system.cpu.dcache.WriteReq_hits::total        2022867                       # number of WriteReq hits
system.cpu.dcache.demand_hits::cpu.data      10571003                       # number of demand (read+write) hits
system.cpu.dcache.demand_hits::total         10571003                       # number of demand (read+write) hits
system.cpu.dcache.overall_hits::cpu.data     10571003                       # number of overall hits
system.cpu.dcache.overall_hits::total        10571003                       # number of overall hits
system.cpu.dcache.ReadReq_misses::cpu.data          299                       # number of ReadReq misses
system.cpu.dcache.ReadReq_misses::total           299                       # number of ReadReq misses
system.cpu.dcache.WriteReq_misses::cpu.data          115                       # number of WriteReq misses
system.cpu.dcache.WriteReq_misses::total          115                       # number of WriteReq misses
system.cpu.dcache.demand_misses::cpu.data          414                       # number of demand (read+write) misses
system.cpu.dcache.demand_misses::total            414                       # number of demand (read+write) misses
system.cpu.dcache.overall_misses::cpu.data          414                       # number of overall misses
system.cpu.dcache.overall_misses::total           414                       # number of overall misses
system.cpu.dcache.ReadReq_miss_latency::cpu.data     18439143                       # number of ReadReq miss cycles
system.cpu.dcache.ReadReq_miss_latency::total     18439143                       # number of ReadReq miss cycles
system.cpu.dcache.WriteReq_miss_latency::cpu.data      5511304                       # number of WriteReq miss cycles
system.cpu.dcache.WriteReq_miss_latency::total      5511304                       # number of WriteReq miss cycles
system.cpu.dcache.demand_miss_latency::cpu.data     23950447                       # number of demand (read+write) miss cycles
system.cpu.dcache.demand_miss_latency::total     23950447                       # number of demand (read+write) miss cycles
system.cpu.dcache.overall_miss_latency::cpu.data     23950447                       # number of overall miss cycles
system.cpu.dcache.overall_miss_latency::total     23950447                       # number of overall miss cycles
system.cpu.dcache.ReadReq_accesses::cpu.data      8548435                       # number of ReadReq accesses(hits+misses)
system.cpu.dcache.ReadReq_accesses::total      8548435                       # number of ReadReq accesses(hits+misses)
system.cpu.dcache.WriteReq_accesses::cpu.data      2022982                       # number of WriteReq accesses(hits+misses)
system.cpu.dcache.WriteReq_accesses::total      2022982                       # number of WriteReq accesses(hits+misses)
system.cpu.dcache.demand_accesses::cpu.data     10571417                       # number of demand (read+write) accesses
system.cpu.dcache.demand_accesses::total     10571417                       # number of demand (read+write) accesses
system.cpu.dcache.overall_accesses::cpu.data     10571417                       # number of overall (read+write) accesses
system.cpu.dcache.overall_accesses::total     10571417                       # number of overall (read+write) accesses
system.cpu.dcache.ReadReq_miss_rate::cpu.data     0.000035                       # miss rate for ReadReq accesses
system.cpu.dcache.ReadReq_miss_rate::total     0.000035                       # miss rate for ReadReq accesses
system.cpu.dcache.WriteReq_miss_rate::cpu.data     0.000057                       # miss rate for WriteReq accesses
system.cpu.dcache.WriteReq_miss_rate::total     0.000057                       # miss rate for WriteReq accesses
system.cpu.dcache.demand_miss_rate::cpu.data     0.000039                       # miss rate for demand accesses
system.cpu.dcache.demand_miss_rate::total     0.000039                       # miss rate for demand accesses
system.cpu.dcache.overall_miss_rate::cpu.data     0.000039                       # miss rate for overall accesses
system.cpu.dcache.overall_miss_rate::total     0.000039                       # miss rate for overall accesses
system.cpu.dcache.ReadReq_avg_miss_latency::cpu.data 61669.374582                       # average ReadReq miss latency
system.cpu.dcache.ReadReq_avg_miss_latency::total 61669.374582                       # average ReadReq miss latency
system.cpu.dcache.WriteReq_avg_miss_latency::cpu.data 47924.382609                       # average WriteReq miss latency
system.cpu.dcache.WriteReq_avg_miss_latency::total 47924.382609                       # average WriteReq miss latency
system.cpu.dcache.demand_avg_miss_latency::cpu.data 57851.321256                       # average overall miss latency
system.cpu.dcache.demand_avg_miss_latency::total 57851.321256                       # average overall miss latency
system.cpu.dcache.overall_avg_miss_latency::cpu.data 57851.321256                       # average overall miss latency
system.cpu.dcache.overall_avg_miss_latency::total 57851.321256                       # average overall miss latency
system.cpu.dcache.blocked_cycles::no_mshrs            0                       # number of cycles access was blocked
system.cpu.dcache.blocked_cycles::no_targets            0                       # number of cycles access was blocked
system.cpu.dcache.blocked::no_mshrs                 0                       # number of cycles access was blocked
system.cpu.dcache.blocked::no_targets               0                       # number of cycles access was blocked
system.cpu.dcache.avg_blocked_cycles::no_mshrs          nan                       # average number of cycles each access was blocked
system.cpu.dcache.avg_blocked_cycles::no_targets          nan                       # average number of cycles each access was blocked
system.cpu.dcache.ReadReq_mshr_hits::cpu.data            3                       # number of ReadReq MSHR hits
system.cpu.dcache.ReadReq_mshr_hits::total            3                       # number of ReadReq MSHR hits
system.cpu.dcache.WriteReq_mshr_hits::cpu.data           51                       # number of WriteReq MSHR hits
system.cpu.dcache.WriteReq_mshr_hits::total           51                       # number of WriteReq MSHR hits
system.cpu.dcache.demand_mshr_hits::cpu.data           54                       # number of demand (read+write) MSHR hits
system.cpu.dcache.demand_mshr_hits::total           54                       # number of demand (read+write) MSHR hits
system.cpu.dcache.overall_mshr_hits::cpu.data           54                       # number of overall MSHR hits
system.cpu.dcache.overall_mshr_hits::total           54                       # number of overall MSHR hits
system.cpu.dcache.ReadReq_mshr_misses::cpu.data          296                       # number of ReadReq MSHR misses
system.cpu.dcache.ReadReq_mshr_misses::total          296                       # number of ReadReq MSHR misses
system.cpu.dcache.WriteReq_mshr_misses::cpu.data           64                       # number of WriteReq MSHR misses
system.cpu.dcache.WriteReq_mshr_misses::total           64                       # number of WriteReq MSHR misses
system.cpu.dcache.demand_mshr_misses::cpu.data          360                       # number of demand (read+write) MSHR misses
system.cpu.dcache.demand_mshr_misses::total          360                       # number of demand (read+write) MSHR misses
system.cpu.dcache.overall_mshr_misses::cpu.data          360                       # number of overall MSHR misses
system.cpu.dcache.overall_mshr_misses::total          360                       # number of overall MSHR misses
system.cpu.dcache.ReadReq_mshr_miss_latency::cpu.data     18116440                       # number of ReadReq MSHR miss cycles
system.cpu.dcache.ReadReq_mshr_miss_latency::total     18116440                       # number of ReadReq MSHR miss cycles
system.cpu.dcache.WriteReq_mshr_miss_latency::cpu.data      3298394                       # number of WriteReq MSHR miss cycles
system.cpu.dcache.WriteReq_mshr_miss_latency::total      3298394                       # number of WriteReq MSHR miss cycles
system.cpu.dcache.demand_mshr_miss_latency::cpu.data     21414834                       # number of demand (read+write) MSHR miss cycles
system.cpu.dcache.demand_mshr_miss_latency::total     21414834                       # number of demand (read+write) MSHR miss cycles
system.cpu.dcache.overall_mshr_miss_latency::cpu.data     21414834                       # number of overall MSHR miss cycles
system.cpu.dcache.overall_mshr_miss_latency::total     21414834                       # number of overall MSHR miss cycles
system.cpu.dcache.ReadReq_mshr_miss_rate::cpu.data     0.000035                       # mshr miss rate for ReadReq accesses
system.cpu.dcache.ReadReq_mshr_miss_rate::total     0.000035                       # mshr miss rate for ReadReq accesses
system.cpu.dcache.WriteReq_mshr_miss_rate::cpu.data     0.000032                       # mshr miss rate for WriteReq accesses
system.cpu.dcache.WriteReq_mshr_miss_rate::total     0.000032                       # mshr miss rate for WriteReq accesses
system.cpu.dcache.demand_mshr_miss_rate::cpu.data     0.000034                       # mshr miss rate for demand accesses
system.cpu.dcache.demand_mshr_miss_rate::total     0.000034                       # mshr miss rate for demand accesses
system.cpu.dcache.overall_mshr_miss_rate::cpu.data     0.000034                       # mshr miss rate for overall accesses
system.cpu.dcache.overall_mshr_miss_rate::total     0.000034                       # mshr miss rate for overall accesses
system.cpu.dcache.ReadReq_avg_mshr_miss_latency::cpu.data 61204.189189                       # average ReadReq mshr miss latency
system.cpu.dcache.ReadReq_avg_mshr_miss_latency::total 61204.189189                       # average ReadReq mshr miss latency
system.cpu.dcache.WriteReq_avg_mshr_miss_latency::cpu.data 51537.406250                       # average WriteReq mshr miss latency
system.cpu.dcache.WriteReq_avg_mshr_miss_latency::total 51537.406250                       # average WriteReq mshr miss latency
system.cpu.dcache.demand_avg_mshr_miss_latency::cpu.data 59485.650000                       # average overall mshr miss latency
system.cpu.dcache.demand_avg_mshr_miss_latency::total 59485.650000                       # average overall mshr miss latency
system.cpu.dcache.overall_avg_mshr_miss_latency::cpu.data 59485.650000                       # average overall mshr miss latency
system.cpu.dcache.overall_avg_mshr_miss_latency::total 59485.650000                       # average overall mshr miss latency
system.cpu.icache.tags.pwrStateResidencyTicks::UNDEFINED  11961621772                       # Cumulative time (in ticks) in various power states
system.cpu.icache.tags.replacements              7079                       # number of replacements
system.cpu.icache.tags.tagsinuse           316.589596                       # Cycle average of tags in use
system.cpu.icache.tags.total_refs             8009458                       # Total number of references to valid blocks.
system.cpu.icache.tags.sampled_refs              7404                       # Sample count of references to valid blocks.
system.cpu.icache.tags.avg_refs           1081.774446                       # Average number of references to valid blocks.
system.cpu.icache.tags.warmup_cycle             72929                       # Cycle when the warmup percentage was hit.
system.cpu.icache.tags.occ_blocks::cpu.inst   316.589596                       # Average occupied blocks per requestor
system.cpu.icache.tags.occ_percent::cpu.inst     0.618339                       # Average percentage of cache occupancy
system.cpu.icache.tags.occ_percent::total     0.618339                       # Average percentage of cache occupancy
system.cpu.icache.tags.occ_task_id_blocks::1024          325                       # Occupied blocks per task id
system.cpu.icache.tags.age_task_id_blocks_1024::0           33                       # Occupied blocks per task id
system.cpu.icache.tags.age_task_id_blocks_1024::4          292                       # Occupied blocks per task id
system.cpu.icache.tags.occ_task_id_percent::1024     0.634766                       # Percentage of cache occupancy per task id
system.cpu.icache.tags.tag_accesses          16041128                       # Number of tag accesses
system.cpu.icache.tags.data_accesses         16041128                       # Number of data accesses
system.cpu.icache.pwrStateResidencyTicks::UNDEFINED  11961621772                       # Cumulative time (in ticks) in various power states
system.cpu.icache.ReadReq_hits::cpu.inst      8009458                       # number of ReadReq hits
system.cpu.icache.ReadReq_hits::total         8009458                       # number of ReadReq hits
system.cpu.icache.demand_hits::cpu.inst       8009458                       # number of demand (read+write) hits
system.cpu.icache.demand_hits::total          8009458                       # number of demand (read+write) hits
system.cpu.icache.overall_hits::cpu.inst      8009458                       # number of overall hits
system.cpu.icache.overall_hits::total         8009458                       # number of overall hits
system.cpu.icache.ReadReq_misses::cpu.inst         7404                       # number of ReadReq misses
system.cpu.icache.ReadReq_misses::total          7404                       # number of ReadReq misses
system.cpu.icache.demand_misses::cpu.inst         7404                       # number of demand (read+write) misses
system.cpu.icache.demand_misses::total           7404                       # number of demand (read+write) misses
system.cpu.icache.overall_misses::cpu.inst         7404                       # number of overall misses
system.cpu.icache.overall_misses::total          7404                       # number of overall misses
system.cpu.icache.ReadReq_miss_latency::cpu.inst     76479359                       # number of ReadReq miss cycles
system.cpu.icache.ReadReq_miss_latency::total     76479359                       # number of ReadReq miss cycles
system.cpu.icache.demand_miss_latency::cpu.inst     76479359                       # number of demand (read+write) miss cycles
system.cpu.icache.demand_miss_latency::total     76479359                       # number of demand (read+write) miss cycles
system.cpu.icache.overall_miss_latency::cpu.inst     76479359                       # number of overall miss cycles
system.cpu.icache.overall_miss_latency::total     76479359                       # number of overall miss cycles
system.cpu.icache.ReadReq_accesses::cpu.inst      8016862                       # number of ReadReq accesses(hits+misses)
system.cpu.icache.ReadReq_accesses::total      8016862                       # number of ReadReq accesses(hits+misses)
system.cpu.icache.demand_accesses::cpu.inst      8016862                       # number of demand (read+write) accesses
system.cpu.icache.demand_accesses::total      8016862                       # number of demand (read+write) accesses
system.cpu.icache.overall_accesses::cpu.inst      8016862                       # number of overall (read+write) accesses
system.cpu.icache.overall_accesses::total      8016862                       # number of overall (read+write) accesses
system.cpu.icache.ReadReq_miss_rate::cpu.inst     0.000924                       # miss rate for ReadReq accesses
system.cpu.icache.ReadReq_miss_rate::total     0.000924                       # miss rate for ReadReq accesses
system.cpu.icache.demand_miss_rate::cpu.inst     0.000924                       # miss rate for demand accesses
system.cpu.icache.demand_miss_rate::total     0.000924                       # miss rate for demand accesses
system.cpu.icache.overall_miss_rate::cpu.inst     0.000924                       # miss rate for overall accesses
system.cpu.icache.overall_miss_rate::total     0.000924                       # miss rate for overall accesses
system.cpu.icache.ReadReq_avg_miss_latency::cpu.inst 10329.465019                       # average ReadReq miss latency
system.cpu.icache.ReadReq_avg_miss_latency::total 10329.465019                       # average ReadReq miss latency
system.cpu.icache.demand_avg_miss_latency::cpu.inst 10329.465019                       # average overall miss latency
system.cpu.icache.demand_avg_miss_latency::total 10329.465019                       # average overall miss latency
system.cpu.icache.overall_avg_miss_latency::cpu.inst 10329.465019                       # average overall miss latency
system.cpu.icache.overall_avg_miss_latency::total 10329.465019                       # average overall miss latency
system.cpu.icache.blocked_cycles::no_mshrs            0                       # number of cycles access was blocked
system.cpu.icache.blocked_cycles::no_targets            0                       # number of cycles access was blocked
system.cpu.icache.blocked::no_mshrs                 0                       # number of cycles access was blocked
system.cpu.icache.blocked::no_targets               0                       # number of cycles access was blocked
system.cpu.icache.avg_blocked_cycles::no_mshrs          nan                       # average number of cycles each access was blocked
system.cpu.icache.avg_blocked_cycles::no_targets          nan                       # average number of cycles each access was blocked
system.cpu.icache.writebacks::writebacks         7079                       # number of writebacks
system.cpu.icache.writebacks::total              7079                       # number of writebacks
system.cpu.icache.ReadReq_mshr_misses::cpu.inst         7404                       # number of ReadReq MSHR misses
system.cpu.icache.ReadReq_mshr_misses::total         7404                       # number of ReadReq MSHR misses
system.cpu.icache.demand_mshr_misses::cpu.inst         7404                       # number of demand (read+write) MSHR misses
system.cpu.icache.demand_mshr_misses::total         7404                       # number of demand (read+write) MSHR misses
system.cpu.icache.overall_mshr_misses::cpu.inst         7404                       # number of overall MSHR misses
system.cpu.icache.overall_mshr_misses::total         7404                       # number of overall MSHR misses
system.cpu.icache.ReadReq_mshr_miss_latency::cpu.inst     71844455                       # number of ReadReq MSHR miss cycles
system.cpu.icache.ReadReq_mshr_miss_latency::total     71844455                       # number of ReadReq MSHR miss cycles
system.cpu.icache.demand_mshr_miss_latency::cpu.inst     71844455                       # number of demand (read+write) MSHR miss cycles
system.cpu.icache.demand_mshr_miss_latency::total     71844455                       # number of demand (read+write) MSHR miss cycles
system.cpu.icache.overall_mshr_miss_latency::cpu.inst     71844455                       # number of overall MSHR miss cycles
system.cpu.icache.overall_mshr_miss_latency::total     71844455                       # number of overall MSHR miss cycles
system.cpu.icache.ReadReq_mshr_miss_rate::cpu.inst     0.000924                       # mshr miss rate for ReadReq accesses
system.cpu.icache.ReadReq_mshr_miss_rate::total     0.000924                       # mshr miss rate for ReadReq accesses
system.cpu.icache.demand_mshr_miss_rate::cpu.inst     0.000924                       # mshr miss rate for demand accesses
system.cpu.icache.demand_mshr_miss_rate::total     0.000924                       # mshr miss rate for demand accesses
system.cpu.icache.overall_mshr_miss_rate::cpu.inst     0.000924                       # mshr miss rate for overall accesses
system.cpu.icache.overall_mshr_miss_rate::total     0.000924                       # mshr miss rate for overall accesses
system.cpu.icache.ReadReq_avg_mshr_miss_latency::cpu.inst  9703.465019                       # average ReadReq mshr miss latency
system.cpu.icache.ReadReq_avg_mshr_miss_latency::total  9703.465019                       # average ReadReq mshr miss latency
system.cpu.icache.demand_avg_mshr_miss_latency::cpu.inst  9703.465019                       # average overall mshr miss latency
system.cpu.icache.demand_avg_mshr_miss_latency::total  9703.465019                       # average overall mshr miss latency
system.cpu.icache.overall_avg_mshr_miss_latency::cpu.inst  9703.465019                       # average overall mshr miss latency
system.cpu.icache.overall_avg_mshr_miss_latency::total  9703.465019                       # average overall mshr miss latency
system.l2bus.snoop_filter.tot_requests          14843                       # Total number of requests made to the snoop filter.
system.l2bus.snoop_filter.hit_single_requests         7079                       # Number of requests hitting in the snoop filter with a single holder of the requested data.
system.l2bus.snoop_filter.hit_multi_requests            0                       # Number of requests hitting in the snoop filter with multiple (>1) holders of the requested data.
system.l2bus.snoop_filter.tot_snoops                3                       # Total number of snoops made to the snoop filter.
system.l2bus.snoop_filter.hit_single_snoops            3                       # Number of snoops hitting in the snoop filter with a single holder of the requested data.
system.l2bus.snoop_filter.hit_multi_snoops            0                       # Number of snoops hitting in the snoop filter with multiple (>1) holders of the requested data.
system.l2bus.pwrStateResidencyTicks::UNDEFINED  11961621772                       # Cumulative time (in ticks) in various power states
system.l2bus.trans_dist::ReadResp                7700                       # Transaction distribution
system.l2bus.trans_dist::WritebackClean          7079                       # Transaction distribution
system.l2bus.trans_dist::HardPFReq                 37                       # Transaction distribution
system.l2bus.trans_dist::ReadExReq                 64                       # Transaction distribution
system.l2bus.trans_dist::ReadExResp                64                       # Transaction distribution
system.l2bus.trans_dist::ReadCleanReq            7404                       # Transaction distribution
system.l2bus.trans_dist::ReadSharedReq            296                       # Transaction distribution
system.l2bus.pkt_count_system.cpu.icache.mem_side::system.l2cache.cpu_side        21887                       # Packet count per connected master and slave (bytes)
system.l2bus.pkt_count_system.cpu.dcache.mem_side::system.l2cache.cpu_side          720                       # Packet count per connected master and slave (bytes)
system.l2bus.pkt_count::total                   22607                       # Packet count per connected master and slave (bytes)
system.l2bus.pkt_size_system.cpu.icache.mem_side::system.l2cache.cpu_side       926912                       # Cumulative packet size per connected master and slave (bytes)
system.l2bus.pkt_size_system.cpu.dcache.mem_side::system.l2cache.cpu_side        23040                       # Cumulative packet size per connected master and slave (bytes)
system.l2bus.pkt_size::total                   949952                       # Cumulative packet size per connected master and slave (bytes)
system.l2bus.snoops                                37                       # Total snoops (count)
system.l2bus.snoopTraffic                           0                       # Total snoop traffic (bytes)
system.l2bus.snoop_fanout::samples               7801                       # Request fanout histogram
system.l2bus.snoop_fanout::mean              0.000385                       # Request fanout histogram
system.l2bus.snoop_fanout::stdev             0.019608                       # Request fanout histogram
system.l2bus.snoop_fanout::underflows               0      0.00%      0.00% # Request fanout histogram
system.l2bus.snoop_fanout::0                     7798     99.96%     99.96% # Request fanout histogram
system.l2bus.snoop_fanout::1                        3      0.04%    100.00% # Request fanout histogram
system.l2bus.snoop_fanout::2                        0      0.00%    100.00% # Request fanout histogram
system.l2bus.snoop_fanout::overflows                0      0.00%    100.00% # Request fanout histogram
system.l2bus.snoop_fanout::min_value                0                       # Request fanout histogram
system.l2bus.snoop_fanout::max_value                1                       # Request fanout histogram
system.l2bus.snoop_fanout::total                 7801                       # Request fanout histogram
system.l2bus.reqLayer0.occupancy             13508767                       # Layer occupancy (ticks)
system.l2bus.reqLayer0.utilization                0.1                       # Layer utilization (%)
system.l2bus.respLayer0.occupancy            11587260                       # Layer occupancy (ticks)
system.l2bus.respLayer0.utilization               0.1                       # Layer utilization (%)
system.l2bus.respLayer1.occupancy              563400                       # Layer occupancy (ticks)
system.l2bus.respLayer1.utilization               0.0                       # Layer utilization (%)
system.l2cache.prefetcher.pwrStateResidencyTicks::UNDEFINED  11961621772                       # Cumulative time (in ticks) in various power states
system.l2cache.prefetcher.num_hwpf_issued           37                       # number of hwpf issued
system.l2cache.prefetcher.pfIdentified             37                       # number of prefetch candidates identified
system.l2cache.prefetcher.pfBufferHit               0                       # number of redundant prefetches already in prefetch queue
system.l2cache.prefetcher.pfInCache                 0                       # number of redundant prefetches already in cache/mshr dropped
system.l2cache.prefetcher.pfRemovedFull             0                       # number of prefetches dropped due to prefetch queue size
system.l2cache.prefetcher.pfSpanPage                0                       # number of prefetches not generated due to page crossing
system.l2cache.tags.pwrStateResidencyTicks::UNDEFINED  11961621772                       # Cumulative time (in ticks) in various power states
system.l2cache.tags.replacements                    0                       # number of replacements
system.l2cache.tags.tagsinuse               38.924832                       # Cycle average of tags in use
system.l2cache.tags.total_refs                      0                       # Total number of references to valid blocks.
system.l2cache.tags.sampled_refs                   52                       # Sample count of references to valid blocks.
system.l2cache.tags.avg_refs                        0                       # Average number of references to valid blocks.
system.l2cache.tags.warmup_cycle               776866                       # Cycle when the warmup percentage was hit.
system.l2cache.tags.occ_blocks::writebacks    36.915175                       # Average occupied blocks per requestor
system.l2cache.tags.occ_blocks::l2cache.prefetcher     2.009657                       # Average occupied blocks per requestor
system.l2cache.tags.occ_percent::writebacks     0.004506                       # Average percentage of cache occupancy
system.l2cache.tags.occ_percent::l2cache.prefetcher     0.000245                       # Average percentage of cache occupancy
system.l2cache.tags.occ_percent::total       0.004752                       # Average percentage of cache occupancy
system.l2cache.tags.occ_task_id_blocks::1022            2                       # Occupied blocks per task id
system.l2cache.tags.occ_task_id_blocks::1024           50                       # Occupied blocks per task id
system.l2cache.tags.age_task_id_blocks_1022::4            2                       # Occupied blocks per task id
system.l2cache.tags.age_task_id_blocks_1024::0           26                       # Occupied blocks per task id
system.l2cache.tags.age_task_id_blocks_1024::4           24                       # Occupied blocks per task id
system.l2cache.tags.occ_task_id_percent::1022     0.000244                       # Percentage of cache occupancy per task id
system.l2cache.tags.occ_task_id_percent::1024     0.006104                       # Percentage of cache occupancy per task id
system.l2cache.tags.tag_accesses               125857                       # Number of tag accesses
system.l2cache.tags.data_accesses              125857                       # Number of data accesses
system.l2cache.pwrStateResidencyTicks::UNDEFINED  11961621772                       # Cumulative time (in ticks) in various power states
system.l2cache.WritebackClean_hits::writebacks         7079                       # number of WritebackClean hits
system.l2cache.WritebackClean_hits::total         7079                       # number of WritebackClean hits
system.l2cache.ReadExReq_hits::cpu.data            17                       # number of ReadExReq hits
system.l2cache.ReadExReq_hits::total               17                       # number of ReadExReq hits
system.l2cache.ReadCleanReq_hits::cpu.inst         7029                       # number of ReadCleanReq hits
system.l2cache.ReadCleanReq_hits::total          7029                       # number of ReadCleanReq hits
system.l2cache.ReadSharedReq_hits::cpu.data           12                       # number of ReadSharedReq hits
system.l2cache.ReadSharedReq_hits::total           12                       # number of ReadSharedReq hits
system.l2cache.demand_hits::cpu.inst             7029                       # number of demand (read+write) hits
system.l2cache.demand_hits::cpu.data               29                       # number of demand (read+write) hits
system.l2cache.demand_hits::total                7058                       # number of demand (read+write) hits
system.l2cache.overall_hits::cpu.inst            7029                       # number of overall hits
system.l2cache.overall_hits::cpu.data              29                       # number of overall hits
system.l2cache.overall_hits::total               7058                       # number of overall hits
system.l2cache.ReadExReq_misses::cpu.data           47                       # number of ReadExReq misses
system.l2cache.ReadExReq_misses::total             47                       # number of ReadExReq misses
system.l2cache.ReadCleanReq_misses::cpu.inst          375                       # number of ReadCleanReq misses
system.l2cache.ReadCleanReq_misses::total          375                       # number of ReadCleanReq misses
system.l2cache.ReadSharedReq_misses::cpu.data          284                       # number of ReadSharedReq misses
system.l2cache.ReadSharedReq_misses::total          284                       # number of ReadSharedReq misses
system.l2cache.demand_misses::cpu.inst            375                       # number of demand (read+write) misses
system.l2cache.demand_misses::cpu.data            331                       # number of demand (read+write) misses
system.l2cache.demand_misses::total               706                       # number of demand (read+write) misses
system.l2cache.overall_misses::cpu.inst           375                       # number of overall misses
system.l2cache.overall_misses::cpu.data           331                       # number of overall misses
system.l2cache.overall_misses::total              706                       # number of overall misses
system.l2cache.ReadExReq_miss_latency::cpu.data      3127809                       # number of ReadExReq miss cycles
system.l2cache.ReadExReq_miss_latency::total      3127809                       # number of ReadExReq miss cycles
system.l2cache.ReadCleanReq_miss_latency::cpu.inst     23698795                       # number of ReadCleanReq miss cycles
system.l2cache.ReadCleanReq_miss_latency::total     23698795                       # number of ReadCleanReq miss cycles
system.l2cache.ReadSharedReq_miss_latency::cpu.data     17681057                       # number of ReadSharedReq miss cycles
system.l2cache.ReadSharedReq_miss_latency::total     17681057                       # number of ReadSharedReq miss cycles
system.l2cache.demand_miss_latency::cpu.inst     23698795                       # number of demand (read+write) miss cycles
system.l2cache.demand_miss_latency::cpu.data     20808866                       # number of demand (read+write) miss cycles
system.l2cache.demand_miss_latency::total     44507661                       # number of demand (read+write) miss cycles
system.l2cache.overall_miss_latency::cpu.inst     23698795                       # number of overall miss cycles
system.l2cache.overall_miss_latency::cpu.data     20808866                       # number of overall miss cycles
system.l2cache.overall_miss_latency::total     44507661                       # number of overall miss cycles
system.l2cache.WritebackClean_accesses::writebacks         7079                       # number of WritebackClean accesses(hits+misses)
system.l2cache.WritebackClean_accesses::total         7079                       # number of WritebackClean accesses(hits+misses)
system.l2cache.ReadExReq_accesses::cpu.data           64                       # number of ReadExReq accesses(hits+misses)
system.l2cache.ReadExReq_accesses::total           64                       # number of ReadExReq accesses(hits+misses)
system.l2cache.ReadCleanReq_accesses::cpu.inst         7404                       # number of ReadCleanReq accesses(hits+misses)
system.l2cache.ReadCleanReq_accesses::total         7404                       # number of ReadCleanReq accesses(hits+misses)
system.l2cache.ReadSharedReq_accesses::cpu.data          296                       # number of ReadSharedReq accesses(hits+misses)
system.l2cache.ReadSharedReq_accesses::total          296                       # number of ReadSharedReq accesses(hits+misses)
system.l2cache.demand_accesses::cpu.inst         7404                       # number of demand (read+write) accesses
system.l2cache.demand_accesses::cpu.data          360                       # number of demand (read+write) accesses
system.l2cache.demand_accesses::total            7764                       # number of demand (read+write) accesses
system.l2cache.overall_accesses::cpu.inst         7404                       # number of overall (read+write) accesses
system.l2cache.overall_accesses::cpu.data          360                       # number of overall (read+write) accesses
system.l2cache.overall_accesses::total           7764                       # number of overall (read+write) accesses
system.l2cache.ReadExReq_miss_rate::cpu.data     0.734375                       # miss rate for ReadExReq accesses
system.l2cache.ReadExReq_miss_rate::total     0.734375                       # miss rate for ReadExReq accesses
system.l2cache.ReadCleanReq_miss_rate::cpu.inst     0.050648                       # miss rate for ReadCleanReq accesses
system.l2cache.ReadCleanReq_miss_rate::total     0.050648                       # miss rate for ReadCleanReq accesses
system.l2cache.ReadSharedReq_miss_rate::cpu.data     0.959459                       # miss rate for ReadSharedReq accesses
system.l2cache.ReadSharedReq_miss_rate::total     0.959459                       # miss rate for ReadSharedReq accesses
system.l2cache.demand_miss_rate::cpu.inst     0.050648                       # miss rate for demand accesses
system.l2cache.demand_miss_rate::cpu.data     0.919444                       # miss rate for demand accesses
system.l2cache.demand_miss_rate::total       0.090933                       # miss rate for demand accesses
system.l2cache.overall_miss_rate::cpu.inst     0.050648                       # miss rate for overall accesses
system.l2cache.overall_miss_rate::cpu.data     0.919444                       # miss rate for overall accesses
system.l2cache.overall_miss_rate::total      0.090933                       # miss rate for overall accesses
system.l2cache.ReadExReq_avg_miss_latency::cpu.data 66549.127660                       # average ReadExReq miss latency
system.l2cache.ReadExReq_avg_miss_latency::total 66549.127660                       # average ReadExReq miss latency
system.l2cache.ReadCleanReq_avg_miss_latency::cpu.inst 63196.786667                       # average ReadCleanReq miss latency
system.l2cache.ReadCleanReq_avg_miss_latency::total 63196.786667                       # average ReadCleanReq miss latency
system.l2cache.ReadSharedReq_avg_miss_latency::cpu.data 62257.242958                       # average ReadSharedReq miss latency
system.l2cache.ReadSharedReq_avg_miss_latency::total 62257.242958                       # average ReadSharedReq miss latency
system.l2cache.demand_avg_miss_latency::cpu.inst 63196.786667                       # average overall miss latency
system.l2cache.demand_avg_miss_latency::cpu.data 62866.664653                       # average overall miss latency
system.l2cache.demand_avg_miss_latency::total 63042.012748                       # average overall miss latency
system.l2cache.overall_avg_miss_latency::cpu.inst 63196.786667                       # average overall miss latency
system.l2cache.overall_avg_miss_latency::cpu.data 62866.664653                       # average overall miss latency
system.l2cache.overall_avg_miss_latency::total 63042.012748                       # average overall miss latency
system.l2cache.blocked_cycles::no_mshrs             0                       # number of cycles access was blocked
system.l2cache.blocked_cycles::no_targets            0                       # number of cycles access was blocked
system.l2cache.blocked::no_mshrs                    0                       # number of cycles access was blocked
system.l2cache.blocked::no_targets                  0                       # number of cycles access was blocked
system.l2cache.avg_blocked_cycles::no_mshrs          nan                       # average number of cycles each access was blocked
system.l2cache.avg_blocked_cycles::no_targets          nan                       # average number of cycles each access was blocked
system.l2cache.ReadExReq_mshr_hits::cpu.data            3                       # number of ReadExReq MSHR hits
system.l2cache.ReadExReq_mshr_hits::total            3                       # number of ReadExReq MSHR hits
system.l2cache.demand_mshr_hits::cpu.data            3                       # number of demand (read+write) MSHR hits
system.l2cache.demand_mshr_hits::total              3                       # number of demand (read+write) MSHR hits
system.l2cache.overall_mshr_hits::cpu.data            3                       # number of overall MSHR hits
system.l2cache.overall_mshr_hits::total             3                       # number of overall MSHR hits
system.l2cache.HardPFReq_mshr_misses::l2cache.prefetcher           37                       # number of HardPFReq MSHR misses
system.l2cache.HardPFReq_mshr_misses::total           37                       # number of HardPFReq MSHR misses
system.l2cache.ReadExReq_mshr_misses::cpu.data           44                       # number of ReadExReq MSHR misses
system.l2cache.ReadExReq_mshr_misses::total           44                       # number of ReadExReq MSHR misses
system.l2cache.ReadCleanReq_mshr_misses::cpu.inst          375                       # number of ReadCleanReq MSHR misses
system.l2cache.ReadCleanReq_mshr_misses::total          375                       # number of ReadCleanReq MSHR misses
system.l2cache.ReadSharedReq_mshr_misses::cpu.data          284                       # number of ReadSharedReq MSHR misses
system.l2cache.ReadSharedReq_mshr_misses::total          284                       # number of ReadSharedReq MSHR misses
system.l2cache.demand_mshr_misses::cpu.inst          375                       # number of demand (read+write) MSHR misses
system.l2cache.demand_mshr_misses::cpu.data          328                       # number of demand (read+write) MSHR misses
system.l2cache.demand_mshr_misses::total          703                       # number of demand (read+write) MSHR misses
system.l2cache.overall_mshr_misses::cpu.inst          375                       # number of overall MSHR misses
system.l2cache.overall_mshr_misses::cpu.data          328                       # number of overall MSHR misses
system.l2cache.overall_mshr_misses::l2cache.prefetcher           37                       # number of overall MSHR misses
system.l2cache.overall_mshr_misses::total          740                       # number of overall MSHR misses
system.l2cache.HardPFReq_mshr_miss_latency::l2cache.prefetcher      2224491                       # number of HardPFReq MSHR miss cycles
system.l2cache.HardPFReq_mshr_miss_latency::total      2224491                       # number of HardPFReq MSHR miss cycles
system.l2cache.ReadExReq_mshr_miss_latency::cpu.data      2881791                       # number of ReadExReq MSHR miss cycles
system.l2cache.ReadExReq_mshr_miss_latency::total      2881791                       # number of ReadExReq MSHR miss cycles
system.l2cache.ReadCleanReq_mshr_miss_latency::cpu.inst     22642420                       # number of ReadCleanReq MSHR miss cycles
system.l2cache.ReadCleanReq_mshr_miss_latency::total     22642420                       # number of ReadCleanReq MSHR miss cycles
system.l2cache.ReadSharedReq_mshr_miss_latency::cpu.data     16881029                       # number of ReadSharedReq MSHR miss cycles
system.l2cache.ReadSharedReq_mshr_miss_latency::total     16881029                       # number of ReadSharedReq MSHR miss cycles
system.l2cache.demand_mshr_miss_latency::cpu.inst     22642420                       # number of demand (read+write) MSHR miss cycles
system.l2cache.demand_mshr_miss_latency::cpu.data     19762820                       # number of demand (read+write) MSHR miss cycles
system.l2cache.demand_mshr_miss_latency::total     42405240                       # number of demand (read+write) MSHR miss cycles
system.l2cache.overall_mshr_miss_latency::cpu.inst     22642420                       # number of overall MSHR miss cycles
system.l2cache.overall_mshr_miss_latency::cpu.data     19762820                       # number of overall MSHR miss cycles
system.l2cache.overall_mshr_miss_latency::l2cache.prefetcher      2224491                       # number of overall MSHR miss cycles
system.l2cache.overall_mshr_miss_latency::total     44629731                       # number of overall MSHR miss cycles
system.l2cache.HardPFReq_mshr_miss_rate::l2cache.prefetcher          inf                       # mshr miss rate for HardPFReq accesses
system.l2cache.HardPFReq_mshr_miss_rate::total          inf                       # mshr miss rate for HardPFReq accesses
system.l2cache.ReadExReq_mshr_miss_rate::cpu.data     0.687500                       # mshr miss rate for ReadExReq accesses
system.l2cache.ReadExReq_mshr_miss_rate::total     0.687500                       # mshr miss rate for ReadExReq accesses
system.l2cache.ReadCleanReq_mshr_miss_rate::cpu.inst     0.050648                       # mshr miss rate for ReadCleanReq accesses
system.l2cache.ReadCleanReq_mshr_miss_rate::total     0.050648                       # mshr miss rate for ReadCleanReq accesses
system.l2cache.ReadSharedReq_mshr_miss_rate::cpu.data     0.959459                       # mshr miss rate for ReadSharedReq accesses
system.l2cache.ReadSharedReq_mshr_miss_rate::total     0.959459                       # mshr miss rate for ReadSharedReq accesses
system.l2cache.demand_mshr_miss_rate::cpu.inst     0.050648                       # mshr miss rate for demand accesses
system.l2cache.demand_mshr_miss_rate::cpu.data     0.911111                       # mshr miss rate for demand accesses
system.l2cache.demand_mshr_miss_rate::total     0.090546                       # mshr miss rate for demand accesses
system.l2cache.overall_mshr_miss_rate::cpu.inst     0.050648                       # mshr miss rate for overall accesses
system.l2cache.overall_mshr_miss_rate::cpu.data     0.911111                       # mshr miss rate for overall accesses
system.l2cache.overall_mshr_miss_rate::l2cache.prefetcher          inf                       # mshr miss rate for overall accesses
system.l2cache.overall_mshr_miss_rate::total     0.095312                       # mshr miss rate for overall accesses
system.l2cache.HardPFReq_avg_mshr_miss_latency::l2cache.prefetcher 60121.378378                       # average HardPFReq mshr miss latency
system.l2cache.HardPFReq_avg_mshr_miss_latency::total 60121.378378                       # average HardPFReq mshr miss latency
system.l2cache.ReadExReq_avg_mshr_miss_latency::cpu.data 65495.250000                       # average ReadExReq mshr miss latency
system.l2cache.ReadExReq_avg_mshr_miss_latency::total 65495.250000                       # average ReadExReq mshr miss latency
system.l2cache.ReadCleanReq_avg_mshr_miss_latency::cpu.inst 60379.786667                       # average ReadCleanReq mshr miss latency
system.l2cache.ReadCleanReq_avg_mshr_miss_latency::total 60379.786667                       # average ReadCleanReq mshr miss latency
system.l2cache.ReadSharedReq_avg_mshr_miss_latency::cpu.data 59440.242958                       # average ReadSharedReq mshr miss latency
system.l2cache.ReadSharedReq_avg_mshr_miss_latency::total 59440.242958                       # average ReadSharedReq mshr miss latency
system.l2cache.demand_avg_mshr_miss_latency::cpu.inst 60379.786667                       # average overall mshr miss latency
system.l2cache.demand_avg_mshr_miss_latency::cpu.data 60252.500000                       # average overall mshr miss latency
system.l2cache.demand_avg_mshr_miss_latency::total 60320.398293                       # average overall mshr miss latency
system.l2cache.overall_avg_mshr_miss_latency::cpu.inst 60379.786667                       # average overall mshr miss latency
system.l2cache.overall_avg_mshr_miss_latency::cpu.data 60252.500000                       # average overall mshr miss latency
system.l2cache.overall_avg_mshr_miss_latency::l2cache.prefetcher 60121.378378                       # average overall mshr miss latency
system.l2cache.overall_avg_mshr_miss_latency::total 60310.447297                       # average overall mshr miss latency
system.membus.snoop_filter.tot_requests           737                       # Total number of requests made to the snoop filter.
system.membus.snoop_filter.hit_single_requests            0                       # Number of requests hitting in the snoop filter with a single holder of the requested data.
system.membus.snoop_filter.hit_multi_requests            0                       # Number of requests hitting in the snoop filter with multiple (>1) holders of the requested data.
system.membus.snoop_filter.tot_snoops               0                       # Total number of snoops made to the snoop filter.
system.membus.snoop_filter.hit_single_snoops            0                       # Number of snoops hitting in the snoop filter with a single holder of the requested data.
system.membus.snoop_filter.hit_multi_snoops            0                       # Number of snoops hitting in the snoop filter with multiple (>1) holders of the requested data.
system.membus.pwrStateResidencyTicks::UNDEFINED  11961621772                       # Cumulative time (in ticks) in various power states
system.membus.trans_dist::ReadResp                693                       # Transaction distribution
system.membus.trans_dist::ReadExReq                44                       # Transaction distribution
system.membus.trans_dist::ReadExResp               44                       # Transaction distribution
system.membus.trans_dist::ReadCleanReq            693                       # Transaction distribution
system.membus.pkt_count_system.l2cache.mem_side::system.mem_ctrl.port         1474                       # Packet count per connected master and slave (bytes)
system.membus.pkt_count::total                   1474                       # Packet count per connected master and slave (bytes)
system.membus.pkt_size_system.l2cache.mem_side::system.mem_ctrl.port        47168                       # Cumulative packet size per connected master and slave (bytes)
system.membus.pkt_size::total                   47168                       # Cumulative packet size per connected master and slave (bytes)
system.membus.snoops                                0                       # Total snoops (count)
system.membus.snoopTraffic                          0                       # Total snoop traffic (bytes)
system.membus.snoop_fanout::samples               737                       # Request fanout histogram
system.membus.snoop_fanout::mean                    0                       # Request fanout histogram
system.membus.snoop_fanout::stdev                   0                       # Request fanout histogram
system.membus.snoop_fanout::underflows              0      0.00%      0.00% # Request fanout histogram
system.membus.snoop_fanout::0                     737    100.00%    100.00% # Request fanout histogram
system.membus.snoop_fanout::1                       0      0.00%    100.00% # Request fanout histogram
system.membus.snoop_fanout::overflows               0      0.00%    100.00% # Request fanout histogram
system.membus.snoop_fanout::min_value               0                       # Request fanout histogram
system.membus.snoop_fanout::max_value               0                       # Request fanout histogram
system.membus.snoop_fanout::total                 737                       # Request fanout histogram
system.membus.reqLayer0.occupancy              230681                       # Layer occupancy (ticks)
system.membus.reqLayer0.utilization               0.0                       # Layer utilization (%)
system.membus.respLayer0.occupancy            1169006                       # Layer occupancy (ticks)
system.membus.respLayer0.utilization              0.0                       # Layer utilization (%)

---------- End Simulation Statistics   ----------
