  92500: system.cpu.commit: 92500;s;i;0
19518750: system.cpu.commit: 19518750;f;i;0
19518750: system.cpu.commit: 19518750;s;f;0
19855625: system.cpu.commit: 19855625;f;f;0
19855625: system.cpu.commit: 19855625;s;d;0
19855625: system.cpu.commit: 19855625;s;f;0
31473750: system.cpu.commit: 31473750;f;f;0
31475000: system.cpu.commit: 31475000;s;i;1
36588125: system.cpu.commit: 36588125;f;i;1
36588125: system.cpu.commit: 36588125;s;i;2
41700625: system.cpu.commit: 41700625;f;i;2
41700625: system.cpu.commit: 41700625;s;i;3
46811875: system.cpu.commit: 46811875;f;i;3
46812500: system.cpu.commit: 46812500;s;i;4
51925000: system.cpu.commit: 51925000;f;i;4
51926250: system.cpu.commit: 51926250;s;i;5
57032500: system.cpu.commit: 57032500;f;i;5
57032500: system.cpu.commit: 57032500;s;i;6
62146875: system.cpu.commit: 62146875;f;i;6
62146875: system.cpu.commit: 62146875;s;i;7
67255000: system.cpu.commit: 67255000;f;i;7
67255625: system.cpu.commit: 67255625;s;i;8
72367500: system.cpu.commit: 72367500;f;i;8
72368750: system.cpu.commit: 72368750;s;i;9
77481250: system.cpu.commit: 77481250;f;i;9
77481875: system.cpu.commit: 77481875;s;i;10
82593125: system.cpu.commit: 82593125;f;i;10
82593125: system.cpu.commit: 82593125;s;i;11
87706875: system.cpu.commit: 87706875;f;i;11
87706875: system.cpu.commit: 87706875;s;i;12
92820625: system.cpu.commit: 92820625;f;i;12
92823750: system.cpu.commit: 92823750;s;i;13
97927500: system.cpu.commit: 97927500;f;i;13
97927500: system.cpu.commit: 97927500;s;i;14
103041250: system.cpu.commit: 103041250;f;i;14
103041250: system.cpu.commit: 103041250;s;i;15
108148750: system.cpu.commit: 108148750;f;i;15
108148750: system.cpu.commit: 108148750;s;i;16
113263750: system.cpu.commit: 113263750;f;i;16
113263750: system.cpu.commit: 113263750;s;i;17
118376250: system.cpu.commit: 118376250;f;i;17
118377500: system.cpu.commit: 118377500;s;i;18
123485000: system.cpu.commit: 123485000;f;i;18
123485625: system.cpu.commit: 123485625;s;i;19
128601875: system.cpu.commit: 128601875;f;i;19
128601875: system.cpu.commit: 128601875;s;i;20
133715625: system.cpu.commit: 133715625;f;i;20
133715625: system.cpu.commit: 133715625;s;i;21
138821250: system.cpu.commit: 138821250;f;i;21
138822500: system.cpu.commit: 138822500;s;i;22
143935625: system.cpu.commit: 143935625;f;i;22
143936250: system.cpu.commit: 143936250;s;i;23
149043750: system.cpu.commit: 149043750;f;i;23
149043750: system.cpu.commit: 149043750;s;i;24
154157500: system.cpu.commit: 154157500;f;i;24
154158125: system.cpu.commit: 154158125;s;i;25
159273750: system.cpu.commit: 159273750;f;i;25
159275000: system.cpu.commit: 159275000;s;i;26
164378125: system.cpu.commit: 164378125;f;i;26
164379375: system.cpu.commit: 164379375;s;i;27
169492500: system.cpu.commit: 169492500;f;i;27
169493125: system.cpu.commit: 169493125;s;i;28
174605625: system.cpu.commit: 174605625;f;i;28
174606250: system.cpu.commit: 174606250;s;i;29
179718750: system.cpu.commit: 179718750;f;i;29
179719375: system.cpu.commit: 179719375;s;i;30
184830625: system.cpu.commit: 184830625;f;i;30
184831250: system.cpu.commit: 184831250;s;i;31
189937500: system.cpu.commit: 189937500;f;i;31
189937500: system.cpu.commit: 189937500;s;i;32
195050625: system.cpu.commit: 195050625;f;i;32
195051250: system.cpu.commit: 195051250;s;i;33
200165000: system.cpu.commit: 200165000;f;i;33
200165625: system.cpu.commit: 200165625;s;i;34
205272500: system.cpu.commit: 205272500;f;i;34
205273750: system.cpu.commit: 205273750;s;i;35
210386250: system.cpu.commit: 210386250;f;i;35
210386875: system.cpu.commit: 210386875;s;i;36
215500625: system.cpu.commit: 215500625;f;i;36
215500625: system.cpu.commit: 215500625;s;i;37
220612500: system.cpu.commit: 220612500;f;i;37
220612500: system.cpu.commit: 220612500;s;i;38
225726250: system.cpu.commit: 225726250;f;i;38
225726250: system.cpu.commit: 225726250;s;i;39
230833125: system.cpu.commit: 230833125;f;i;39
230833125: system.cpu.commit: 230833125;s;i;40
235946250: system.cpu.commit: 235946250;f;i;40
235946250: system.cpu.commit: 235946250;s;i;41
241059375: system.cpu.commit: 241059375;f;i;41
241059375: system.cpu.commit: 241059375;s;i;42
246170625: system.cpu.commit: 246170625;f;i;42
246171250: system.cpu.commit: 246171250;s;i;43
251283125: system.cpu.commit: 251283125;f;i;43
251283125: system.cpu.commit: 251283125;s;i;44
256398750: system.cpu.commit: 256398750;f;i;44
256399375: system.cpu.commit: 256399375;s;i;45
261503125: system.cpu.commit: 261503125;f;i;45
261503750: system.cpu.commit: 261503750;s;i;46
266616875: system.cpu.commit: 266616875;f;i;46
266620625: system.cpu.commit: 266620625;s;i;47
271726250: system.cpu.commit: 271726250;f;i;47
271727500: system.cpu.commit: 271727500;s;i;48
276840000: system.cpu.commit: 276840000;f;i;48
276840625: system.cpu.commit: 276840625;s;i;49
281953125: system.cpu.commit: 281953125;f;i;49
281953750: system.cpu.commit: 281953750;s;i;50
287065000: system.cpu.commit: 287065000;f;i;50
287065000: system.cpu.commit: 287065000;s;i;51
292176875: system.cpu.commit: 292176875;f;i;51
292176875: system.cpu.commit: 292176875;s;i;52
297286875: system.cpu.commit: 297286875;f;i;52
297287500: system.cpu.commit: 297287500;s;i;53
302396250: system.cpu.commit: 302396250;f;i;53
302396875: system.cpu.commit: 302396875;s;i;54
307510000: system.cpu.commit: 307510000;f;i;54
307511875: system.cpu.commit: 307511875;s;i;55
312624375: system.cpu.commit: 312624375;f;i;55
312624375: system.cpu.commit: 312624375;s;i;56
317736250: system.cpu.commit: 317736250;f;i;56
317736250: system.cpu.commit: 317736250;s;i;57
322850000: system.cpu.commit: 322850000;f;i;57
322850000: system.cpu.commit: 322850000;s;i;58
327955625: system.cpu.commit: 327955625;f;i;58
327955625: system.cpu.commit: 327955625;s;i;59
333068750: system.cpu.commit: 333068750;f;i;59
333069375: system.cpu.commit: 333069375;s;i;60
338178125: system.cpu.commit: 338178125;f;i;60
338178750: system.cpu.commit: 338178750;s;i;61
343291250: system.cpu.commit: 343291250;f;i;61
343291875: system.cpu.commit: 343291875;s;i;62
348404375: system.cpu.commit: 348404375;f;i;62
348405625: system.cpu.commit: 348405625;s;i;63
353515000: system.cpu.commit: 353515000;f;i;63
353516250: system.cpu.commit: 353516250;s;i;64
358631875: system.cpu.commit: 358631875;f;i;64
358631875: system.cpu.commit: 358631875;s;i;65
363743125: system.cpu.commit: 363743125;f;i;65
363745000: system.cpu.commit: 363745000;s;i;66
368850625: system.cpu.commit: 368850625;f;i;66
368850625: system.cpu.commit: 368850625;s;i;67
373964375: system.cpu.commit: 373964375;f;i;67
373964375: system.cpu.commit: 373964375;s;i;68
379071250: system.cpu.commit: 379071250;f;i;68
379073125: system.cpu.commit: 379073125;s;i;69
384188750: system.cpu.commit: 384188750;f;i;69
384189375: system.cpu.commit: 384189375;s;i;70
389302500: system.cpu.commit: 389302500;f;i;70
389302500: system.cpu.commit: 389302500;s;i;71
394407500: system.cpu.commit: 394407500;f;i;71
394408125: system.cpu.commit: 394408125;s;i;72
399522500: system.cpu.commit: 399522500;f;i;72
399522500: system.cpu.commit: 399522500;s;i;73
404635000: system.cpu.commit: 404635000;f;i;73
404635625: system.cpu.commit: 404635625;s;i;74
409745000: system.cpu.commit: 409745000;f;i;74
409745625: system.cpu.commit: 409745625;s;i;75
414858125: system.cpu.commit: 414858125;f;i;75
414859375: system.cpu.commit: 414859375;s;i;76
419966250: system.cpu.commit: 419966250;f;i;76
419968125: system.cpu.commit: 419968125;s;i;77
425082500: system.cpu.commit: 425082500;f;i;77
425083750: system.cpu.commit: 425083750;s;i;78
430196250: system.cpu.commit: 430196250;f;i;78
430196250: system.cpu.commit: 430196250;s;i;79
435300625: system.cpu.commit: 435300625;f;i;79
435301875: system.cpu.commit: 435301875;s;i;80
440414375: system.cpu.commit: 440414375;f;i;80
440415000: system.cpu.commit: 440415000;s;i;81
445528750: system.cpu.commit: 445528750;f;i;81
445529375: system.cpu.commit: 445529375;s;i;82
450642500: system.cpu.commit: 450642500;f;i;82
450643125: system.cpu.commit: 450643125;s;i;83
455755625: system.cpu.commit: 455755625;f;i;83
455755625: system.cpu.commit: 455755625;s;i;84
460860625: system.cpu.commit: 460860625;f;i;84
460860625: system.cpu.commit: 460860625;s;i;85
465974375: system.cpu.commit: 465974375;f;i;85
465974375: system.cpu.commit: 465974375;s;i;86
471087500: system.cpu.commit: 471087500;f;i;86
471087500: system.cpu.commit: 471087500;s;i;87
476196250: system.cpu.commit: 476196250;f;i;87
476196875: system.cpu.commit: 476196875;s;i;88
481309375: system.cpu.commit: 481309375;f;i;88
481310625: system.cpu.commit: 481310625;s;i;89
486425625: system.cpu.commit: 486425625;f;i;89
486425625: system.cpu.commit: 486425625;s;i;90
491533750: system.cpu.commit: 491533750;f;i;90
491533750: system.cpu.commit: 491533750;s;i;91
496649375: system.cpu.commit: 496649375;f;i;91
496649375: system.cpu.commit: 496649375;s;i;92
501755625: system.cpu.commit: 501755625;f;i;92
501755625: system.cpu.commit: 501755625;s;i;93
506869375: system.cpu.commit: 506869375;f;i;93
506869375: system.cpu.commit: 506869375;s;i;94
511982500: system.cpu.commit: 511982500;f;i;94
511983125: system.cpu.commit: 511983125;s;i;95
517093750: system.cpu.commit: 517093750;f;i;95
517094375: system.cpu.commit: 517094375;s;i;96
522206875: system.cpu.commit: 522206875;f;i;96
522207500: system.cpu.commit: 522207500;s;i;97
527318750: system.cpu.commit: 527318750;f;i;97
527319375: system.cpu.commit: 527319375;s;i;98
532426250: system.cpu.commit: 532426250;f;i;98
532426875: system.cpu.commit: 532426875;s;i;99
537540000: system.cpu.commit: 537540000;f;i;99
537541875: system.cpu.commit: 537541875;s;i;100
542650000: system.cpu.commit: 542650000;f;i;100
542650625: system.cpu.commit: 542650625;s;i;101
547763125: system.cpu.commit: 547763125;f;i;101
547764375: system.cpu.commit: 547764375;s;i;102
552876875: system.cpu.commit: 552876875;f;i;102
552877500: system.cpu.commit: 552877500;s;i;103
557984375: system.cpu.commit: 557984375;f;i;103
557985000: system.cpu.commit: 557985000;s;i;104
563098750: system.cpu.commit: 563098750;f;i;104
563099375: system.cpu.commit: 563099375;s;i;105
568208125: system.cpu.commit: 568208125;f;i;105
568208750: system.cpu.commit: 568208750;s;i;106
573319375: system.cpu.commit: 573319375;f;i;106
573320000: system.cpu.commit: 573320000;s;i;107
578432500: system.cpu.commit: 578432500;f;i;107
578433750: system.cpu.commit: 578433750;s;i;108
583545000: system.cpu.commit: 583545000;f;i;108
583545625: system.cpu.commit: 583545625;s;i;109
588661250: system.cpu.commit: 588661250;f;i;109
588661875: system.cpu.commit: 588661875;s;i;110
593774375: system.cpu.commit: 593774375;f;i;110
593774375: system.cpu.commit: 593774375;s;i;111
598879375: system.cpu.commit: 598879375;f;i;111
598879375: system.cpu.commit: 598879375;s;i;112
603992500: system.cpu.commit: 603992500;f;i;112
603992500: system.cpu.commit: 603992500;s;i;113
609102500: system.cpu.commit: 609102500;f;i;113
609102500: system.cpu.commit: 609102500;s;i;114
614214375: system.cpu.commit: 614214375;f;i;114
614215625: system.cpu.commit: 614215625;s;i;115
619328125: system.cpu.commit: 619328125;f;i;115
619328750: system.cpu.commit: 619328750;s;i;116
624440625: system.cpu.commit: 624440625;f;i;116
624441250: system.cpu.commit: 624441250;s;i;117
629552500: system.cpu.commit: 629552500;f;i;117
629552500: system.cpu.commit: 629552500;s;i;118
634666250: system.cpu.commit: 634666250;f;i;118
634666250: system.cpu.commit: 634666250;s;i;119
639774375: system.cpu.commit: 639774375;f;i;119
639774375: system.cpu.commit: 639774375;s;i;120
644887500: system.cpu.commit: 644887500;f;i;120
644887500: system.cpu.commit: 644887500;s;i;121
649995000: system.cpu.commit: 649995000;f;i;121
649995000: system.cpu.commit: 649995000;s;i;122
655113125: system.cpu.commit: 655113125;f;i;122
655113125: system.cpu.commit: 655113125;s;i;123
660225625: system.cpu.commit: 660225625;f;i;123
660225625: system.cpu.commit: 660225625;s;i;124
665330625: system.cpu.commit: 665330625;f;i;124
665331250: system.cpu.commit: 665331250;s;i;125
670444375: system.cpu.commit: 670444375;f;i;125
670444375: system.cpu.commit: 670444375;s;i;126
675557500: system.cpu.commit: 675557500;f;i;126
675558125: system.cpu.commit: 675558125;s;i;127
680668125: system.cpu.commit: 680668125;f;i;127
680669375: system.cpu.commit: 680669375;s;i;128
685781875: system.cpu.commit: 685781875;f;i;128
685782500: system.cpu.commit: 685782500;s;i;129
690891875: system.cpu.commit: 690891875;f;i;129
690891875: system.cpu.commit: 690891875;s;i;130
696003125: system.cpu.commit: 696003125;f;i;130
696003750: system.cpu.commit: 696003750;s;i;131
701116875: system.cpu.commit: 701116875;f;i;131
701117500: system.cpu.commit: 701117500;s;i;132
706224375: system.cpu.commit: 706224375;f;i;132
706225000: system.cpu.commit: 706225000;s;i;133
711337500: system.cpu.commit: 711337500;f;i;133
711338750: system.cpu.commit: 711338750;s;i;134
716451875: system.cpu.commit: 716451875;f;i;134
716451875: system.cpu.commit: 716451875;s;i;135
721563125: system.cpu.commit: 721563125;f;i;135
721563750: system.cpu.commit: 721563750;s;i;136
726680000: system.cpu.commit: 726680000;f;i;136
726680625: system.cpu.commit: 726680625;s;i;137
731784375: system.cpu.commit: 731784375;f;i;137
731784375: system.cpu.commit: 731784375;s;i;138
736897500: system.cpu.commit: 736897500;f;i;138
736897500: system.cpu.commit: 736897500;s;i;139
742011250: system.cpu.commit: 742011250;f;i;139
742011250: system.cpu.commit: 742011250;s;i;140
747119375: system.cpu.commit: 747119375;f;i;140
747120625: system.cpu.commit: 747120625;s;i;141
752233125: system.cpu.commit: 752233125;f;i;141
752233750: system.cpu.commit: 752233750;s;i;142
757351875: system.cpu.commit: 757351875;f;i;142
757352500: system.cpu.commit: 757352500;s;i;143
762457500: system.cpu.commit: 762457500;f;i;143
762457500: system.cpu.commit: 762457500;s;i;144
767571250: system.cpu.commit: 767571250;f;i;144
767571250: system.cpu.commit: 767571250;s;i;145
772678125: system.cpu.commit: 772678125;f;i;145
772678750: system.cpu.commit: 772678750;s;i;146
777791875: system.cpu.commit: 777791875;f;i;146
777792500: system.cpu.commit: 777792500;s;i;147
782906250: system.cpu.commit: 782906250;f;i;147
782906250: system.cpu.commit: 782906250;s;i;148
788015000: system.cpu.commit: 788015000;f;i;148
788015625: system.cpu.commit: 788015625;s;i;149
793131250: system.cpu.commit: 793131250;f;i;149
793131875: system.cpu.commit: 793131875;s;i;150
798239375: system.cpu.commit: 798239375;f;i;150
798240625: system.cpu.commit: 798240625;s;i;151
803348750: system.cpu.commit: 803348750;f;i;151
803350000: system.cpu.commit: 803350000;s;i;152
808463125: system.cpu.commit: 808463125;f;i;152
808463125: system.cpu.commit: 808463125;s;i;153
813575625: system.cpu.commit: 813575625;f;i;153
813575625: system.cpu.commit: 813575625;s;i;154
818686875: system.cpu.commit: 818686875;f;i;154
818687500: system.cpu.commit: 818687500;s;i;155
823800000: system.cpu.commit: 823800000;f;i;155
823801250: system.cpu.commit: 823801250;s;i;156
828907500: system.cpu.commit: 828907500;f;i;156
828907500: system.cpu.commit: 828907500;s;i;157
834021875: system.cpu.commit: 834021875;f;i;157
834021875: system.cpu.commit: 834021875;s;i;158
839130000: system.cpu.commit: 839130000;f;i;158
839130625: system.cpu.commit: 839130625;s;i;159
844242500: system.cpu.commit: 844242500;f;i;159
844243750: system.cpu.commit: 844243750;s;i;160
849356250: system.cpu.commit: 849356250;f;i;160
849356875: system.cpu.commit: 849356875;s;i;161
854468125: system.cpu.commit: 854468125;f;i;161
854468125: system.cpu.commit: 854468125;s;i;162
859581875: system.cpu.commit: 859581875;f;i;162
859581875: system.cpu.commit: 859581875;s;i;163
864695625: system.cpu.commit: 864695625;f;i;163
864698750: system.cpu.commit: 864698750;s;i;164
869802500: system.cpu.commit: 869802500;f;i;164
869802500: system.cpu.commit: 869802500;s;i;165
874916250: system.cpu.commit: 874916250;f;i;165
874916250: system.cpu.commit: 874916250;s;i;166
880023750: system.cpu.commit: 880023750;f;i;166
880023750: system.cpu.commit: 880023750;s;i;167
885138750: system.cpu.commit: 885138750;f;i;167
885138750: system.cpu.commit: 885138750;s;i;168
890251250: system.cpu.commit: 890251250;f;i;168
890252500: system.cpu.commit: 890252500;s;i;169
895360000: system.cpu.commit: 895360000;f;i;169
895360625: system.cpu.commit: 895360625;s;i;170
900476875: system.cpu.commit: 900476875;f;i;170
900476875: system.cpu.commit: 900476875;s;i;171
905590625: system.cpu.commit: 905590625;f;i;171
905590625: system.cpu.commit: 905590625;s;i;172
910696250: system.cpu.commit: 910696250;f;i;172
910697500: system.cpu.commit: 910697500;s;i;173
915810625: system.cpu.commit: 915810625;f;i;173
915811250: system.cpu.commit: 915811250;s;i;174
920918750: system.cpu.commit: 920918750;f;i;174
920918750: system.cpu.commit: 920918750;s;i;175
926032500: system.cpu.commit: 926032500;f;i;175
926033125: system.cpu.commit: 926033125;s;i;176
931148750: system.cpu.commit: 931148750;f;i;176
931150000: system.cpu.commit: 931150000;s;i;177
936253125: system.cpu.commit: 936253125;f;i;177
936254375: system.cpu.commit: 936254375;s;i;178
941367500: system.cpu.commit: 941367500;f;i;178
941368125: system.cpu.commit: 941368125;s;i;179
946480625: system.cpu.commit: 946480625;f;i;179
946481250: system.cpu.commit: 946481250;s;i;180
951593750: system.cpu.commit: 951593750;f;i;180
951594375: system.cpu.commit: 951594375;s;i;181
956705625: system.cpu.commit: 956705625;f;i;181
956706250: system.cpu.commit: 956706250;s;i;182
961812500: system.cpu.commit: 961812500;f;i;182
961812500: system.cpu.commit: 961812500;s;i;183
966925625: system.cpu.commit: 966925625;f;i;183
966926250: system.cpu.commit: 966926250;s;i;184
972040000: system.cpu.commit: 972040000;f;i;184
972040625: system.cpu.commit: 972040625;s;i;185
977147500: system.cpu.commit: 977147500;f;i;185
977148750: system.cpu.commit: 977148750;s;i;186
982261250: system.cpu.commit: 982261250;f;i;186
982261875: system.cpu.commit: 982261875;s;i;187
987375625: system.cpu.commit: 987375625;f;i;187
987375625: system.cpu.commit: 987375625;s;i;188
992487500: system.cpu.commit: 992487500;f;i;188
992487500: system.cpu.commit: 992487500;s;i;189
997601250: system.cpu.commit: 997601250;f;i;189
997601250: system.cpu.commit: 997601250;s;i;190
1002708125: system.cpu.commit: 1002708125;f;i;190
1002708125: system.cpu.commit: 1002708125;s;i;191
1007821250: system.cpu.commit: 1007821250;f;i;191
1007821250: system.cpu.commit: 1007821250;s;i;192
1012934375: system.cpu.commit: 1012934375;f;i;192
1012934375: system.cpu.commit: 1012934375;s;i;193
1018045625: system.cpu.commit: 1018045625;f;i;193
1018046250: system.cpu.commit: 1018046250;s;i;194
1023158125: system.cpu.commit: 1023158125;f;i;194
1023158125: system.cpu.commit: 1023158125;s;i;195
1028273750: system.cpu.commit: 1028273750;f;i;195
1028274375: system.cpu.commit: 1028274375;s;i;196
1033378125: system.cpu.commit: 1033378125;f;i;196
1033378750: system.cpu.commit: 1033378750;s;i;197
1038491875: system.cpu.commit: 1038491875;f;i;197
1038495625: system.cpu.commit: 1038495625;s;i;198
1043601250: system.cpu.commit: 1043601250;f;i;198
1043602500: system.cpu.commit: 1043602500;s;i;199
1048715000: system.cpu.commit: 1048715000;f;i;199
1048715625: system.cpu.commit: 1048715625;s;i;200
1053828125: system.cpu.commit: 1053828125;f;i;200
1053828750: system.cpu.commit: 1053828750;s;i;201
1058940000: system.cpu.commit: 1058940000;f;i;201
1058940000: system.cpu.commit: 1058940000;s;i;202
1064051875: system.cpu.commit: 1064051875;f;i;202
1064051875: system.cpu.commit: 1064051875;s;i;203
1069161875: system.cpu.commit: 1069161875;f;i;203
1069162500: system.cpu.commit: 1069162500;s;i;204
1074271250: system.cpu.commit: 1074271250;f;i;204
1074271875: system.cpu.commit: 1074271875;s;i;205
1079385000: system.cpu.commit: 1079385000;f;i;205
1079386875: system.cpu.commit: 1079386875;s;i;206
1084499375: system.cpu.commit: 1084499375;f;i;206
1084499375: system.cpu.commit: 1084499375;s;i;207
1089611250: system.cpu.commit: 1089611250;f;i;207
1089611250: system.cpu.commit: 1089611250;s;i;208
1094725000: system.cpu.commit: 1094725000;f;i;208
1094725000: system.cpu.commit: 1094725000;s;i;209
1099830625: system.cpu.commit: 1099830625;f;i;209
1099830625: system.cpu.commit: 1099830625;s;i;210
1104943750: system.cpu.commit: 1104943750;f;i;210
1104944375: system.cpu.commit: 1104944375;s;i;211
1110053125: system.cpu.commit: 1110053125;f;i;211
1110053750: system.cpu.commit: 1110053750;s;i;212
1115166250: system.cpu.commit: 1115166250;f;i;212
1115166875: system.cpu.commit: 1115166875;s;i;213
1120279375: system.cpu.commit: 1120279375;f;i;213
1120280625: system.cpu.commit: 1120280625;s;i;214
1125390000: system.cpu.commit: 1125390000;f;i;214
1125391250: system.cpu.commit: 1125391250;s;i;215
1130506875: system.cpu.commit: 1130506875;f;i;215
1130506875: system.cpu.commit: 1130506875;s;i;216
1135618125: system.cpu.commit: 1135618125;f;i;216
1135620000: system.cpu.commit: 1135620000;s;i;217
1140725625: system.cpu.commit: 1140725625;f;i;217
1140725625: system.cpu.commit: 1140725625;s;i;218
1145839375: system.cpu.commit: 1145839375;f;i;218
1145839375: system.cpu.commit: 1145839375;s;i;219
1150946250: system.cpu.commit: 1150946250;f;i;219
1150948125: system.cpu.commit: 1150948125;s;i;220
1156063750: system.cpu.commit: 1156063750;f;i;220
1156064375: system.cpu.commit: 1156064375;s;i;221
1161177500: system.cpu.commit: 1161177500;f;i;221
1161177500: system.cpu.commit: 1161177500;s;i;222
1166282500: system.cpu.commit: 1166282500;f;i;222
1166283125: system.cpu.commit: 1166283125;s;i;223
1171397500: system.cpu.commit: 1171397500;f;i;223
1171397500: system.cpu.commit: 1171397500;s;i;224
1176510000: system.cpu.commit: 1176510000;f;i;224
1176510625: system.cpu.commit: 1176510625;s;i;225
1181620000: system.cpu.commit: 1181620000;f;i;225
1181620625: system.cpu.commit: 1181620625;s;i;226
1186733125: system.cpu.commit: 1186733125;f;i;226
1186734375: system.cpu.commit: 1186734375;s;i;227
1191841250: system.cpu.commit: 1191841250;f;i;227
1191843125: system.cpu.commit: 1191843125;s;i;228
1196957500: system.cpu.commit: 1196957500;f;i;228
1196958750: system.cpu.commit: 1196958750;s;i;229
1202071250: system.cpu.commit: 1202071250;f;i;229
1202071250: system.cpu.commit: 1202071250;s;i;230
1207175625: system.cpu.commit: 1207175625;f;i;230
1207176875: system.cpu.commit: 1207176875;s;i;231
1212289375: system.cpu.commit: 1212289375;f;i;231
1212290000: system.cpu.commit: 1212290000;s;i;232
1217403750: system.cpu.commit: 1217403750;f;i;232
1217404375: system.cpu.commit: 1217404375;s;i;233
1222517500: system.cpu.commit: 1222517500;f;i;233
1222518125: system.cpu.commit: 1222518125;s;i;234
1227630625: system.cpu.commit: 1227630625;f;i;234
1227630625: system.cpu.commit: 1227630625;s;i;235
1232735625: system.cpu.commit: 1232735625;f;i;235
1232735625: system.cpu.commit: 1232735625;s;i;236
1237849375: system.cpu.commit: 1237849375;f;i;236
1237849375: system.cpu.commit: 1237849375;s;i;237
1242962500: system.cpu.commit: 1242962500;f;i;237
1242962500: system.cpu.commit: 1242962500;s;i;238
1248071250: system.cpu.commit: 1248071250;f;i;238
1248071875: system.cpu.commit: 1248071875;s;i;239
1253184375: system.cpu.commit: 1253184375;f;i;239
1253185625: system.cpu.commit: 1253185625;s;i;240
1258300625: system.cpu.commit: 1258300625;f;i;240
1258300625: system.cpu.commit: 1258300625;s;i;241
1263408750: system.cpu.commit: 1263408750;f;i;241
1263408750: system.cpu.commit: 1263408750;s;i;242
1268524375: system.cpu.commit: 1268524375;f;i;242
1268524375: system.cpu.commit: 1268524375;s;i;243
1273630625: system.cpu.commit: 1273630625;f;i;243
1273630625: system.cpu.commit: 1273630625;s;i;244
1278744375: system.cpu.commit: 1278744375;f;i;244
1278744375: system.cpu.commit: 1278744375;s;i;245
1283857500: system.cpu.commit: 1283857500;f;i;245
1283858125: system.cpu.commit: 1283858125;s;i;246
1288968750: system.cpu.commit: 1288968750;f;i;246
1288969375: system.cpu.commit: 1288969375;s;i;247
1294081875: system.cpu.commit: 1294081875;f;i;247
1294082500: system.cpu.commit: 1294082500;s;i;248
1299193750: system.cpu.commit: 1299193750;f;i;248
1299194375: system.cpu.commit: 1299194375;s;i;249
1304301250: system.cpu.commit: 1304301250;f;i;249
1304301875: system.cpu.commit: 1304301875;s;i;250
1309415000: system.cpu.commit: 1309415000;f;i;250
1309416875: system.cpu.commit: 1309416875;s;i;251
1314525000: system.cpu.commit: 1314525000;f;i;251
1314525625: system.cpu.commit: 1314525625;s;i;252
1319638125: system.cpu.commit: 1319638125;f;i;252
1319639375: system.cpu.commit: 1319639375;s;i;253
1324751875: system.cpu.commit: 1324751875;f;i;253
1324752500: system.cpu.commit: 1324752500;s;i;254
1329859375: system.cpu.commit: 1329859375;f;i;254
1329860000: system.cpu.commit: 1329860000;s;i;255
1334973750: system.cpu.commit: 1334973750;f;i;255
1334974375: system.cpu.commit: 1334974375;s;i;256
1340083125: system.cpu.commit: 1340083125;f;i;256
1340083750: system.cpu.commit: 1340083750;s;i;257
1345194375: system.cpu.commit: 1345194375;f;i;257
1345195000: system.cpu.commit: 1345195000;s;i;258
1350307500: system.cpu.commit: 1350307500;f;i;258
1350308750: system.cpu.commit: 1350308750;s;i;259
1355420000: system.cpu.commit: 1355420000;f;i;259
1355420625: system.cpu.commit: 1355420625;s;i;260
1360536250: system.cpu.commit: 1360536250;f;i;260
1360536875: system.cpu.commit: 1360536875;s;i;261
1365649375: system.cpu.commit: 1365649375;f;i;261
1365649375: system.cpu.commit: 1365649375;s;i;262
1370754375: system.cpu.commit: 1370754375;f;i;262
1370754375: system.cpu.commit: 1370754375;s;i;263
1375867500: system.cpu.commit: 1375867500;f;i;263
1375867500: system.cpu.commit: 1375867500;s;i;264
1380977500: system.cpu.commit: 1380977500;f;i;264
1380977500: system.cpu.commit: 1380977500;s;i;265
1386089375: system.cpu.commit: 1386089375;f;i;265
1386090625: system.cpu.commit: 1386090625;s;i;266
1391203125: system.cpu.commit: 1391203125;f;i;266
1391203750: system.cpu.commit: 1391203750;s;i;267
1396315625: system.cpu.commit: 1396315625;f;i;267
1396316250: system.cpu.commit: 1396316250;s;i;268
1401427500: system.cpu.commit: 1401427500;f;i;268
1401427500: system.cpu.commit: 1401427500;s;i;269
1406541250: system.cpu.commit: 1406541250;f;i;269
1406541250: system.cpu.commit: 1406541250;s;i;270
1411649375: system.cpu.commit: 1411649375;f;i;270
1411649375: system.cpu.commit: 1411649375;s;i;271
1416762500: system.cpu.commit: 1416762500;f;i;271
1416762500: system.cpu.commit: 1416762500;s;i;272
1421870000: system.cpu.commit: 1421870000;f;i;272
1421870000: system.cpu.commit: 1421870000;s;i;273
1426988125: system.cpu.commit: 1426988125;f;i;273
1426988125: system.cpu.commit: 1426988125;s;i;274
1432100625: system.cpu.commit: 1432100625;f;i;274
1432100625: system.cpu.commit: 1432100625;s;i;275
1437205625: system.cpu.commit: 1437205625;f;i;275
1437206250: system.cpu.commit: 1437206250;s;i;276
1442319375: system.cpu.commit: 1442319375;f;i;276
1442319375: system.cpu.commit: 1442319375;s;i;277
1447432500: system.cpu.commit: 1447432500;f;i;277
1447433125: system.cpu.commit: 1447433125;s;i;278
1452543125: system.cpu.commit: 1452543125;f;i;278
1452544375: system.cpu.commit: 1452544375;s;i;279
1457656875: system.cpu.commit: 1457656875;f;i;279
1457657500: system.cpu.commit: 1457657500;s;i;280
1462766875: system.cpu.commit: 1462766875;f;i;280
1462766875: system.cpu.commit: 1462766875;s;i;281
1467878125: system.cpu.commit: 1467878125;f;i;281
1467878750: system.cpu.commit: 1467878750;s;i;282
1472991875: system.cpu.commit: 1472991875;f;i;282
1472992500: system.cpu.commit: 1472992500;s;i;283
1478099375: system.cpu.commit: 1478099375;f;i;283
1478100000: system.cpu.commit: 1478100000;s;i;284
1483212500: system.cpu.commit: 1483212500;f;i;284
1483213750: system.cpu.commit: 1483213750;s;i;285
1488326875: system.cpu.commit: 1488326875;f;i;285
1488326875: system.cpu.commit: 1488326875;s;i;286
1493438125: system.cpu.commit: 1493438125;f;i;286
1493438750: system.cpu.commit: 1493438750;s;i;287
1498555000: system.cpu.commit: 1498555000;f;i;287
1498555625: system.cpu.commit: 1498555625;s;i;288
1503659375: system.cpu.commit: 1503659375;f;i;288
1503659375: system.cpu.commit: 1503659375;s;i;289
1508772500: system.cpu.commit: 1508772500;f;i;289
1508772500: system.cpu.commit: 1508772500;s;i;290
1513886250: system.cpu.commit: 1513886250;f;i;290
1513886250: system.cpu.commit: 1513886250;s;i;291
1518994375: system.cpu.commit: 1518994375;f;i;291
1518995625: system.cpu.commit: 1518995625;s;i;292
1524108125: system.cpu.commit: 1524108125;f;i;292
1524108750: system.cpu.commit: 1524108750;s;i;293
1529226875: system.cpu.commit: 1529226875;f;i;293
1529227500: system.cpu.commit: 1529227500;s;i;294
1534332500: system.cpu.commit: 1534332500;f;i;294
1534332500: system.cpu.commit: 1534332500;s;i;295
1539446250: system.cpu.commit: 1539446250;f;i;295
1539446250: system.cpu.commit: 1539446250;s;i;296
1544553125: system.cpu.commit: 1544553125;f;i;296
1544553750: system.cpu.commit: 1544553750;s;i;297
1549666875: system.cpu.commit: 1549666875;f;i;297
1549667500: system.cpu.commit: 1549667500;s;i;298
1554781250: system.cpu.commit: 1554781250;f;i;298
1554781250: system.cpu.commit: 1554781250;s;i;299
1559890000: system.cpu.commit: 1559890000;f;i;299
1559890625: system.cpu.commit: 1559890625;s;i;300
1565006250: system.cpu.commit: 1565006250;f;i;300
1565006875: system.cpu.commit: 1565006875;s;i;301
1570114375: system.cpu.commit: 1570114375;f;i;301
1570115625: system.cpu.commit: 1570115625;s;i;302
1575223750: system.cpu.commit: 1575223750;f;i;302
1575225000: system.cpu.commit: 1575225000;s;i;303
1580338125: system.cpu.commit: 1580338125;f;i;303
1580338125: system.cpu.commit: 1580338125;s;i;304
1585450625: system.cpu.commit: 1585450625;f;i;304
1585450625: system.cpu.commit: 1585450625;s;i;305
1590561875: system.cpu.commit: 1590561875;f;i;305
1590562500: system.cpu.commit: 1590562500;s;i;306
1595675000: system.cpu.commit: 1595675000;f;i;306
1595676250: system.cpu.commit: 1595676250;s;i;307
1600782500: system.cpu.commit: 1600782500;f;i;307
1600782500: system.cpu.commit: 1600782500;s;i;308
1605896875: system.cpu.commit: 1605896875;f;i;308
1605896875: system.cpu.commit: 1605896875;s;i;309
1611005000: system.cpu.commit: 1611005000;f;i;309
1611005625: system.cpu.commit: 1611005625;s;i;310
1616117500: system.cpu.commit: 1616117500;f;i;310
1616118750: system.cpu.commit: 1616118750;s;i;311
1621231250: system.cpu.commit: 1621231250;f;i;311
1621231875: system.cpu.commit: 1621231875;s;i;312
1626343125: system.cpu.commit: 1626343125;f;i;312
1626343125: system.cpu.commit: 1626343125;s;i;313
1631456875: system.cpu.commit: 1631456875;f;i;313
1631456875: system.cpu.commit: 1631456875;s;i;314
1636570625: system.cpu.commit: 1636570625;f;i;314
1636573750: system.cpu.commit: 1636573750;s;i;315
1641677500: system.cpu.commit: 1641677500;f;i;315
1641677500: system.cpu.commit: 1641677500;s;i;316
1646791250: system.cpu.commit: 1646791250;f;i;316
1646791250: system.cpu.commit: 1646791250;s;i;317
1651898750: system.cpu.commit: 1651898750;f;i;317
1651898750: system.cpu.commit: 1651898750;s;i;318
1657013750: system.cpu.commit: 1657013750;f;i;318
1657013750: system.cpu.commit: 1657013750;s;i;319
1662126250: system.cpu.commit: 1662126250;f;i;319
1662127500: system.cpu.commit: 1662127500;s;i;320
1667235000: system.cpu.commit: 1667235000;f;i;320
1667235625: system.cpu.commit: 1667235625;s;i;321
1672351875: system.cpu.commit: 1672351875;f;i;321
1672351875: system.cpu.commit: 1672351875;s;i;322
1677465625: system.cpu.commit: 1677465625;f;i;322
1677465625: system.cpu.commit: 1677465625;s;i;323
1682571250: system.cpu.commit: 1682571250;f;i;323
1682572500: system.cpu.commit: 1682572500;s;i;324
1687685625: system.cpu.commit: 1687685625;f;i;324
1687686250: system.cpu.commit: 1687686250;s;i;325
1692793750: system.cpu.commit: 1692793750;f;i;325
1692793750: system.cpu.commit: 1692793750;s;i;326
1697907500: system.cpu.commit: 1697907500;f;i;326
1697908125: system.cpu.commit: 1697908125;s;i;327
1703023750: system.cpu.commit: 1703023750;f;i;327
1703025000: system.cpu.commit: 1703025000;s;i;328
1708128125: system.cpu.commit: 1708128125;f;i;328
1708129375: system.cpu.commit: 1708129375;s;i;329
1713242500: system.cpu.commit: 1713242500;f;i;329
1713243125: system.cpu.commit: 1713243125;s;i;330
1718355625: system.cpu.commit: 1718355625;f;i;330
1718356250: system.cpu.commit: 1718356250;s;i;331
1723468750: system.cpu.commit: 1723468750;f;i;331
1723469375: system.cpu.commit: 1723469375;s;i;332
1728580625: system.cpu.commit: 1728580625;f;i;332
1728581250: system.cpu.commit: 1728581250;s;i;333
1733687500: system.cpu.commit: 1733687500;f;i;333
1733687500: system.cpu.commit: 1733687500;s;i;334
1738800625: system.cpu.commit: 1738800625;f;i;334
1738801250: system.cpu.commit: 1738801250;s;i;335
1743915000: system.cpu.commit: 1743915000;f;i;335
1743915625: system.cpu.commit: 1743915625;s;i;336
1749022500: system.cpu.commit: 1749022500;f;i;336
1749023750: system.cpu.commit: 1749023750;s;i;337
1754136250: system.cpu.commit: 1754136250;f;i;337
1754136875: system.cpu.commit: 1754136875;s;i;338
1759250625: system.cpu.commit: 1759250625;f;i;338
1759250625: system.cpu.commit: 1759250625;s;i;339
1764362500: system.cpu.commit: 1764362500;f;i;339
1764362500: system.cpu.commit: 1764362500;s;i;340
1769476250: system.cpu.commit: 1769476250;f;i;340
1769476250: system.cpu.commit: 1769476250;s;i;341
1774583125: system.cpu.commit: 1774583125;f;i;341
1774583125: system.cpu.commit: 1774583125;s;i;342
1779696250: system.cpu.commit: 1779696250;f;i;342
1779696250: system.cpu.commit: 1779696250;s;i;343
1784809375: system.cpu.commit: 1784809375;f;i;343
1784809375: system.cpu.commit: 1784809375;s;i;344
1789920625: system.cpu.commit: 1789920625;f;i;344
1789921250: system.cpu.commit: 1789921250;s;i;345
1795033125: system.cpu.commit: 1795033125;f;i;345
1795033125: system.cpu.commit: 1795033125;s;i;346
1800148750: system.cpu.commit: 1800148750;f;i;346
1800149375: system.cpu.commit: 1800149375;s;i;347
1805253125: system.cpu.commit: 1805253125;f;i;347
1805253750: system.cpu.commit: 1805253750;s;i;348
1810366875: system.cpu.commit: 1810366875;f;i;348
1810370625: system.cpu.commit: 1810370625;s;i;349
1815476250: system.cpu.commit: 1815476250;f;i;349
1815477500: system.cpu.commit: 1815477500;s;i;350
1820590000: system.cpu.commit: 1820590000;f;i;350
1820590625: system.cpu.commit: 1820590625;s;i;351
1825703125: system.cpu.commit: 1825703125;f;i;351
1825703750: system.cpu.commit: 1825703750;s;i;352
1830815000: system.cpu.commit: 1830815000;f;i;352
1830815000: system.cpu.commit: 1830815000;s;i;353
1835926875: system.cpu.commit: 1835926875;f;i;353
1835926875: system.cpu.commit: 1835926875;s;i;354
1841036875: system.cpu.commit: 1841036875;f;i;354
1841037500: system.cpu.commit: 1841037500;s;i;355
1846146250: system.cpu.commit: 1846146250;f;i;355
1846146875: system.cpu.commit: 1846146875;s;i;356
1851260000: system.cpu.commit: 1851260000;f;i;356
1851261875: system.cpu.commit: 1851261875;s;i;357
1856374375: system.cpu.commit: 1856374375;f;i;357
1856374375: system.cpu.commit: 1856374375;s;i;358
1861486250: system.cpu.commit: 1861486250;f;i;358
1861486250: system.cpu.commit: 1861486250;s;i;359
1866600000: system.cpu.commit: 1866600000;f;i;359
1866600000: system.cpu.commit: 1866600000;s;i;360
1871705625: system.cpu.commit: 1871705625;f;i;360
1871705625: system.cpu.commit: 1871705625;s;i;361
1876818750: system.cpu.commit: 1876818750;f;i;361
1876819375: system.cpu.commit: 1876819375;s;i;362
1881928125: system.cpu.commit: 1881928125;f;i;362
1881928750: system.cpu.commit: 1881928750;s;i;363
1887041250: system.cpu.commit: 1887041250;f;i;363
1887041875: system.cpu.commit: 1887041875;s;i;364
1892154375: system.cpu.commit: 1892154375;f;i;364
1892155625: system.cpu.commit: 1892155625;s;i;365
1897265000: system.cpu.commit: 1897265000;f;i;365
1897266250: system.cpu.commit: 1897266250;s;i;366
1902381875: system.cpu.commit: 1902381875;f;i;366
1902381875: system.cpu.commit: 1902381875;s;i;367
1907493125: system.cpu.commit: 1907493125;f;i;367
1907495000: system.cpu.commit: 1907495000;s;i;368
1912600625: system.cpu.commit: 1912600625;f;i;368
1912600625: system.cpu.commit: 1912600625;s;i;369
1917714375: system.cpu.commit: 1917714375;f;i;369
1917714375: system.cpu.commit: 1917714375;s;i;370
1922821250: system.cpu.commit: 1922821250;f;i;370
1922823125: system.cpu.commit: 1922823125;s;i;371
1927938750: system.cpu.commit: 1927938750;f;i;371
1927939375: system.cpu.commit: 1927939375;s;i;372
1933052500: system.cpu.commit: 1933052500;f;i;372
1933052500: system.cpu.commit: 1933052500;s;i;373
1938157500: system.cpu.commit: 1938157500;f;i;373
1938158125: system.cpu.commit: 1938158125;s;i;374
1943272500: system.cpu.commit: 1943272500;f;i;374
1943272500: system.cpu.commit: 1943272500;s;i;375
1948385000: system.cpu.commit: 1948385000;f;i;375
1948385625: system.cpu.commit: 1948385625;s;i;376
1953495000: system.cpu.commit: 1953495000;f;i;376
1953495625: system.cpu.commit: 1953495625;s;i;377
1956828750: system.cpu.commit: 1956828750;f;i;377
1956828750: system.cpu.commit: 1956828750;f;d;0
1956828750: system.cpu.commit: 1956828750;s;i;377
1966098750: system.cpu.commit: 1966098750;f;i;377
1966100625: system.cpu.commit: 1966100625;s;i;378
1975956875: system.cpu.commit: 1975956875;f;i;378
