3294951: system.cpu.execute: 3294951;n;0;nn_acc_start
3295577: system.cpu.execute: 3295577;m;0;nn_acc_end
3320304: system.cpu.execute: 3320304;n;0;nn_acc_start
3320930: system.cpu.execute: 3320930;m;0;nn_acc_end
3339084: system.cpu.execute: 3339084;n;0;nn_acc_start
3339710: system.cpu.execute: 3339710;m;0;nn_acc_end
3357238: system.cpu.execute: 3357238;n;0;nn_acc_start
3357864: system.cpu.execute: 3357864;m;0;nn_acc_end
3372262: system.cpu.execute: 3372262;n;0;nn_acc_start
3372888: system.cpu.execute: 3372888;m;0;nn_acc_end
3387912: system.cpu.execute: 3387912;n;0;nn_acc_start
3388538: system.cpu.execute: 3388538;m;0;nn_acc_end
3402936: system.cpu.execute: 3402936;n;0;nn_acc_start
3403562: system.cpu.execute: 3403562;m;0;nn_acc_end
3418586: system.cpu.execute: 3418586;n;0;nn_acc_start
3419212: system.cpu.execute: 3419212;m;0;nn_acc_end
3433610: system.cpu.execute: 3433610;n;0;nn_acc_start
3434236: system.cpu.execute: 3434236;m;0;nn_acc_end
3449260: system.cpu.execute: 3449260;n;0;nn_acc_start
3449886: system.cpu.execute: 3449886;m;0;nn_acc_end
3519685: system.cpu.execute: 3519685;n;0;nn_acc_start
3520311: system.cpu.execute: 3520311;m;0;nn_acc_end
3538778: system.cpu.execute: 3538778;n;0;nn_acc_start
3539404: system.cpu.execute: 3539404;m;0;nn_acc_end
3801698: system.cpu.execute: 3801698;n;0;nn_acc_start
3802324: system.cpu.execute: 3802324;m;0;nn_acc_end
3817348: system.cpu.execute: 3817348;n;0;nn_acc_start
3817974: system.cpu.execute: 3817974;m;0;nn_acc_end
3832372: system.cpu.execute: 3832372;n;0;nn_acc_start
3832998: system.cpu.execute: 3832998;m;0;nn_acc_end
3848022: system.cpu.execute: 3848022;n;0;nn_acc_start
3848648: system.cpu.execute: 3848648;m;0;nn_acc_end
3863046: system.cpu.execute: 3863046;n;0;nn_acc_start
3863672: system.cpu.execute: 3863672;m;0;nn_acc_end
3878696: system.cpu.execute: 3878696;n;0;nn_acc_start
3879322: system.cpu.execute: 3879322;m;0;nn_acc_end
3893720: system.cpu.execute: 3893720;n;0;nn_acc_start
3894346: system.cpu.execute: 3894346;m;0;nn_acc_end
3909370: system.cpu.execute: 3909370;n;0;nn_acc_start
3909996: system.cpu.execute: 3909996;m;0;nn_acc_end
3924394: system.cpu.execute: 3924394;n;0;nn_acc_start
3925020: system.cpu.execute: 3925020;m;0;nn_acc_end
3940044: system.cpu.execute: 3940044;n;0;nn_acc_start
3940670: system.cpu.execute: 3940670;m;0;nn_acc_end
3955068: system.cpu.execute: 3955068;n;0;nn_acc_start
3955694: system.cpu.execute: 3955694;m;0;nn_acc_end
3974161: system.cpu.execute: 3974161;n;0;nn_acc_start
3974787: system.cpu.execute: 3974787;m;0;nn_acc_end
-: -: 11961621772;E;0