  75746: system.cpu.execute: 75746;s;i;0
21469609: system.cpu.execute: 21469609;f;i;0
21469609: system.cpu.execute: 21469609;s;f;0
36097351: system.cpu.execute: 36097351;f;f;0
36097351: system.cpu.execute: 36097351;s;i;1
38532178: system.cpu.execute: 38532178;f;i;1
38532491: system.cpu.execute: 38532491;s;i;2
40965127: system.cpu.execute: 40965127;f;i;2
40965440: system.cpu.execute: 40965440;s;i;3
43397450: system.cpu.execute: 43397450;f;i;3
43397450: system.cpu.execute: 43397450;s;i;4
45830399: system.cpu.execute: 45830399;f;i;4
45830712: system.cpu.execute: 45830712;s;i;5
48262096: system.cpu.execute: 48262096;f;i;5
48262409: system.cpu.execute: 48262409;s;i;6
50695358: system.cpu.execute: 50695358;f;i;6
50695358: system.cpu.execute: 50695358;s;i;7
53127055: system.cpu.execute: 53127055;f;i;7
53127055: system.cpu.execute: 53127055;s;i;8
55560004: system.cpu.execute: 55560004;f;i;8
55560317: system.cpu.execute: 55560317;s;i;9
57991388: system.cpu.execute: 57991388;f;i;9
57991701: system.cpu.execute: 57991701;s;i;10
60424337: system.cpu.execute: 60424337;f;i;10
60424650: system.cpu.execute: 60424650;s;i;11
62856034: system.cpu.execute: 62856034;f;i;11
62856347: system.cpu.execute: 62856347;s;i;12
65282410: system.cpu.execute: 65282410;f;i;12
65283349: system.cpu.execute: 65283349;s;i;13
67712229: system.cpu.execute: 67712229;f;i;13
67712229: system.cpu.execute: 67712229;s;i;14
70143926: system.cpu.execute: 70143926;f;i;14
70144239: system.cpu.execute: 70144239;s;i;15
72577188: system.cpu.execute: 72577188;f;i;15
72577501: system.cpu.execute: 72577501;s;i;16
75009198: system.cpu.execute: 75009198;f;i;16
75009511: system.cpu.execute: 75009511;s;i;17
77442460: system.cpu.execute: 77442460;f;i;17
77442460: system.cpu.execute: 77442460;s;i;18
79874470: system.cpu.execute: 79874470;f;i;18
79874470: system.cpu.execute: 79874470;s;i;19
82307106: system.cpu.execute: 82307106;f;i;19
82307419: system.cpu.execute: 82307419;s;i;20
84739116: system.cpu.execute: 84739116;f;i;20
84740055: system.cpu.execute: 84740055;s;i;21
87171752: system.cpu.execute: 87171752;f;i;21
87171752: system.cpu.execute: 87171752;s;i;22
89604075: system.cpu.execute: 89604075;f;i;22
89604388: system.cpu.execute: 89604388;s;i;23
92035772: system.cpu.execute: 92035772;f;i;23
92036085: system.cpu.execute: 92036085;s;i;24
94465591: system.cpu.execute: 94465591;f;i;24
94465904: system.cpu.execute: 94465904;s;i;25
96891341: system.cpu.execute: 96891341;f;i;25
96891654: system.cpu.execute: 96891654;s;i;26
109226671: system.cpu.execute: 109226671;f;i;26
109226984: system.cpu.execute: 109226984;s;i;27
116356811: system.cpu.execute: 116356811;f;i;27
