  78563: system.cpu.commit: 78563;s;i;0
14376403: system.cpu.commit: 14376403;f;i;0
14376403: system.cpu.commit: 14376403;s;f;0
33703527: system.cpu.commit: 33703527;f;f;0
33703527: system.cpu.commit: 33703527;s;f;1
42039969: system.cpu.commit: 42039969;f;f;1
42039969: system.cpu.commit: 42039969;s;f;2
57377282: system.cpu.commit: 57377282;f;f;2
57382603: system.cpu.commit: 57382603;s;i;1
64123684: system.cpu.commit: 64123684;f;i;1
64123997: system.cpu.commit: 64123997;s;i;2
71102332: system.cpu.commit: 71102332;f;i;2
71102958: system.cpu.commit: 71102958;s;i;3
72206909: system.cpu.commit: 72206909;f;i;3
72206909: system.cpu.commit: 72206909;s;f;3
77999287: system.cpu.commit: 77999287;f;f;3
77999287: system.cpu.commit: 77999287;s;f;4
83707781: system.cpu.commit: 83707781;f;f;4
83707781: system.cpu.commit: 83707781;s;f;5
89411893: system.cpu.commit: 89411893;f;f;5
89411893: system.cpu.commit: 89411893;s;f;6
95120387: system.cpu.commit: 95120387;f;f;6
95120387: system.cpu.commit: 95120387;s;f;7
100828881: system.cpu.commit: 100828881;f;f;7
100828881: system.cpu.commit: 100828881;s;f;8
106532993: system.cpu.commit: 106532993;f;f;8
106532993: system.cpu.commit: 106532993;s;f;9
112241487: system.cpu.commit: 112241487;f;f;9
112241487: system.cpu.commit: 112241487;s;f;10
117986602: system.cpu.commit: 117986602;f;f;10
117986602: system.cpu.commit: 117986602;s;f;11
123690714: system.cpu.commit: 123690714;f;f;11
123690714: system.cpu.commit: 123690714;s;f;12
129399208: system.cpu.commit: 129399208;f;f;12
129399208: system.cpu.commit: 129399208;s;f;13
135107702: system.cpu.commit: 135107702;f;f;13
135107702: system.cpu.commit: 135107702;s;f;14
140811814: system.cpu.commit: 140811814;f;f;14
140811814: system.cpu.commit: 140811814;s;f;15
146520308: system.cpu.commit: 146520308;f;f;15
146520308: system.cpu.commit: 146520308;s;f;16
152228802: system.cpu.commit: 152228802;f;f;16
152228802: system.cpu.commit: 152228802;s;f;17
157962649: system.cpu.commit: 157962649;f;f;17
157962649: system.cpu.commit: 157962649;s;f;18
163671143: system.cpu.commit: 163671143;f;f;18
163671143: system.cpu.commit: 163671143;s;f;19
169379637: system.cpu.commit: 169379637;f;f;19
169379637: system.cpu.commit: 169379637;s;f;20
175083749: system.cpu.commit: 175083749;f;f;20
175083749: system.cpu.commit: 175083749;s;f;21
180792243: system.cpu.commit: 180792243;f;f;21
180792243: system.cpu.commit: 180792243;s;f;22
186500737: system.cpu.commit: 186500737;f;f;22
186500737: system.cpu.commit: 186500737;s;f;23
192204849: system.cpu.commit: 192204849;f;f;23
192204849: system.cpu.commit: 192204849;s;f;24
197918664: system.cpu.commit: 197918664;f;f;24
197918664: system.cpu.commit: 197918664;s;f;25
203627158: system.cpu.commit: 203627158;f;f;25
203627158: system.cpu.commit: 203627158;s;f;26
209331270: system.cpu.commit: 209331270;f;f;26
209331270: system.cpu.commit: 209331270;s;f;27
215039764: system.cpu.commit: 215039764;f;f;27
215039764: system.cpu.commit: 215039764;s;f;28
220748258: system.cpu.commit: 220748258;f;f;28
220748258: system.cpu.commit: 220748258;s;f;29
226452370: system.cpu.commit: 226452370;f;f;29
226452370: system.cpu.commit: 226452370;s;f;30
232160864: system.cpu.commit: 232160864;f;f;30
232160864: system.cpu.commit: 232160864;s;f;31
237874679: system.cpu.commit: 237874679;f;f;31
237874679: system.cpu.commit: 237874679;s;f;32
243578791: system.cpu.commit: 243578791;f;f;32
243578791: system.cpu.commit: 243578791;s;f;33
249287285: system.cpu.commit: 249287285;f;f;33
249287285: system.cpu.commit: 249287285;s;f;34
254995779: system.cpu.commit: 254995779;f;f;34
254995779: system.cpu.commit: 254995779;s;f;35
260699891: system.cpu.commit: 260699891;f;f;35
260699891: system.cpu.commit: 260699891;s;f;36
266408385: system.cpu.commit: 266408385;f;f;36
266408385: system.cpu.commit: 266408385;s;f;37
272116879: system.cpu.commit: 272116879;f;f;37
272116879: system.cpu.commit: 272116879;s;f;38
277820991: system.cpu.commit: 277820991;f;f;38
277820991: system.cpu.commit: 277820991;s;f;39
283534806: system.cpu.commit: 283534806;f;f;39
283534806: system.cpu.commit: 283534806;s;f;40
289243300: system.cpu.commit: 289243300;f;f;40
289243300: system.cpu.commit: 289243300;s;f;41
294947412: system.cpu.commit: 294947412;f;f;41
294947412: system.cpu.commit: 294947412;s;f;42
300655906: system.cpu.commit: 300655906;f;f;42
300655906: system.cpu.commit: 300655906;s;f;43
306364400: system.cpu.commit: 306364400;f;f;43
306364400: system.cpu.commit: 306364400;s;f;44
312068512: system.cpu.commit: 312068512;f;f;44
312068512: system.cpu.commit: 312068512;s;f;45
317777006: system.cpu.commit: 317777006;f;f;45
317777006: system.cpu.commit: 317777006;s;f;46
323490821: system.cpu.commit: 323490821;f;f;46
323490821: system.cpu.commit: 323490821;s;f;47
329194933: system.cpu.commit: 329194933;f;f;47
329194933: system.cpu.commit: 329194933;s;f;48
334903427: system.cpu.commit: 334903427;f;f;48
334903427: system.cpu.commit: 334903427;s;f;49
340611921: system.cpu.commit: 340611921;f;f;49
340611921: system.cpu.commit: 340611921;s;f;50
346316033: system.cpu.commit: 346316033;f;f;50
346316033: system.cpu.commit: 346316033;s;f;51
352024527: system.cpu.commit: 352024527;f;f;51
352024527: system.cpu.commit: 352024527;s;f;52
357733021: system.cpu.commit: 357733021;f;f;52
357733021: system.cpu.commit: 357733021;s;f;53
363442454: system.cpu.commit: 363442454;f;f;53
363442454: system.cpu.commit: 363442454;s;f;54
369150948: system.cpu.commit: 369150948;f;f;54
369150948: system.cpu.commit: 369150948;s;f;55
374859442: system.cpu.commit: 374859442;f;f;55
374859442: system.cpu.commit: 374859442;s;f;56
380563554: system.cpu.commit: 380563554;f;f;56
380563554: system.cpu.commit: 380563554;s;f;57
386272048: system.cpu.commit: 386272048;f;f;57
386272048: system.cpu.commit: 386272048;s;f;58
391980542: system.cpu.commit: 391980542;f;f;58
391980542: system.cpu.commit: 391980542;s;f;59
397684654: system.cpu.commit: 397684654;f;f;59
397684654: system.cpu.commit: 397684654;s;f;60
403398469: system.cpu.commit: 403398469;f;f;60
403398469: system.cpu.commit: 403398469;s;f;61
409106963: system.cpu.commit: 409106963;f;f;61
409106963: system.cpu.commit: 409106963;s;f;62
414811075: system.cpu.commit: 414811075;f;f;62
414811075: system.cpu.commit: 414811075;s;f;63
420519569: system.cpu.commit: 420519569;f;f;63
420519569: system.cpu.commit: 420519569;s;f;64
426228063: system.cpu.commit: 426228063;f;f;64
426228063: system.cpu.commit: 426228063;s;f;65
431932175: system.cpu.commit: 431932175;f;f;65
431932175: system.cpu.commit: 431932175;s;f;66
437640669: system.cpu.commit: 437640669;f;f;66
437640669: system.cpu.commit: 437640669;s;f;67
443354484: system.cpu.commit: 443354484;f;f;67
443354484: system.cpu.commit: 443354484;s;f;68
449058596: system.cpu.commit: 449058596;f;f;68
449058596: system.cpu.commit: 449058596;s;f;69
454767090: system.cpu.commit: 454767090;f;f;69
454767090: system.cpu.commit: 454767090;s;f;70
460475584: system.cpu.commit: 460475584;f;f;70
460475584: system.cpu.commit: 460475584;s;f;71
466179696: system.cpu.commit: 466179696;f;f;71
466179696: system.cpu.commit: 466179696;s;f;72
471888190: system.cpu.commit: 471888190;f;f;72
471888190: system.cpu.commit: 471888190;s;f;73
477596684: system.cpu.commit: 477596684;f;f;73
477596684: system.cpu.commit: 477596684;s;f;74
483300796: system.cpu.commit: 483300796;f;f;74
483300796: system.cpu.commit: 483300796;s;f;75
489014611: system.cpu.commit: 489014611;f;f;75
489014611: system.cpu.commit: 489014611;s;f;76
494723105: system.cpu.commit: 494723105;f;f;76
494723105: system.cpu.commit: 494723105;s;f;77
500427217: system.cpu.commit: 500427217;f;f;77
500427217: system.cpu.commit: 500427217;s;f;78
506135711: system.cpu.commit: 506135711;f;f;78
506135711: system.cpu.commit: 506135711;s;f;79
511844205: system.cpu.commit: 511844205;f;f;79
511844205: system.cpu.commit: 511844205;s;f;80
517548317: system.cpu.commit: 517548317;f;f;80
517548317: system.cpu.commit: 517548317;s;f;81
523256811: system.cpu.commit: 523256811;f;f;81
523256811: system.cpu.commit: 523256811;s;f;82
528970626: system.cpu.commit: 528970626;f;f;82
528970626: system.cpu.commit: 528970626;s;f;83
534674738: system.cpu.commit: 534674738;f;f;83
534674738: system.cpu.commit: 534674738;s;f;84
540383232: system.cpu.commit: 540383232;f;f;84
540383232: system.cpu.commit: 540383232;s;f;85
546091726: system.cpu.commit: 546091726;f;f;85
546091726: system.cpu.commit: 546091726;s;f;86
551795838: system.cpu.commit: 551795838;f;f;86
551795838: system.cpu.commit: 551795838;s;f;87
557504332: system.cpu.commit: 557504332;f;f;87
557504332: system.cpu.commit: 557504332;s;f;88
563212826: system.cpu.commit: 563212826;f;f;88
563212826: system.cpu.commit: 563212826;s;f;89
568922259: system.cpu.commit: 568922259;f;f;89
568922259: system.cpu.commit: 568922259;s;f;90
574630753: system.cpu.commit: 574630753;f;f;90
574630753: system.cpu.commit: 574630753;s;f;91
580339247: system.cpu.commit: 580339247;f;f;91
580339247: system.cpu.commit: 580339247;s;f;92
586043359: system.cpu.commit: 586043359;f;f;92
586043359: system.cpu.commit: 586043359;s;f;93
591751853: system.cpu.commit: 591751853;f;f;93
591751853: system.cpu.commit: 591751853;s;f;94
597460347: system.cpu.commit: 597460347;f;f;94
597460347: system.cpu.commit: 597460347;s;f;95
603164459: system.cpu.commit: 603164459;f;f;95
603164459: system.cpu.commit: 603164459;s;f;96
608878274: system.cpu.commit: 608878274;f;f;96
608878274: system.cpu.commit: 608878274;s;f;97
614586768: system.cpu.commit: 614586768;f;f;97
614586768: system.cpu.commit: 614586768;s;f;98
620290880: system.cpu.commit: 620290880;f;f;98
620290880: system.cpu.commit: 620290880;s;f;99
625999374: system.cpu.commit: 625999374;f;f;99
625999374: system.cpu.commit: 625999374;s;f;100
631707868: system.cpu.commit: 631707868;f;f;100
631707868: system.cpu.commit: 631707868;s;f;101
637411980: system.cpu.commit: 637411980;f;f;101
637411980: system.cpu.commit: 637411980;s;f;102
643120474: system.cpu.commit: 643120474;f;f;102
643120474: system.cpu.commit: 643120474;s;f;103
648834289: system.cpu.commit: 648834289;f;f;103
648834289: system.cpu.commit: 648834289;s;f;104
654538401: system.cpu.commit: 654538401;f;f;104
654538401: system.cpu.commit: 654538401;s;f;105
660246895: system.cpu.commit: 660246895;f;f;105
660246895: system.cpu.commit: 660246895;s;f;106
665955389: system.cpu.commit: 665955389;f;f;106
665955389: system.cpu.commit: 665955389;s;f;107
671659501: system.cpu.commit: 671659501;f;f;107
671659501: system.cpu.commit: 671659501;s;f;108
677367995: system.cpu.commit: 677367995;f;f;108
677367995: system.cpu.commit: 677367995;s;f;109
683076489: system.cpu.commit: 683076489;f;f;109
683076489: system.cpu.commit: 683076489;s;f;110
688780601: system.cpu.commit: 688780601;f;f;110
688780601: system.cpu.commit: 688780601;s;f;111
694494416: system.cpu.commit: 694494416;f;f;111
694494416: system.cpu.commit: 694494416;s;f;112
700202910: system.cpu.commit: 700202910;f;f;112
700202910: system.cpu.commit: 700202910;s;f;113
705907022: system.cpu.commit: 705907022;f;f;113
705907022: system.cpu.commit: 705907022;s;f;114
711615516: system.cpu.commit: 711615516;f;f;114
711615516: system.cpu.commit: 711615516;s;f;115
717324010: system.cpu.commit: 717324010;f;f;115
717324010: system.cpu.commit: 717324010;s;f;116
723028122: system.cpu.commit: 723028122;f;f;116
723028122: system.cpu.commit: 723028122;s;f;117
728736616: system.cpu.commit: 728736616;f;f;117
728736616: system.cpu.commit: 728736616;s;f;118
734450431: system.cpu.commit: 734450431;f;f;118
734450431: system.cpu.commit: 734450431;s;f;119
740154543: system.cpu.commit: 740154543;f;f;119
740154543: system.cpu.commit: 740154543;s;f;120
745863037: system.cpu.commit: 745863037;f;f;120
745863037: system.cpu.commit: 745863037;s;f;121
751571531: system.cpu.commit: 751571531;f;f;121
751571531: system.cpu.commit: 751571531;s;f;122
757275643: system.cpu.commit: 757275643;f;f;122
757275643: system.cpu.commit: 757275643;s;f;123
762984137: system.cpu.commit: 762984137;f;f;123
762984137: system.cpu.commit: 762984137;s;f;124
768692631: system.cpu.commit: 768692631;f;f;124
768692631: system.cpu.commit: 768692631;s;f;125
774402064: system.cpu.commit: 774402064;f;f;125
774402064: system.cpu.commit: 774402064;s;f;126
780110558: system.cpu.commit: 780110558;f;f;126
780110558: system.cpu.commit: 780110558;s;f;127
785819052: system.cpu.commit: 785819052;f;f;127
785819052: system.cpu.commit: 785819052;s;f;128
791523164: system.cpu.commit: 791523164;f;f;128
791523164: system.cpu.commit: 791523164;s;f;129
797231658: system.cpu.commit: 797231658;f;f;129
797231658: system.cpu.commit: 797231658;s;f;130
802940152: system.cpu.commit: 802940152;f;f;130
802940152: system.cpu.commit: 802940152;s;f;131
808644264: system.cpu.commit: 808644264;f;f;131
808644264: system.cpu.commit: 808644264;s;f;132
814358079: system.cpu.commit: 814358079;f;f;132
814358079: system.cpu.commit: 814358079;s;f;133
820066573: system.cpu.commit: 820066573;f;f;133
820066573: system.cpu.commit: 820066573;s;f;134
825770685: system.cpu.commit: 825770685;f;f;134
825770685: system.cpu.commit: 825770685;s;f;135
831479179: system.cpu.commit: 831479179;f;f;135
831479179: system.cpu.commit: 831479179;s;f;136
837187673: system.cpu.commit: 837187673;f;f;136
837187673: system.cpu.commit: 837187673;s;f;137
842891785: system.cpu.commit: 842891785;f;f;137
842891785: system.cpu.commit: 842891785;s;f;138
848600279: system.cpu.commit: 848600279;f;f;138
848600279: system.cpu.commit: 848600279;s;f;139
854314094: system.cpu.commit: 854314094;f;f;139
854314094: system.cpu.commit: 854314094;s;f;140
860018206: system.cpu.commit: 860018206;f;f;140
860018206: system.cpu.commit: 860018206;s;f;141
865726700: system.cpu.commit: 865726700;f;f;141
865726700: system.cpu.commit: 865726700;s;f;142
871435194: system.cpu.commit: 871435194;f;f;142
871435194: system.cpu.commit: 871435194;s;f;143
877139306: system.cpu.commit: 877139306;f;f;143
877139306: system.cpu.commit: 877139306;s;f;144
882847800: system.cpu.commit: 882847800;f;f;144
882847800: system.cpu.commit: 882847800;s;f;145
888556294: system.cpu.commit: 888556294;f;f;145
888556294: system.cpu.commit: 888556294;s;f;146
894260406: system.cpu.commit: 894260406;f;f;146
894260406: system.cpu.commit: 894260406;s;f;147
899974221: system.cpu.commit: 899974221;f;f;147
899974221: system.cpu.commit: 899974221;s;f;148
905682715: system.cpu.commit: 905682715;f;f;148
905682715: system.cpu.commit: 905682715;s;f;149
911386827: system.cpu.commit: 911386827;f;f;149
911386827: system.cpu.commit: 911386827;s;f;150
917095321: system.cpu.commit: 917095321;f;f;150
917095321: system.cpu.commit: 917095321;s;f;151
922803815: system.cpu.commit: 922803815;f;f;151
922803815: system.cpu.commit: 922803815;s;f;152
928507927: system.cpu.commit: 928507927;f;f;152
928507927: system.cpu.commit: 928507927;s;f;153
934216421: system.cpu.commit: 934216421;f;f;153
934216421: system.cpu.commit: 934216421;s;f;154
939930236: system.cpu.commit: 939930236;f;f;154
939930236: system.cpu.commit: 939930236;s;f;155
945634348: system.cpu.commit: 945634348;f;f;155
945634348: system.cpu.commit: 945634348;s;f;156
951342842: system.cpu.commit: 951342842;f;f;156
951342842: system.cpu.commit: 951342842;s;f;157
957051336: system.cpu.commit: 957051336;f;f;157
957051336: system.cpu.commit: 957051336;s;f;158
962755448: system.cpu.commit: 962755448;f;f;158
962755448: system.cpu.commit: 962755448;s;f;159
968463942: system.cpu.commit: 968463942;f;f;159
968463942: system.cpu.commit: 968463942;s;f;160
974172436: system.cpu.commit: 974172436;f;f;160
974172436: system.cpu.commit: 974172436;s;f;161
979881869: system.cpu.commit: 979881869;f;f;161
979881869: system.cpu.commit: 979881869;s;f;162
985590363: system.cpu.commit: 985590363;f;f;162
985590363: system.cpu.commit: 985590363;s;f;163
991298857: system.cpu.commit: 991298857;f;f;163
991298857: system.cpu.commit: 991298857;s;f;164
997002969: system.cpu.commit: 997002969;f;f;164
997002969: system.cpu.commit: 997002969;s;f;165
1002711463: system.cpu.commit: 1002711463;f;f;165
1002711463: system.cpu.commit: 1002711463;s;f;166
1008419957: system.cpu.commit: 1008419957;f;f;166
1008419957: system.cpu.commit: 1008419957;s;f;167
1014124069: system.cpu.commit: 1014124069;f;f;167
1014124069: system.cpu.commit: 1014124069;s;f;168
1019837884: system.cpu.commit: 1019837884;f;f;168
1019837884: system.cpu.commit: 1019837884;s;f;169
1025546378: system.cpu.commit: 1025546378;f;f;169
1025546378: system.cpu.commit: 1025546378;s;f;170
1031250490: system.cpu.commit: 1031250490;f;f;170
1031250490: system.cpu.commit: 1031250490;s;f;171
1036958984: system.cpu.commit: 1036958984;f;f;171
1036958984: system.cpu.commit: 1036958984;s;f;172
1042667478: system.cpu.commit: 1042667478;f;f;172
1042667478: system.cpu.commit: 1042667478;s;f;173
1048371590: system.cpu.commit: 1048371590;f;f;173
1048371590: system.cpu.commit: 1048371590;s;f;174
1054080084: system.cpu.commit: 1054080084;f;f;174
1054080084: system.cpu.commit: 1054080084;s;f;175
1059793899: system.cpu.commit: 1059793899;f;f;175
1059793899: system.cpu.commit: 1059793899;s;f;176
1065498011: system.cpu.commit: 1065498011;f;f;176
1065498011: system.cpu.commit: 1065498011;s;f;177
1071206505: system.cpu.commit: 1071206505;f;f;177
1071206505: system.cpu.commit: 1071206505;s;f;178
1076914999: system.cpu.commit: 1076914999;f;f;178
1076914999: system.cpu.commit: 1076914999;s;f;179
1082619111: system.cpu.commit: 1082619111;f;f;179
1082619111: system.cpu.commit: 1082619111;s;f;180
1088327605: system.cpu.commit: 1088327605;f;f;180
1088327605: system.cpu.commit: 1088327605;s;f;181
1094036099: system.cpu.commit: 1094036099;f;f;181
1094036099: system.cpu.commit: 1094036099;s;f;182
1099740211: system.cpu.commit: 1099740211;f;f;182
1099740211: system.cpu.commit: 1099740211;s;f;183
1105454026: system.cpu.commit: 1105454026;f;f;183
1105454026: system.cpu.commit: 1105454026;s;f;184
1111162520: system.cpu.commit: 1111162520;f;f;184
1111162520: system.cpu.commit: 1111162520;s;f;185
1116866632: system.cpu.commit: 1116866632;f;f;185
1116866632: system.cpu.commit: 1116866632;s;f;186
1122575126: system.cpu.commit: 1122575126;f;f;186
1122575126: system.cpu.commit: 1122575126;s;f;187
1128283620: system.cpu.commit: 1128283620;f;f;187
1128283620: system.cpu.commit: 1128283620;s;f;188
1133987732: system.cpu.commit: 1133987732;f;f;188
1133987732: system.cpu.commit: 1133987732;s;f;189
1139696226: system.cpu.commit: 1139696226;f;f;189
1139696226: system.cpu.commit: 1139696226;s;f;190
1145410041: system.cpu.commit: 1145410041;f;f;190
1145410041: system.cpu.commit: 1145410041;s;f;191
1151114153: system.cpu.commit: 1151114153;f;f;191
1151114153: system.cpu.commit: 1151114153;s;f;192
1156822647: system.cpu.commit: 1156822647;f;f;192
1156822647: system.cpu.commit: 1156822647;s;f;193
1162531141: system.cpu.commit: 1162531141;f;f;193
1162531141: system.cpu.commit: 1162531141;s;f;194
1168235253: system.cpu.commit: 1168235253;f;f;194
1168235253: system.cpu.commit: 1168235253;s;f;195
1173943747: system.cpu.commit: 1173943747;f;f;195
1173943747: system.cpu.commit: 1173943747;s;f;196
1179652241: system.cpu.commit: 1179652241;f;f;196
1179652241: system.cpu.commit: 1179652241;s;f;197
1185361674: system.cpu.commit: 1185361674;f;f;197
1185361674: system.cpu.commit: 1185361674;s;f;198
1191070168: system.cpu.commit: 1191070168;f;f;198
1191070168: system.cpu.commit: 1191070168;s;f;199
1196778662: system.cpu.commit: 1196778662;f;f;199
1196778662: system.cpu.commit: 1196778662;s;f;200
1202482774: system.cpu.commit: 1202482774;f;f;200
1202482774: system.cpu.commit: 1202482774;s;f;201
1208191268: system.cpu.commit: 1208191268;f;f;201
1208191268: system.cpu.commit: 1208191268;s;f;202
1213899762: system.cpu.commit: 1213899762;f;f;202
1213899762: system.cpu.commit: 1213899762;s;f;203
1219603874: system.cpu.commit: 1219603874;f;f;203
1219603874: system.cpu.commit: 1219603874;s;f;204
1225317689: system.cpu.commit: 1225317689;f;f;204
1225317689: system.cpu.commit: 1225317689;s;f;205
1231026183: system.cpu.commit: 1231026183;f;f;205
1231026183: system.cpu.commit: 1231026183;s;f;206
1236730295: system.cpu.commit: 1236730295;f;f;206
1236730295: system.cpu.commit: 1236730295;s;f;207
1242438789: system.cpu.commit: 1242438789;f;f;207
1242438789: system.cpu.commit: 1242438789;s;f;208
1248147283: system.cpu.commit: 1248147283;f;f;208
1248147283: system.cpu.commit: 1248147283;s;f;209
1253851395: system.cpu.commit: 1253851395;f;f;209
1253851395: system.cpu.commit: 1253851395;s;f;210
1259559889: system.cpu.commit: 1259559889;f;f;210
1259559889: system.cpu.commit: 1259559889;s;f;211
1265273704: system.cpu.commit: 1265273704;f;f;211
1265273704: system.cpu.commit: 1265273704;s;f;212
1270977816: system.cpu.commit: 1270977816;f;f;212
1270977816: system.cpu.commit: 1270977816;s;f;213
1276686310: system.cpu.commit: 1276686310;f;f;213
1276686310: system.cpu.commit: 1276686310;s;f;214
1282394804: system.cpu.commit: 1282394804;f;f;214
1282394804: system.cpu.commit: 1282394804;s;f;215
1288098916: system.cpu.commit: 1288098916;f;f;215
1288098916: system.cpu.commit: 1288098916;s;f;216
1293807410: system.cpu.commit: 1293807410;f;f;216
1293807410: system.cpu.commit: 1293807410;s;f;217
1299515904: system.cpu.commit: 1299515904;f;f;217
1299515904: system.cpu.commit: 1299515904;s;f;218
1305220016: system.cpu.commit: 1305220016;f;f;218
1305220016: system.cpu.commit: 1305220016;s;f;219
1310933831: system.cpu.commit: 1310933831;f;f;219
1310933831: system.cpu.commit: 1310933831;s;f;220
1316642325: system.cpu.commit: 1316642325;f;f;220
1316642325: system.cpu.commit: 1316642325;s;f;221
1322346437: system.cpu.commit: 1322346437;f;f;221
1322346437: system.cpu.commit: 1322346437;s;f;222
1328054931: system.cpu.commit: 1328054931;f;f;222
1328054931: system.cpu.commit: 1328054931;s;f;223
1333763425: system.cpu.commit: 1333763425;f;f;223
1333763425: system.cpu.commit: 1333763425;s;f;224
1339467537: system.cpu.commit: 1339467537;f;f;224
1339467537: system.cpu.commit: 1339467537;s;f;225
1345176031: system.cpu.commit: 1345176031;f;f;225
1345176031: system.cpu.commit: 1345176031;s;f;226
1350889846: system.cpu.commit: 1350889846;f;f;226
1350889846: system.cpu.commit: 1350889846;s;f;227
1356593958: system.cpu.commit: 1356593958;f;f;227
1356593958: system.cpu.commit: 1356593958;s;f;228
1362302452: system.cpu.commit: 1362302452;f;f;228
1362302452: system.cpu.commit: 1362302452;s;f;229
1368010946: system.cpu.commit: 1368010946;f;f;229
1368010946: system.cpu.commit: 1368010946;s;f;230
1373715058: system.cpu.commit: 1373715058;f;f;230
1373715058: system.cpu.commit: 1373715058;s;f;231
1379423552: system.cpu.commit: 1379423552;f;f;231
1379423552: system.cpu.commit: 1379423552;s;f;232
1385132046: system.cpu.commit: 1385132046;f;f;232
1385132046: system.cpu.commit: 1385132046;s;f;233
1390841479: system.cpu.commit: 1390841479;f;f;233
1390841479: system.cpu.commit: 1390841479;s;f;234
1396549973: system.cpu.commit: 1396549973;f;f;234
1396549973: system.cpu.commit: 1396549973;s;f;235
1402258467: system.cpu.commit: 1402258467;f;f;235
1402258467: system.cpu.commit: 1402258467;s;f;236
1407962579: system.cpu.commit: 1407962579;f;f;236
1407962579: system.cpu.commit: 1407962579;s;f;237
1413671073: system.cpu.commit: 1413671073;f;f;237
1413671073: system.cpu.commit: 1413671073;s;f;238
1419379567: system.cpu.commit: 1419379567;f;f;238
1419379567: system.cpu.commit: 1419379567;s;f;239
1425083679: system.cpu.commit: 1425083679;f;f;239
1425083679: system.cpu.commit: 1425083679;s;f;240
1430797494: system.cpu.commit: 1430797494;f;f;240
1430797494: system.cpu.commit: 1430797494;s;f;241
1436505988: system.cpu.commit: 1436505988;f;f;241
1436505988: system.cpu.commit: 1436505988;s;f;242
1442210100: system.cpu.commit: 1442210100;f;f;242
1442210100: system.cpu.commit: 1442210100;s;f;243
1447918594: system.cpu.commit: 1447918594;f;f;243
1447918594: system.cpu.commit: 1447918594;s;f;244
1453627088: system.cpu.commit: 1453627088;f;f;244
1453627088: system.cpu.commit: 1453627088;s;f;245
1459331200: system.cpu.commit: 1459331200;f;f;245
1459331200: system.cpu.commit: 1459331200;s;f;246
1465039694: system.cpu.commit: 1465039694;f;f;246
1465039694: system.cpu.commit: 1465039694;s;f;247
1470753509: system.cpu.commit: 1470753509;f;f;247
1470753509: system.cpu.commit: 1470753509;s;f;248
1476457621: system.cpu.commit: 1476457621;f;f;248
1476457621: system.cpu.commit: 1476457621;s;f;249
1482166115: system.cpu.commit: 1482166115;f;f;249
1482166115: system.cpu.commit: 1482166115;s;f;250
1487874609: system.cpu.commit: 1487874609;f;f;250
1487874609: system.cpu.commit: 1487874609;s;f;251
1493578721: system.cpu.commit: 1493578721;f;f;251
1493578721: system.cpu.commit: 1493578721;s;f;252
1499287215: system.cpu.commit: 1499287215;f;f;252
1499287215: system.cpu.commit: 1499287215;s;f;253
1504995709: system.cpu.commit: 1504995709;f;f;253
1504995709: system.cpu.commit: 1504995709;s;f;254
1510699821: system.cpu.commit: 1510699821;f;f;254
1510699821: system.cpu.commit: 1510699821;s;f;255
1516413636: system.cpu.commit: 1516413636;f;f;255
1516413636: system.cpu.commit: 1516413636;s;f;256
1522122130: system.cpu.commit: 1522122130;f;f;256
1522122130: system.cpu.commit: 1522122130;s;f;257
1527826242: system.cpu.commit: 1527826242;f;f;257
1527826242: system.cpu.commit: 1527826242;s;f;258
1533534736: system.cpu.commit: 1533534736;f;f;258
1533534736: system.cpu.commit: 1533534736;s;f;259
1539243230: system.cpu.commit: 1539243230;f;f;259
1539243230: system.cpu.commit: 1539243230;s;f;260
1544947342: system.cpu.commit: 1544947342;f;f;260
1544947342: system.cpu.commit: 1544947342;s;f;261
1550655836: system.cpu.commit: 1550655836;f;f;261
1550655836: system.cpu.commit: 1550655836;s;f;262
1556369651: system.cpu.commit: 1556369651;f;f;262
1556369651: system.cpu.commit: 1556369651;s;f;263
1562073763: system.cpu.commit: 1562073763;f;f;263
1562073763: system.cpu.commit: 1562073763;s;f;264
1567782257: system.cpu.commit: 1567782257;f;f;264
1567782257: system.cpu.commit: 1567782257;s;f;265
1573490751: system.cpu.commit: 1573490751;f;f;265
1573490751: system.cpu.commit: 1573490751;s;f;266
1579194863: system.cpu.commit: 1579194863;f;f;266
1579194863: system.cpu.commit: 1579194863;s;f;267
1584903357: system.cpu.commit: 1584903357;f;f;267
1584903357: system.cpu.commit: 1584903357;s;f;268
1590611851: system.cpu.commit: 1590611851;f;f;268
1590611851: system.cpu.commit: 1590611851;s;f;269
1596321284: system.cpu.commit: 1596321284;f;f;269
1596321284: system.cpu.commit: 1596321284;s;f;270
1602029778: system.cpu.commit: 1602029778;f;f;270
1602029778: system.cpu.commit: 1602029778;s;f;271
1607738272: system.cpu.commit: 1607738272;f;f;271
1607738272: system.cpu.commit: 1607738272;s;f;272
1613442384: system.cpu.commit: 1613442384;f;f;272
1613442384: system.cpu.commit: 1613442384;s;f;273
1619150878: system.cpu.commit: 1619150878;f;f;273
1619150878: system.cpu.commit: 1619150878;s;f;274
1624859372: system.cpu.commit: 1624859372;f;f;274
1624859372: system.cpu.commit: 1624859372;s;f;275
1630563484: system.cpu.commit: 1630563484;f;f;275
1630563484: system.cpu.commit: 1630563484;s;f;276
1636277299: system.cpu.commit: 1636277299;f;f;276
1636277299: system.cpu.commit: 1636277299;s;f;277
1641985793: system.cpu.commit: 1641985793;f;f;277
1641985793: system.cpu.commit: 1641985793;s;f;278
1647689905: system.cpu.commit: 1647689905;f;f;278
1647689905: system.cpu.commit: 1647689905;s;f;279
1653398399: system.cpu.commit: 1653398399;f;f;279
1653398399: system.cpu.commit: 1653398399;s;f;280
1659106893: system.cpu.commit: 1659106893;f;f;280
1659106893: system.cpu.commit: 1659106893;s;f;281
1664811005: system.cpu.commit: 1664811005;f;f;281
1664811005: system.cpu.commit: 1664811005;s;f;282
1670519499: system.cpu.commit: 1670519499;f;f;282
1670519499: system.cpu.commit: 1670519499;s;f;283
1676233314: system.cpu.commit: 1676233314;f;f;283
1676233314: system.cpu.commit: 1676233314;s;f;284
1681937426: system.cpu.commit: 1681937426;f;f;284
1681937426: system.cpu.commit: 1681937426;s;f;285
1687645920: system.cpu.commit: 1687645920;f;f;285
1687645920: system.cpu.commit: 1687645920;s;f;286
1693354414: system.cpu.commit: 1693354414;f;f;286
1693354414: system.cpu.commit: 1693354414;s;f;287
1699058526: system.cpu.commit: 1699058526;f;f;287
1699058526: system.cpu.commit: 1699058526;s;f;288
1704767020: system.cpu.commit: 1704767020;f;f;288
1704767020: system.cpu.commit: 1704767020;s;f;289
1710475514: system.cpu.commit: 1710475514;f;f;289
1710475514: system.cpu.commit: 1710475514;s;f;290
1716179626: system.cpu.commit: 1716179626;f;f;290
1716179626: system.cpu.commit: 1716179626;s;f;291
1721893441: system.cpu.commit: 1721893441;f;f;291
1721893441: system.cpu.commit: 1721893441;s;f;292
1727601935: system.cpu.commit: 1727601935;f;f;292
1727601935: system.cpu.commit: 1727601935;s;f;293
1733306047: system.cpu.commit: 1733306047;f;f;293
1733306047: system.cpu.commit: 1733306047;s;f;294
1739014541: system.cpu.commit: 1739014541;f;f;294
1739014541: system.cpu.commit: 1739014541;s;f;295
1744723035: system.cpu.commit: 1744723035;f;f;295
1744723035: system.cpu.commit: 1744723035;s;f;296
1750427147: system.cpu.commit: 1750427147;f;f;296
1750427147: system.cpu.commit: 1750427147;s;f;297
1756135641: system.cpu.commit: 1756135641;f;f;297
1756135641: system.cpu.commit: 1756135641;s;f;298
1761849456: system.cpu.commit: 1761849456;f;f;298
1761849456: system.cpu.commit: 1761849456;s;f;299
1767553568: system.cpu.commit: 1767553568;f;f;299
1767553568: system.cpu.commit: 1767553568;s;f;300
1773262062: system.cpu.commit: 1773262062;f;f;300
1773262062: system.cpu.commit: 1773262062;s;f;301
1778970556: system.cpu.commit: 1778970556;f;f;301
1778970556: system.cpu.commit: 1778970556;s;f;302
1784674668: system.cpu.commit: 1784674668;f;f;302
1784674668: system.cpu.commit: 1784674668;s;f;303
1790383162: system.cpu.commit: 1790383162;f;f;303
1790383162: system.cpu.commit: 1790383162;s;f;304
1796091656: system.cpu.commit: 1796091656;f;f;304
1796091656: system.cpu.commit: 1796091656;s;f;305
1801801089: system.cpu.commit: 1801801089;f;f;305
1801801089: system.cpu.commit: 1801801089;s;f;306
1807509583: system.cpu.commit: 1807509583;f;f;306
1807509583: system.cpu.commit: 1807509583;s;f;307
1813218077: system.cpu.commit: 1813218077;f;f;307
1813218077: system.cpu.commit: 1813218077;s;f;308
1818922189: system.cpu.commit: 1818922189;f;f;308
1818922189: system.cpu.commit: 1818922189;s;f;309
1824630683: system.cpu.commit: 1824630683;f;f;309
1824630683: system.cpu.commit: 1824630683;s;f;310
1830339177: system.cpu.commit: 1830339177;f;f;310
1830339177: system.cpu.commit: 1830339177;s;f;311
1836043289: system.cpu.commit: 1836043289;f;f;311
1836043289: system.cpu.commit: 1836043289;s;f;312
1841757104: system.cpu.commit: 1841757104;f;f;312
1841757104: system.cpu.commit: 1841757104;s;f;313
1847465598: system.cpu.commit: 1847465598;f;f;313
1847465598: system.cpu.commit: 1847465598;s;f;314
1853169710: system.cpu.commit: 1853169710;f;f;314
1853169710: system.cpu.commit: 1853169710;s;f;315
1858878204: system.cpu.commit: 1858878204;f;f;315
1858878204: system.cpu.commit: 1858878204;s;f;316
1864586698: system.cpu.commit: 1864586698;f;f;316
1864586698: system.cpu.commit: 1864586698;s;f;317
1870290810: system.cpu.commit: 1870290810;f;f;317
1870290810: system.cpu.commit: 1870290810;s;f;318
1875999304: system.cpu.commit: 1875999304;f;f;318
1875999304: system.cpu.commit: 1875999304;s;f;319
1881713119: system.cpu.commit: 1881713119;f;f;319
1881713119: system.cpu.commit: 1881713119;s;f;320
1887417231: system.cpu.commit: 1887417231;f;f;320
1887417231: system.cpu.commit: 1887417231;s;f;321
1893125725: system.cpu.commit: 1893125725;f;f;321
1893125725: system.cpu.commit: 1893125725;s;f;322
1898834219: system.cpu.commit: 1898834219;f;f;322
1898834219: system.cpu.commit: 1898834219;s;f;323
1904538331: system.cpu.commit: 1904538331;f;f;323
1904538331: system.cpu.commit: 1904538331;s;f;324
1910246825: system.cpu.commit: 1910246825;f;f;324
1910246825: system.cpu.commit: 1910246825;s;f;325
1915955319: system.cpu.commit: 1915955319;f;f;325
1915955319: system.cpu.commit: 1915955319;s;f;326
1921659431: system.cpu.commit: 1921659431;f;f;326
1921659431: system.cpu.commit: 1921659431;s;f;327
1927373246: system.cpu.commit: 1927373246;f;f;327
1927373246: system.cpu.commit: 1927373246;s;f;328
1933081740: system.cpu.commit: 1933081740;f;f;328
1933081740: system.cpu.commit: 1933081740;s;f;329
1938785852: system.cpu.commit: 1938785852;f;f;329
1938785852: system.cpu.commit: 1938785852;s;f;330
1944494346: system.cpu.commit: 1944494346;f;f;330
1944494346: system.cpu.commit: 1944494346;s;f;331
1950202840: system.cpu.commit: 1950202840;f;f;331
1950202840: system.cpu.commit: 1950202840;s;f;332
1955906952: system.cpu.commit: 1955906952;f;f;332
1955906952: system.cpu.commit: 1955906952;s;f;333
1961615446: system.cpu.commit: 1961615446;f;f;333
1961615446: system.cpu.commit: 1961615446;s;f;334
1967329261: system.cpu.commit: 1967329261;f;f;334
1967329261: system.cpu.commit: 1967329261;s;f;335
1973033373: system.cpu.commit: 1973033373;f;f;335
1973033373: system.cpu.commit: 1973033373;s;f;336
1978741867: system.cpu.commit: 1978741867;f;f;336
1978741867: system.cpu.commit: 1978741867;s;f;337
1984450361: system.cpu.commit: 1984450361;f;f;337
1984450361: system.cpu.commit: 1984450361;s;f;338
1990154473: system.cpu.commit: 1990154473;f;f;338
1990154473: system.cpu.commit: 1990154473;s;f;339
1995862967: system.cpu.commit: 1995862967;f;f;339
1995862967: system.cpu.commit: 1995862967;s;f;340
2001571461: system.cpu.commit: 2001571461;f;f;340
2001571461: system.cpu.commit: 2001571461;s;f;341
2007280894: system.cpu.commit: 2007280894;f;f;341
2007280894: system.cpu.commit: 2007280894;s;f;342
2012989388: system.cpu.commit: 2012989388;f;f;342
2012989388: system.cpu.commit: 2012989388;s;f;343
2018697882: system.cpu.commit: 2018697882;f;f;343
2018697882: system.cpu.commit: 2018697882;s;f;344
2024401994: system.cpu.commit: 2024401994;f;f;344
2024401994: system.cpu.commit: 2024401994;s;f;345
2030110488: system.cpu.commit: 2030110488;f;f;345
2030110488: system.cpu.commit: 2030110488;s;f;346
2035818982: system.cpu.commit: 2035818982;f;f;346
2035818982: system.cpu.commit: 2035818982;s;f;347
2041523094: system.cpu.commit: 2041523094;f;f;347
2041523094: system.cpu.commit: 2041523094;s;f;348
2047236909: system.cpu.commit: 2047236909;f;f;348
2047236909: system.cpu.commit: 2047236909;s;f;349
2052945403: system.cpu.commit: 2052945403;f;f;349
2052945403: system.cpu.commit: 2052945403;s;f;350
2058649515: system.cpu.commit: 2058649515;f;f;350
2058649515: system.cpu.commit: 2058649515;s;f;351
2064358009: system.cpu.commit: 2064358009;f;f;351
2064358009: system.cpu.commit: 2064358009;s;f;352
2070066503: system.cpu.commit: 2070066503;f;f;352
2070066503: system.cpu.commit: 2070066503;s;f;353
2075770615: system.cpu.commit: 2075770615;f;f;353
2075770615: system.cpu.commit: 2075770615;s;f;354
2081479109: system.cpu.commit: 2081479109;f;f;354
2081479109: system.cpu.commit: 2081479109;s;f;355
2087192924: system.cpu.commit: 2087192924;f;f;355
2087192924: system.cpu.commit: 2087192924;s;f;356
2092897036: system.cpu.commit: 2092897036;f;f;356
2092897036: system.cpu.commit: 2092897036;s;f;357
2098605530: system.cpu.commit: 2098605530;f;f;357
2098605530: system.cpu.commit: 2098605530;s;f;358
2104314024: system.cpu.commit: 2104314024;f;f;358
2104314024: system.cpu.commit: 2104314024;s;f;359
2110018136: system.cpu.commit: 2110018136;f;f;359
2110018136: system.cpu.commit: 2110018136;s;f;360
2115726630: system.cpu.commit: 2115726630;f;f;360
2115726630: system.cpu.commit: 2115726630;s;f;361
2121435124: system.cpu.commit: 2121435124;f;f;361
2121435124: system.cpu.commit: 2121435124;s;f;362
2127139236: system.cpu.commit: 2127139236;f;f;362
2127139236: system.cpu.commit: 2127139236;s;f;363
2132853051: system.cpu.commit: 2132853051;f;f;363
2132853051: system.cpu.commit: 2132853051;s;f;364
2138561545: system.cpu.commit: 2138561545;f;f;364
2138561545: system.cpu.commit: 2138561545;s;f;365
2144265657: system.cpu.commit: 2144265657;f;f;365
2144265657: system.cpu.commit: 2144265657;s;f;366
2149974151: system.cpu.commit: 2149974151;f;f;366
2149974151: system.cpu.commit: 2149974151;s;f;367
2155682645: system.cpu.commit: 2155682645;f;f;367
2155682645: system.cpu.commit: 2155682645;s;f;368
2161386757: system.cpu.commit: 2161386757;f;f;368
2161386757: system.cpu.commit: 2161386757;s;f;369
2167095251: system.cpu.commit: 2167095251;f;f;369
2167095251: system.cpu.commit: 2167095251;s;f;370
2172809066: system.cpu.commit: 2172809066;f;f;370
2172809066: system.cpu.commit: 2172809066;s;f;371
2178513178: system.cpu.commit: 2178513178;f;f;371
2178513178: system.cpu.commit: 2178513178;s;f;372
2184221672: system.cpu.commit: 2184221672;f;f;372
2184221672: system.cpu.commit: 2184221672;s;f;373
2189930166: system.cpu.commit: 2189930166;f;f;373
2189930166: system.cpu.commit: 2189930166;s;f;374
2195634278: system.cpu.commit: 2195634278;f;f;374
2195634278: system.cpu.commit: 2195634278;s;f;375
2201342772: system.cpu.commit: 2201342772;f;f;375
2201342772: system.cpu.commit: 2201342772;s;f;376
2207051266: system.cpu.commit: 2207051266;f;f;376
2207051266: system.cpu.commit: 2207051266;s;f;377
2212760699: system.cpu.commit: 2212760699;f;f;377
2212760699: system.cpu.commit: 2212760699;s;f;378
2218469193: system.cpu.commit: 2218469193;f;f;378
2218469193: system.cpu.commit: 2218469193;s;f;379
2224177687: system.cpu.commit: 2224177687;f;f;379
2224177687: system.cpu.commit: 2224177687;s;f;380
2229881799: system.cpu.commit: 2229881799;f;f;380
2229881799: system.cpu.commit: 2229881799;s;f;381
2235590293: system.cpu.commit: 2235590293;f;f;381
2235590293: system.cpu.commit: 2235590293;s;f;382
2241298787: system.cpu.commit: 2241298787;f;f;382
2241298787: system.cpu.commit: 2241298787;s;f;383
2247002899: system.cpu.commit: 2247002899;f;f;383
2247002899: system.cpu.commit: 2247002899;s;f;384
2252716714: system.cpu.commit: 2252716714;f;f;384
2252716714: system.cpu.commit: 2252716714;s;f;385
2258425208: system.cpu.commit: 2258425208;f;f;385
2258425208: system.cpu.commit: 2258425208;s;f;386
2264129320: system.cpu.commit: 2264129320;f;f;386
2264129320: system.cpu.commit: 2264129320;s;f;387
2269837814: system.cpu.commit: 2269837814;f;f;387
2269837814: system.cpu.commit: 2269837814;s;f;388
2275546308: system.cpu.commit: 2275546308;f;f;388
2275546308: system.cpu.commit: 2275546308;s;f;389
2281250420: system.cpu.commit: 2281250420;f;f;389
2281250420: system.cpu.commit: 2281250420;s;f;390
2286958914: system.cpu.commit: 2286958914;f;f;390
2286958914: system.cpu.commit: 2286958914;s;f;391
2292672729: system.cpu.commit: 2292672729;f;f;391
2292672729: system.cpu.commit: 2292672729;s;f;392
2298376841: system.cpu.commit: 2298376841;f;f;392
2298376841: system.cpu.commit: 2298376841;s;f;393
2304085335: system.cpu.commit: 2304085335;f;f;393
2304085335: system.cpu.commit: 2304085335;s;f;394
2309793829: system.cpu.commit: 2309793829;f;f;394
2309793829: system.cpu.commit: 2309793829;s;f;395
2315497941: system.cpu.commit: 2315497941;f;f;395
2315497941: system.cpu.commit: 2315497941;s;f;396
2321206435: system.cpu.commit: 2321206435;f;f;396
2321206435: system.cpu.commit: 2321206435;s;f;397
2326914929: system.cpu.commit: 2326914929;f;f;397
2326914929: system.cpu.commit: 2326914929;s;f;398
2332619041: system.cpu.commit: 2332619041;f;f;398
2332619041: system.cpu.commit: 2332619041;s;f;399
2338332856: system.cpu.commit: 2338332856;f;f;399
2338332856: system.cpu.commit: 2338332856;s;f;400
2344041350: system.cpu.commit: 2344041350;f;f;400
2344041350: system.cpu.commit: 2344041350;s;f;401
2349745462: system.cpu.commit: 2349745462;f;f;401
2349745462: system.cpu.commit: 2349745462;s;f;402
2355453956: system.cpu.commit: 2355453956;f;f;402
2355453956: system.cpu.commit: 2355453956;s;f;403
2361162450: system.cpu.commit: 2361162450;f;f;403
2361162450: system.cpu.commit: 2361162450;s;f;404
2366866562: system.cpu.commit: 2366866562;f;f;404
2366866562: system.cpu.commit: 2366866562;s;f;405
2372575056: system.cpu.commit: 2372575056;f;f;405
2372575056: system.cpu.commit: 2372575056;s;f;406
2378288871: system.cpu.commit: 2378288871;f;f;406
2378288871: system.cpu.commit: 2378288871;s;f;407
2383992983: system.cpu.commit: 2383992983;f;f;407
2383992983: system.cpu.commit: 2383992983;s;f;408
2389701477: system.cpu.commit: 2389701477;f;f;408
2389701477: system.cpu.commit: 2389701477;s;f;409
2395409971: system.cpu.commit: 2395409971;f;f;409
2395409971: system.cpu.commit: 2395409971;s;f;410
2401114083: system.cpu.commit: 2401114083;f;f;410
2401114083: system.cpu.commit: 2401114083;s;f;411
2406822577: system.cpu.commit: 2406822577;f;f;411
2406822577: system.cpu.commit: 2406822577;s;f;412
2412531071: system.cpu.commit: 2412531071;f;f;412
2412531071: system.cpu.commit: 2412531071;s;f;413
2418240504: system.cpu.commit: 2418240504;f;f;413
2418240504: system.cpu.commit: 2418240504;s;f;414
2423948998: system.cpu.commit: 2423948998;f;f;414
2423948998: system.cpu.commit: 2423948998;s;f;415
2429657492: system.cpu.commit: 2429657492;f;f;415
2429657492: system.cpu.commit: 2429657492;s;f;416
2435361604: system.cpu.commit: 2435361604;f;f;416
2435361604: system.cpu.commit: 2435361604;s;f;417
2441070098: system.cpu.commit: 2441070098;f;f;417
2441070098: system.cpu.commit: 2441070098;s;f;418
2446778592: system.cpu.commit: 2446778592;f;f;418
2446778592: system.cpu.commit: 2446778592;s;f;419
2452482704: system.cpu.commit: 2452482704;f;f;419
2452482704: system.cpu.commit: 2452482704;s;f;420
2458196519: system.cpu.commit: 2458196519;f;f;420
2458196519: system.cpu.commit: 2458196519;s;f;421
2463905013: system.cpu.commit: 2463905013;f;f;421
2463905013: system.cpu.commit: 2463905013;s;f;422
2469609125: system.cpu.commit: 2469609125;f;f;422
2469609125: system.cpu.commit: 2469609125;s;f;423
2475317619: system.cpu.commit: 2475317619;f;f;423
2475317619: system.cpu.commit: 2475317619;s;f;424
2481026113: system.cpu.commit: 2481026113;f;f;424
2481026113: system.cpu.commit: 2481026113;s;f;425
2486730225: system.cpu.commit: 2486730225;f;f;425
2486730225: system.cpu.commit: 2486730225;s;f;426
2492438719: system.cpu.commit: 2492438719;f;f;426
2492438719: system.cpu.commit: 2492438719;s;f;427
2498152534: system.cpu.commit: 2498152534;f;f;427
2498152534: system.cpu.commit: 2498152534;s;f;428
2503856646: system.cpu.commit: 2503856646;f;f;428
2503856646: system.cpu.commit: 2503856646;s;f;429
2509565140: system.cpu.commit: 2509565140;f;f;429
2509565140: system.cpu.commit: 2509565140;s;f;430
2515273634: system.cpu.commit: 2515273634;f;f;430
2515273634: system.cpu.commit: 2515273634;s;f;431
2520977746: system.cpu.commit: 2520977746;f;f;431
2520977746: system.cpu.commit: 2520977746;s;f;432
2526686240: system.cpu.commit: 2526686240;f;f;432
2526686240: system.cpu.commit: 2526686240;s;f;433
2532394734: system.cpu.commit: 2532394734;f;f;433
2532394734: system.cpu.commit: 2532394734;s;f;434
2538098846: system.cpu.commit: 2538098846;f;f;434
2538098846: system.cpu.commit: 2538098846;s;f;435
2543812661: system.cpu.commit: 2543812661;f;f;435
2543812661: system.cpu.commit: 2543812661;s;f;436
2549521155: system.cpu.commit: 2549521155;f;f;436
2549521155: system.cpu.commit: 2549521155;s;f;437
2555225267: system.cpu.commit: 2555225267;f;f;437
2555225267: system.cpu.commit: 2555225267;s;f;438
2560933761: system.cpu.commit: 2560933761;f;f;438
2560933761: system.cpu.commit: 2560933761;s;f;439
2566642255: system.cpu.commit: 2566642255;f;f;439
2566642255: system.cpu.commit: 2566642255;s;f;440
2572346367: system.cpu.commit: 2572346367;f;f;440
2572346367: system.cpu.commit: 2572346367;s;f;441
2578054861: system.cpu.commit: 2578054861;f;f;441
2578054861: system.cpu.commit: 2578054861;s;f;442
2583768676: system.cpu.commit: 2583768676;f;f;442
2583768676: system.cpu.commit: 2583768676;s;f;443
2589472788: system.cpu.commit: 2589472788;f;f;443
2589472788: system.cpu.commit: 2589472788;s;f;444
2595181282: system.cpu.commit: 2595181282;f;f;444
2595181282: system.cpu.commit: 2595181282;s;f;445
2600889776: system.cpu.commit: 2600889776;f;f;445
2600889776: system.cpu.commit: 2600889776;s;f;446
2606593888: system.cpu.commit: 2606593888;f;f;446
2606593888: system.cpu.commit: 2606593888;s;f;447
2612302382: system.cpu.commit: 2612302382;f;f;447
2612302382: system.cpu.commit: 2612302382;s;f;448
2618010876: system.cpu.commit: 2618010876;f;f;448
2618010876: system.cpu.commit: 2618010876;s;f;449
2623720309: system.cpu.commit: 2623720309;f;f;449
2623720309: system.cpu.commit: 2623720309;s;f;450
2629428803: system.cpu.commit: 2629428803;f;f;450
2629428803: system.cpu.commit: 2629428803;s;f;451
2635137297: system.cpu.commit: 2635137297;f;f;451
2635137297: system.cpu.commit: 2635137297;s;f;452
2640841409: system.cpu.commit: 2640841409;f;f;452
2640841409: system.cpu.commit: 2640841409;s;f;453
2646549903: system.cpu.commit: 2646549903;f;f;453
2646549903: system.cpu.commit: 2646549903;s;f;454
2652258397: system.cpu.commit: 2652258397;f;f;454
2652258397: system.cpu.commit: 2652258397;s;f;455
2657962509: system.cpu.commit: 2657962509;f;f;455
2657962509: system.cpu.commit: 2657962509;s;f;456
2663676324: system.cpu.commit: 2663676324;f;f;456
2663676324: system.cpu.commit: 2663676324;s;f;457
2669384818: system.cpu.commit: 2669384818;f;f;457
2669384818: system.cpu.commit: 2669384818;s;f;458
2675088930: system.cpu.commit: 2675088930;f;f;458
2675088930: system.cpu.commit: 2675088930;s;f;459
2680797424: system.cpu.commit: 2680797424;f;f;459
2680797424: system.cpu.commit: 2680797424;s;f;460
2686505918: system.cpu.commit: 2686505918;f;f;460
2686505918: system.cpu.commit: 2686505918;s;f;461
2692210030: system.cpu.commit: 2692210030;f;f;461
2692210030: system.cpu.commit: 2692210030;s;f;462
2697918524: system.cpu.commit: 2697918524;f;f;462
2697918524: system.cpu.commit: 2697918524;s;f;463
2703632339: system.cpu.commit: 2703632339;f;f;463
2703632339: system.cpu.commit: 2703632339;s;f;464
2709336451: system.cpu.commit: 2709336451;f;f;464
2709336451: system.cpu.commit: 2709336451;s;f;465
2715044945: system.cpu.commit: 2715044945;f;f;465
2715044945: system.cpu.commit: 2715044945;s;f;466
2720753439: system.cpu.commit: 2720753439;f;f;466
2720753439: system.cpu.commit: 2720753439;s;f;467
2726457551: system.cpu.commit: 2726457551;f;f;467
2726457551: system.cpu.commit: 2726457551;s;f;468
2732166045: system.cpu.commit: 2732166045;f;f;468
2732166045: system.cpu.commit: 2732166045;s;f;469
2737874539: system.cpu.commit: 2737874539;f;f;469
2737874539: system.cpu.commit: 2737874539;s;f;470
2743578651: system.cpu.commit: 2743578651;f;f;470
2743578651: system.cpu.commit: 2743578651;s;f;471
2749292466: system.cpu.commit: 2749292466;f;f;471
2749292466: system.cpu.commit: 2749292466;s;f;472
2755000960: system.cpu.commit: 2755000960;f;f;472
2755000960: system.cpu.commit: 2755000960;s;f;473
2760705072: system.cpu.commit: 2760705072;f;f;473
2760705072: system.cpu.commit: 2760705072;s;f;474
2766413566: system.cpu.commit: 2766413566;f;f;474
2766413566: system.cpu.commit: 2766413566;s;f;475
2772122060: system.cpu.commit: 2772122060;f;f;475
2772122060: system.cpu.commit: 2772122060;s;f;476
2777826172: system.cpu.commit: 2777826172;f;f;476
2777826172: system.cpu.commit: 2777826172;s;f;477
2783534666: system.cpu.commit: 2783534666;f;f;477
2783534666: system.cpu.commit: 2783534666;s;f;478
2789248481: system.cpu.commit: 2789248481;f;f;478
2789248481: system.cpu.commit: 2789248481;s;f;479
2794952593: system.cpu.commit: 2794952593;f;f;479
2794952593: system.cpu.commit: 2794952593;s;f;480
2800661087: system.cpu.commit: 2800661087;f;f;480
2800661087: system.cpu.commit: 2800661087;s;f;481
2806369581: system.cpu.commit: 2806369581;f;f;481
2806369581: system.cpu.commit: 2806369581;s;f;482
2812073693: system.cpu.commit: 2812073693;f;f;482
2812073693: system.cpu.commit: 2812073693;s;f;483
2817782187: system.cpu.commit: 2817782187;f;f;483
2817782187: system.cpu.commit: 2817782187;s;f;484
2823490681: system.cpu.commit: 2823490681;f;f;484
2823490681: system.cpu.commit: 2823490681;s;f;485
2829200114: system.cpu.commit: 2829200114;f;f;485
2829200114: system.cpu.commit: 2829200114;s;f;486
2834908608: system.cpu.commit: 2834908608;f;f;486
2834908608: system.cpu.commit: 2834908608;s;f;487
2840617102: system.cpu.commit: 2840617102;f;f;487
2840617102: system.cpu.commit: 2840617102;s;f;488
2846321214: system.cpu.commit: 2846321214;f;f;488
2846321214: system.cpu.commit: 2846321214;s;f;489
2852029708: system.cpu.commit: 2852029708;f;f;489
2852029708: system.cpu.commit: 2852029708;s;f;490
2857738202: system.cpu.commit: 2857738202;f;f;490
2857738202: system.cpu.commit: 2857738202;s;f;491
2863442314: system.cpu.commit: 2863442314;f;f;491
2863442314: system.cpu.commit: 2863442314;s;f;492
2869156129: system.cpu.commit: 2869156129;f;f;492
2869156129: system.cpu.commit: 2869156129;s;f;493
2874864623: system.cpu.commit: 2874864623;f;f;493
2874864623: system.cpu.commit: 2874864623;s;f;494
2880568735: system.cpu.commit: 2880568735;f;f;494
2880568735: system.cpu.commit: 2880568735;s;f;495
2886277229: system.cpu.commit: 2886277229;f;f;495
2886277229: system.cpu.commit: 2886277229;s;f;496
2891985723: system.cpu.commit: 2891985723;f;f;496
2891985723: system.cpu.commit: 2891985723;s;f;497
2897689835: system.cpu.commit: 2897689835;f;f;497
2897689835: system.cpu.commit: 2897689835;s;f;498
2903398329: system.cpu.commit: 2903398329;f;f;498
2903398329: system.cpu.commit: 2903398329;s;f;499
2909112144: system.cpu.commit: 2909112144;f;f;499
2909112144: system.cpu.commit: 2909112144;s;f;500
2914816256: system.cpu.commit: 2914816256;f;f;500
2914816256: system.cpu.commit: 2914816256;s;f;501
2920524750: system.cpu.commit: 2920524750;f;f;501
2920524750: system.cpu.commit: 2920524750;s;f;502
2926233244: system.cpu.commit: 2926233244;f;f;502
2926233244: system.cpu.commit: 2926233244;s;f;503
2931937356: system.cpu.commit: 2931937356;f;f;503
2931937356: system.cpu.commit: 2931937356;s;f;504
2937645850: system.cpu.commit: 2937645850;f;f;504
2937645850: system.cpu.commit: 2937645850;s;f;505
2943354344: system.cpu.commit: 2943354344;f;f;505
2943354344: system.cpu.commit: 2943354344;s;f;506
2949058456: system.cpu.commit: 2949058456;f;f;506
2949058456: system.cpu.commit: 2949058456;s;f;507
2954772271: system.cpu.commit: 2954772271;f;f;507
2954772271: system.cpu.commit: 2954772271;s;f;508
2960480765: system.cpu.commit: 2960480765;f;f;508
2960480765: system.cpu.commit: 2960480765;s;f;509
2966184877: system.cpu.commit: 2966184877;f;f;509
2966184877: system.cpu.commit: 2966184877;s;f;510
2971893371: system.cpu.commit: 2971893371;f;f;510
2971893371: system.cpu.commit: 2971893371;s;f;511
2977601865: system.cpu.commit: 2977601865;f;f;511
2977601865: system.cpu.commit: 2977601865;s;f;512
2983305977: system.cpu.commit: 2983305977;f;f;512
2983305977: system.cpu.commit: 2983305977;s;f;513
2989014471: system.cpu.commit: 2989014471;f;f;513
2989014471: system.cpu.commit: 2989014471;s;f;514
2994728286: system.cpu.commit: 2994728286;f;f;514
2994728286: system.cpu.commit: 2994728286;s;f;515
3000432398: system.cpu.commit: 3000432398;f;f;515
3000432398: system.cpu.commit: 3000432398;s;f;516
3006140892: system.cpu.commit: 3006140892;f;f;516
3006140892: system.cpu.commit: 3006140892;s;f;517
3011849386: system.cpu.commit: 3011849386;f;f;517
3011849386: system.cpu.commit: 3011849386;s;f;518
3017553498: system.cpu.commit: 3017553498;f;f;518
3017553498: system.cpu.commit: 3017553498;s;f;519
3023261992: system.cpu.commit: 3023261992;f;f;519
3023261992: system.cpu.commit: 3023261992;s;f;520
3028970486: system.cpu.commit: 3028970486;f;f;520
3028970486: system.cpu.commit: 3028970486;s;f;521
3034679919: system.cpu.commit: 3034679919;f;f;521
3034679919: system.cpu.commit: 3034679919;s;f;522
3040388413: system.cpu.commit: 3040388413;f;f;522
3040388413: system.cpu.commit: 3040388413;s;f;523
3046096907: system.cpu.commit: 3046096907;f;f;523
3046096907: system.cpu.commit: 3046096907;s;f;524
3051801019: system.cpu.commit: 3051801019;f;f;524
3051801019: system.cpu.commit: 3051801019;s;f;525
3057509513: system.cpu.commit: 3057509513;f;f;525
3057509513: system.cpu.commit: 3057509513;s;f;526
3063218007: system.cpu.commit: 3063218007;f;f;526
3063218007: system.cpu.commit: 3063218007;s;f;527
3068922119: system.cpu.commit: 3068922119;f;f;527
3068922119: system.cpu.commit: 3068922119;s;f;528
3074635934: system.cpu.commit: 3074635934;f;f;528
3074635934: system.cpu.commit: 3074635934;s;f;529
3080344428: system.cpu.commit: 3080344428;f;f;529
3080344428: system.cpu.commit: 3080344428;s;f;530
3086048540: system.cpu.commit: 3086048540;f;f;530
3086048540: system.cpu.commit: 3086048540;s;f;531
3091757034: system.cpu.commit: 3091757034;f;f;531
3091757034: system.cpu.commit: 3091757034;s;f;532
3097465528: system.cpu.commit: 3097465528;f;f;532
3097465528: system.cpu.commit: 3097465528;s;f;533
3103169640: system.cpu.commit: 3103169640;f;f;533
3103169640: system.cpu.commit: 3103169640;s;f;534
3108878134: system.cpu.commit: 3108878134;f;f;534
3108878134: system.cpu.commit: 3108878134;s;f;535
3114591949: system.cpu.commit: 3114591949;f;f;535
3114591949: system.cpu.commit: 3114591949;s;f;536
3120296061: system.cpu.commit: 3120296061;f;f;536
3120296061: system.cpu.commit: 3120296061;s;f;537
3126004555: system.cpu.commit: 3126004555;f;f;537
3126004555: system.cpu.commit: 3126004555;s;f;538
3131713049: system.cpu.commit: 3131713049;f;f;538
3131713049: system.cpu.commit: 3131713049;s;f;539
3137417161: system.cpu.commit: 3137417161;f;f;539
3137417161: system.cpu.commit: 3137417161;s;f;540
3143125655: system.cpu.commit: 3143125655;f;f;540
3143125655: system.cpu.commit: 3143125655;s;f;541
3148834149: system.cpu.commit: 3148834149;f;f;541
3148834149: system.cpu.commit: 3148834149;s;f;542
3154538261: system.cpu.commit: 3154538261;f;f;542
3154538261: system.cpu.commit: 3154538261;s;f;543
3160252076: system.cpu.commit: 3160252076;f;f;543
3160252076: system.cpu.commit: 3160252076;s;f;544
3165960570: system.cpu.commit: 3165960570;f;f;544
3165960570: system.cpu.commit: 3165960570;s;f;545
3171664682: system.cpu.commit: 3171664682;f;f;545
3171664682: system.cpu.commit: 3171664682;s;f;546
3177373176: system.cpu.commit: 3177373176;f;f;546
3177373176: system.cpu.commit: 3177373176;s;f;547
3183081670: system.cpu.commit: 3183081670;f;f;547
3183081670: system.cpu.commit: 3183081670;s;f;548
3188785782: system.cpu.commit: 3188785782;f;f;548
3188785782: system.cpu.commit: 3188785782;s;f;549
3194494276: system.cpu.commit: 3194494276;f;f;549
3194494276: system.cpu.commit: 3194494276;s;f;550
3200208091: system.cpu.commit: 3200208091;f;f;550
3200208091: system.cpu.commit: 3200208091;s;f;551
3205912203: system.cpu.commit: 3205912203;f;f;551
3205912203: system.cpu.commit: 3205912203;s;f;552
3211620697: system.cpu.commit: 3211620697;f;f;552
3211620697: system.cpu.commit: 3211620697;s;f;553
3217329191: system.cpu.commit: 3217329191;f;f;553
3217329191: system.cpu.commit: 3217329191;s;f;554
3223033303: system.cpu.commit: 3223033303;f;f;554
3223033303: system.cpu.commit: 3223033303;s;f;555
3228741797: system.cpu.commit: 3228741797;f;f;555
3228741797: system.cpu.commit: 3228741797;s;f;556
3234450291: system.cpu.commit: 3234450291;f;f;556
3234450291: system.cpu.commit: 3234450291;s;f;557
3240159724: system.cpu.commit: 3240159724;f;f;557
3240159724: system.cpu.commit: 3240159724;s;f;558
3245868218: system.cpu.commit: 3245868218;f;f;558
3245868218: system.cpu.commit: 3245868218;s;f;559
3251576712: system.cpu.commit: 3251576712;f;f;559
3251576712: system.cpu.commit: 3251576712;s;f;560
3257280824: system.cpu.commit: 3257280824;f;f;560
3257280824: system.cpu.commit: 3257280824;s;f;561
3262989318: system.cpu.commit: 3262989318;f;f;561
3262989318: system.cpu.commit: 3262989318;s;f;562
3268697812: system.cpu.commit: 3268697812;f;f;562
3268697812: system.cpu.commit: 3268697812;s;f;563
3274401924: system.cpu.commit: 3274401924;f;f;563
3274401924: system.cpu.commit: 3274401924;s;f;564
3280115739: system.cpu.commit: 3280115739;f;f;564
3280115739: system.cpu.commit: 3280115739;s;f;565
3285824233: system.cpu.commit: 3285824233;f;f;565
3285824233: system.cpu.commit: 3285824233;s;f;566
3291528345: system.cpu.commit: 3291528345;f;f;566
3291528345: system.cpu.commit: 3291528345;s;f;567
3297236839: system.cpu.commit: 3297236839;f;f;567
3297236839: system.cpu.commit: 3297236839;s;f;568
3302945333: system.cpu.commit: 3302945333;f;f;568
3302945333: system.cpu.commit: 3302945333;s;f;569
3308649445: system.cpu.commit: 3308649445;f;f;569
3308649445: system.cpu.commit: 3308649445;s;f;570
3314357939: system.cpu.commit: 3314357939;f;f;570
3314357939: system.cpu.commit: 3314357939;s;f;571
3320071754: system.cpu.commit: 3320071754;f;f;571
3320071754: system.cpu.commit: 3320071754;s;f;572
3325775866: system.cpu.commit: 3325775866;f;f;572
3325775866: system.cpu.commit: 3325775866;s;f;573
3331484360: system.cpu.commit: 3331484360;f;f;573
3331484360: system.cpu.commit: 3331484360;s;f;574
3337192854: system.cpu.commit: 3337192854;f;f;574
3337192854: system.cpu.commit: 3337192854;s;f;575
3342896966: system.cpu.commit: 3342896966;f;f;575
3342896966: system.cpu.commit: 3342896966;s;f;576
3348605460: system.cpu.commit: 3348605460;f;f;576
3348605460: system.cpu.commit: 3348605460;s;f;577
3354313954: system.cpu.commit: 3354313954;f;f;577
3354313954: system.cpu.commit: 3354313954;s;f;578
3360018066: system.cpu.commit: 3360018066;f;f;578
3360018066: system.cpu.commit: 3360018066;s;f;579
3365731881: system.cpu.commit: 3365731881;f;f;579
3365731881: system.cpu.commit: 3365731881;s;f;580
3371440375: system.cpu.commit: 3371440375;f;f;580
3371440375: system.cpu.commit: 3371440375;s;f;581
3377144487: system.cpu.commit: 3377144487;f;f;581
3377144487: system.cpu.commit: 3377144487;s;f;582
3382852981: system.cpu.commit: 3382852981;f;f;582
3382852981: system.cpu.commit: 3382852981;s;f;583
3388561475: system.cpu.commit: 3388561475;f;f;583
3388561475: system.cpu.commit: 3388561475;s;f;584
3394265587: system.cpu.commit: 3394265587;f;f;584
3394265587: system.cpu.commit: 3394265587;s;f;585
3399974081: system.cpu.commit: 3399974081;f;f;585
3399974081: system.cpu.commit: 3399974081;s;f;586
3405687896: system.cpu.commit: 3405687896;f;f;586
3405687896: system.cpu.commit: 3405687896;s;f;587
3411392008: system.cpu.commit: 3411392008;f;f;587
3411392008: system.cpu.commit: 3411392008;s;f;588
3417100502: system.cpu.commit: 3417100502;f;f;588
3417100502: system.cpu.commit: 3417100502;s;f;589
3422808996: system.cpu.commit: 3422808996;f;f;589
3422808996: system.cpu.commit: 3422808996;s;f;590
3428513108: system.cpu.commit: 3428513108;f;f;590
3428513108: system.cpu.commit: 3428513108;s;f;591
3434221602: system.cpu.commit: 3434221602;f;f;591
3434221602: system.cpu.commit: 3434221602;s;f;592
3439930096: system.cpu.commit: 3439930096;f;f;592
3439930096: system.cpu.commit: 3439930096;s;f;593
3445639529: system.cpu.commit: 3445639529;f;f;593
3445639529: system.cpu.commit: 3445639529;s;f;594
3451348023: system.cpu.commit: 3451348023;f;f;594
3451348023: system.cpu.commit: 3451348023;s;f;595
3457056517: system.cpu.commit: 3457056517;f;f;595
3457056517: system.cpu.commit: 3457056517;s;f;596
3462760629: system.cpu.commit: 3462760629;f;f;596
3462760629: system.cpu.commit: 3462760629;s;f;597
3468469123: system.cpu.commit: 3468469123;f;f;597
3468469123: system.cpu.commit: 3468469123;s;f;598
3474177617: system.cpu.commit: 3474177617;f;f;598
3474177617: system.cpu.commit: 3474177617;s;f;599
3479881729: system.cpu.commit: 3479881729;f;f;599
3479881729: system.cpu.commit: 3479881729;s;f;600
3485595544: system.cpu.commit: 3485595544;f;f;600
3485595544: system.cpu.commit: 3485595544;s;f;601
3491304038: system.cpu.commit: 3491304038;f;f;601
3491304038: system.cpu.commit: 3491304038;s;f;602
3497008150: system.cpu.commit: 3497008150;f;f;602
3497008150: system.cpu.commit: 3497008150;s;f;603
3502716644: system.cpu.commit: 3502716644;f;f;603
3502716644: system.cpu.commit: 3502716644;s;f;604
3508425138: system.cpu.commit: 3508425138;f;f;604
3508425138: system.cpu.commit: 3508425138;s;f;605
3514129250: system.cpu.commit: 3514129250;f;f;605
3514129250: system.cpu.commit: 3514129250;s;f;606
3519837744: system.cpu.commit: 3519837744;f;f;606
3519837744: system.cpu.commit: 3519837744;s;f;607
3525551559: system.cpu.commit: 3525551559;f;f;607
3525551559: system.cpu.commit: 3525551559;s;f;608
3531255671: system.cpu.commit: 3531255671;f;f;608
3531255671: system.cpu.commit: 3531255671;s;f;609
3536964165: system.cpu.commit: 3536964165;f;f;609
3536964165: system.cpu.commit: 3536964165;s;f;610
3542672659: system.cpu.commit: 3542672659;f;f;610
3542672659: system.cpu.commit: 3542672659;s;f;611
3548376771: system.cpu.commit: 3548376771;f;f;611
3548376771: system.cpu.commit: 3548376771;s;f;612
3554085265: system.cpu.commit: 3554085265;f;f;612
3554085265: system.cpu.commit: 3554085265;s;f;613
3559793759: system.cpu.commit: 3559793759;f;f;613
3559793759: system.cpu.commit: 3559793759;s;f;614
3565497871: system.cpu.commit: 3565497871;f;f;614
3565497871: system.cpu.commit: 3565497871;s;f;615
3571211686: system.cpu.commit: 3571211686;f;f;615
3571211686: system.cpu.commit: 3571211686;s;f;616
3576920180: system.cpu.commit: 3576920180;f;f;616
3576920180: system.cpu.commit: 3576920180;s;f;617
3582624292: system.cpu.commit: 3582624292;f;f;617
3582624292: system.cpu.commit: 3582624292;s;f;618
3588332786: system.cpu.commit: 3588332786;f;f;618
3588332786: system.cpu.commit: 3588332786;s;f;619
3594041280: system.cpu.commit: 3594041280;f;f;619
3594041280: system.cpu.commit: 3594041280;s;f;620
3599745392: system.cpu.commit: 3599745392;f;f;620
3599745392: system.cpu.commit: 3599745392;s;f;621
3605453886: system.cpu.commit: 3605453886;f;f;621
3605453886: system.cpu.commit: 3605453886;s;f;622
3611167701: system.cpu.commit: 3611167701;f;f;622
3611167701: system.cpu.commit: 3611167701;s;f;623
3616871813: system.cpu.commit: 3616871813;f;f;623
3616871813: system.cpu.commit: 3616871813;s;f;624
3622580307: system.cpu.commit: 3622580307;f;f;624
3622580307: system.cpu.commit: 3622580307;s;f;625
3628288801: system.cpu.commit: 3628288801;f;f;625
3628288801: system.cpu.commit: 3628288801;s;f;626
3633992913: system.cpu.commit: 3633992913;f;f;626
3633992913: system.cpu.commit: 3633992913;s;f;627
3639701407: system.cpu.commit: 3639701407;f;f;627
3639701407: system.cpu.commit: 3639701407;s;f;628
3645409901: system.cpu.commit: 3645409901;f;f;628
3645409901: system.cpu.commit: 3645409901;s;f;629
3651119334: system.cpu.commit: 3651119334;f;f;629
3651119334: system.cpu.commit: 3651119334;s;f;630
3656827828: system.cpu.commit: 3656827828;f;f;630
3656827828: system.cpu.commit: 3656827828;s;f;631
3662536322: system.cpu.commit: 3662536322;f;f;631
3662536322: system.cpu.commit: 3662536322;s;f;632
3668240434: system.cpu.commit: 3668240434;f;f;632
3668240434: system.cpu.commit: 3668240434;s;f;633
3673948928: system.cpu.commit: 3673948928;f;f;633
3673948928: system.cpu.commit: 3673948928;s;f;634
3679657422: system.cpu.commit: 3679657422;f;f;634
3679657422: system.cpu.commit: 3679657422;s;f;635
3685361534: system.cpu.commit: 3685361534;f;f;635
3685361534: system.cpu.commit: 3685361534;s;f;636
3691075349: system.cpu.commit: 3691075349;f;f;636
3691075349: system.cpu.commit: 3691075349;s;f;637
3696783843: system.cpu.commit: 3696783843;f;f;637
3696783843: system.cpu.commit: 3696783843;s;f;638
3702487955: system.cpu.commit: 3702487955;f;f;638
3702487955: system.cpu.commit: 3702487955;s;f;639
3708196449: system.cpu.commit: 3708196449;f;f;639
3708196449: system.cpu.commit: 3708196449;s;f;640
3713904943: system.cpu.commit: 3713904943;f;f;640
3713904943: system.cpu.commit: 3713904943;s;f;641
3719609055: system.cpu.commit: 3719609055;f;f;641
3719609055: system.cpu.commit: 3719609055;s;f;642
3725317549: system.cpu.commit: 3725317549;f;f;642
3725317549: system.cpu.commit: 3725317549;s;f;643
3731031364: system.cpu.commit: 3731031364;f;f;643
3731031364: system.cpu.commit: 3731031364;s;f;644
3736735476: system.cpu.commit: 3736735476;f;f;644
3736735476: system.cpu.commit: 3736735476;s;f;645
3742443970: system.cpu.commit: 3742443970;f;f;645
3742443970: system.cpu.commit: 3742443970;s;f;646
3748152464: system.cpu.commit: 3748152464;f;f;646
3748152464: system.cpu.commit: 3748152464;s;f;647
3753856576: system.cpu.commit: 3753856576;f;f;647
3753856576: system.cpu.commit: 3753856576;s;f;648
3759565070: system.cpu.commit: 3759565070;f;f;648
3759565070: system.cpu.commit: 3759565070;s;f;649
3765273564: system.cpu.commit: 3765273564;f;f;649
3765273564: system.cpu.commit: 3765273564;s;f;650
3770977676: system.cpu.commit: 3770977676;f;f;650
3770977676: system.cpu.commit: 3770977676;s;f;651
3776691491: system.cpu.commit: 3776691491;f;f;651
3776691491: system.cpu.commit: 3776691491;s;f;652
3782399985: system.cpu.commit: 3782399985;f;f;652
3782399985: system.cpu.commit: 3782399985;s;f;653
3788104097: system.cpu.commit: 3788104097;f;f;653
3788104097: system.cpu.commit: 3788104097;s;f;654
3793812591: system.cpu.commit: 3793812591;f;f;654
3793812591: system.cpu.commit: 3793812591;s;f;655
3799521085: system.cpu.commit: 3799521085;f;f;655
3799521085: system.cpu.commit: 3799521085;s;f;656
3805225197: system.cpu.commit: 3805225197;f;f;656
3805225197: system.cpu.commit: 3805225197;s;f;657
3810933691: system.cpu.commit: 3810933691;f;f;657
3810933691: system.cpu.commit: 3810933691;s;f;658
3816647506: system.cpu.commit: 3816647506;f;f;658
3816647506: system.cpu.commit: 3816647506;s;f;659
3822351618: system.cpu.commit: 3822351618;f;f;659
3822351618: system.cpu.commit: 3822351618;s;f;660
3828060112: system.cpu.commit: 3828060112;f;f;660
3828060112: system.cpu.commit: 3828060112;s;f;661
3833768606: system.cpu.commit: 3833768606;f;f;661
3833768606: system.cpu.commit: 3833768606;s;f;662
3839472718: system.cpu.commit: 3839472718;f;f;662
3839472718: system.cpu.commit: 3839472718;s;f;663
3845181212: system.cpu.commit: 3845181212;f;f;663
3845181212: system.cpu.commit: 3845181212;s;f;664
3850889706: system.cpu.commit: 3850889706;f;f;664
3850889706: system.cpu.commit: 3850889706;s;f;665
3856599139: system.cpu.commit: 3856599139;f;f;665
3856599139: system.cpu.commit: 3856599139;s;f;666
3862307633: system.cpu.commit: 3862307633;f;f;666
3862307633: system.cpu.commit: 3862307633;s;f;667
3868016127: system.cpu.commit: 3868016127;f;f;667
3868016127: system.cpu.commit: 3868016127;s;f;668
3873720239: system.cpu.commit: 3873720239;f;f;668
3873720239: system.cpu.commit: 3873720239;s;f;669
3879428733: system.cpu.commit: 3879428733;f;f;669
3879428733: system.cpu.commit: 3879428733;s;f;670
3885137227: system.cpu.commit: 3885137227;f;f;670
3885137227: system.cpu.commit: 3885137227;s;f;671
3890841339: system.cpu.commit: 3890841339;f;f;671
3890841339: system.cpu.commit: 3890841339;s;f;672
3896555154: system.cpu.commit: 3896555154;f;f;672
3896555154: system.cpu.commit: 3896555154;s;f;673
3902263648: system.cpu.commit: 3902263648;f;f;673
3902263648: system.cpu.commit: 3902263648;s;f;674
3907967760: system.cpu.commit: 3907967760;f;f;674
3907967760: system.cpu.commit: 3907967760;s;f;675
3913676254: system.cpu.commit: 3913676254;f;f;675
3913676254: system.cpu.commit: 3913676254;s;f;676
3919384748: system.cpu.commit: 3919384748;f;f;676
3919384748: system.cpu.commit: 3919384748;s;f;677
3925088860: system.cpu.commit: 3925088860;f;f;677
3925088860: system.cpu.commit: 3925088860;s;f;678
3930797354: system.cpu.commit: 3930797354;f;f;678
3930797354: system.cpu.commit: 3930797354;s;f;679
3936511169: system.cpu.commit: 3936511169;f;f;679
3936511169: system.cpu.commit: 3936511169;s;f;680
3942215281: system.cpu.commit: 3942215281;f;f;680
3942215281: system.cpu.commit: 3942215281;s;f;681
3947923775: system.cpu.commit: 3947923775;f;f;681
3947923775: system.cpu.commit: 3947923775;s;f;682
3953632269: system.cpu.commit: 3953632269;f;f;682
3953632269: system.cpu.commit: 3953632269;s;f;683
3959336381: system.cpu.commit: 3959336381;f;f;683
3959336381: system.cpu.commit: 3959336381;s;f;684
3965044875: system.cpu.commit: 3965044875;f;f;684
3965044875: system.cpu.commit: 3965044875;s;f;685
3970753369: system.cpu.commit: 3970753369;f;f;685
3970753369: system.cpu.commit: 3970753369;s;f;686
3976457481: system.cpu.commit: 3976457481;f;f;686
3976457481: system.cpu.commit: 3976457481;s;f;687
3982171296: system.cpu.commit: 3982171296;f;f;687
3982171296: system.cpu.commit: 3982171296;s;f;688
3987879790: system.cpu.commit: 3987879790;f;f;688
3987879790: system.cpu.commit: 3987879790;s;f;689
3993583902: system.cpu.commit: 3993583902;f;f;689
3993583902: system.cpu.commit: 3993583902;s;f;690
3999292396: system.cpu.commit: 3999292396;f;f;690
3999292396: system.cpu.commit: 3999292396;s;f;691
4005000890: system.cpu.commit: 4005000890;f;f;691
4005000890: system.cpu.commit: 4005000890;s;f;692
4010705002: system.cpu.commit: 4010705002;f;f;692
4010705002: system.cpu.commit: 4010705002;s;f;693
4016413496: system.cpu.commit: 4016413496;f;f;693
4016413496: system.cpu.commit: 4016413496;s;f;694
4022127311: system.cpu.commit: 4022127311;f;f;694
4022127311: system.cpu.commit: 4022127311;s;f;695
4027831423: system.cpu.commit: 4027831423;f;f;695
4027831423: system.cpu.commit: 4027831423;s;f;696
4033539917: system.cpu.commit: 4033539917;f;f;696
4033539917: system.cpu.commit: 4033539917;s;f;697
4039248411: system.cpu.commit: 4039248411;f;f;697
4039248411: system.cpu.commit: 4039248411;s;f;698
4044952523: system.cpu.commit: 4044952523;f;f;698
4044952523: system.cpu.commit: 4044952523;s;f;699
4050661017: system.cpu.commit: 4050661017;f;f;699
4050661017: system.cpu.commit: 4050661017;s;f;700
4056369511: system.cpu.commit: 4056369511;f;f;700
4056369511: system.cpu.commit: 4056369511;s;f;701
4062078944: system.cpu.commit: 4062078944;f;f;701
4062078944: system.cpu.commit: 4062078944;s;f;702
4067787438: system.cpu.commit: 4067787438;f;f;702
4067787438: system.cpu.commit: 4067787438;s;f;703
4073495932: system.cpu.commit: 4073495932;f;f;703
4073495932: system.cpu.commit: 4073495932;s;f;704
4079200044: system.cpu.commit: 4079200044;f;f;704
4079200044: system.cpu.commit: 4079200044;s;f;705
4084908538: system.cpu.commit: 4084908538;f;f;705
4084908538: system.cpu.commit: 4084908538;s;f;706
4090617032: system.cpu.commit: 4090617032;f;f;706
4090617032: system.cpu.commit: 4090617032;s;f;707
4096321144: system.cpu.commit: 4096321144;f;f;707
4096321144: system.cpu.commit: 4096321144;s;f;708
4102034959: system.cpu.commit: 4102034959;f;f;708
4102034959: system.cpu.commit: 4102034959;s;f;709
4107743453: system.cpu.commit: 4107743453;f;f;709
4107743453: system.cpu.commit: 4107743453;s;f;710
4113447565: system.cpu.commit: 4113447565;f;f;710
4113447565: system.cpu.commit: 4113447565;s;f;711
4119156059: system.cpu.commit: 4119156059;f;f;711
4119156059: system.cpu.commit: 4119156059;s;f;712
4124864553: system.cpu.commit: 4124864553;f;f;712
4124864553: system.cpu.commit: 4124864553;s;f;713
4130568665: system.cpu.commit: 4130568665;f;f;713
4130568665: system.cpu.commit: 4130568665;s;f;714
4136277159: system.cpu.commit: 4136277159;f;f;714
4136277159: system.cpu.commit: 4136277159;s;f;715
4141990974: system.cpu.commit: 4141990974;f;f;715
4141990974: system.cpu.commit: 4141990974;s;f;716
4147695086: system.cpu.commit: 4147695086;f;f;716
4147695086: system.cpu.commit: 4147695086;s;f;717
4153403580: system.cpu.commit: 4153403580;f;f;717
4153403580: system.cpu.commit: 4153403580;s;f;718
4159112074: system.cpu.commit: 4159112074;f;f;718
4159112074: system.cpu.commit: 4159112074;s;f;719
4164816186: system.cpu.commit: 4164816186;f;f;719
4164816186: system.cpu.commit: 4164816186;s;f;720
4170524680: system.cpu.commit: 4170524680;f;f;720
4170524680: system.cpu.commit: 4170524680;s;f;721
4176233174: system.cpu.commit: 4176233174;f;f;721
4176233174: system.cpu.commit: 4176233174;s;f;722
4181937286: system.cpu.commit: 4181937286;f;f;722
4181937286: system.cpu.commit: 4181937286;s;f;723
4187651101: system.cpu.commit: 4187651101;f;f;723
4187651101: system.cpu.commit: 4187651101;s;f;724
4193359595: system.cpu.commit: 4193359595;f;f;724
4193359595: system.cpu.commit: 4193359595;s;f;725
4199063707: system.cpu.commit: 4199063707;f;f;725
4199063707: system.cpu.commit: 4199063707;s;f;726
4204772201: system.cpu.commit: 4204772201;f;f;726
4204772201: system.cpu.commit: 4204772201;s;f;727
4210480695: system.cpu.commit: 4210480695;f;f;727
4210480695: system.cpu.commit: 4210480695;s;f;728
4216184807: system.cpu.commit: 4216184807;f;f;728
4216184807: system.cpu.commit: 4216184807;s;f;729
4221893301: system.cpu.commit: 4221893301;f;f;729
4221893301: system.cpu.commit: 4221893301;s;f;730
4227607116: system.cpu.commit: 4227607116;f;f;730
4227607116: system.cpu.commit: 4227607116;s;f;731
4233311228: system.cpu.commit: 4233311228;f;f;731
4233311228: system.cpu.commit: 4233311228;s;f;732
4239019722: system.cpu.commit: 4239019722;f;f;732
4239019722: system.cpu.commit: 4239019722;s;f;733
4244728216: system.cpu.commit: 4244728216;f;f;733
4244728216: system.cpu.commit: 4244728216;s;f;734
4250432328: system.cpu.commit: 4250432328;f;f;734
4250432328: system.cpu.commit: 4250432328;s;f;735
4256140822: system.cpu.commit: 4256140822;f;f;735
4256140822: system.cpu.commit: 4256140822;s;f;736
4261849316: system.cpu.commit: 4261849316;f;f;736
4261849316: system.cpu.commit: 4261849316;s;f;737
4267558749: system.cpu.commit: 4267558749;f;f;737
4267558749: system.cpu.commit: 4267558749;s;f;738
4273267243: system.cpu.commit: 4273267243;f;f;738
4273267243: system.cpu.commit: 4273267243;s;f;739
4278975737: system.cpu.commit: 4278975737;f;f;739
4278975737: system.cpu.commit: 4278975737;s;f;740
4284679849: system.cpu.commit: 4284679849;f;f;740
4284679849: system.cpu.commit: 4284679849;s;f;741
4290388343: system.cpu.commit: 4290388343;f;f;741
4290388343: system.cpu.commit: 4290388343;s;f;742
4296096837: system.cpu.commit: 4296096837;f;f;742
4296096837: system.cpu.commit: 4296096837;s;f;743
4301800949: system.cpu.commit: 4301800949;f;f;743
4301800949: system.cpu.commit: 4301800949;s;f;744
4307514764: system.cpu.commit: 4307514764;f;f;744
4307514764: system.cpu.commit: 4307514764;s;f;745
4313223258: system.cpu.commit: 4313223258;f;f;745
4313223258: system.cpu.commit: 4313223258;s;f;746
4318927370: system.cpu.commit: 4318927370;f;f;746
4318927370: system.cpu.commit: 4318927370;s;f;747
4324635864: system.cpu.commit: 4324635864;f;f;747
4324635864: system.cpu.commit: 4324635864;s;f;748
4330344358: system.cpu.commit: 4330344358;f;f;748
4330344358: system.cpu.commit: 4330344358;s;f;749
4336048470: system.cpu.commit: 4336048470;f;f;749
4336048470: system.cpu.commit: 4336048470;s;f;750
4341756964: system.cpu.commit: 4341756964;f;f;750
4341756964: system.cpu.commit: 4341756964;s;f;751
4347470779: system.cpu.commit: 4347470779;f;f;751
4347470779: system.cpu.commit: 4347470779;s;f;752
4353174891: system.cpu.commit: 4353174891;f;f;752
4353174891: system.cpu.commit: 4353174891;s;f;753
4358883385: system.cpu.commit: 4358883385;f;f;753
4358883385: system.cpu.commit: 4358883385;s;f;754
4364591879: system.cpu.commit: 4364591879;f;f;754
4364591879: system.cpu.commit: 4364591879;s;f;755
4370295991: system.cpu.commit: 4370295991;f;f;755
4370295991: system.cpu.commit: 4370295991;s;f;756
4376004485: system.cpu.commit: 4376004485;f;f;756
4376004485: system.cpu.commit: 4376004485;s;f;757
4381712979: system.cpu.commit: 4381712979;f;f;757
4381712979: system.cpu.commit: 4381712979;s;f;758
4387417091: system.cpu.commit: 4387417091;f;f;758
4387417091: system.cpu.commit: 4387417091;s;f;759
4393130906: system.cpu.commit: 4393130906;f;f;759
4393130906: system.cpu.commit: 4393130906;s;f;760
4398839400: system.cpu.commit: 4398839400;f;f;760
4398839400: system.cpu.commit: 4398839400;s;f;761
4404543512: system.cpu.commit: 4404543512;f;f;761
4404543512: system.cpu.commit: 4404543512;s;f;762
4410252006: system.cpu.commit: 4410252006;f;f;762
4410252006: system.cpu.commit: 4410252006;s;f;763
4415960500: system.cpu.commit: 4415960500;f;f;763
4415960500: system.cpu.commit: 4415960500;s;f;764
4421664612: system.cpu.commit: 4421664612;f;f;764
4421664612: system.cpu.commit: 4421664612;s;f;765
4427373106: system.cpu.commit: 4427373106;f;f;765
4427373106: system.cpu.commit: 4427373106;s;f;766
4433086921: system.cpu.commit: 4433086921;f;f;766
4433086921: system.cpu.commit: 4433086921;s;f;767
4438791033: system.cpu.commit: 4438791033;f;f;767
4438791033: system.cpu.commit: 4438791033;s;f;768
4444499527: system.cpu.commit: 4444499527;f;f;768
4444499527: system.cpu.commit: 4444499527;s;f;769
4450208021: system.cpu.commit: 4450208021;f;f;769
4450208021: system.cpu.commit: 4450208021;s;f;770
4455912133: system.cpu.commit: 4455912133;f;f;770
4455912133: system.cpu.commit: 4455912133;s;f;771
4461620627: system.cpu.commit: 4461620627;f;f;771
4461620627: system.cpu.commit: 4461620627;s;f;772
4467329121: system.cpu.commit: 4467329121;f;f;772
4467329121: system.cpu.commit: 4467329121;s;f;773
4473038554: system.cpu.commit: 4473038554;f;f;773
4473038554: system.cpu.commit: 4473038554;s;f;774
4478747048: system.cpu.commit: 4478747048;f;f;774
4478747048: system.cpu.commit: 4478747048;s;f;775
4484455542: system.cpu.commit: 4484455542;f;f;775
4484455542: system.cpu.commit: 4484455542;s;f;776
4490159654: system.cpu.commit: 4490159654;f;f;776
4490159654: system.cpu.commit: 4490159654;s;f;777
4495868148: system.cpu.commit: 4495868148;f;f;777
4495868148: system.cpu.commit: 4495868148;s;f;778
4501576642: system.cpu.commit: 4501576642;f;f;778
4501576642: system.cpu.commit: 4501576642;s;f;779
4507280754: system.cpu.commit: 4507280754;f;f;779
4507280754: system.cpu.commit: 4507280754;s;f;780
4512994569: system.cpu.commit: 4512994569;f;f;780
4512994569: system.cpu.commit: 4512994569;s;f;781
4518703063: system.cpu.commit: 4518703063;f;f;781
4518703063: system.cpu.commit: 4518703063;s;f;782
4524407175: system.cpu.commit: 4524407175;f;f;782
4524407175: system.cpu.commit: 4524407175;s;f;783
4530115669: system.cpu.commit: 4530115669;f;f;783
4530115669: system.cpu.commit: 4530115669;s;f;784
4535824163: system.cpu.commit: 4535824163;f;f;784
4535824163: system.cpu.commit: 4535824163;s;f;785
4541528275: system.cpu.commit: 4541528275;f;f;785
4541528275: system.cpu.commit: 4541528275;s;f;786
4547236769: system.cpu.commit: 4547236769;f;f;786
4547236769: system.cpu.commit: 4547236769;s;f;787
4552950584: system.cpu.commit: 4552950584;f;f;787
4552950584: system.cpu.commit: 4552950584;s;f;788
4558654696: system.cpu.commit: 4558654696;f;f;788
4558654696: system.cpu.commit: 4558654696;s;f;789
4564363190: system.cpu.commit: 4564363190;f;f;789
4564363190: system.cpu.commit: 4564363190;s;f;790
4570071684: system.cpu.commit: 4570071684;f;f;790
4570071684: system.cpu.commit: 4570071684;s;f;791
4575775796: system.cpu.commit: 4575775796;f;f;791
4575775796: system.cpu.commit: 4575775796;s;f;792
4581484290: system.cpu.commit: 4581484290;f;f;792
4581484290: system.cpu.commit: 4581484290;s;f;793
4587192784: system.cpu.commit: 4587192784;f;f;793
4587192784: system.cpu.commit: 4587192784;s;f;794
4592896896: system.cpu.commit: 4592896896;f;f;794
4592896896: system.cpu.commit: 4592896896;s;f;795
4598610711: system.cpu.commit: 4598610711;f;f;795
4598610711: system.cpu.commit: 4598610711;s;f;796
4604319205: system.cpu.commit: 4604319205;f;f;796
4604319205: system.cpu.commit: 4604319205;s;f;797
4610023317: system.cpu.commit: 4610023317;f;f;797
4610023317: system.cpu.commit: 4610023317;s;f;798
4615731811: system.cpu.commit: 4615731811;f;f;798
4615731811: system.cpu.commit: 4615731811;s;f;799
4621440305: system.cpu.commit: 4621440305;f;f;799
4621440305: system.cpu.commit: 4621440305;s;f;800
4627144417: system.cpu.commit: 4627144417;f;f;800
4627144417: system.cpu.commit: 4627144417;s;f;801
4632852911: system.cpu.commit: 4632852911;f;f;801
4632852911: system.cpu.commit: 4632852911;s;f;802
4638566726: system.cpu.commit: 4638566726;f;f;802
4638566726: system.cpu.commit: 4638566726;s;f;803
4644270838: system.cpu.commit: 4644270838;f;f;803
4644270838: system.cpu.commit: 4644270838;s;f;804
4649979332: system.cpu.commit: 4649979332;f;f;804
4649979332: system.cpu.commit: 4649979332;s;f;805
4655687826: system.cpu.commit: 4655687826;f;f;805
4655687826: system.cpu.commit: 4655687826;s;f;806
4661391938: system.cpu.commit: 4661391938;f;f;806
4661391938: system.cpu.commit: 4661391938;s;f;807
4667100432: system.cpu.commit: 4667100432;f;f;807
4667100432: system.cpu.commit: 4667100432;s;f;808
4672808926: system.cpu.commit: 4672808926;f;f;808
4672808926: system.cpu.commit: 4672808926;s;f;809
4678518359: system.cpu.commit: 4678518359;f;f;809
4678518359: system.cpu.commit: 4678518359;s;f;810
4684226853: system.cpu.commit: 4684226853;f;f;810
4684226853: system.cpu.commit: 4684226853;s;f;811
4689935347: system.cpu.commit: 4689935347;f;f;811
4689935347: system.cpu.commit: 4689935347;s;f;812
4695639459: system.cpu.commit: 4695639459;f;f;812
4695639459: system.cpu.commit: 4695639459;s;f;813
4701347953: system.cpu.commit: 4701347953;f;f;813
4701347953: system.cpu.commit: 4701347953;s;f;814
4707056447: system.cpu.commit: 4707056447;f;f;814
4707056447: system.cpu.commit: 4707056447;s;f;815
4712760559: system.cpu.commit: 4712760559;f;f;815
4712760559: system.cpu.commit: 4712760559;s;f;816
4718474374: system.cpu.commit: 4718474374;f;f;816
4718474374: system.cpu.commit: 4718474374;s;f;817
4724182868: system.cpu.commit: 4724182868;f;f;817
4724182868: system.cpu.commit: 4724182868;s;f;818
4729886980: system.cpu.commit: 4729886980;f;f;818
4729886980: system.cpu.commit: 4729886980;s;f;819
4735595474: system.cpu.commit: 4735595474;f;f;819
4735595474: system.cpu.commit: 4735595474;s;f;820
4741303968: system.cpu.commit: 4741303968;f;f;820
4741303968: system.cpu.commit: 4741303968;s;f;821
4747008080: system.cpu.commit: 4747008080;f;f;821
4747008080: system.cpu.commit: 4747008080;s;f;822
4752716574: system.cpu.commit: 4752716574;f;f;822
4752716574: system.cpu.commit: 4752716574;s;f;823
4758430389: system.cpu.commit: 4758430389;f;f;823
4758430389: system.cpu.commit: 4758430389;s;f;824
4764134501: system.cpu.commit: 4764134501;f;f;824
4764134501: system.cpu.commit: 4764134501;s;f;825
4769842995: system.cpu.commit: 4769842995;f;f;825
4769842995: system.cpu.commit: 4769842995;s;f;826
4775551489: system.cpu.commit: 4775551489;f;f;826
4775551489: system.cpu.commit: 4775551489;s;f;827
4781255601: system.cpu.commit: 4781255601;f;f;827
4781255601: system.cpu.commit: 4781255601;s;f;828
4786964095: system.cpu.commit: 4786964095;f;f;828
4786964095: system.cpu.commit: 4786964095;s;f;829
4792672589: system.cpu.commit: 4792672589;f;f;829
4792672589: system.cpu.commit: 4792672589;s;f;830
4798376701: system.cpu.commit: 4798376701;f;f;830
4798376701: system.cpu.commit: 4798376701;s;f;831
4804090516: system.cpu.commit: 4804090516;f;f;831
4804090516: system.cpu.commit: 4804090516;s;f;832
4809799010: system.cpu.commit: 4809799010;f;f;832
4809799010: system.cpu.commit: 4809799010;s;f;833
4815503122: system.cpu.commit: 4815503122;f;f;833
4815503122: system.cpu.commit: 4815503122;s;f;834
4821211616: system.cpu.commit: 4821211616;f;f;834
4821211616: system.cpu.commit: 4821211616;s;f;835
4826920110: system.cpu.commit: 4826920110;f;f;835
4826920110: system.cpu.commit: 4826920110;s;f;836
4832624222: system.cpu.commit: 4832624222;f;f;836
4832624222: system.cpu.commit: 4832624222;s;f;837
4838332716: system.cpu.commit: 4838332716;f;f;837
4838332716: system.cpu.commit: 4838332716;s;f;838
4844046531: system.cpu.commit: 4844046531;f;f;838
4844046531: system.cpu.commit: 4844046531;s;f;839
4849750643: system.cpu.commit: 4849750643;f;f;839
4849750643: system.cpu.commit: 4849750643;s;f;840
4855459137: system.cpu.commit: 4855459137;f;f;840
4855459137: system.cpu.commit: 4855459137;s;f;841
4861167631: system.cpu.commit: 4861167631;f;f;841
4861167631: system.cpu.commit: 4861167631;s;f;842
4866871743: system.cpu.commit: 4866871743;f;f;842
4866871743: system.cpu.commit: 4866871743;s;f;843
4872580237: system.cpu.commit: 4872580237;f;f;843
4872580237: system.cpu.commit: 4872580237;s;f;844
4878288731: system.cpu.commit: 4878288731;f;f;844
4878288731: system.cpu.commit: 4878288731;s;f;845
4883998164: system.cpu.commit: 4883998164;f;f;845
4883998164: system.cpu.commit: 4883998164;s;f;846
4889706658: system.cpu.commit: 4889706658;f;f;846
4889706658: system.cpu.commit: 4889706658;s;f;847
4895415152: system.cpu.commit: 4895415152;f;f;847
4895415152: system.cpu.commit: 4895415152;s;f;848
4901119264: system.cpu.commit: 4901119264;f;f;848
4901119264: system.cpu.commit: 4901119264;s;f;849
4906827758: system.cpu.commit: 4906827758;f;f;849
4906827758: system.cpu.commit: 4906827758;s;f;850
4912536252: system.cpu.commit: 4912536252;f;f;850
4912536252: system.cpu.commit: 4912536252;s;f;851
4918240364: system.cpu.commit: 4918240364;f;f;851
4918240364: system.cpu.commit: 4918240364;s;f;852
4923954179: system.cpu.commit: 4923954179;f;f;852
4923954179: system.cpu.commit: 4923954179;s;f;853
4929662673: system.cpu.commit: 4929662673;f;f;853
4929662673: system.cpu.commit: 4929662673;s;f;854
4935366785: system.cpu.commit: 4935366785;f;f;854
4935366785: system.cpu.commit: 4935366785;s;f;855
4941075279: system.cpu.commit: 4941075279;f;f;855
4941075279: system.cpu.commit: 4941075279;s;f;856
4946783773: system.cpu.commit: 4946783773;f;f;856
4946783773: system.cpu.commit: 4946783773;s;f;857
4952487885: system.cpu.commit: 4952487885;f;f;857
4952487885: system.cpu.commit: 4952487885;s;f;858
4958196379: system.cpu.commit: 4958196379;f;f;858
4958196379: system.cpu.commit: 4958196379;s;f;859
4963910194: system.cpu.commit: 4963910194;f;f;859
4963910194: system.cpu.commit: 4963910194;s;f;860
4969614306: system.cpu.commit: 4969614306;f;f;860
4969614306: system.cpu.commit: 4969614306;s;f;861
4975322800: system.cpu.commit: 4975322800;f;f;861
4975322800: system.cpu.commit: 4975322800;s;f;862
4981031294: system.cpu.commit: 4981031294;f;f;862
4981031294: system.cpu.commit: 4981031294;s;f;863
4986735406: system.cpu.commit: 4986735406;f;f;863
4986735406: system.cpu.commit: 4986735406;s;f;864
4992443900: system.cpu.commit: 4992443900;f;f;864
4992443900: system.cpu.commit: 4992443900;s;f;865
4998152394: system.cpu.commit: 4998152394;f;f;865
4998152394: system.cpu.commit: 4998152394;s;f;866
5003856506: system.cpu.commit: 5003856506;f;f;866
5003856506: system.cpu.commit: 5003856506;s;f;867
5015691662: system.cpu.commit: 5015691662;f;f;867
5015691662: system.cpu.commit: 5015691662;s;f;868
5026830706: system.cpu.commit: 5026830706;f;f;868
5026830706: system.cpu.commit: 5026830706;s;f;869
5038878076: system.cpu.commit: 5038878076;f;f;869
5038878076: system.cpu.commit: 5038878076;s;f;870
5045854220: system.cpu.commit: 5045854220;f;f;870
5045854220: system.cpu.commit: 5045854220;s;f;871
5052605317: system.cpu.commit: 5052605317;f;f;871
5052605317: system.cpu.commit: 5052605317;s;f;872
5059294440: system.cpu.commit: 5059294440;f;f;872
5059294440: system.cpu.commit: 5059294440;s;f;873
5065953828: system.cpu.commit: 5065953828;f;f;873
5065953828: system.cpu.commit: 5065953828;s;f;874
5072581290: system.cpu.commit: 5072581290;f;f;874
5072581290: system.cpu.commit: 5072581290;s;f;875
5079183086: system.cpu.commit: 5079183086;f;f;875
5079183086: system.cpu.commit: 5079183086;s;f;876
5085783630: system.cpu.commit: 5085783630;f;f;876
5085783630: system.cpu.commit: 5085783630;s;f;877
5092360073: system.cpu.commit: 5092360073;f;f;877
5092360073: system.cpu.commit: 5092360073;s;f;878
5098930569: system.cpu.commit: 5098930569;f;f;878
5098930569: system.cpu.commit: 5098930569;s;f;879
5105486354: system.cpu.commit: 5105486354;f;f;879
5105486354: system.cpu.commit: 5105486354;s;f;880
5112012404: system.cpu.commit: 5112012404;f;f;880
5112012404: system.cpu.commit: 5112012404;s;f;881
5118566624: system.cpu.commit: 5118566624;f;f;881
5118566624: system.cpu.commit: 5118566624;s;f;882
5125099873: system.cpu.commit: 5125099873;f;f;882
5125099873: system.cpu.commit: 5125099873;s;f;883
5131629992: system.cpu.commit: 5131629992;f;f;883
5131629992: system.cpu.commit: 5131629992;s;f;884
5138112848: system.cpu.commit: 5138112848;f;f;884
5138112848: system.cpu.commit: 5138112848;s;f;885
5144677397: system.cpu.commit: 5144677397;f;f;885
5144677397: system.cpu.commit: 5144677397;s;f;886
5151180598: system.cpu.commit: 5151180598;f;f;886
5151180598: system.cpu.commit: 5151180598;s;f;887
5157681608: system.cpu.commit: 5157681608;f;f;887
5157681608: system.cpu.commit: 5157681608;s;f;888
5164164464: system.cpu.commit: 5164164464;f;f;888
5164164464: system.cpu.commit: 5164164464;s;f;889
5170677368: system.cpu.commit: 5170677368;f;f;889
5170677368: system.cpu.commit: 5170677368;s;f;890
5177192150: system.cpu.commit: 5177192150;f;f;890
5177192150: system.cpu.commit: 5177192150;s;f;891
5183681579: system.cpu.commit: 5183681579;f;f;891
5183681579: system.cpu.commit: 5183681579;s;f;892
5190169443: system.cpu.commit: 5190169443;f;f;892
5190169443: system.cpu.commit: 5190169443;s;f;893
5196664506: system.cpu.commit: 5196664506;f;f;893
5196664506: system.cpu.commit: 5196664506;s;f;894
5203145171: system.cpu.commit: 5203145171;f;f;894
5203145171: system.cpu.commit: 5203145171;s;f;895
5209614568: system.cpu.commit: 5209614568;f;f;895
5209614568: system.cpu.commit: 5209614568;s;f;896
5216087408: system.cpu.commit: 5216087408;f;f;896
5216087408: system.cpu.commit: 5216087408;s;f;897
5222524253: system.cpu.commit: 5222524253;f;f;897
5222524253: system.cpu.commit: 5222524253;s;f;898
5229017751: system.cpu.commit: 5229017751;f;f;898
5229017751: system.cpu.commit: 5229017751;s;f;899
5235500294: system.cpu.commit: 5235500294;f;f;899
5235500294: system.cpu.commit: 5235500294;s;f;900
5241987219: system.cpu.commit: 5241987219;f;f;900
5241987219: system.cpu.commit: 5241987219;s;f;901
5248454112: system.cpu.commit: 5248454112;f;f;901
5248454112: system.cpu.commit: 5248454112;s;f;902
5254915058: system.cpu.commit: 5254915058;f;f;902
5254915058: system.cpu.commit: 5254915058;s;f;903
5261314656: system.cpu.commit: 5261314656;f;f;903
5261314656: system.cpu.commit: 5261314656;s;f;904
5267816292: system.cpu.commit: 5267816292;f;f;904
5267816292: system.cpu.commit: 5267816292;s;f;905
5274300713: system.cpu.commit: 5274300713;f;f;905
5274300713: system.cpu.commit: 5274300713;s;f;906
5280763537: system.cpu.commit: 5280763537;f;f;906
5280763537: system.cpu.commit: 5280763537;s;f;907
5287150928: system.cpu.commit: 5287150928;f;f;907
5287150928: system.cpu.commit: 5287150928;s;f;908
5293654442: system.cpu.commit: 5293654442;f;f;908
5293654442: system.cpu.commit: 5293654442;s;f;909
5300116327: system.cpu.commit: 5300116327;f;f;909
5300116327: system.cpu.commit: 5300116327;s;f;910
5306558493: system.cpu.commit: 5306558493;f;f;910
5306558493: system.cpu.commit: 5306558493;s;f;911
5312994712: system.cpu.commit: 5312994712;f;f;911
5312994712: system.cpu.commit: 5312994712;s;f;912
5319471621: system.cpu.commit: 5319471621;f;f;912
5319471621: system.cpu.commit: 5319471621;s;f;913
5325905649: system.cpu.commit: 5325905649;f;f;913
5325905649: system.cpu.commit: 5325905649;s;f;914
5332330913: system.cpu.commit: 5332330913;f;f;914
5332330913: system.cpu.commit: 5332330913;s;f;915
5338802501: system.cpu.commit: 5338802501;f;f;915
5338802501: system.cpu.commit: 5338802501;s;f;916
5345230895: system.cpu.commit: 5345230895;f;f;916
5345230895: system.cpu.commit: 5345230895;s;f;917
5351668679: system.cpu.commit: 5351668679;f;f;917
5351668679: system.cpu.commit: 5351668679;s;f;918
5358135885: system.cpu.commit: 5358135885;f;f;918
5358135885: system.cpu.commit: 5358135885;s;f;919
5364524215: system.cpu.commit: 5364524215;f;f;919
5364524215: system.cpu.commit: 5364524215;s;f;920
5371002063: system.cpu.commit: 5371002063;f;f;920
5371002063: system.cpu.commit: 5371002063;s;f;921
5377432648: system.cpu.commit: 5377432648;f;f;921
5377432648: system.cpu.commit: 5377432648;s;f;922
5383866676: system.cpu.commit: 5383866676;f;f;922
5383866676: system.cpu.commit: 5383866676;s;f;923
5390322301: system.cpu.commit: 5390322301;f;f;923
5390322301: system.cpu.commit: 5390322301;s;f;924
5396713761: system.cpu.commit: 5396713761;f;f;924
5396713761: system.cpu.commit: 5396713761;s;f;925
5403184097: system.cpu.commit: 5403184097;f;f;925
5403184097: system.cpu.commit: 5403184097;s;f;926
5409562411: system.cpu.commit: 5409562411;f;f;926
5409562411: system.cpu.commit: 5409562411;s;f;927
5416045580: system.cpu.commit: 5416045580;f;f;927
5416045580: system.cpu.commit: 5416045580;s;f;928
5422456759: system.cpu.commit: 5422456759;f;f;928
5422456759: system.cpu.commit: 5422456759;s;f;929
5428893917: system.cpu.commit: 5428893917;f;f;929
5428893917: system.cpu.commit: 5428893917;s;f;930
5435325441: system.cpu.commit: 5435325441;f;f;930
5435325441: system.cpu.commit: 5435325441;s;f;931
5441742880: system.cpu.commit: 5441742880;f;f;931
5441742880: system.cpu.commit: 5441742880;s;f;932
5448191619: system.cpu.commit: 5448191619;f;f;932
5448191619: system.cpu.commit: 5448191619;s;f;933
5454595286: system.cpu.commit: 5454595286;f;f;933
5454595286: system.cpu.commit: 5454595286;s;f;934
5461037139: system.cpu.commit: 5461037139;f;f;934
5461037139: system.cpu.commit: 5461037139;s;f;935
5467447692: system.cpu.commit: 5467447692;f;f;935
5467447692: system.cpu.commit: 5467447692;s;f;936
5473890484: system.cpu.commit: 5473890484;f;f;936
5473890484: system.cpu.commit: 5473890484;s;f;937
5480284448: system.cpu.commit: 5480284448;f;f;937
5480284448: system.cpu.commit: 5480284448;s;f;938
5486728805: system.cpu.commit: 5486728805;f;f;938
5486728805: system.cpu.commit: 5486728805;s;f;939
5493139045: system.cpu.commit: 5493139045;f;f;939
5493139045: system.cpu.commit: 5493139045;s;f;940
5499576829: system.cpu.commit: 5499576829;f;f;940
5499576829: system.cpu.commit: 5499576829;s;f;941
5505981435: system.cpu.commit: 5505981435;f;f;941
5505981435: system.cpu.commit: 5505981435;s;f;942
5512409203: system.cpu.commit: 5512409203;f;f;942
5512409203: system.cpu.commit: 5512409203;s;f;943
5518826016: system.cpu.commit: 5518826016;f;f;943
5518826016: system.cpu.commit: 5518826016;s;f;944
5525217789: system.cpu.commit: 5525217789;f;f;944
5525217789: system.cpu.commit: 5525217789;s;f;945
5531658077: system.cpu.commit: 5531658077;f;f;945
5531658077: system.cpu.commit: 5531658077;s;f;946
5538023245: system.cpu.commit: 5538023245;f;f;946
5538023245: system.cpu.commit: 5538023245;s;f;947
5544502345: system.cpu.commit: 5544502345;f;f;947
5544502345: system.cpu.commit: 5544502345;s;f;948
5550869391: system.cpu.commit: 5550869391;f;f;948
5550869391: system.cpu.commit: 5550869391;s;f;949
5557327833: system.cpu.commit: 5557327833;f;f;949
5557327833: system.cpu.commit: 5557327833;s;f;950
5563712094: system.cpu.commit: 5563712094;f;f;950
5563712094: system.cpu.commit: 5563712094;s;f;951
5570151756: system.cpu.commit: 5570151756;f;f;951
5570151756: system.cpu.commit: 5570151756;s;f;952
5576550102: system.cpu.commit: 5576550102;f;f;952
5576550102: system.cpu.commit: 5576550102;s;f;953
5582948135: system.cpu.commit: 5582948135;f;f;953
5582948135: system.cpu.commit: 5582948135;s;f;954
5589388423: system.cpu.commit: 5589388423;f;f;954
5589388423: system.cpu.commit: 5589388423;s;f;955
5595753591: system.cpu.commit: 5595753591;f;f;955
5595753591: system.cpu.commit: 5595753591;s;f;956
5602214537: system.cpu.commit: 5602214537;f;f;956
5602214537: system.cpu.commit: 5602214537;s;f;957
5608601615: system.cpu.commit: 5608601615;f;f;957
5608601615: system.cpu.commit: 5608601615;s;f;958
5615030635: system.cpu.commit: 5615030635;f;f;958
5615030635: system.cpu.commit: 5615030635;s;f;959
5621432111: system.cpu.commit: 5621432111;f;f;959
5621432111: system.cpu.commit: 5621432111;s;f;960
5627786324: system.cpu.commit: 5627786324;f;f;960
5627786324: system.cpu.commit: 5627786324;s;f;961
5634277944: system.cpu.commit: 5634277944;f;f;961
5634277944: system.cpu.commit: 5634277944;s;f;962
5640648433: system.cpu.commit: 5640648433;f;f;962
5640648433: system.cpu.commit: 5640648433;s;f;963
5647090286: system.cpu.commit: 5647090286;f;f;963
5647090286: system.cpu.commit: 5647090286;s;f;964
5653484876: system.cpu.commit: 5653484876;f;f;964
5653484876: system.cpu.commit: 5653484876;s;f;965
5659843784: system.cpu.commit: 5659843784;f;f;965
5659843784: system.cpu.commit: 5659843784;s;f;966
5666318815: system.cpu.commit: 5666318815;f;f;966
5666318815: system.cpu.commit: 5666318815;s;f;967
5672679601: system.cpu.commit: 5672679601;f;f;967
5672679601: system.cpu.commit: 5672679601;s;f;968
5679112377: system.cpu.commit: 5679112377;f;f;968
5679112377: system.cpu.commit: 5679112377;s;f;969
5685515731: system.cpu.commit: 5685515731;f;f;969
5685515731: system.cpu.commit: 5685515731;s;f;970
5691873074: system.cpu.commit: 5691873074;f;f;970
5691873074: system.cpu.commit: 5691873074;s;f;971
5698328386: system.cpu.commit: 5698328386;f;f;971
5698328386: system.cpu.commit: 5698328386;s;f;972
5704713273: system.cpu.commit: 5704713273;f;f;972
5704713273: system.cpu.commit: 5704713273;s;f;973
5711077189: system.cpu.commit: 5711077189;f;f;973
5711077189: system.cpu.commit: 5711077189;s;f;974
5717534692: system.cpu.commit: 5717534692;f;f;974
5717534692: system.cpu.commit: 5717534692;s;f;975
5723901738: system.cpu.commit: 5723901738;f;f;975
5723901738: system.cpu.commit: 5723901738;s;f;976
5730327315: system.cpu.commit: 5730327315;f;f;976
5730327315: system.cpu.commit: 5730327315;s;f;977
5736730043: system.cpu.commit: 5736730043;f;f;977
5736730043: system.cpu.commit: 5736730043;s;f;978
5743094585: system.cpu.commit: 5743094585;f;f;978
5743094585: system.cpu.commit: 5743094585;s;f;979
5749538316: system.cpu.commit: 5749538316;f;f;979
5749538316: system.cpu.commit: 5749538316;s;f;980
5755922264: system.cpu.commit: 5755922264;f;f;980
5755922264: system.cpu.commit: 5755922264;s;f;981
5762284615: system.cpu.commit: 5762284615;f;f;981
5762284615: system.cpu.commit: 5762284615;s;f;982
5768735232: system.cpu.commit: 5768735232;f;f;982
5768735232: system.cpu.commit: 5768735232;s;f;983
5775116676: system.cpu.commit: 5775116676;f;f;983
5775116676: system.cpu.commit: 5775116676;s;f;984
5781469011: system.cpu.commit: 5781469011;f;f;984
5781469011: system.cpu.commit: 5781469011;s;f;985
5787926201: system.cpu.commit: 5787926201;f;f;985
5787926201: system.cpu.commit: 5787926201;s;f;986
5794298568: system.cpu.commit: 5794298568;f;f;986
5794298568: system.cpu.commit: 5794298568;s;f;987
5803392157: system.cpu.commit: 5803392157;f;f;987
