  78563: system.cpu.commit: 78563;s;i;0
14654660: system.cpu.commit: 14654660;f;i;0
14654660: system.cpu.commit: 14654660;s;f;0
28606948: system.cpu.commit: 28606948;f;f;0
28606948: system.cpu.commit: 28606948;s;f;1
37591613: system.cpu.commit: 37591613;f;f;1
37591613: system.cpu.commit: 37591613;s;f;2
46426351: system.cpu.commit: 46426351;f;f;2
46426351: system.cpu.commit: 46426351;s;f;3
55154356: system.cpu.commit: 55154356;f;f;3
55154356: system.cpu.commit: 55154356;s;f;4
63946839: system.cpu.commit: 63946839;f;f;4
63946839: system.cpu.commit: 63946839;s;f;5
67478418: system.cpu.commit: 67478418;f;f;5
