
---------- Begin Simulation Statistics ----------
sim_seconds                                  0.000073                       # Number of seconds simulated
sim_ticks                                    72836352                       # Number of ticks simulated
final_tick                                   72836352                       # Number of ticks from beginning of simulation (restored from checkpoints and never reset)
sim_freq                                 1000000000000                       # Frequency of simulated ticks
host_inst_rate                                 105059                       # Simulator instruction rate (inst/s)
host_op_rate                                   105065                       # Simulator op (including micro ops) rate (op/s)
host_tick_rate                               58902400                       # Simulator tick rate (ticks/s)
host_mem_usage                                 687912                       # Number of bytes of host memory used
host_seconds                                     1.24                       # Real time elapsed on the host
sim_insts                                      129907                       # Number of instructions simulated
sim_ops                                        129917                       # Number of ops (including micro ops) simulated
system.clk_domain.voltage_domain.voltage            1                       # Voltage in Volts
system.clk_domain.clock                           313                       # Clock period in ticks
system.mem_ctrl.pwrStateResidencyTicks::UNDEFINED     72836352                       # Cumulative time (in ticks) in various power states
system.mem_ctrl.bytes_read::cpu.inst            21440                       # Number of bytes read from this memory
system.mem_ctrl.bytes_read::cpu.data             9408                       # Number of bytes read from this memory
system.mem_ctrl.bytes_read::l2cache.prefetcher         3648                       # Number of bytes read from this memory
system.mem_ctrl.bytes_read::total               34496                       # Number of bytes read from this memory
system.mem_ctrl.bytes_inst_read::cpu.inst        21440                       # Number of instructions bytes read from this memory
system.mem_ctrl.bytes_inst_read::total          21440                       # Number of instructions bytes read from this memory
system.mem_ctrl.num_reads::writebacks               0                       # Number of read requests responded to by this memory
system.mem_ctrl.num_reads::functional               0                       # Number of read requests responded to by this memory
system.mem_ctrl.num_reads::interrupt                0                       # Number of read requests responded to by this memory
system.mem_ctrl.num_reads::cpu.inst               335                       # Number of read requests responded to by this memory
system.mem_ctrl.num_reads::cpu.data               147                       # Number of read requests responded to by this memory
system.mem_ctrl.num_reads::l2cache.prefetcher           57                       # Number of read requests responded to by this memory
system.mem_ctrl.num_reads::total                  539                       # Number of read requests responded to by this memory
system.mem_ctrl.num_writes::writebacks              0                       # Number of write requests responded to by this memory
system.mem_ctrl.num_writes::functional              0                       # Number of write requests responded to by this memory
system.mem_ctrl.num_writes::interrupt               0                       # Number of write requests responded to by this memory
system.mem_ctrl.num_writes::cpu.inst                0                       # Number of write requests responded to by this memory
system.mem_ctrl.num_writes::cpu.data                0                       # Number of write requests responded to by this memory
system.mem_ctrl.num_writes::l2cache.prefetcher            0                       # Number of write requests responded to by this memory
system.mem_ctrl.num_writes::total                   0                       # Number of write requests responded to by this memory
system.mem_ctrl.bw_read::cpu.inst           294358509                       # Total read bandwidth from this memory (bytes/s)
system.mem_ctrl.bw_read::cpu.data           129166271                       # Total read bandwidth from this memory (bytes/s)
system.mem_ctrl.bw_read::l2cache.prefetcher     50084881                       # Total read bandwidth from this memory (bytes/s)
system.mem_ctrl.bw_read::total              473609661                       # Total read bandwidth from this memory (bytes/s)
system.mem_ctrl.bw_inst_read::cpu.inst      294358509                       # Instruction read bandwidth from this memory (bytes/s)
system.mem_ctrl.bw_inst_read::total         294358509                       # Instruction read bandwidth from this memory (bytes/s)
system.mem_ctrl.bw_total::cpu.inst          294358509                       # Total bandwidth to/from this memory (bytes/s)
system.mem_ctrl.bw_total::cpu.data          129166271                       # Total bandwidth to/from this memory (bytes/s)
system.mem_ctrl.bw_total::l2cache.prefetcher     50084881                       # Total bandwidth to/from this memory (bytes/s)
system.mem_ctrl.bw_total::total             473609661                       # Total bandwidth to/from this memory (bytes/s)
system.mem_ctrl.readReqs                          539                       # Number of read requests accepted
system.mem_ctrl.writeReqs                           0                       # Number of write requests accepted
system.mem_ctrl.readBursts                        539                       # Number of DRAM read bursts, including those serviced by the write queue
system.mem_ctrl.writeBursts                         0                       # Number of DRAM write bursts, including those merged in the write queue
system.mem_ctrl.bytesReadDRAM                   34496                       # Total number of bytes read from DRAM
system.mem_ctrl.bytesReadWrQ                        0                       # Total number of bytes read from write queue
system.mem_ctrl.bytesWritten                        0                       # Total number of bytes written to DRAM
system.mem_ctrl.bytesReadSys                    34496                       # Total read bytes from the system interface side
system.mem_ctrl.bytesWrittenSys                     0                       # Total written bytes from the system interface side
system.mem_ctrl.servicedByWrQ                       0                       # Number of DRAM read bursts serviced by the write queue
system.mem_ctrl.mergedWrBursts                      0                       # Number of DRAM write bursts merged with an existing one
system.mem_ctrl.neitherReadNorWriteReqs             0                       # Number of requests that are neither read nor write
system.mem_ctrl.perBankRdBursts::0                 62                       # Per bank write bursts
system.mem_ctrl.perBankRdBursts::1                 31                       # Per bank write bursts
system.mem_ctrl.perBankRdBursts::2                 38                       # Per bank write bursts
system.mem_ctrl.perBankRdBursts::3                  0                       # Per bank write bursts
system.mem_ctrl.perBankRdBursts::4                 14                       # Per bank write bursts
system.mem_ctrl.perBankRdBursts::5                 40                       # Per bank write bursts
system.mem_ctrl.perBankRdBursts::6                 82                       # Per bank write bursts
system.mem_ctrl.perBankRdBursts::7                 33                       # Per bank write bursts
system.mem_ctrl.perBankRdBursts::8                 40                       # Per bank write bursts
system.mem_ctrl.perBankRdBursts::9                 54                       # Per bank write bursts
system.mem_ctrl.perBankRdBursts::10                 0                       # Per bank write bursts
system.mem_ctrl.perBankRdBursts::11                 2                       # Per bank write bursts
system.mem_ctrl.perBankRdBursts::12                 0                       # Per bank write bursts
system.mem_ctrl.perBankRdBursts::13                78                       # Per bank write bursts
system.mem_ctrl.perBankRdBursts::14                31                       # Per bank write bursts
system.mem_ctrl.perBankRdBursts::15                34                       # Per bank write bursts
system.mem_ctrl.perBankWrBursts::0                  0                       # Per bank write bursts
system.mem_ctrl.perBankWrBursts::1                  0                       # Per bank write bursts
system.mem_ctrl.perBankWrBursts::2                  0                       # Per bank write bursts
system.mem_ctrl.perBankWrBursts::3                  0                       # Per bank write bursts
system.mem_ctrl.perBankWrBursts::4                  0                       # Per bank write bursts
system.mem_ctrl.perBankWrBursts::5                  0                       # Per bank write bursts
system.mem_ctrl.perBankWrBursts::6                  0                       # Per bank write bursts
system.mem_ctrl.perBankWrBursts::7                  0                       # Per bank write bursts
system.mem_ctrl.perBankWrBursts::8                  0                       # Per bank write bursts
system.mem_ctrl.perBankWrBursts::9                  0                       # Per bank write bursts
system.mem_ctrl.perBankWrBursts::10                 0                       # Per bank write bursts
system.mem_ctrl.perBankWrBursts::11                 0                       # Per bank write bursts
system.mem_ctrl.perBankWrBursts::12                 0                       # Per bank write bursts
system.mem_ctrl.perBankWrBursts::13                 0                       # Per bank write bursts
system.mem_ctrl.perBankWrBursts::14                 0                       # Per bank write bursts
system.mem_ctrl.perBankWrBursts::15                 0                       # Per bank write bursts
system.mem_ctrl.numRdRetry                          0                       # Number of times read queue was full causing retry
system.mem_ctrl.numWrRetry                          0                       # Number of times write queue was full causing retry
system.mem_ctrl.totGap                       72761858                       # Total gap between requests
system.mem_ctrl.readPktSize::0                      0                       # Read request sizes (log2)
system.mem_ctrl.readPktSize::1                      0                       # Read request sizes (log2)
system.mem_ctrl.readPktSize::2                      0                       # Read request sizes (log2)
system.mem_ctrl.readPktSize::3                      0                       # Read request sizes (log2)
system.mem_ctrl.readPktSize::4                      0                       # Read request sizes (log2)
system.mem_ctrl.readPktSize::5                      0                       # Read request sizes (log2)
system.mem_ctrl.readPktSize::6                    539                       # Read request sizes (log2)
system.mem_ctrl.writePktSize::0                     0                       # Write request sizes (log2)
system.mem_ctrl.writePktSize::1                     0                       # Write request sizes (log2)
system.mem_ctrl.writePktSize::2                     0                       # Write request sizes (log2)
system.mem_ctrl.writePktSize::3                     0                       # Write request sizes (log2)
system.mem_ctrl.writePktSize::4                     0                       # Write request sizes (log2)
system.mem_ctrl.writePktSize::5                     0                       # Write request sizes (log2)
system.mem_ctrl.writePktSize::6                     0                       # Write request sizes (log2)
system.mem_ctrl.rdQLenPdf::0                      422                       # What read queue length does an incoming req see
system.mem_ctrl.rdQLenPdf::1                      110                       # What read queue length does an incoming req see
system.mem_ctrl.rdQLenPdf::2                        7                       # What read queue length does an incoming req see
system.mem_ctrl.rdQLenPdf::3                        0                       # What read queue length does an incoming req see
system.mem_ctrl.rdQLenPdf::4                        0                       # What read queue length does an incoming req see
system.mem_ctrl.rdQLenPdf::5                        0                       # What read queue length does an incoming req see
system.mem_ctrl.rdQLenPdf::6                        0                       # What read queue length does an incoming req see
system.mem_ctrl.rdQLenPdf::7                        0                       # What read queue length does an incoming req see
system.mem_ctrl.rdQLenPdf::8                        0                       # What read queue length does an incoming req see
system.mem_ctrl.rdQLenPdf::9                        0                       # What read queue length does an incoming req see
system.mem_ctrl.rdQLenPdf::10                       0                       # What read queue length does an incoming req see
system.mem_ctrl.rdQLenPdf::11                       0                       # What read queue length does an incoming req see
system.mem_ctrl.rdQLenPdf::12                       0                       # What read queue length does an incoming req see
system.mem_ctrl.rdQLenPdf::13                       0                       # What read queue length does an incoming req see
system.mem_ctrl.rdQLenPdf::14                       0                       # What read queue length does an incoming req see
system.mem_ctrl.rdQLenPdf::15                       0                       # What read queue length does an incoming req see
system.mem_ctrl.rdQLenPdf::16                       0                       # What read queue length does an incoming req see
system.mem_ctrl.rdQLenPdf::17                       0                       # What read queue length does an incoming req see
system.mem_ctrl.rdQLenPdf::18                       0                       # What read queue length does an incoming req see
system.mem_ctrl.rdQLenPdf::19                       0                       # What read queue length does an incoming req see
system.mem_ctrl.rdQLenPdf::20                       0                       # What read queue length does an incoming req see
system.mem_ctrl.rdQLenPdf::21                       0                       # What read queue length does an incoming req see
system.mem_ctrl.rdQLenPdf::22                       0                       # What read queue length does an incoming req see
system.mem_ctrl.rdQLenPdf::23                       0                       # What read queue length does an incoming req see
system.mem_ctrl.rdQLenPdf::24                       0                       # What read queue length does an incoming req see
system.mem_ctrl.rdQLenPdf::25                       0                       # What read queue length does an incoming req see
system.mem_ctrl.rdQLenPdf::26                       0                       # What read queue length does an incoming req see
system.mem_ctrl.rdQLenPdf::27                       0                       # What read queue length does an incoming req see
system.mem_ctrl.rdQLenPdf::28                       0                       # What read queue length does an incoming req see
system.mem_ctrl.rdQLenPdf::29                       0                       # What read queue length does an incoming req see
system.mem_ctrl.rdQLenPdf::30                       0                       # What read queue length does an incoming req see
system.mem_ctrl.rdQLenPdf::31                       0                       # What read queue length does an incoming req see
system.mem_ctrl.wrQLenPdf::0                        0                       # What write queue length does an incoming req see
system.mem_ctrl.wrQLenPdf::1                        0                       # What write queue length does an incoming req see
system.mem_ctrl.wrQLenPdf::2                        0                       # What write queue length does an incoming req see
system.mem_ctrl.wrQLenPdf::3                        0                       # What write queue length does an incoming req see
system.mem_ctrl.wrQLenPdf::4                        0                       # What write queue length does an incoming req see
system.mem_ctrl.wrQLenPdf::5                        0                       # What write queue length does an incoming req see
system.mem_ctrl.wrQLenPdf::6                        0                       # What write queue length does an incoming req see
system.mem_ctrl.wrQLenPdf::7                        0                       # What write queue length does an incoming req see
system.mem_ctrl.wrQLenPdf::8                        0                       # What write queue length does an incoming req see
system.mem_ctrl.wrQLenPdf::9                        0                       # What write queue length does an incoming req see
system.mem_ctrl.wrQLenPdf::10                       0                       # What write queue length does an incoming req see
system.mem_ctrl.wrQLenPdf::11                       0                       # What write queue length does an incoming req see
system.mem_ctrl.wrQLenPdf::12                       0                       # What write queue length does an incoming req see
system.mem_ctrl.wrQLenPdf::13                       0                       # What write queue length does an incoming req see
system.mem_ctrl.wrQLenPdf::14                       0                       # What write queue length does an incoming req see
system.mem_ctrl.wrQLenPdf::15                       0                       # What write queue length does an incoming req see
system.mem_ctrl.wrQLenPdf::16                       0                       # What write queue length does an incoming req see
system.mem_ctrl.wrQLenPdf::17                       0                       # What write queue length does an incoming req see
system.mem_ctrl.wrQLenPdf::18                       0                       # What write queue length does an incoming req see
system.mem_ctrl.wrQLenPdf::19                       0                       # What write queue length does an incoming req see
system.mem_ctrl.wrQLenPdf::20                       0                       # What write queue length does an incoming req see
system.mem_ctrl.wrQLenPdf::21                       0                       # What write queue length does an incoming req see
system.mem_ctrl.wrQLenPdf::22                       0                       # What write queue length does an incoming req see
system.mem_ctrl.wrQLenPdf::23                       0                       # What write queue length does an incoming req see
system.mem_ctrl.wrQLenPdf::24                       0                       # What write queue length does an incoming req see
system.mem_ctrl.wrQLenPdf::25                       0                       # What write queue length does an incoming req see
system.mem_ctrl.wrQLenPdf::26                       0                       # What write queue length does an incoming req see
system.mem_ctrl.wrQLenPdf::27                       0                       # What write queue length does an incoming req see
system.mem_ctrl.wrQLenPdf::28                       0                       # What write queue length does an incoming req see
system.mem_ctrl.wrQLenPdf::29                       0                       # What write queue length does an incoming req see
system.mem_ctrl.wrQLenPdf::30                       0                       # What write queue length does an incoming req see
system.mem_ctrl.wrQLenPdf::31                       0                       # What write queue length does an incoming req see
system.mem_ctrl.wrQLenPdf::32                       0                       # What write queue length does an incoming req see
system.mem_ctrl.wrQLenPdf::33                       0                       # What write queue length does an incoming req see
system.mem_ctrl.wrQLenPdf::34                       0                       # What write queue length does an incoming req see
system.mem_ctrl.wrQLenPdf::35                       0                       # What write queue length does an incoming req see
system.mem_ctrl.wrQLenPdf::36                       0                       # What write queue length does an incoming req see
system.mem_ctrl.wrQLenPdf::37                       0                       # What write queue length does an incoming req see
system.mem_ctrl.wrQLenPdf::38                       0                       # What write queue length does an incoming req see
system.mem_ctrl.wrQLenPdf::39                       0                       # What write queue length does an incoming req see
system.mem_ctrl.wrQLenPdf::40                       0                       # What write queue length does an incoming req see
system.mem_ctrl.wrQLenPdf::41                       0                       # What write queue length does an incoming req see
system.mem_ctrl.wrQLenPdf::42                       0                       # What write queue length does an incoming req see
system.mem_ctrl.wrQLenPdf::43                       0                       # What write queue length does an incoming req see
system.mem_ctrl.wrQLenPdf::44                       0                       # What write queue length does an incoming req see
system.mem_ctrl.wrQLenPdf::45                       0                       # What write queue length does an incoming req see
system.mem_ctrl.wrQLenPdf::46                       0                       # What write queue length does an incoming req see
system.mem_ctrl.wrQLenPdf::47                       0                       # What write queue length does an incoming req see
system.mem_ctrl.wrQLenPdf::48                       0                       # What write queue length does an incoming req see
system.mem_ctrl.wrQLenPdf::49                       0                       # What write queue length does an incoming req see
system.mem_ctrl.wrQLenPdf::50                       0                       # What write queue length does an incoming req see
system.mem_ctrl.wrQLenPdf::51                       0                       # What write queue length does an incoming req see
system.mem_ctrl.wrQLenPdf::52                       0                       # What write queue length does an incoming req see
system.mem_ctrl.wrQLenPdf::53                       0                       # What write queue length does an incoming req see
system.mem_ctrl.wrQLenPdf::54                       0                       # What write queue length does an incoming req see
system.mem_ctrl.wrQLenPdf::55                       0                       # What write queue length does an incoming req see
system.mem_ctrl.wrQLenPdf::56                       0                       # What write queue length does an incoming req see
system.mem_ctrl.wrQLenPdf::57                       0                       # What write queue length does an incoming req see
system.mem_ctrl.wrQLenPdf::58                       0                       # What write queue length does an incoming req see
system.mem_ctrl.wrQLenPdf::59                       0                       # What write queue length does an incoming req see
system.mem_ctrl.wrQLenPdf::60                       0                       # What write queue length does an incoming req see
system.mem_ctrl.wrQLenPdf::61                       0                       # What write queue length does an incoming req see
system.mem_ctrl.wrQLenPdf::62                       0                       # What write queue length does an incoming req see
system.mem_ctrl.wrQLenPdf::63                       0                       # What write queue length does an incoming req see
system.mem_ctrl.bytesPerActivate::samples           83                       # Bytes accessed per row activation
system.mem_ctrl.bytesPerActivate::mean     390.939759                       # Bytes accessed per row activation
system.mem_ctrl.bytesPerActivate::gmean    264.163729                       # Bytes accessed per row activation
system.mem_ctrl.bytesPerActivate::stdev    325.726256                       # Bytes accessed per row activation
system.mem_ctrl.bytesPerActivate::0-127            15     18.07%     18.07% # Bytes accessed per row activation
system.mem_ctrl.bytesPerActivate::128-255           24     28.92%     46.99% # Bytes accessed per row activation
system.mem_ctrl.bytesPerActivate::256-383            8      9.64%     56.63% # Bytes accessed per row activation
system.mem_ctrl.bytesPerActivate::384-511           12     14.46%     71.08% # Bytes accessed per row activation
system.mem_ctrl.bytesPerActivate::512-639            4      4.82%     75.90% # Bytes accessed per row activation
system.mem_ctrl.bytesPerActivate::640-767            3      3.61%     79.52% # Bytes accessed per row activation
system.mem_ctrl.bytesPerActivate::768-895            4      4.82%     84.34% # Bytes accessed per row activation
system.mem_ctrl.bytesPerActivate::896-1023            4      4.82%     89.16% # Bytes accessed per row activation
system.mem_ctrl.bytesPerActivate::1024-1151            9     10.84%    100.00% # Bytes accessed per row activation
system.mem_ctrl.bytesPerActivate::total            83                       # Bytes accessed per row activation
system.mem_ctrl.totQLat                       6526236                       # Total ticks spent queuing
system.mem_ctrl.totMemAccLat                 16632486                       # Total ticks spent from burst creation until serviced by the DRAM
system.mem_ctrl.totBusLat                     2695000                       # Total ticks spent in databus transfers
system.mem_ctrl.avgQLat                      12108.04                       # Average queueing delay per DRAM burst
system.mem_ctrl.avgBusLat                     5000.00                       # Average bus latency per DRAM burst
system.mem_ctrl.avgMemAccLat                 30858.04                       # Average memory access latency per DRAM burst
system.mem_ctrl.avgRdBW                        473.61                       # Average DRAM read bandwidth in MiByte/s
system.mem_ctrl.avgWrBW                          0.00                       # Average achieved write bandwidth in MiByte/s
system.mem_ctrl.avgRdBWSys                     473.61                       # Average system read bandwidth in MiByte/s
system.mem_ctrl.avgWrBWSys                       0.00                       # Average system write bandwidth in MiByte/s
system.mem_ctrl.peakBW                       12800.00                       # Theoretical peak bandwidth in MiByte/s
system.mem_ctrl.busUtil                          3.70                       # Data bus utilization in percentage
system.mem_ctrl.busUtilRead                      3.70                       # Data bus utilization in percentage for reads
system.mem_ctrl.busUtilWrite                     0.00                       # Data bus utilization in percentage for writes
system.mem_ctrl.avgRdQLen                        1.12                       # Average read queue length when enqueuing
system.mem_ctrl.avgWrQLen                        0.00                       # Average write queue length when enqueuing
system.mem_ctrl.readRowHits                       449                       # Number of row buffer hits during reads
system.mem_ctrl.writeRowHits                        0                       # Number of row buffer hits during writes
system.mem_ctrl.readRowHitRate                  83.30                       # Row buffer hit rate for reads
system.mem_ctrl.writeRowHitRate                   nan                       # Row buffer hit rate for writes
system.mem_ctrl.avgGap                      134994.17                       # Average gap between requests
system.mem_ctrl.pageHitRate                     83.30                       # Row buffer hit rate, read and write combined
system.mem_ctrl_0.actEnergy                    349860                       # Energy for activate commands per rank (pJ)
system.mem_ctrl_0.preEnergy                    178365                       # Energy for precharge commands per rank (pJ)
system.mem_ctrl_0.readEnergy                  2142000                       # Energy for read commands per rank (pJ)
system.mem_ctrl_0.writeEnergy                       0                       # Energy for write commands per rank (pJ)
system.mem_ctrl_0.refreshEnergy          5531760.000000                       # Energy for refresh commands per rank (pJ)
system.mem_ctrl_0.actBackEnergy               4528080                       # Energy for active background per rank (pJ)
system.mem_ctrl_0.preBackEnergy                123840                       # Energy for precharge background per rank (pJ)
system.mem_ctrl_0.actPowerDownEnergy         21372150                       # Energy for active power-down per rank (pJ)
system.mem_ctrl_0.prePowerDownEnergy          6035040                       # Energy for precharge power-down per rank (pJ)
system.mem_ctrl_0.selfRefreshEnergy                 0                       # Energy for self refresh per rank (pJ)
system.mem_ctrl_0.totalEnergy                40261095                       # Total energy per rank (pJ)
system.mem_ctrl_0.averagePower             552.761003                       # Core power per rank (mW)
system.mem_ctrl_0.totalIdleTime              62477958                       # Total Idle time Per DRAM Rank
system.mem_ctrl_0.memoryStateTime::IDLE         60260                       # Time in different power states
system.mem_ctrl_0.memoryStateTime::REF        2340000                       # Time in different power states
system.mem_ctrl_0.memoryStateTime::SREF             0                       # Time in different power states
system.mem_ctrl_0.memoryStateTime::PRE_PDN     15712894                       # Time in different power states
system.mem_ctrl_0.memoryStateTime::ACT        7852676                       # Time in different power states
system.mem_ctrl_0.memoryStateTime::ACT_PDN     46870522                       # Time in different power states
system.mem_ctrl_1.actEnergy                    292740                       # Energy for activate commands per rank (pJ)
system.mem_ctrl_1.preEnergy                    136620                       # Energy for precharge commands per rank (pJ)
system.mem_ctrl_1.readEnergy                  1706460                       # Energy for read commands per rank (pJ)
system.mem_ctrl_1.writeEnergy                       0                       # Energy for write commands per rank (pJ)
system.mem_ctrl_1.refreshEnergy          3687840.000000                       # Energy for refresh commands per rank (pJ)
system.mem_ctrl_1.actBackEnergy               3389220                       # Energy for active background per rank (pJ)
system.mem_ctrl_1.preBackEnergy                195360                       # Energy for precharge background per rank (pJ)
system.mem_ctrl_1.actPowerDownEnergy         11457000                       # Energy for active power-down per rank (pJ)
system.mem_ctrl_1.prePowerDownEnergy          3446880                       # Energy for precharge power-down per rank (pJ)
system.mem_ctrl_1.selfRefreshEnergy           7943040                       # Energy for self refresh per rank (pJ)
system.mem_ctrl_1.totalEnergy                32255160                       # Total energy per rank (pJ)
system.mem_ctrl_1.averagePower             442.844254                       # Core power per rank (mW)
system.mem_ctrl_1.totalIdleTime              64869084                       # Total Idle time Per DRAM Rank
system.mem_ctrl_1.memoryStateTime::IDLE        363693                       # Time in different power states
system.mem_ctrl_1.memoryStateTime::REF        1566000                       # Time in different power states
system.mem_ctrl_1.memoryStateTime::SREF      30794871                       # Time in different power states
system.mem_ctrl_1.memoryStateTime::PRE_PDN      8976545                       # Time in different power states
system.mem_ctrl_1.memoryStateTime::ACT        6007841                       # Time in different power states
system.mem_ctrl_1.memoryStateTime::ACT_PDN     25127402                       # Time in different power states
system.pwrStateResidencyTicks::UNDEFINED     72836352                       # Cumulative time (in ticks) in various power states
system.cpu.branchPred.lookups                   20501                       # Number of BP lookups
system.cpu.branchPred.condPredicted             19084                       # Number of conditional branches predicted
system.cpu.branchPred.condIncorrect              1056                       # Number of conditional branches incorrect
system.cpu.branchPred.BTBLookups                19557                       # Number of BTB lookups
system.cpu.branchPred.BTBHits                   16661                       # Number of BTB hits
system.cpu.branchPred.BTBCorrect                    0                       # Number of correct BTB predictions (this stat may not work properly.
system.cpu.branchPred.BTBHitPct             85.192003                       # BTB Hit Percentage
system.cpu.branchPred.usedRAS                       0                       # Number of times the RAS was used to get a target.
system.cpu.branchPred.RASInCorrect                  0                       # Number of incorrect RAS predictions.
system.cpu.branchPred.indirectLookups             920                       # Number of indirect predictor lookups.
system.cpu.branchPred.indirectHits                235                       # Number of indirect target hits.
system.cpu.branchPred.indirectMisses              685                       # Number of indirect misses.
system.cpu.branchPredindirectMispredicted          214                       # Number of mispredicted indirect branches.
system.cpu.dtb.read_hits                            0                       # DTB read hits
system.cpu.dtb.read_misses                          0                       # DTB read misses
system.cpu.dtb.read_accesses                        0                       # DTB read accesses
system.cpu.dtb.write_hits                           0                       # DTB write hits
system.cpu.dtb.write_misses                         0                       # DTB write misses
system.cpu.dtb.write_accesses                       0                       # DTB write accesses
system.cpu.dtb.hits                                 0                       # DTB hits
system.cpu.dtb.misses                               0                       # DTB misses
system.cpu.dtb.accesses                             0                       # DTB accesses
system.cpu.itb.read_hits                            0                       # DTB read hits
system.cpu.itb.read_misses                          0                       # DTB read misses
system.cpu.itb.read_accesses                        0                       # DTB read accesses
system.cpu.itb.write_hits                           0                       # DTB write hits
system.cpu.itb.write_misses                         0                       # DTB write misses
system.cpu.itb.write_accesses                       0                       # DTB write accesses
system.cpu.itb.hits                                 0                       # DTB hits
system.cpu.itb.misses                               0                       # DTB misses
system.cpu.itb.accesses                             0                       # DTB accesses
system.cpu.workload.numSyscalls                     7                       # Number of system calls
system.cpu.pwrStateResidencyTicks::ON        72836352                       # Cumulative time (in ticks) in various power states
system.cpu.numCycles                           232704                       # number of cpu cycles simulated
system.cpu.numWorkItemsStarted                      0                       # number of work items this cpu started
system.cpu.numWorkItemsCompleted                    0                       # number of work items this cpu completed
system.cpu.committedInsts                      129907                       # Number of instructions committed
system.cpu.committedOps                        129917                       # Number of ops (including micro ops) committed
system.cpu.discardedOps                          3411                       # Number of ops (including micro ops) which were discarded before commit
system.cpu.numFetchSuspends                         0                       # Number of times Execute suspended instruction fetching
system.cpu.cpi                               1.791312                       # CPI: cycles per instruction
system.cpu.ipc                               0.558250                       # IPC: instructions per cycle
system.cpu.op_class_0::No_OpClass                  17      0.01%      0.01% # Class of committed instruction
system.cpu.op_class_0::IntAdd                       0      0.00%      0.01% # Class of committed instruction
system.cpu.op_class_0::IntSub                       0      0.00%      0.01% # Class of committed instruction
system.cpu.op_class_0::IntMult                      4      0.00%      0.02% # Class of committed instruction
system.cpu.op_class_0::IntDiv                       7      0.01%      0.02% # Class of committed instruction
system.cpu.op_class_0::IntLogic                     0      0.00%      0.02% # Class of committed instruction
system.cpu.op_class_0::IntShift                     0      0.00%      0.02% # Class of committed instruction
system.cpu.op_class_0::IntMov                       0      0.00%      0.02% # Class of committed instruction
system.cpu.op_class_0::IntCtrl                      0      0.00%      0.02% # Class of committed instruction
system.cpu.op_class_0::IntALU                   62184     47.86%     47.89% # Class of committed instruction
system.cpu.op_class_0::FloatAdd                   119      0.09%     47.98% # Class of committed instruction
system.cpu.op_class_0::FloatCmp                     0      0.00%     47.98% # Class of committed instruction
system.cpu.op_class_0::FloatCvt                   239      0.18%     48.16% # Class of committed instruction
system.cpu.op_class_0::FloatMult                  119      0.09%     48.25% # Class of committed instruction
system.cpu.op_class_0::FloatMultAcc             14399     11.08%     59.34% # Class of committed instruction
system.cpu.op_class_0::FloatDiv                   119      0.09%     59.43% # Class of committed instruction
system.cpu.op_class_0::FloatMisc                  121      0.09%     59.52% # Class of committed instruction
system.cpu.op_class_0::FloatSqrt                    0      0.00%     59.52% # Class of committed instruction
system.cpu.op_class_0::SimdAdd                      0      0.00%     59.52% # Class of committed instruction
system.cpu.op_class_0::SimdAddAcc                   0      0.00%     59.52% # Class of committed instruction
system.cpu.op_class_0::SimdAlu                      0      0.00%     59.52% # Class of committed instruction
system.cpu.op_class_0::SimdCmp                      0      0.00%     59.52% # Class of committed instruction
system.cpu.op_class_0::SimdCvt                      0      0.00%     59.52% # Class of committed instruction
system.cpu.op_class_0::SimdMisc                     0      0.00%     59.52% # Class of committed instruction
system.cpu.op_class_0::SimdMult                     0      0.00%     59.52% # Class of committed instruction
system.cpu.op_class_0::SimdMultAcc                  0      0.00%     59.52% # Class of committed instruction
system.cpu.op_class_0::SimdShift                    0      0.00%     59.52% # Class of committed instruction
system.cpu.op_class_0::SimdShiftAcc                 0      0.00%     59.52% # Class of committed instruction
system.cpu.op_class_0::SimdSqrt                     0      0.00%     59.52% # Class of committed instruction
system.cpu.op_class_0::SimdFloatAdd                 0      0.00%     59.52% # Class of committed instruction
system.cpu.op_class_0::SimdFloatAlu                 0      0.00%     59.52% # Class of committed instruction
system.cpu.op_class_0::SimdFloatCmp                 0      0.00%     59.52% # Class of committed instruction
system.cpu.op_class_0::SimdFloatCvt                 0      0.00%     59.52% # Class of committed instruction
system.cpu.op_class_0::SimdFloatDiv                 0      0.00%     59.52% # Class of committed instruction
system.cpu.op_class_0::SimdFloatMisc                0      0.00%     59.52% # Class of committed instruction
system.cpu.op_class_0::SimdFloatMult                0      0.00%     59.52% # Class of committed instruction
system.cpu.op_class_0::SimdFloatMultAcc             0      0.00%     59.52% # Class of committed instruction
system.cpu.op_class_0::SimdFloatSqrt                0      0.00%     59.52% # Class of committed instruction
system.cpu.op_class_0::MemRead                   8204      6.31%     65.84% # Class of committed instruction
system.cpu.op_class_0::MemWrite                  8305      6.39%     72.23% # Class of committed instruction
system.cpu.op_class_0::FloatMemRead             28685     22.08%     94.31% # Class of committed instruction
system.cpu.op_class_0::FloatMemWrite             7395      5.69%    100.00% # Class of committed instruction
system.cpu.op_class_0::IprAccess                    0      0.00%    100.00% # Class of committed instruction
system.cpu.op_class_0::InstPrefetch                 0      0.00%    100.00% # Class of committed instruction
system.cpu.op_class_0::total                   129917                       # Class of committed instruction
system.cpu.tickCycles                          152871                       # Number of cycles that the object actually ticked
system.cpu.idleCycles                           79833                       # Total number of cycles that the object has spent stopped
system.cpu.fetch2.int_instructions              70065                       # Number of integer instructions successfully decoded
system.cpu.fetch2.fp_instructions               15530                       # Number of floating point instructions successfully decoded
system.cpu.fetch2.vec_instructions                  0                       # Number of SIMD instructions successfully decoded
system.cpu.fetch2.load_instructions             39561                       # Number of memory load instructions successfully decoded
system.cpu.fetch2.store_instructions            17346                       # Number of memory store instructions successfully decoded
system.cpu.dcache.tags.pwrStateResidencyTicks::UNDEFINED     72836352                       # Cumulative time (in ticks) in various power states
system.cpu.dcache.tags.replacements                 0                       # number of replacements
system.cpu.dcache.tags.tagsinuse           155.320098                       # Cycle average of tags in use
system.cpu.dcache.tags.total_refs               53143                       # Total number of references to valid blocks.
system.cpu.dcache.tags.sampled_refs               204                       # Sample count of references to valid blocks.
system.cpu.dcache.tags.avg_refs            260.504902                       # Average number of references to valid blocks.
system.cpu.dcache.tags.warmup_cycle            140850                       # Cycle when the warmup percentage was hit.
system.cpu.dcache.tags.occ_blocks::cpu.data   155.320098                       # Average occupied blocks per requestor
system.cpu.dcache.tags.occ_percent::cpu.data     0.303360                       # Average percentage of cache occupancy
system.cpu.dcache.tags.occ_percent::total     0.303360                       # Average percentage of cache occupancy
system.cpu.dcache.tags.occ_task_id_blocks::1024          204                       # Occupied blocks per task id
system.cpu.dcache.tags.age_task_id_blocks_1024::0           14                       # Occupied blocks per task id
system.cpu.dcache.tags.age_task_id_blocks_1024::1          190                       # Occupied blocks per task id
system.cpu.dcache.tags.occ_task_id_percent::1024     0.398438                       # Percentage of cache occupancy per task id
system.cpu.dcache.tags.tag_accesses            213908                       # Number of tag accesses
system.cpu.dcache.tags.data_accesses           213908                       # Number of data accesses
system.cpu.dcache.pwrStateResidencyTicks::UNDEFINED     72836352                       # Cumulative time (in ticks) in various power states
system.cpu.dcache.ReadReq_hits::cpu.data        37630                       # number of ReadReq hits
system.cpu.dcache.ReadReq_hits::total           37630                       # number of ReadReq hits
system.cpu.dcache.WriteReq_hits::cpu.data        15497                       # number of WriteReq hits
system.cpu.dcache.WriteReq_hits::total          15497                       # number of WriteReq hits
system.cpu.dcache.LoadLockedReq_hits::cpu.data            7                       # number of LoadLockedReq hits
system.cpu.dcache.LoadLockedReq_hits::total            7                       # number of LoadLockedReq hits
system.cpu.dcache.StoreCondReq_hits::cpu.data            9                       # number of StoreCondReq hits
system.cpu.dcache.StoreCondReq_hits::total            9                       # number of StoreCondReq hits
system.cpu.dcache.demand_hits::cpu.data         53127                       # number of demand (read+write) hits
system.cpu.dcache.demand_hits::total            53127                       # number of demand (read+write) hits
system.cpu.dcache.overall_hits::cpu.data        53127                       # number of overall hits
system.cpu.dcache.overall_hits::total           53127                       # number of overall hits
system.cpu.dcache.ReadReq_misses::cpu.data           87                       # number of ReadReq misses
system.cpu.dcache.ReadReq_misses::total            87                       # number of ReadReq misses
system.cpu.dcache.WriteReq_misses::cpu.data          194                       # number of WriteReq misses
system.cpu.dcache.WriteReq_misses::total          194                       # number of WriteReq misses
system.cpu.dcache.LoadLockedReq_misses::cpu.data            2                       # number of LoadLockedReq misses
system.cpu.dcache.LoadLockedReq_misses::total            2                       # number of LoadLockedReq misses
system.cpu.dcache.demand_misses::cpu.data          281                       # number of demand (read+write) misses
system.cpu.dcache.demand_misses::total            281                       # number of demand (read+write) misses
system.cpu.dcache.overall_misses::cpu.data          281                       # number of overall misses
system.cpu.dcache.overall_misses::total           281                       # number of overall misses
system.cpu.dcache.ReadReq_miss_latency::cpu.data      5589241                       # number of ReadReq miss cycles
system.cpu.dcache.ReadReq_miss_latency::total      5589241                       # number of ReadReq miss cycles
system.cpu.dcache.WriteReq_miss_latency::cpu.data      9054777                       # number of WriteReq miss cycles
system.cpu.dcache.WriteReq_miss_latency::total      9054777                       # number of WriteReq miss cycles
system.cpu.dcache.LoadLockedReq_miss_latency::cpu.data       122383                       # number of LoadLockedReq miss cycles
system.cpu.dcache.LoadLockedReq_miss_latency::total       122383                       # number of LoadLockedReq miss cycles
system.cpu.dcache.demand_miss_latency::cpu.data     14644018                       # number of demand (read+write) miss cycles
system.cpu.dcache.demand_miss_latency::total     14644018                       # number of demand (read+write) miss cycles
system.cpu.dcache.overall_miss_latency::cpu.data     14644018                       # number of overall miss cycles
system.cpu.dcache.overall_miss_latency::total     14644018                       # number of overall miss cycles
system.cpu.dcache.ReadReq_accesses::cpu.data        37717                       # number of ReadReq accesses(hits+misses)
system.cpu.dcache.ReadReq_accesses::total        37717                       # number of ReadReq accesses(hits+misses)
system.cpu.dcache.WriteReq_accesses::cpu.data        15691                       # number of WriteReq accesses(hits+misses)
system.cpu.dcache.WriteReq_accesses::total        15691                       # number of WriteReq accesses(hits+misses)
system.cpu.dcache.LoadLockedReq_accesses::cpu.data            9                       # number of LoadLockedReq accesses(hits+misses)
system.cpu.dcache.LoadLockedReq_accesses::total            9                       # number of LoadLockedReq accesses(hits+misses)
system.cpu.dcache.StoreCondReq_accesses::cpu.data            9                       # number of StoreCondReq accesses(hits+misses)
system.cpu.dcache.StoreCondReq_accesses::total            9                       # number of StoreCondReq accesses(hits+misses)
system.cpu.dcache.demand_accesses::cpu.data        53408                       # number of demand (read+write) accesses
system.cpu.dcache.demand_accesses::total        53408                       # number of demand (read+write) accesses
system.cpu.dcache.overall_accesses::cpu.data        53408                       # number of overall (read+write) accesses
system.cpu.dcache.overall_accesses::total        53408                       # number of overall (read+write) accesses
system.cpu.dcache.ReadReq_miss_rate::cpu.data     0.002307                       # miss rate for ReadReq accesses
system.cpu.dcache.ReadReq_miss_rate::total     0.002307                       # miss rate for ReadReq accesses
system.cpu.dcache.WriteReq_miss_rate::cpu.data     0.012364                       # miss rate for WriteReq accesses
system.cpu.dcache.WriteReq_miss_rate::total     0.012364                       # miss rate for WriteReq accesses
system.cpu.dcache.LoadLockedReq_miss_rate::cpu.data     0.222222                       # miss rate for LoadLockedReq accesses
system.cpu.dcache.LoadLockedReq_miss_rate::total     0.222222                       # miss rate for LoadLockedReq accesses
system.cpu.dcache.demand_miss_rate::cpu.data     0.005261                       # miss rate for demand accesses
system.cpu.dcache.demand_miss_rate::total     0.005261                       # miss rate for demand accesses
system.cpu.dcache.overall_miss_rate::cpu.data     0.005261                       # miss rate for overall accesses
system.cpu.dcache.overall_miss_rate::total     0.005261                       # miss rate for overall accesses
system.cpu.dcache.ReadReq_avg_miss_latency::cpu.data 64244.149425                       # average ReadReq miss latency
system.cpu.dcache.ReadReq_avg_miss_latency::total 64244.149425                       # average ReadReq miss latency
system.cpu.dcache.WriteReq_avg_miss_latency::cpu.data 46674.108247                       # average WriteReq miss latency
system.cpu.dcache.WriteReq_avg_miss_latency::total 46674.108247                       # average WriteReq miss latency
system.cpu.dcache.LoadLockedReq_avg_miss_latency::cpu.data 61191.500000                       # average LoadLockedReq miss latency
system.cpu.dcache.LoadLockedReq_avg_miss_latency::total 61191.500000                       # average LoadLockedReq miss latency
system.cpu.dcache.demand_avg_miss_latency::cpu.data 52113.943060                       # average overall miss latency
system.cpu.dcache.demand_avg_miss_latency::total 52113.943060                       # average overall miss latency
system.cpu.dcache.overall_avg_miss_latency::cpu.data 52113.943060                       # average overall miss latency
system.cpu.dcache.overall_avg_miss_latency::total 52113.943060                       # average overall miss latency
system.cpu.dcache.blocked_cycles::no_mshrs            0                       # number of cycles access was blocked
system.cpu.dcache.blocked_cycles::no_targets            0                       # number of cycles access was blocked
system.cpu.dcache.blocked::no_mshrs                 0                       # number of cycles access was blocked
system.cpu.dcache.blocked::no_targets               0                       # number of cycles access was blocked
system.cpu.dcache.avg_blocked_cycles::no_mshrs          nan                       # average number of cycles each access was blocked
system.cpu.dcache.avg_blocked_cycles::no_targets          nan                       # average number of cycles each access was blocked
system.cpu.dcache.WriteReq_mshr_hits::cpu.data           79                       # number of WriteReq MSHR hits
system.cpu.dcache.WriteReq_mshr_hits::total           79                       # number of WriteReq MSHR hits
system.cpu.dcache.demand_mshr_hits::cpu.data           79                       # number of demand (read+write) MSHR hits
system.cpu.dcache.demand_mshr_hits::total           79                       # number of demand (read+write) MSHR hits
system.cpu.dcache.overall_mshr_hits::cpu.data           79                       # number of overall MSHR hits
system.cpu.dcache.overall_mshr_hits::total           79                       # number of overall MSHR hits
system.cpu.dcache.ReadReq_mshr_misses::cpu.data           87                       # number of ReadReq MSHR misses
system.cpu.dcache.ReadReq_mshr_misses::total           87                       # number of ReadReq MSHR misses
system.cpu.dcache.WriteReq_mshr_misses::cpu.data          115                       # number of WriteReq MSHR misses
system.cpu.dcache.WriteReq_mshr_misses::total          115                       # number of WriteReq MSHR misses
system.cpu.dcache.LoadLockedReq_mshr_misses::cpu.data            2                       # number of LoadLockedReq MSHR misses
system.cpu.dcache.LoadLockedReq_mshr_misses::total            2                       # number of LoadLockedReq MSHR misses
system.cpu.dcache.demand_mshr_misses::cpu.data          202                       # number of demand (read+write) MSHR misses
system.cpu.dcache.demand_mshr_misses::total          202                       # number of demand (read+write) MSHR misses
system.cpu.dcache.overall_mshr_misses::cpu.data          202                       # number of overall MSHR misses
system.cpu.dcache.overall_mshr_misses::total          202                       # number of overall MSHR misses
system.cpu.dcache.ReadReq_mshr_miss_latency::cpu.data      5534779                       # number of ReadReq MSHR miss cycles
system.cpu.dcache.ReadReq_mshr_miss_latency::total      5534779                       # number of ReadReq MSHR miss cycles
system.cpu.dcache.WriteReq_mshr_miss_latency::cpu.data      5757322                       # number of WriteReq MSHR miss cycles
system.cpu.dcache.WriteReq_mshr_miss_latency::total      5757322                       # number of WriteReq MSHR miss cycles
system.cpu.dcache.LoadLockedReq_mshr_miss_latency::cpu.data       121131                       # number of LoadLockedReq MSHR miss cycles
system.cpu.dcache.LoadLockedReq_mshr_miss_latency::total       121131                       # number of LoadLockedReq MSHR miss cycles
system.cpu.dcache.demand_mshr_miss_latency::cpu.data     11292101                       # number of demand (read+write) MSHR miss cycles
system.cpu.dcache.demand_mshr_miss_latency::total     11292101                       # number of demand (read+write) MSHR miss cycles
system.cpu.dcache.overall_mshr_miss_latency::cpu.data     11292101                       # number of overall MSHR miss cycles
system.cpu.dcache.overall_mshr_miss_latency::total     11292101                       # number of overall MSHR miss cycles
system.cpu.dcache.ReadReq_mshr_miss_rate::cpu.data     0.002307                       # mshr miss rate for ReadReq accesses
system.cpu.dcache.ReadReq_mshr_miss_rate::total     0.002307                       # mshr miss rate for ReadReq accesses
system.cpu.dcache.WriteReq_mshr_miss_rate::cpu.data     0.007329                       # mshr miss rate for WriteReq accesses
system.cpu.dcache.WriteReq_mshr_miss_rate::total     0.007329                       # mshr miss rate for WriteReq accesses
system.cpu.dcache.LoadLockedReq_mshr_miss_rate::cpu.data     0.222222                       # mshr miss rate for LoadLockedReq accesses
system.cpu.dcache.LoadLockedReq_mshr_miss_rate::total     0.222222                       # mshr miss rate for LoadLockedReq accesses
system.cpu.dcache.demand_mshr_miss_rate::cpu.data     0.003782                       # mshr miss rate for demand accesses
system.cpu.dcache.demand_mshr_miss_rate::total     0.003782                       # mshr miss rate for demand accesses
system.cpu.dcache.overall_mshr_miss_rate::cpu.data     0.003782                       # mshr miss rate for overall accesses
system.cpu.dcache.overall_mshr_miss_rate::total     0.003782                       # mshr miss rate for overall accesses
system.cpu.dcache.ReadReq_avg_mshr_miss_latency::cpu.data 63618.149425                       # average ReadReq mshr miss latency
system.cpu.dcache.ReadReq_avg_mshr_miss_latency::total 63618.149425                       # average ReadReq mshr miss latency
system.cpu.dcache.WriteReq_avg_mshr_miss_latency::cpu.data 50063.669565                       # average WriteReq mshr miss latency
system.cpu.dcache.WriteReq_avg_mshr_miss_latency::total 50063.669565                       # average WriteReq mshr miss latency
system.cpu.dcache.LoadLockedReq_avg_mshr_miss_latency::cpu.data 60565.500000                       # average LoadLockedReq mshr miss latency
system.cpu.dcache.LoadLockedReq_avg_mshr_miss_latency::total 60565.500000                       # average LoadLockedReq mshr miss latency
system.cpu.dcache.demand_avg_mshr_miss_latency::cpu.data 55901.490099                       # average overall mshr miss latency
system.cpu.dcache.demand_avg_mshr_miss_latency::total 55901.490099                       # average overall mshr miss latency
system.cpu.dcache.overall_avg_mshr_miss_latency::cpu.data 55901.490099                       # average overall mshr miss latency
system.cpu.dcache.overall_avg_mshr_miss_latency::total 55901.490099                       # average overall mshr miss latency
system.cpu.icache.tags.pwrStateResidencyTicks::UNDEFINED     72836352                       # Cumulative time (in ticks) in various power states
system.cpu.icache.tags.replacements                62                       # number of replacements
system.cpu.icache.tags.tagsinuse           229.843136                       # Cycle average of tags in use
system.cpu.icache.tags.total_refs               45592                       # Total number of references to valid blocks.
system.cpu.icache.tags.sampled_refs               349                       # Sample count of references to valid blocks.
system.cpu.icache.tags.avg_refs            130.636103                       # Average number of references to valid blocks.
system.cpu.icache.tags.warmup_cycle             72929                       # Cycle when the warmup percentage was hit.
system.cpu.icache.tags.occ_blocks::cpu.inst   229.843136                       # Average occupied blocks per requestor
system.cpu.icache.tags.occ_percent::cpu.inst     0.448912                       # Average percentage of cache occupancy
system.cpu.icache.tags.occ_percent::total     0.448912                       # Average percentage of cache occupancy
system.cpu.icache.tags.occ_task_id_blocks::1024          287                       # Occupied blocks per task id
system.cpu.icache.tags.age_task_id_blocks_1024::0           36                       # Occupied blocks per task id
system.cpu.icache.tags.age_task_id_blocks_1024::1          251                       # Occupied blocks per task id
system.cpu.icache.tags.occ_task_id_percent::1024     0.560547                       # Percentage of cache occupancy per task id
system.cpu.icache.tags.tag_accesses             92233                       # Number of tag accesses
system.cpu.icache.tags.data_accesses            92233                       # Number of data accesses
system.cpu.icache.pwrStateResidencyTicks::UNDEFINED     72836352                       # Cumulative time (in ticks) in various power states
system.cpu.icache.ReadReq_hits::cpu.inst        45592                       # number of ReadReq hits
system.cpu.icache.ReadReq_hits::total           45592                       # number of ReadReq hits
system.cpu.icache.demand_hits::cpu.inst         45592                       # number of demand (read+write) hits
system.cpu.icache.demand_hits::total            45592                       # number of demand (read+write) hits
system.cpu.icache.overall_hits::cpu.inst        45592                       # number of overall hits
system.cpu.icache.overall_hits::total           45592                       # number of overall hits
system.cpu.icache.ReadReq_misses::cpu.inst          350                       # number of ReadReq misses
system.cpu.icache.ReadReq_misses::total           350                       # number of ReadReq misses
system.cpu.icache.demand_misses::cpu.inst          350                       # number of demand (read+write) misses
system.cpu.icache.demand_misses::total            350                       # number of demand (read+write) misses
system.cpu.icache.overall_misses::cpu.inst          350                       # number of overall misses
system.cpu.icache.overall_misses::total           350                       # number of overall misses
system.cpu.icache.ReadReq_miss_latency::cpu.inst     20948777                       # number of ReadReq miss cycles
system.cpu.icache.ReadReq_miss_latency::total     20948777                       # number of ReadReq miss cycles
system.cpu.icache.demand_miss_latency::cpu.inst     20948777                       # number of demand (read+write) miss cycles
system.cpu.icache.demand_miss_latency::total     20948777                       # number of demand (read+write) miss cycles
system.cpu.icache.overall_miss_latency::cpu.inst     20948777                       # number of overall miss cycles
system.cpu.icache.overall_miss_latency::total     20948777                       # number of overall miss cycles
system.cpu.icache.ReadReq_accesses::cpu.inst        45942                       # number of ReadReq accesses(hits+misses)
system.cpu.icache.ReadReq_accesses::total        45942                       # number of ReadReq accesses(hits+misses)
system.cpu.icache.demand_accesses::cpu.inst        45942                       # number of demand (read+write) accesses
system.cpu.icache.demand_accesses::total        45942                       # number of demand (read+write) accesses
system.cpu.icache.overall_accesses::cpu.inst        45942                       # number of overall (read+write) accesses
system.cpu.icache.overall_accesses::total        45942                       # number of overall (read+write) accesses
system.cpu.icache.ReadReq_miss_rate::cpu.inst     0.007618                       # miss rate for ReadReq accesses
system.cpu.icache.ReadReq_miss_rate::total     0.007618                       # miss rate for ReadReq accesses
system.cpu.icache.demand_miss_rate::cpu.inst     0.007618                       # miss rate for demand accesses
system.cpu.icache.demand_miss_rate::total     0.007618                       # miss rate for demand accesses
system.cpu.icache.overall_miss_rate::cpu.inst     0.007618                       # miss rate for overall accesses
system.cpu.icache.overall_miss_rate::total     0.007618                       # miss rate for overall accesses
system.cpu.icache.ReadReq_avg_miss_latency::cpu.inst 59853.648571                       # average ReadReq miss latency
system.cpu.icache.ReadReq_avg_miss_latency::total 59853.648571                       # average ReadReq miss latency
system.cpu.icache.demand_avg_miss_latency::cpu.inst 59853.648571                       # average overall miss latency
system.cpu.icache.demand_avg_miss_latency::total 59853.648571                       # average overall miss latency
system.cpu.icache.overall_avg_miss_latency::cpu.inst 59853.648571                       # average overall miss latency
system.cpu.icache.overall_avg_miss_latency::total 59853.648571                       # average overall miss latency
system.cpu.icache.blocked_cycles::no_mshrs            0                       # number of cycles access was blocked
system.cpu.icache.blocked_cycles::no_targets            0                       # number of cycles access was blocked
system.cpu.icache.blocked::no_mshrs                 0                       # number of cycles access was blocked
system.cpu.icache.blocked::no_targets               0                       # number of cycles access was blocked
system.cpu.icache.avg_blocked_cycles::no_mshrs          nan                       # average number of cycles each access was blocked
system.cpu.icache.avg_blocked_cycles::no_targets          nan                       # average number of cycles each access was blocked
system.cpu.icache.writebacks::writebacks           62                       # number of writebacks
system.cpu.icache.writebacks::total                62                       # number of writebacks
system.cpu.icache.ReadReq_mshr_misses::cpu.inst          350                       # number of ReadReq MSHR misses
system.cpu.icache.ReadReq_mshr_misses::total          350                       # number of ReadReq MSHR misses
system.cpu.icache.demand_mshr_misses::cpu.inst          350                       # number of demand (read+write) MSHR misses
system.cpu.icache.demand_mshr_misses::total          350                       # number of demand (read+write) MSHR misses
system.cpu.icache.overall_mshr_misses::cpu.inst          350                       # number of overall MSHR misses
system.cpu.icache.overall_mshr_misses::total          350                       # number of overall MSHR misses
system.cpu.icache.ReadReq_mshr_miss_latency::cpu.inst     20730303                       # number of ReadReq MSHR miss cycles
system.cpu.icache.ReadReq_mshr_miss_latency::total     20730303                       # number of ReadReq MSHR miss cycles
system.cpu.icache.demand_mshr_miss_latency::cpu.inst     20730303                       # number of demand (read+write) MSHR miss cycles
system.cpu.icache.demand_mshr_miss_latency::total     20730303                       # number of demand (read+write) MSHR miss cycles
system.cpu.icache.overall_mshr_miss_latency::cpu.inst     20730303                       # number of overall MSHR miss cycles
system.cpu.icache.overall_mshr_miss_latency::total     20730303                       # number of overall MSHR miss cycles
system.cpu.icache.ReadReq_mshr_miss_rate::cpu.inst     0.007618                       # mshr miss rate for ReadReq accesses
system.cpu.icache.ReadReq_mshr_miss_rate::total     0.007618                       # mshr miss rate for ReadReq accesses
system.cpu.icache.demand_mshr_miss_rate::cpu.inst     0.007618                       # mshr miss rate for demand accesses
system.cpu.icache.demand_mshr_miss_rate::total     0.007618                       # mshr miss rate for demand accesses
system.cpu.icache.overall_mshr_miss_rate::cpu.inst     0.007618                       # mshr miss rate for overall accesses
system.cpu.icache.overall_mshr_miss_rate::total     0.007618                       # mshr miss rate for overall accesses
system.cpu.icache.ReadReq_avg_mshr_miss_latency::cpu.inst 59229.437143                       # average ReadReq mshr miss latency
system.cpu.icache.ReadReq_avg_mshr_miss_latency::total 59229.437143                       # average ReadReq mshr miss latency
system.cpu.icache.demand_avg_mshr_miss_latency::cpu.inst 59229.437143                       # average overall mshr miss latency
system.cpu.icache.demand_avg_mshr_miss_latency::total 59229.437143                       # average overall mshr miss latency
system.cpu.icache.overall_avg_mshr_miss_latency::cpu.inst 59229.437143                       # average overall mshr miss latency
system.cpu.icache.overall_avg_mshr_miss_latency::total 59229.437143                       # average overall mshr miss latency
system.l2bus.snoop_filter.tot_requests            616                       # Total number of requests made to the snoop filter.
system.l2bus.snoop_filter.hit_single_requests           62                       # Number of requests hitting in the snoop filter with a single holder of the requested data.
system.l2bus.snoop_filter.hit_multi_requests            0                       # Number of requests hitting in the snoop filter with multiple (>1) holders of the requested data.
system.l2bus.snoop_filter.tot_snoops                5                       # Total number of snoops made to the snoop filter.
system.l2bus.snoop_filter.hit_single_snoops            5                       # Number of snoops hitting in the snoop filter with a single holder of the requested data.
system.l2bus.snoop_filter.hit_multi_snoops            0                       # Number of snoops hitting in the snoop filter with multiple (>1) holders of the requested data.
system.l2bus.pwrStateResidencyTicks::UNDEFINED     72836352                       # Cumulative time (in ticks) in various power states
system.l2bus.trans_dist::ReadResp                 438                       # Transaction distribution
system.l2bus.trans_dist::WritebackClean            62                       # Transaction distribution
system.l2bus.trans_dist::HardPFReq                 62                       # Transaction distribution
system.l2bus.trans_dist::ReadExReq                115                       # Transaction distribution
system.l2bus.trans_dist::ReadExResp               115                       # Transaction distribution
system.l2bus.trans_dist::ReadCleanReq             350                       # Transaction distribution
system.l2bus.trans_dist::ReadSharedReq             89                       # Transaction distribution
system.l2bus.pkt_count_system.cpu.icache.mem_side::system.l2cache.cpu_side          761                       # Packet count per connected master and slave (bytes)
system.l2bus.pkt_count_system.cpu.dcache.mem_side::system.l2cache.cpu_side          408                       # Packet count per connected master and slave (bytes)
system.l2bus.pkt_count::total                    1169                       # Packet count per connected master and slave (bytes)
system.l2bus.pkt_size_system.cpu.icache.mem_side::system.l2cache.cpu_side        26304                       # Cumulative packet size per connected master and slave (bytes)
system.l2bus.pkt_size_system.cpu.dcache.mem_side::system.l2cache.cpu_side        13056                       # Cumulative packet size per connected master and slave (bytes)
system.l2bus.pkt_size::total                    39360                       # Cumulative packet size per connected master and slave (bytes)
system.l2bus.snoops                                62                       # Total snoops (count)
system.l2bus.snoopTraffic                           0                       # Total snoop traffic (bytes)
system.l2bus.snoop_fanout::samples                616                       # Request fanout histogram
system.l2bus.snoop_fanout::mean              0.008117                       # Request fanout histogram
system.l2bus.snoop_fanout::stdev             0.089800                       # Request fanout histogram
system.l2bus.snoop_fanout::underflows               0      0.00%      0.00% # Request fanout histogram
system.l2bus.snoop_fanout::0                      611     99.19%     99.19% # Request fanout histogram
system.l2bus.snoop_fanout::1                        5      0.81%    100.00% # Request fanout histogram
system.l2bus.snoop_fanout::2                        0      0.00%    100.00% # Request fanout histogram
system.l2bus.snoop_fanout::overflows                0      0.00%    100.00% # Request fanout histogram
system.l2bus.snoop_fanout::min_value                0                       # Request fanout histogram
system.l2bus.snoop_fanout::max_value                1                       # Request fanout histogram
system.l2bus.snoop_fanout::total                  616                       # Request fanout histogram
system.l2bus.reqLayer0.occupancy               270432                       # Layer occupancy (ticks)
system.l2bus.reqLayer0.utilization                0.4                       # Layer utilization (%)
system.l2bus.respLayer0.occupancy              546185                       # Layer occupancy (ticks)
system.l2bus.respLayer0.utilization               0.7                       # Layer utilization (%)
system.l2bus.respLayer1.occupancy              319260                       # Layer occupancy (ticks)
system.l2bus.respLayer1.utilization               0.4                       # Layer utilization (%)
system.l2cache.prefetcher.pwrStateResidencyTicks::UNDEFINED     72836352                       # Cumulative time (in ticks) in various power states
system.l2cache.prefetcher.num_hwpf_issued           62                       # number of hwpf issued
system.l2cache.prefetcher.pfIdentified             62                       # number of prefetch candidates identified
system.l2cache.prefetcher.pfBufferHit               0                       # number of redundant prefetches already in prefetch queue
system.l2cache.prefetcher.pfInCache                 0                       # number of redundant prefetches already in cache/mshr dropped
system.l2cache.prefetcher.pfRemovedFull             0                       # number of prefetches dropped due to prefetch queue size
system.l2cache.prefetcher.pfSpanPage                0                       # number of prefetches not generated due to page crossing
system.l2cache.tags.pwrStateResidencyTicks::UNDEFINED     72836352                       # Cumulative time (in ticks) in various power states
system.l2cache.tags.replacements                    0                       # number of replacements
system.l2cache.tags.tagsinuse               23.263979                       # Cycle average of tags in use
system.l2cache.tags.total_refs                      0                       # Total number of references to valid blocks.
system.l2cache.tags.sampled_refs                   48                       # Sample count of references to valid blocks.
system.l2cache.tags.avg_refs                        0                       # Average number of references to valid blocks.
system.l2cache.tags.warmup_cycle              6410866                       # Cycle when the warmup percentage was hit.
system.l2cache.tags.occ_blocks::writebacks    22.684840                       # Average occupied blocks per requestor
system.l2cache.tags.occ_blocks::l2cache.prefetcher     0.579139                       # Average occupied blocks per requestor
system.l2cache.tags.occ_percent::writebacks     0.002769                       # Average percentage of cache occupancy
system.l2cache.tags.occ_percent::l2cache.prefetcher     0.000071                       # Average percentage of cache occupancy
system.l2cache.tags.occ_percent::total       0.002840                       # Average percentage of cache occupancy
system.l2cache.tags.occ_task_id_blocks::1024           48                       # Occupied blocks per task id
system.l2cache.tags.age_task_id_blocks_1024::0           20                       # Occupied blocks per task id
system.l2cache.tags.age_task_id_blocks_1024::1           28                       # Occupied blocks per task id
system.l2cache.tags.occ_task_id_percent::1024     0.005859                       # Percentage of cache occupancy per task id
system.l2cache.tags.tag_accesses                 5047                       # Number of tag accesses
system.l2cache.tags.data_accesses                5047                       # Number of data accesses
system.l2cache.pwrStateResidencyTicks::UNDEFINED     72836352                       # Cumulative time (in ticks) in various power states
system.l2cache.WritebackClean_hits::writebacks           62                       # number of WritebackClean hits
system.l2cache.WritebackClean_hits::total           62                       # number of WritebackClean hits
system.l2cache.ReadExReq_hits::cpu.data            18                       # number of ReadExReq hits
system.l2cache.ReadExReq_hits::total               18                       # number of ReadExReq hits
system.l2cache.ReadCleanReq_hits::cpu.inst           14                       # number of ReadCleanReq hits
system.l2cache.ReadCleanReq_hits::total            14                       # number of ReadCleanReq hits
system.l2cache.ReadSharedReq_hits::cpu.data           13                       # number of ReadSharedReq hits
system.l2cache.ReadSharedReq_hits::total           13                       # number of ReadSharedReq hits
system.l2cache.demand_hits::cpu.inst               14                       # number of demand (read+write) hits
system.l2cache.demand_hits::cpu.data               31                       # number of demand (read+write) hits
system.l2cache.demand_hits::total                  45                       # number of demand (read+write) hits
system.l2cache.overall_hits::cpu.inst              14                       # number of overall hits
system.l2cache.overall_hits::cpu.data              31                       # number of overall hits
system.l2cache.overall_hits::total                 45                       # number of overall hits
system.l2cache.ReadExReq_misses::cpu.data           97                       # number of ReadExReq misses
system.l2cache.ReadExReq_misses::total             97                       # number of ReadExReq misses
system.l2cache.ReadCleanReq_misses::cpu.inst          336                       # number of ReadCleanReq misses
system.l2cache.ReadCleanReq_misses::total          336                       # number of ReadCleanReq misses
system.l2cache.ReadSharedReq_misses::cpu.data           76                       # number of ReadSharedReq misses
system.l2cache.ReadSharedReq_misses::total           76                       # number of ReadSharedReq misses
system.l2cache.demand_misses::cpu.inst            336                       # number of demand (read+write) misses
system.l2cache.demand_misses::cpu.data            173                       # number of demand (read+write) misses
system.l2cache.demand_misses::total               509                       # number of demand (read+write) misses
system.l2cache.overall_misses::cpu.inst           336                       # number of overall misses
system.l2cache.overall_misses::cpu.data           173                       # number of overall misses
system.l2cache.overall_misses::total              509                       # number of overall misses
system.l2cache.ReadExReq_miss_latency::cpu.data      5502540                       # number of ReadExReq miss cycles
system.l2cache.ReadExReq_miss_latency::total      5502540                       # number of ReadExReq miss cycles
system.l2cache.ReadCleanReq_miss_latency::cpu.inst     20210097                       # number of ReadCleanReq miss cycles
system.l2cache.ReadCleanReq_miss_latency::total     20210097                       # number of ReadCleanReq miss cycles
system.l2cache.ReadSharedReq_miss_latency::cpu.data      5475309                       # number of ReadSharedReq miss cycles
system.l2cache.ReadSharedReq_miss_latency::total      5475309                       # number of ReadSharedReq miss cycles
system.l2cache.demand_miss_latency::cpu.inst     20210097                       # number of demand (read+write) miss cycles
system.l2cache.demand_miss_latency::cpu.data     10977849                       # number of demand (read+write) miss cycles
system.l2cache.demand_miss_latency::total     31187946                       # number of demand (read+write) miss cycles
system.l2cache.overall_miss_latency::cpu.inst     20210097                       # number of overall miss cycles
system.l2cache.overall_miss_latency::cpu.data     10977849                       # number of overall miss cycles
system.l2cache.overall_miss_latency::total     31187946                       # number of overall miss cycles
system.l2cache.WritebackClean_accesses::writebacks           62                       # number of WritebackClean accesses(hits+misses)
system.l2cache.WritebackClean_accesses::total           62                       # number of WritebackClean accesses(hits+misses)
system.l2cache.ReadExReq_accesses::cpu.data          115                       # number of ReadExReq accesses(hits+misses)
system.l2cache.ReadExReq_accesses::total          115                       # number of ReadExReq accesses(hits+misses)
system.l2cache.ReadCleanReq_accesses::cpu.inst          350                       # number of ReadCleanReq accesses(hits+misses)
system.l2cache.ReadCleanReq_accesses::total          350                       # number of ReadCleanReq accesses(hits+misses)
system.l2cache.ReadSharedReq_accesses::cpu.data           89                       # number of ReadSharedReq accesses(hits+misses)
system.l2cache.ReadSharedReq_accesses::total           89                       # number of ReadSharedReq accesses(hits+misses)
system.l2cache.demand_accesses::cpu.inst          350                       # number of demand (read+write) accesses
system.l2cache.demand_accesses::cpu.data          204                       # number of demand (read+write) accesses
system.l2cache.demand_accesses::total             554                       # number of demand (read+write) accesses
system.l2cache.overall_accesses::cpu.inst          350                       # number of overall (read+write) accesses
system.l2cache.overall_accesses::cpu.data          204                       # number of overall (read+write) accesses
system.l2cache.overall_accesses::total            554                       # number of overall (read+write) accesses
system.l2cache.ReadExReq_miss_rate::cpu.data     0.843478                       # miss rate for ReadExReq accesses
system.l2cache.ReadExReq_miss_rate::total     0.843478                       # miss rate for ReadExReq accesses
system.l2cache.ReadCleanReq_miss_rate::cpu.inst     0.960000                       # miss rate for ReadCleanReq accesses
system.l2cache.ReadCleanReq_miss_rate::total     0.960000                       # miss rate for ReadCleanReq accesses
system.l2cache.ReadSharedReq_miss_rate::cpu.data     0.853933                       # miss rate for ReadSharedReq accesses
system.l2cache.ReadSharedReq_miss_rate::total     0.853933                       # miss rate for ReadSharedReq accesses
system.l2cache.demand_miss_rate::cpu.inst     0.960000                       # miss rate for demand accesses
system.l2cache.demand_miss_rate::cpu.data     0.848039                       # miss rate for demand accesses
system.l2cache.demand_miss_rate::total       0.918773                       # miss rate for demand accesses
system.l2cache.overall_miss_rate::cpu.inst     0.960000                       # miss rate for overall accesses
system.l2cache.overall_miss_rate::cpu.data     0.848039                       # miss rate for overall accesses
system.l2cache.overall_miss_rate::total      0.918773                       # miss rate for overall accesses
system.l2cache.ReadExReq_avg_miss_latency::cpu.data 56727.216495                       # average ReadExReq miss latency
system.l2cache.ReadExReq_avg_miss_latency::total 56727.216495                       # average ReadExReq miss latency
system.l2cache.ReadCleanReq_avg_miss_latency::cpu.inst 60149.098214                       # average ReadCleanReq miss latency
system.l2cache.ReadCleanReq_avg_miss_latency::total 60149.098214                       # average ReadCleanReq miss latency
system.l2cache.ReadSharedReq_avg_miss_latency::cpu.data 72043.539474                       # average ReadSharedReq miss latency
system.l2cache.ReadSharedReq_avg_miss_latency::total 72043.539474                       # average ReadSharedReq miss latency
system.l2cache.demand_avg_miss_latency::cpu.inst 60149.098214                       # average overall miss latency
system.l2cache.demand_avg_miss_latency::cpu.data 63455.774566                       # average overall miss latency
system.l2cache.demand_avg_miss_latency::total 61272.978389                       # average overall miss latency
system.l2cache.overall_avg_miss_latency::cpu.inst 60149.098214                       # average overall miss latency
system.l2cache.overall_avg_miss_latency::cpu.data 63455.774566                       # average overall miss latency
system.l2cache.overall_avg_miss_latency::total 61272.978389                       # average overall miss latency
system.l2cache.blocked_cycles::no_mshrs             0                       # number of cycles access was blocked
system.l2cache.blocked_cycles::no_targets            0                       # number of cycles access was blocked
system.l2cache.blocked::no_mshrs                    0                       # number of cycles access was blocked
system.l2cache.blocked::no_targets                  0                       # number of cycles access was blocked
system.l2cache.avg_blocked_cycles::no_mshrs          nan                       # average number of cycles each access was blocked
system.l2cache.avg_blocked_cycles::no_targets          nan                       # average number of cycles each access was blocked
system.l2cache.ReadExReq_mshr_hits::cpu.data           26                       # number of ReadExReq MSHR hits
system.l2cache.ReadExReq_mshr_hits::total           26                       # number of ReadExReq MSHR hits
system.l2cache.demand_mshr_hits::cpu.data           26                       # number of demand (read+write) MSHR hits
system.l2cache.demand_mshr_hits::total             26                       # number of demand (read+write) MSHR hits
system.l2cache.overall_mshr_hits::cpu.data           26                       # number of overall MSHR hits
system.l2cache.overall_mshr_hits::total            26                       # number of overall MSHR hits
system.l2cache.HardPFReq_mshr_misses::l2cache.prefetcher           62                       # number of HardPFReq MSHR misses
system.l2cache.HardPFReq_mshr_misses::total           62                       # number of HardPFReq MSHR misses
system.l2cache.ReadExReq_mshr_misses::cpu.data           71                       # number of ReadExReq MSHR misses
system.l2cache.ReadExReq_mshr_misses::total           71                       # number of ReadExReq MSHR misses
system.l2cache.ReadCleanReq_mshr_misses::cpu.inst          336                       # number of ReadCleanReq MSHR misses
system.l2cache.ReadCleanReq_mshr_misses::total          336                       # number of ReadCleanReq MSHR misses
system.l2cache.ReadSharedReq_mshr_misses::cpu.data           76                       # number of ReadSharedReq MSHR misses
system.l2cache.ReadSharedReq_mshr_misses::total           76                       # number of ReadSharedReq MSHR misses
system.l2cache.demand_mshr_misses::cpu.inst          336                       # number of demand (read+write) MSHR misses
system.l2cache.demand_mshr_misses::cpu.data          147                       # number of demand (read+write) MSHR misses
system.l2cache.demand_mshr_misses::total          483                       # number of demand (read+write) MSHR misses
system.l2cache.overall_mshr_misses::cpu.inst          336                       # number of overall MSHR misses
system.l2cache.overall_mshr_misses::cpu.data          147                       # number of overall MSHR misses
system.l2cache.overall_mshr_misses::l2cache.prefetcher           62                       # number of overall MSHR misses
system.l2cache.overall_mshr_misses::total          545                       # number of overall MSHR misses
system.l2cache.HardPFReq_mshr_miss_latency::l2cache.prefetcher      2720596                       # number of HardPFReq MSHR miss cycles
system.l2cache.HardPFReq_mshr_miss_latency::total      2720596                       # number of HardPFReq MSHR miss cycles
system.l2cache.ReadExReq_mshr_miss_latency::cpu.data      4427072                       # number of ReadExReq MSHR miss cycles
system.l2cache.ReadExReq_mshr_miss_latency::total      4427072                       # number of ReadExReq MSHR miss cycles
system.l2cache.ReadCleanReq_mshr_miss_latency::cpu.inst     19266402                       # number of ReadCleanReq MSHR miss cycles
system.l2cache.ReadCleanReq_mshr_miss_latency::total     19266402                       # number of ReadCleanReq MSHR miss cycles
system.l2cache.ReadSharedReq_mshr_miss_latency::cpu.data      5261217                       # number of ReadSharedReq MSHR miss cycles
system.l2cache.ReadSharedReq_mshr_miss_latency::total      5261217                       # number of ReadSharedReq MSHR miss cycles
system.l2cache.demand_mshr_miss_latency::cpu.inst     19266402                       # number of demand (read+write) MSHR miss cycles
system.l2cache.demand_mshr_miss_latency::cpu.data      9688289                       # number of demand (read+write) MSHR miss cycles
system.l2cache.demand_mshr_miss_latency::total     28954691                       # number of demand (read+write) MSHR miss cycles
system.l2cache.overall_mshr_miss_latency::cpu.inst     19266402                       # number of overall MSHR miss cycles
system.l2cache.overall_mshr_miss_latency::cpu.data      9688289                       # number of overall MSHR miss cycles
system.l2cache.overall_mshr_miss_latency::l2cache.prefetcher      2720596                       # number of overall MSHR miss cycles
system.l2cache.overall_mshr_miss_latency::total     31675287                       # number of overall MSHR miss cycles
system.l2cache.HardPFReq_mshr_miss_rate::l2cache.prefetcher          inf                       # mshr miss rate for HardPFReq accesses
system.l2cache.HardPFReq_mshr_miss_rate::total          inf                       # mshr miss rate for HardPFReq accesses
system.l2cache.ReadExReq_mshr_miss_rate::cpu.data     0.617391                       # mshr miss rate for ReadExReq accesses
system.l2cache.ReadExReq_mshr_miss_rate::total     0.617391                       # mshr miss rate for ReadExReq accesses
system.l2cache.ReadCleanReq_mshr_miss_rate::cpu.inst     0.960000                       # mshr miss rate for ReadCleanReq accesses
system.l2cache.ReadCleanReq_mshr_miss_rate::total     0.960000                       # mshr miss rate for ReadCleanReq accesses
system.l2cache.ReadSharedReq_mshr_miss_rate::cpu.data     0.853933                       # mshr miss rate for ReadSharedReq accesses
system.l2cache.ReadSharedReq_mshr_miss_rate::total     0.853933                       # mshr miss rate for ReadSharedReq accesses
system.l2cache.demand_mshr_miss_rate::cpu.inst     0.960000                       # mshr miss rate for demand accesses
system.l2cache.demand_mshr_miss_rate::cpu.data     0.720588                       # mshr miss rate for demand accesses
system.l2cache.demand_mshr_miss_rate::total     0.871841                       # mshr miss rate for demand accesses
system.l2cache.overall_mshr_miss_rate::cpu.inst     0.960000                       # mshr miss rate for overall accesses
system.l2cache.overall_mshr_miss_rate::cpu.data     0.720588                       # mshr miss rate for overall accesses
system.l2cache.overall_mshr_miss_rate::l2cache.prefetcher          inf                       # mshr miss rate for overall accesses
system.l2cache.overall_mshr_miss_rate::total     0.983755                       # mshr miss rate for overall accesses
system.l2cache.HardPFReq_avg_mshr_miss_latency::l2cache.prefetcher 43880.580645                       # average HardPFReq mshr miss latency
system.l2cache.HardPFReq_avg_mshr_miss_latency::total 43880.580645                       # average HardPFReq mshr miss latency
system.l2cache.ReadExReq_avg_mshr_miss_latency::cpu.data 62353.126761                       # average ReadExReq mshr miss latency
system.l2cache.ReadExReq_avg_mshr_miss_latency::total 62353.126761                       # average ReadExReq mshr miss latency
system.l2cache.ReadCleanReq_avg_mshr_miss_latency::cpu.inst 57340.482143                       # average ReadCleanReq mshr miss latency
system.l2cache.ReadCleanReq_avg_mshr_miss_latency::total 57340.482143                       # average ReadCleanReq mshr miss latency
system.l2cache.ReadSharedReq_avg_mshr_miss_latency::cpu.data 69226.539474                       # average ReadSharedReq mshr miss latency
system.l2cache.ReadSharedReq_avg_mshr_miss_latency::total 69226.539474                       # average ReadSharedReq mshr miss latency
system.l2cache.demand_avg_mshr_miss_latency::cpu.inst 57340.482143                       # average overall mshr miss latency
system.l2cache.demand_avg_mshr_miss_latency::cpu.data 65906.727891                       # average overall mshr miss latency
system.l2cache.demand_avg_mshr_miss_latency::total 59947.600414                       # average overall mshr miss latency
system.l2cache.overall_avg_mshr_miss_latency::cpu.inst 57340.482143                       # average overall mshr miss latency
system.l2cache.overall_avg_mshr_miss_latency::cpu.data 65906.727891                       # average overall mshr miss latency
system.l2cache.overall_avg_mshr_miss_latency::l2cache.prefetcher 43880.580645                       # average overall mshr miss latency
system.l2cache.overall_avg_mshr_miss_latency::total 58119.792661                       # average overall mshr miss latency
system.membus.snoop_filter.tot_requests           539                       # Total number of requests made to the snoop filter.
system.membus.snoop_filter.hit_single_requests            0                       # Number of requests hitting in the snoop filter with a single holder of the requested data.
system.membus.snoop_filter.hit_multi_requests            0                       # Number of requests hitting in the snoop filter with multiple (>1) holders of the requested data.
system.membus.snoop_filter.tot_snoops               0                       # Total number of snoops made to the snoop filter.
system.membus.snoop_filter.hit_single_snoops            0                       # Number of snoops hitting in the snoop filter with a single holder of the requested data.
system.membus.snoop_filter.hit_multi_snoops            0                       # Number of snoops hitting in the snoop filter with multiple (>1) holders of the requested data.
system.membus.pwrStateResidencyTicks::UNDEFINED     72836352                       # Cumulative time (in ticks) in various power states
system.membus.trans_dist::ReadResp                468                       # Transaction distribution
system.membus.trans_dist::ReadExReq                71                       # Transaction distribution
system.membus.trans_dist::ReadExResp               71                       # Transaction distribution
system.membus.trans_dist::ReadCleanReq            468                       # Transaction distribution
system.membus.pkt_count_system.l2cache.mem_side::system.mem_ctrl.port         1078                       # Packet count per connected master and slave (bytes)
system.membus.pkt_count::total                   1078                       # Packet count per connected master and slave (bytes)
system.membus.pkt_size_system.l2cache.mem_side::system.mem_ctrl.port        34496                       # Cumulative packet size per connected master and slave (bytes)
system.membus.pkt_size::total                   34496                       # Cumulative packet size per connected master and slave (bytes)
system.membus.snoops                                0                       # Total snoops (count)
system.membus.snoopTraffic                          0                       # Total snoop traffic (bytes)
system.membus.snoop_fanout::samples               539                       # Request fanout histogram
system.membus.snoop_fanout::mean                    0                       # Request fanout histogram
system.membus.snoop_fanout::stdev                   0                       # Request fanout histogram
system.membus.snoop_fanout::underflows              0      0.00%      0.00% # Request fanout histogram
system.membus.snoop_fanout::0                     539    100.00%    100.00% # Request fanout histogram
system.membus.snoop_fanout::1                       0      0.00%    100.00% # Request fanout histogram
system.membus.snoop_fanout::overflows               0      0.00%    100.00% # Request fanout histogram
system.membus.snoop_fanout::min_value               0                       # Request fanout histogram
system.membus.snoop_fanout::max_value               0                       # Request fanout histogram
system.membus.snoop_fanout::total                 539                       # Request fanout histogram
system.membus.reqLayer0.occupancy              168707                       # Layer occupancy (ticks)
system.membus.reqLayer0.utilization               0.2                       # Layer utilization (%)
system.membus.respLayer0.occupancy             854544                       # Layer occupancy (ticks)
system.membus.respLayer0.utilization              1.2                       # Layer utilization (%)

---------- End Simulation Statistics   ----------
