  92500: system.cpu.commit: 92500;s;i;0
20206250: system.cpu.commit: 20206250;f;i;0
20206250: system.cpu.commit: 20206250;s;f;0
41319375: system.cpu.commit: 41319375;f;f;0
41320000: system.cpu.commit: 41320000;s;i;1
47391250: system.cpu.commit: 47391250;f;i;1
47394375: system.cpu.commit: 47394375;s;i;2
58778125: system.cpu.commit: 58778125;f;i;2
58778750: system.cpu.commit: 58778750;s;i;3
65663750: system.cpu.commit: 65663750;f;i;3
65664375: system.cpu.commit: 65664375;s;i;4
71728125: system.cpu.commit: 71728125;f;i;4
71728125: system.cpu.commit: 71728125;s;i;5
79564375: system.cpu.commit: 79564375;f;i;5
79564375: system.cpu.commit: 79564375;s;i;6
85630625: system.cpu.commit: 85630625;f;i;6
85632500: system.cpu.commit: 85632500;s;i;7
91703750: system.cpu.commit: 91703750;f;i;7
91703750: system.cpu.commit: 91703750;s;i;8
98855000: system.cpu.commit: 98855000;f;i;8
98855000: system.cpu.commit: 98855000;s;i;9
104920000: system.cpu.commit: 104920000;f;i;9
104920625: system.cpu.commit: 104920625;s;i;10
110988125: system.cpu.commit: 110988125;f;i;10
110989375: system.cpu.commit: 110989375;s;i;11
117969375: system.cpu.commit: 117969375;f;i;11
117970625: system.cpu.commit: 117970625;s;i;12
124035625: system.cpu.commit: 124035625;f;i;12
124035625: system.cpu.commit: 124035625;s;i;13
130101875: system.cpu.commit: 130101875;f;i;13
130101875: system.cpu.commit: 130101875;s;i;14
137053750: system.cpu.commit: 137053750;f;i;14
137053750: system.cpu.commit: 137053750;s;i;15
143120000: system.cpu.commit: 143120000;f;i;15
143120000: system.cpu.commit: 143120000;s;i;16
149185000: system.cpu.commit: 149185000;f;i;16
149185000: system.cpu.commit: 149185000;s;i;17
156145000: system.cpu.commit: 156145000;f;i;17
156145625: system.cpu.commit: 156145625;s;i;18
162205625: system.cpu.commit: 162205625;f;i;18
162206250: system.cpu.commit: 162206250;s;i;19
168270625: system.cpu.commit: 168270625;f;i;19
168270625: system.cpu.commit: 168270625;s;i;20
175200625: system.cpu.commit: 175200625;f;i;20
175200625: system.cpu.commit: 175200625;s;i;21
181277500: system.cpu.commit: 181277500;f;i;21
181277500: system.cpu.commit: 181277500;s;i;22
187366250: system.cpu.commit: 187366250;f;i;22
187366250: system.cpu.commit: 187366250;s;i;23
194271250: system.cpu.commit: 194271250;f;i;23
194271875: system.cpu.commit: 194271875;s;i;24
200342500: system.cpu.commit: 200342500;f;i;24
200342500: system.cpu.commit: 200342500;s;i;25
206714375: system.cpu.commit: 206714375;f;i;25
206715000: system.cpu.commit: 206715000;s;i;26
213312500: system.cpu.commit: 213312500;f;i;26
213312500: system.cpu.commit: 213312500;s;i;27
219381250: system.cpu.commit: 219381250;f;i;27
219381875: system.cpu.commit: 219381875;s;i;28
226331250: system.cpu.commit: 226331250;f;i;28
226331875: system.cpu.commit: 226331875;s;i;29
232447500: system.cpu.commit: 232447500;f;i;29
232448125: system.cpu.commit: 232448125;s;i;30
238521250: system.cpu.commit: 238521250;f;i;30
238521250: system.cpu.commit: 238521250;s;i;31
245474375: system.cpu.commit: 245474375;f;i;31
245475000: system.cpu.commit: 245475000;s;i;32
251546875: system.cpu.commit: 251546875;f;i;32
251546875: system.cpu.commit: 251546875;s;i;33
257612500: system.cpu.commit: 257612500;f;i;33
257613125: system.cpu.commit: 257613125;s;i;34
264531250: system.cpu.commit: 264531250;f;i;34
264531250: system.cpu.commit: 264531250;s;i;35
270595625: system.cpu.commit: 270595625;f;i;35
270596875: system.cpu.commit: 270596875;s;i;36
276663750: system.cpu.commit: 276663750;f;i;36
276663750: system.cpu.commit: 276663750;s;i;37
283560625: system.cpu.commit: 283560625;f;i;37
283562500: system.cpu.commit: 283562500;s;i;38
289628125: system.cpu.commit: 289628125;f;i;38
289628125: system.cpu.commit: 289628125;s;i;39
295695000: system.cpu.commit: 295695000;f;i;39
295695625: system.cpu.commit: 295695625;s;i;40
302590625: system.cpu.commit: 302590625;f;i;40
302591250: system.cpu.commit: 302591250;s;i;41
308663750: system.cpu.commit: 308663750;f;i;41
308663750: system.cpu.commit: 308663750;s;i;42
314727500: system.cpu.commit: 314727500;f;i;42
314728750: system.cpu.commit: 314728750;s;i;43
321616250: system.cpu.commit: 321616250;f;i;43
321616875: system.cpu.commit: 321616875;s;i;44
327685625: system.cpu.commit: 327685625;f;i;44
327686875: system.cpu.commit: 327686875;s;i;45
333762500: system.cpu.commit: 333762500;f;i;45
333763125: system.cpu.commit: 333763125;s;i;46
338870000: system.cpu.commit: 338870000;f;i;46
338870000: system.cpu.commit: 338870000;s;f;1
350130000: system.cpu.commit: 350130000;f;f;1
350130000: system.cpu.commit: 350130000;s;f;2
359623125: system.cpu.commit: 359623125;f;f;2
359623125: system.cpu.commit: 359623125;s;f;3
369048750: system.cpu.commit: 369048750;f;f;3
369048750: system.cpu.commit: 369048750;s;f;4
378493750: system.cpu.commit: 378493750;f;f;4
378493750: system.cpu.commit: 378493750;s;f;5
387947500: system.cpu.commit: 387947500;f;f;5
387947500: system.cpu.commit: 387947500;s;f;6
397395625: system.cpu.commit: 397395625;f;f;6
397395625: system.cpu.commit: 397395625;s;f;7
406825000: system.cpu.commit: 406825000;f;f;7
406825000: system.cpu.commit: 406825000;s;f;8
416251250: system.cpu.commit: 416251250;f;f;8
416251250: system.cpu.commit: 416251250;s;f;9
425345000: system.cpu.commit: 425345000;f;f;9
425345000: system.cpu.commit: 425345000;s;f;10
425681250: system.cpu.commit: 425681250;f;f;10
425681250: system.cpu.commit: 425681250;s;f;11
435124375: system.cpu.commit: 435124375;f;f;11
435124375: system.cpu.commit: 435124375;s;f;12
444567500: system.cpu.commit: 444567500;f;f;12
444567500: system.cpu.commit: 444567500;s;f;13
454010625: system.cpu.commit: 454010625;f;f;13
454010625: system.cpu.commit: 454010625;s;f;14
463452500: system.cpu.commit: 463452500;f;f;14
463452500: system.cpu.commit: 463452500;s;f;15
472878125: system.cpu.commit: 472878125;f;f;15
472878125: system.cpu.commit: 472878125;s;f;16
482320000: system.cpu.commit: 482320000;f;f;16
482320000: system.cpu.commit: 482320000;s;f;17
491745625: system.cpu.commit: 491745625;f;f;17
491745625: system.cpu.commit: 491745625;s;f;18
501200000: system.cpu.commit: 501200000;f;f;18
501200000: system.cpu.commit: 501200000;s;f;19
510643125: system.cpu.commit: 510643125;f;f;19
510643125: system.cpu.commit: 510643125;s;f;20
515573125: system.cpu.commit: 515573125;f;f;20
515573125: system.cpu.commit: 515573125;s;f;21
520072500: system.cpu.commit: 520072500;f;f;21
520072500: system.cpu.commit: 520072500;s;f;22
529498125: system.cpu.commit: 529498125;f;f;22
529498125: system.cpu.commit: 529498125;s;f;23
538945625: system.cpu.commit: 538945625;f;f;23
538945625: system.cpu.commit: 538945625;s;f;24
548373125: system.cpu.commit: 548373125;f;f;24
548373125: system.cpu.commit: 548373125;s;f;25
557816250: system.cpu.commit: 557816250;f;f;25
557816250: system.cpu.commit: 557816250;s;f;26
567264375: system.cpu.commit: 567264375;f;f;26
567264375: system.cpu.commit: 567264375;s;f;27
576718125: system.cpu.commit: 576718125;f;f;27
576718125: system.cpu.commit: 576718125;s;f;28
586148125: system.cpu.commit: 586148125;f;f;28
586148125: system.cpu.commit: 586148125;s;f;29
595567500: system.cpu.commit: 595567500;f;f;29
595567500: system.cpu.commit: 595567500;s;f;30
604993125: system.cpu.commit: 604993125;f;f;30
604993125: system.cpu.commit: 604993125;s;f;31
605817500: system.cpu.commit: 605817500;f;f;31
605817500: system.cpu.commit: 605817500;s;f;32
614436250: system.cpu.commit: 614436250;f;f;32
614436250: system.cpu.commit: 614436250;s;f;33
623890000: system.cpu.commit: 623890000;f;f;33
623890000: system.cpu.commit: 623890000;s;f;34
633335000: system.cpu.commit: 633335000;f;f;34
633335000: system.cpu.commit: 633335000;s;f;35
642764375: system.cpu.commit: 642764375;f;f;35
642764375: system.cpu.commit: 642764375;s;f;36
652195000: system.cpu.commit: 652195000;f;f;36
652195000: system.cpu.commit: 652195000;s;f;37
661642500: system.cpu.commit: 661642500;f;f;37
661642500: system.cpu.commit: 661642500;s;f;38
671068750: system.cpu.commit: 671068750;f;f;38
671068750: system.cpu.commit: 671068750;s;f;39
680511875: system.cpu.commit: 680511875;f;f;39
680511875: system.cpu.commit: 680511875;s;f;40
689955000: system.cpu.commit: 689955000;f;f;40
689955000: system.cpu.commit: 689955000;s;f;41
696066875: system.cpu.commit: 696066875;f;f;41
696066875: system.cpu.commit: 696066875;s;f;42
699395000: system.cpu.commit: 699395000;f;f;42
699395000: system.cpu.commit: 699395000;s;f;43
708820625: system.cpu.commit: 708820625;f;f;43
708820625: system.cpu.commit: 708820625;s;f;44
718259375: system.cpu.commit: 718259375;f;f;44
718259375: system.cpu.commit: 718259375;s;f;45
806711250: system.cpu.commit: 806711250;f;f;45
806711250: system.cpu.commit: 806711250;s;f;46
911023125: system.cpu.commit: 911023125;f;f;46
911023125: system.cpu.commit: 911023125;s;f;47
1014863750: system.cpu.commit: 1014863750;f;f;47
1014863750: system.cpu.commit: 1014863750;s;f;48
1118690625: system.cpu.commit: 1118690625;f;f;48
1118690625: system.cpu.commit: 1118690625;s;f;49
1163848125: system.cpu.commit: 1163848125;f;f;49
1163848125: system.cpu.commit: 1163848125;s;f;50
1222516875: system.cpu.commit: 1222516875;f;f;50
1222516875: system.cpu.commit: 1222516875;s;f;51
1326441875: system.cpu.commit: 1326441875;f;f;51
1326441875: system.cpu.commit: 1326441875;s;f;52
1430230625: system.cpu.commit: 1430230625;f;f;52
1430230625: system.cpu.commit: 1430230625;s;f;53
1533987500: system.cpu.commit: 1533987500;f;f;53
1533987500: system.cpu.commit: 1533987500;s;f;54
1580186875: system.cpu.commit: 1580186875;f;f;54
