
---------- Begin Simulation Statistics ----------
sim_seconds                                  0.000035                       # Number of seconds simulated
sim_ticks                                    34612792                       # Number of ticks simulated
final_tick                                   34612792                       # Number of ticks from beginning of simulation (restored from checkpoints and never reset)
sim_freq                                 1000000000000                       # Frequency of simulated ticks
host_inst_rate                                 120883                       # Simulator instruction rate (inst/s)
host_op_rate                                   121002                       # Simulator op (including micro ops) rate (op/s)
host_tick_rate                              518470058                       # Simulator tick rate (ticks/s)
host_mem_usage                                 639052                       # Number of bytes of host memory used
host_seconds                                     0.07                       # Real time elapsed on the host
sim_insts                                        8068                       # Number of instructions simulated
sim_ops                                          8077                       # Number of ops (including micro ops) simulated
system.clk_domain.voltage_domain.voltage            1                       # Voltage in Volts
system.clk_domain.clock                           313                       # Clock period in ticks
system.mem_ctrl.pwrStateResidencyTicks::UNDEFINED     34612792                       # Cumulative time (in ticks) in various power states
system.mem_ctrl.bytes_read::cpu.inst            25664                       # Number of bytes read from this memory
system.mem_ctrl.bytes_read::cpu.data            11008                       # Number of bytes read from this memory
system.mem_ctrl.bytes_read::l2cache.prefetcher         1920                       # Number of bytes read from this memory
system.mem_ctrl.bytes_read::total               38592                       # Number of bytes read from this memory
system.mem_ctrl.bytes_inst_read::cpu.inst        25664                       # Number of instructions bytes read from this memory
system.mem_ctrl.bytes_inst_read::total          25664                       # Number of instructions bytes read from this memory
system.mem_ctrl.num_reads::writebacks               0                       # Number of read requests responded to by this memory
system.mem_ctrl.num_reads::functional               0                       # Number of read requests responded to by this memory
system.mem_ctrl.num_reads::interrupt                0                       # Number of read requests responded to by this memory
system.mem_ctrl.num_reads::cpu.inst               401                       # Number of read requests responded to by this memory
system.mem_ctrl.num_reads::cpu.data               172                       # Number of read requests responded to by this memory
system.mem_ctrl.num_reads::l2cache.prefetcher           30                       # Number of read requests responded to by this memory
system.mem_ctrl.num_reads::total                  603                       # Number of read requests responded to by this memory
system.mem_ctrl.num_writes::writebacks              0                       # Number of write requests responded to by this memory
system.mem_ctrl.num_writes::functional              0                       # Number of write requests responded to by this memory
system.mem_ctrl.num_writes::interrupt               0                       # Number of write requests responded to by this memory
system.mem_ctrl.num_writes::cpu.inst                0                       # Number of write requests responded to by this memory
system.mem_ctrl.num_writes::cpu.data                0                       # Number of write requests responded to by this memory
system.mem_ctrl.num_writes::l2cache.prefetcher            0                       # Number of write requests responded to by this memory
system.mem_ctrl.num_writes::total                   0                       # Number of write requests responded to by this memory
system.mem_ctrl.bw_read::cpu.inst           741459978                       # Total read bandwidth from this memory (bytes/s)
system.mem_ctrl.bw_read::cpu.data           318032709                       # Total read bandwidth from this memory (bytes/s)
system.mem_ctrl.bw_read::l2cache.prefetcher     55470821                       # Total read bandwidth from this memory (bytes/s)
system.mem_ctrl.bw_read::total             1114963508                       # Total read bandwidth from this memory (bytes/s)
system.mem_ctrl.bw_inst_read::cpu.inst      741459978                       # Instruction read bandwidth from this memory (bytes/s)
system.mem_ctrl.bw_inst_read::total         741459978                       # Instruction read bandwidth from this memory (bytes/s)
system.mem_ctrl.bw_total::cpu.inst          741459978                       # Total bandwidth to/from this memory (bytes/s)
system.mem_ctrl.bw_total::cpu.data          318032709                       # Total bandwidth to/from this memory (bytes/s)
system.mem_ctrl.bw_total::l2cache.prefetcher     55470821                       # Total bandwidth to/from this memory (bytes/s)
system.mem_ctrl.bw_total::total            1114963508                       # Total bandwidth to/from this memory (bytes/s)
system.mem_ctrl.readReqs                          603                       # Number of read requests accepted
system.mem_ctrl.writeReqs                           0                       # Number of write requests accepted
system.mem_ctrl.readBursts                        603                       # Number of DRAM read bursts, including those serviced by the write queue
system.mem_ctrl.writeBursts                         0                       # Number of DRAM write bursts, including those merged in the write queue
system.mem_ctrl.bytesReadDRAM                   38592                       # Total number of bytes read from DRAM
system.mem_ctrl.bytesReadWrQ                        0                       # Total number of bytes read from write queue
system.mem_ctrl.bytesWritten                        0                       # Total number of bytes written to DRAM
system.mem_ctrl.bytesReadSys                    38592                       # Total read bytes from the system interface side
system.mem_ctrl.bytesWrittenSys                     0                       # Total written bytes from the system interface side
system.mem_ctrl.servicedByWrQ                       0                       # Number of DRAM read bursts serviced by the write queue
system.mem_ctrl.mergedWrBursts                      0                       # Number of DRAM write bursts merged with an existing one
system.mem_ctrl.neitherReadNorWriteReqs             0                       # Number of requests that are neither read nor write
system.mem_ctrl.perBankRdBursts::0                 25                       # Per bank write bursts
system.mem_ctrl.perBankRdBursts::1                  0                       # Per bank write bursts
system.mem_ctrl.perBankRdBursts::2                  0                       # Per bank write bursts
system.mem_ctrl.perBankRdBursts::3                 12                       # Per bank write bursts
system.mem_ctrl.perBankRdBursts::4                 16                       # Per bank write bursts
system.mem_ctrl.perBankRdBursts::5                 62                       # Per bank write bursts
system.mem_ctrl.perBankRdBursts::6                 85                       # Per bank write bursts
system.mem_ctrl.perBankRdBursts::7                 47                       # Per bank write bursts
system.mem_ctrl.perBankRdBursts::8                 36                       # Per bank write bursts
system.mem_ctrl.perBankRdBursts::9                 42                       # Per bank write bursts
system.mem_ctrl.perBankRdBursts::10                48                       # Per bank write bursts
system.mem_ctrl.perBankRdBursts::11                21                       # Per bank write bursts
system.mem_ctrl.perBankRdBursts::12                70                       # Per bank write bursts
system.mem_ctrl.perBankRdBursts::13                26                       # Per bank write bursts
system.mem_ctrl.perBankRdBursts::14                60                       # Per bank write bursts
system.mem_ctrl.perBankRdBursts::15                53                       # Per bank write bursts
system.mem_ctrl.perBankWrBursts::0                  0                       # Per bank write bursts
system.mem_ctrl.perBankWrBursts::1                  0                       # Per bank write bursts
system.mem_ctrl.perBankWrBursts::2                  0                       # Per bank write bursts
system.mem_ctrl.perBankWrBursts::3                  0                       # Per bank write bursts
system.mem_ctrl.perBankWrBursts::4                  0                       # Per bank write bursts
system.mem_ctrl.perBankWrBursts::5                  0                       # Per bank write bursts
system.mem_ctrl.perBankWrBursts::6                  0                       # Per bank write bursts
system.mem_ctrl.perBankWrBursts::7                  0                       # Per bank write bursts
system.mem_ctrl.perBankWrBursts::8                  0                       # Per bank write bursts
system.mem_ctrl.perBankWrBursts::9                  0                       # Per bank write bursts
system.mem_ctrl.perBankWrBursts::10                 0                       # Per bank write bursts
system.mem_ctrl.perBankWrBursts::11                 0                       # Per bank write bursts
system.mem_ctrl.perBankWrBursts::12                 0                       # Per bank write bursts
system.mem_ctrl.perBankWrBursts::13                 0                       # Per bank write bursts
system.mem_ctrl.perBankWrBursts::14                 0                       # Per bank write bursts
system.mem_ctrl.perBankWrBursts::15                 0                       # Per bank write bursts
system.mem_ctrl.numRdRetry                          0                       # Number of times read queue was full causing retry
system.mem_ctrl.numWrRetry                          0                       # Number of times write queue was full causing retry
system.mem_ctrl.totGap                       34552070                       # Total gap between requests
system.mem_ctrl.readPktSize::0                      0                       # Read request sizes (log2)
system.mem_ctrl.readPktSize::1                      0                       # Read request sizes (log2)
system.mem_ctrl.readPktSize::2                      0                       # Read request sizes (log2)
system.mem_ctrl.readPktSize::3                      0                       # Read request sizes (log2)
system.mem_ctrl.readPktSize::4                      0                       # Read request sizes (log2)
system.mem_ctrl.readPktSize::5                      0                       # Read request sizes (log2)
system.mem_ctrl.readPktSize::6                    603                       # Read request sizes (log2)
system.mem_ctrl.writePktSize::0                     0                       # Write request sizes (log2)
system.mem_ctrl.writePktSize::1                     0                       # Write request sizes (log2)
system.mem_ctrl.writePktSize::2                     0                       # Write request sizes (log2)
system.mem_ctrl.writePktSize::3                     0                       # Write request sizes (log2)
system.mem_ctrl.writePktSize::4                     0                       # Write request sizes (log2)
system.mem_ctrl.writePktSize::5                     0                       # Write request sizes (log2)
system.mem_ctrl.writePktSize::6                     0                       # Write request sizes (log2)
system.mem_ctrl.rdQLenPdf::0                      483                       # What read queue length does an incoming req see
system.mem_ctrl.rdQLenPdf::1                      111                       # What read queue length does an incoming req see
system.mem_ctrl.rdQLenPdf::2                        9                       # What read queue length does an incoming req see
system.mem_ctrl.rdQLenPdf::3                        0                       # What read queue length does an incoming req see
system.mem_ctrl.rdQLenPdf::4                        0                       # What read queue length does an incoming req see
system.mem_ctrl.rdQLenPdf::5                        0                       # What read queue length does an incoming req see
system.mem_ctrl.rdQLenPdf::6                        0                       # What read queue length does an incoming req see
system.mem_ctrl.rdQLenPdf::7                        0                       # What read queue length does an incoming req see
system.mem_ctrl.rdQLenPdf::8                        0                       # What read queue length does an incoming req see
system.mem_ctrl.rdQLenPdf::9                        0                       # What read queue length does an incoming req see
system.mem_ctrl.rdQLenPdf::10                       0                       # What read queue length does an incoming req see
system.mem_ctrl.rdQLenPdf::11                       0                       # What read queue length does an incoming req see
system.mem_ctrl.rdQLenPdf::12                       0                       # What read queue length does an incoming req see
system.mem_ctrl.rdQLenPdf::13                       0                       # What read queue length does an incoming req see
system.mem_ctrl.rdQLenPdf::14                       0                       # What read queue length does an incoming req see
system.mem_ctrl.rdQLenPdf::15                       0                       # What read queue length does an incoming req see
system.mem_ctrl.rdQLenPdf::16                       0                       # What read queue length does an incoming req see
system.mem_ctrl.rdQLenPdf::17                       0                       # What read queue length does an incoming req see
system.mem_ctrl.rdQLenPdf::18                       0                       # What read queue length does an incoming req see
system.mem_ctrl.rdQLenPdf::19                       0                       # What read queue length does an incoming req see
system.mem_ctrl.rdQLenPdf::20                       0                       # What read queue length does an incoming req see
system.mem_ctrl.rdQLenPdf::21                       0                       # What read queue length does an incoming req see
system.mem_ctrl.rdQLenPdf::22                       0                       # What read queue length does an incoming req see
system.mem_ctrl.rdQLenPdf::23                       0                       # What read queue length does an incoming req see
system.mem_ctrl.rdQLenPdf::24                       0                       # What read queue length does an incoming req see
system.mem_ctrl.rdQLenPdf::25                       0                       # What read queue length does an incoming req see
system.mem_ctrl.rdQLenPdf::26                       0                       # What read queue length does an incoming req see
system.mem_ctrl.rdQLenPdf::27                       0                       # What read queue length does an incoming req see
system.mem_ctrl.rdQLenPdf::28                       0                       # What read queue length does an incoming req see
system.mem_ctrl.rdQLenPdf::29                       0                       # What read queue length does an incoming req see
system.mem_ctrl.rdQLenPdf::30                       0                       # What read queue length does an incoming req see
system.mem_ctrl.rdQLenPdf::31                       0                       # What read queue length does an incoming req see
system.mem_ctrl.wrQLenPdf::0                        0                       # What write queue length does an incoming req see
system.mem_ctrl.wrQLenPdf::1                        0                       # What write queue length does an incoming req see
system.mem_ctrl.wrQLenPdf::2                        0                       # What write queue length does an incoming req see
system.mem_ctrl.wrQLenPdf::3                        0                       # What write queue length does an incoming req see
system.mem_ctrl.wrQLenPdf::4                        0                       # What write queue length does an incoming req see
system.mem_ctrl.wrQLenPdf::5                        0                       # What write queue length does an incoming req see
system.mem_ctrl.wrQLenPdf::6                        0                       # What write queue length does an incoming req see
system.mem_ctrl.wrQLenPdf::7                        0                       # What write queue length does an incoming req see
system.mem_ctrl.wrQLenPdf::8                        0                       # What write queue length does an incoming req see
system.mem_ctrl.wrQLenPdf::9                        0                       # What write queue length does an incoming req see
system.mem_ctrl.wrQLenPdf::10                       0                       # What write queue length does an incoming req see
system.mem_ctrl.wrQLenPdf::11                       0                       # What write queue length does an incoming req see
system.mem_ctrl.wrQLenPdf::12                       0                       # What write queue length does an incoming req see
system.mem_ctrl.wrQLenPdf::13                       0                       # What write queue length does an incoming req see
system.mem_ctrl.wrQLenPdf::14                       0                       # What write queue length does an incoming req see
system.mem_ctrl.wrQLenPdf::15                       0                       # What write queue length does an incoming req see
system.mem_ctrl.wrQLenPdf::16                       0                       # What write queue length does an incoming req see
system.mem_ctrl.wrQLenPdf::17                       0                       # What write queue length does an incoming req see
system.mem_ctrl.wrQLenPdf::18                       0                       # What write queue length does an incoming req see
system.mem_ctrl.wrQLenPdf::19                       0                       # What write queue length does an incoming req see
system.mem_ctrl.wrQLenPdf::20                       0                       # What write queue length does an incoming req see
system.mem_ctrl.wrQLenPdf::21                       0                       # What write queue length does an incoming req see
system.mem_ctrl.wrQLenPdf::22                       0                       # What write queue length does an incoming req see
system.mem_ctrl.wrQLenPdf::23                       0                       # What write queue length does an incoming req see
system.mem_ctrl.wrQLenPdf::24                       0                       # What write queue length does an incoming req see
system.mem_ctrl.wrQLenPdf::25                       0                       # What write queue length does an incoming req see
system.mem_ctrl.wrQLenPdf::26                       0                       # What write queue length does an incoming req see
system.mem_ctrl.wrQLenPdf::27                       0                       # What write queue length does an incoming req see
system.mem_ctrl.wrQLenPdf::28                       0                       # What write queue length does an incoming req see
system.mem_ctrl.wrQLenPdf::29                       0                       # What write queue length does an incoming req see
system.mem_ctrl.wrQLenPdf::30                       0                       # What write queue length does an incoming req see
system.mem_ctrl.wrQLenPdf::31                       0                       # What write queue length does an incoming req see
system.mem_ctrl.wrQLenPdf::32                       0                       # What write queue length does an incoming req see
system.mem_ctrl.wrQLenPdf::33                       0                       # What write queue length does an incoming req see
system.mem_ctrl.wrQLenPdf::34                       0                       # What write queue length does an incoming req see
system.mem_ctrl.wrQLenPdf::35                       0                       # What write queue length does an incoming req see
system.mem_ctrl.wrQLenPdf::36                       0                       # What write queue length does an incoming req see
system.mem_ctrl.wrQLenPdf::37                       0                       # What write queue length does an incoming req see
system.mem_ctrl.wrQLenPdf::38                       0                       # What write queue length does an incoming req see
system.mem_ctrl.wrQLenPdf::39                       0                       # What write queue length does an incoming req see
system.mem_ctrl.wrQLenPdf::40                       0                       # What write queue length does an incoming req see
system.mem_ctrl.wrQLenPdf::41                       0                       # What write queue length does an incoming req see
system.mem_ctrl.wrQLenPdf::42                       0                       # What write queue length does an incoming req see
system.mem_ctrl.wrQLenPdf::43                       0                       # What write queue length does an incoming req see
system.mem_ctrl.wrQLenPdf::44                       0                       # What write queue length does an incoming req see
system.mem_ctrl.wrQLenPdf::45                       0                       # What write queue length does an incoming req see
system.mem_ctrl.wrQLenPdf::46                       0                       # What write queue length does an incoming req see
system.mem_ctrl.wrQLenPdf::47                       0                       # What write queue length does an incoming req see
system.mem_ctrl.wrQLenPdf::48                       0                       # What write queue length does an incoming req see
system.mem_ctrl.wrQLenPdf::49                       0                       # What write queue length does an incoming req see
system.mem_ctrl.wrQLenPdf::50                       0                       # What write queue length does an incoming req see
system.mem_ctrl.wrQLenPdf::51                       0                       # What write queue length does an incoming req see
system.mem_ctrl.wrQLenPdf::52                       0                       # What write queue length does an incoming req see
system.mem_ctrl.wrQLenPdf::53                       0                       # What write queue length does an incoming req see
system.mem_ctrl.wrQLenPdf::54                       0                       # What write queue length does an incoming req see
system.mem_ctrl.wrQLenPdf::55                       0                       # What write queue length does an incoming req see
system.mem_ctrl.wrQLenPdf::56                       0                       # What write queue length does an incoming req see
system.mem_ctrl.wrQLenPdf::57                       0                       # What write queue length does an incoming req see
system.mem_ctrl.wrQLenPdf::58                       0                       # What write queue length does an incoming req see
system.mem_ctrl.wrQLenPdf::59                       0                       # What write queue length does an incoming req see
system.mem_ctrl.wrQLenPdf::60                       0                       # What write queue length does an incoming req see
system.mem_ctrl.wrQLenPdf::61                       0                       # What write queue length does an incoming req see
system.mem_ctrl.wrQLenPdf::62                       0                       # What write queue length does an incoming req see
system.mem_ctrl.wrQLenPdf::63                       0                       # What write queue length does an incoming req see
system.mem_ctrl.bytesPerActivate::samples           99                       # Bytes accessed per row activation
system.mem_ctrl.bytesPerActivate::mean     360.727273                       # Bytes accessed per row activation
system.mem_ctrl.bytesPerActivate::gmean    246.287103                       # Bytes accessed per row activation
system.mem_ctrl.bytesPerActivate::stdev    303.710046                       # Bytes accessed per row activation
system.mem_ctrl.bytesPerActivate::0-127            21     21.21%     21.21% # Bytes accessed per row activation
system.mem_ctrl.bytesPerActivate::128-255           23     23.23%     44.44% # Bytes accessed per row activation
system.mem_ctrl.bytesPerActivate::256-383           14     14.14%     58.59% # Bytes accessed per row activation
system.mem_ctrl.bytesPerActivate::384-511           16     16.16%     74.75% # Bytes accessed per row activation
system.mem_ctrl.bytesPerActivate::512-639            7      7.07%     81.82% # Bytes accessed per row activation
system.mem_ctrl.bytesPerActivate::640-767            2      2.02%     83.84% # Bytes accessed per row activation
system.mem_ctrl.bytesPerActivate::768-895            3      3.03%     86.87% # Bytes accessed per row activation
system.mem_ctrl.bytesPerActivate::896-1023            4      4.04%     90.91% # Bytes accessed per row activation
system.mem_ctrl.bytesPerActivate::1024-1151            9      9.09%    100.00% # Bytes accessed per row activation
system.mem_ctrl.bytesPerActivate::total            99                       # Bytes accessed per row activation
system.mem_ctrl.totQLat                       7282794                       # Total ticks spent queuing
system.mem_ctrl.totMemAccLat                 18589044                       # Total ticks spent from burst creation until serviced by the DRAM
system.mem_ctrl.totBusLat                     3015000                       # Total ticks spent in databus transfers
system.mem_ctrl.avgQLat                      12077.60                       # Average queueing delay per DRAM burst
system.mem_ctrl.avgBusLat                     5000.00                       # Average bus latency per DRAM burst
system.mem_ctrl.avgMemAccLat                 30827.60                       # Average memory access latency per DRAM burst
system.mem_ctrl.avgRdBW                       1114.96                       # Average DRAM read bandwidth in MiByte/s
system.mem_ctrl.avgWrBW                          0.00                       # Average achieved write bandwidth in MiByte/s
system.mem_ctrl.avgRdBWSys                    1114.96                       # Average system read bandwidth in MiByte/s
system.mem_ctrl.avgWrBWSys                       0.00                       # Average system write bandwidth in MiByte/s
system.mem_ctrl.peakBW                       12800.00                       # Theoretical peak bandwidth in MiByte/s
system.mem_ctrl.busUtil                          8.71                       # Data bus utilization in percentage
system.mem_ctrl.busUtilRead                      8.71                       # Data bus utilization in percentage for reads
system.mem_ctrl.busUtilWrite                     0.00                       # Data bus utilization in percentage for writes
system.mem_ctrl.avgRdQLen                        1.22                       # Average read queue length when enqueuing
system.mem_ctrl.avgWrQLen                        0.00                       # Average write queue length when enqueuing
system.mem_ctrl.readRowHits                       493                       # Number of row buffer hits during reads
system.mem_ctrl.writeRowHits                        0                       # Number of row buffer hits during writes
system.mem_ctrl.readRowHitRate                  81.76                       # Row buffer hit rate for reads
system.mem_ctrl.writeRowHitRate                   nan                       # Row buffer hit rate for writes
system.mem_ctrl.avgGap                       57300.28                       # Average gap between requests
system.mem_ctrl.pageHitRate                     81.76                       # Row buffer hit rate, read and write combined
system.mem_ctrl_0.actEnergy                    414120                       # Energy for activate commands per rank (pJ)
system.mem_ctrl_0.preEnergy                    197340                       # Energy for precharge commands per rank (pJ)
system.mem_ctrl_0.readEnergy                  1763580                       # Energy for read commands per rank (pJ)
system.mem_ctrl_0.writeEnergy                       0                       # Energy for write commands per rank (pJ)
system.mem_ctrl_0.refreshEnergy          2458560.000000                       # Energy for refresh commands per rank (pJ)
system.mem_ctrl_0.actBackEnergy               3543690                       # Energy for active background per rank (pJ)
system.mem_ctrl_0.preBackEnergy                 50880                       # Energy for precharge background per rank (pJ)
system.mem_ctrl_0.actPowerDownEnergy         11717490                       # Energy for active power-down per rank (pJ)
system.mem_ctrl_0.prePowerDownEnergy           389280                       # Energy for precharge power-down per rank (pJ)
system.mem_ctrl_0.selfRefreshEnergy                 0                       # Energy for self refresh per rank (pJ)
system.mem_ctrl_0.totalEnergy                20534940                       # Total energy per rank (pJ)
system.mem_ctrl_0.averagePower             593.276035                       # Core power per rank (mW)
system.mem_ctrl_0.totalIdleTime              26483197                       # Total Idle time Per DRAM Rank
system.mem_ctrl_0.memoryStateTime::IDLE         24260                       # Time in different power states
system.mem_ctrl_0.memoryStateTime::REF        1040000                       # Time in different power states
system.mem_ctrl_0.memoryStateTime::SREF             0                       # Time in different power states
system.mem_ctrl_0.memoryStateTime::PRE_PDN      1011274                       # Time in different power states
system.mem_ctrl_0.memoryStateTime::ACT        6844380                       # Time in different power states
system.mem_ctrl_0.memoryStateTime::ACT_PDN     25692878                       # Time in different power states
system.mem_ctrl_1.actEnergy                    371280                       # Energy for activate commands per rank (pJ)
system.mem_ctrl_1.preEnergy                    178365                       # Energy for precharge commands per rank (pJ)
system.mem_ctrl_1.readEnergy                  2541840                       # Energy for read commands per rank (pJ)
system.mem_ctrl_1.writeEnergy                       0                       # Energy for write commands per rank (pJ)
system.mem_ctrl_1.refreshEnergy          2458560.000000                       # Energy for refresh commands per rank (pJ)
system.mem_ctrl_1.actBackEnergy               4685970                       # Energy for active background per rank (pJ)
system.mem_ctrl_1.preBackEnergy                 78720                       # Energy for precharge background per rank (pJ)
system.mem_ctrl_1.actPowerDownEnergy         10884150                       # Energy for active power-down per rank (pJ)
system.mem_ctrl_1.prePowerDownEnergy           101280                       # Energy for precharge power-down per rank (pJ)
system.mem_ctrl_1.selfRefreshEnergy                 0                       # Energy for self refresh per rank (pJ)
system.mem_ctrl_1.totalEnergy                21300165                       # Total energy per rank (pJ)
system.mem_ctrl_1.averagePower             615.384191                       # Core power per rank (mW)
system.mem_ctrl_1.totalIdleTime              24094577                       # Total Idle time Per DRAM Rank
system.mem_ctrl_1.memoryStateTime::IDLE         93693                       # Time in different power states
system.mem_ctrl_1.memoryStateTime::REF        1040000                       # Time in different power states
system.mem_ctrl_1.memoryStateTime::SREF             0                       # Time in different power states
system.mem_ctrl_1.memoryStateTime::PRE_PDN       263241                       # Time in different power states
system.mem_ctrl_1.memoryStateTime::ACT        9354810                       # Time in different power states
system.mem_ctrl_1.memoryStateTime::ACT_PDN     23861048                       # Time in different power states
system.pwrStateResidencyTicks::UNDEFINED     34612792                       # Cumulative time (in ticks) in various power states
system.cpu.branchPred.lookups                    4022                       # Number of BP lookups
system.cpu.branchPred.condPredicted              2665                       # Number of conditional branches predicted
system.cpu.branchPred.condIncorrect               723                       # Number of conditional branches incorrect
system.cpu.branchPred.BTBLookups                 3585                       # Number of BTB lookups
system.cpu.branchPred.BTBHits                     613                       # Number of BTB hits
system.cpu.branchPred.BTBCorrect                    0                       # Number of correct BTB predictions (this stat may not work properly.
system.cpu.branchPred.BTBHitPct             17.099024                       # BTB Hit Percentage
system.cpu.branchPred.usedRAS                       0                       # Number of times the RAS was used to get a target.
system.cpu.branchPred.RASInCorrect                  0                       # Number of incorrect RAS predictions.
system.cpu.branchPred.indirectLookups             921                       # Number of indirect predictor lookups.
system.cpu.branchPred.indirectHits                 34                       # Number of indirect target hits.
system.cpu.branchPred.indirectMisses              887                       # Number of indirect misses.
system.cpu.branchPredindirectMispredicted          244                       # Number of mispredicted indirect branches.
system.cpu.dtb.read_hits                            0                       # DTB read hits
system.cpu.dtb.read_misses                          0                       # DTB read misses
system.cpu.dtb.read_accesses                        0                       # DTB read accesses
system.cpu.dtb.write_hits                           0                       # DTB write hits
system.cpu.dtb.write_misses                         0                       # DTB write misses
system.cpu.dtb.write_accesses                       0                       # DTB write accesses
system.cpu.dtb.hits                                 0                       # DTB hits
system.cpu.dtb.misses                               0                       # DTB misses
system.cpu.dtb.accesses                             0                       # DTB accesses
system.cpu.itb.read_hits                            0                       # DTB read hits
system.cpu.itb.read_misses                          0                       # DTB read misses
system.cpu.itb.read_accesses                        0                       # DTB read accesses
system.cpu.itb.write_hits                           0                       # DTB write hits
system.cpu.itb.write_misses                         0                       # DTB write misses
system.cpu.itb.write_accesses                       0                       # DTB write accesses
system.cpu.itb.hits                                 0                       # DTB hits
system.cpu.itb.misses                               0                       # DTB misses
system.cpu.itb.accesses                             0                       # DTB accesses
system.cpu.workload.numSyscalls                     8                       # Number of system calls
system.cpu.pwrStateResidencyTicks::ON        34612792                       # Cumulative time (in ticks) in various power states
system.cpu.numCycles                           110584                       # number of cpu cycles simulated
system.cpu.numWorkItemsStarted                      0                       # number of work items this cpu started
system.cpu.numWorkItemsCompleted                    0                       # number of work items this cpu completed
system.cpu.committedInsts                        8068                       # Number of instructions committed
system.cpu.committedOps                          8077                       # Number of ops (including micro ops) committed
system.cpu.discardedOps                          2215                       # Number of ops (including micro ops) which were discarded before commit
system.cpu.numFetchSuspends                         0                       # Number of times Execute suspended instruction fetching
system.cpu.cpi                              13.706495                       # CPI: cycles per instruction
system.cpu.ipc                               0.072958                       # IPC: instructions per cycle
system.cpu.op_class_0::No_OpClass                  17      0.21%      0.21% # Class of committed instruction
system.cpu.op_class_0::IntAdd                       0      0.00%      0.21% # Class of committed instruction
system.cpu.op_class_0::IntSub                       0      0.00%      0.21% # Class of committed instruction
system.cpu.op_class_0::IntMult                      2      0.02%      0.24% # Class of committed instruction
system.cpu.op_class_0::IntDiv                       3      0.04%      0.27% # Class of committed instruction
system.cpu.op_class_0::IntLogic                     0      0.00%      0.27% # Class of committed instruction
system.cpu.op_class_0::IntShift                     0      0.00%      0.27% # Class of committed instruction
system.cpu.op_class_0::IntMov                       0      0.00%      0.27% # Class of committed instruction
system.cpu.op_class_0::IntCtrl                      0      0.00%      0.27% # Class of committed instruction
system.cpu.op_class_0::IntALU                    5208     64.48%     64.75% # Class of committed instruction
system.cpu.op_class_0::FloatAdd                     0      0.00%     64.75% # Class of committed instruction
system.cpu.op_class_0::FloatCmp                     0      0.00%     64.75% # Class of committed instruction
system.cpu.op_class_0::FloatCvt                     0      0.00%     64.75% # Class of committed instruction
system.cpu.op_class_0::FloatMult                    0      0.00%     64.75% # Class of committed instruction
system.cpu.op_class_0::FloatMultAcc                 0      0.00%     64.75% # Class of committed instruction
system.cpu.op_class_0::FloatDiv                     0      0.00%     64.75% # Class of committed instruction
system.cpu.op_class_0::FloatMisc                    0      0.00%     64.75% # Class of committed instruction
system.cpu.op_class_0::FloatSqrt                    0      0.00%     64.75% # Class of committed instruction
system.cpu.op_class_0::SimdAdd                      0      0.00%     64.75% # Class of committed instruction
system.cpu.op_class_0::SimdAddAcc                   0      0.00%     64.75% # Class of committed instruction
system.cpu.op_class_0::SimdAlu                      0      0.00%     64.75% # Class of committed instruction
system.cpu.op_class_0::SimdCmp                      0      0.00%     64.75% # Class of committed instruction
system.cpu.op_class_0::SimdCvt                      0      0.00%     64.75% # Class of committed instruction
system.cpu.op_class_0::SimdMisc                     0      0.00%     64.75% # Class of committed instruction
system.cpu.op_class_0::SimdMult                     0      0.00%     64.75% # Class of committed instruction
system.cpu.op_class_0::SimdMultAcc                  0      0.00%     64.75% # Class of committed instruction
system.cpu.op_class_0::SimdShift                    0      0.00%     64.75% # Class of committed instruction
system.cpu.op_class_0::SimdShiftAcc                 0      0.00%     64.75% # Class of committed instruction
system.cpu.op_class_0::SimdSqrt                     0      0.00%     64.75% # Class of committed instruction
system.cpu.op_class_0::SimdFloatAdd                 0      0.00%     64.75% # Class of committed instruction
system.cpu.op_class_0::SimdFloatAlu                 0      0.00%     64.75% # Class of committed instruction
system.cpu.op_class_0::SimdFloatCmp                 0      0.00%     64.75% # Class of committed instruction
system.cpu.op_class_0::SimdFloatCvt                 0      0.00%     64.75% # Class of committed instruction
system.cpu.op_class_0::SimdFloatDiv                 0      0.00%     64.75% # Class of committed instruction
system.cpu.op_class_0::SimdFloatMisc                0      0.00%     64.75% # Class of committed instruction
system.cpu.op_class_0::SimdFloatMult                0      0.00%     64.75% # Class of committed instruction
system.cpu.op_class_0::SimdFloatMultAcc             0      0.00%     64.75% # Class of committed instruction
system.cpu.op_class_0::SimdFloatSqrt                0      0.00%     64.75% # Class of committed instruction
system.cpu.op_class_0::MemRead                   1471     18.21%     82.96% # Class of committed instruction
system.cpu.op_class_0::MemWrite                  1364     16.89%     99.85% # Class of committed instruction
system.cpu.op_class_0::FloatMemRead                 0      0.00%     99.85% # Class of committed instruction
system.cpu.op_class_0::FloatMemWrite               12      0.15%    100.00% # Class of committed instruction
system.cpu.op_class_0::IprAccess                    0      0.00%    100.00% # Class of committed instruction
system.cpu.op_class_0::InstPrefetch                 0      0.00%    100.00% # Class of committed instruction
system.cpu.op_class_0::total                     8077                       # Class of committed instruction
system.cpu.tickCycles                           17435                       # Number of cycles that the object actually ticked
system.cpu.idleCycles                           93149                       # Total number of cycles that the object has spent stopped
system.cpu.fetch2.int_instructions              11493                       # Number of integer instructions successfully decoded
system.cpu.fetch2.fp_instructions                   0                       # Number of floating point instructions successfully decoded
system.cpu.fetch2.vec_instructions                  0                       # Number of SIMD instructions successfully decoded
system.cpu.fetch2.load_instructions              3017                       # Number of memory load instructions successfully decoded
system.cpu.fetch2.store_instructions             2476                       # Number of memory store instructions successfully decoded
system.cpu.dcache.tags.pwrStateResidencyTicks::UNDEFINED     34612792                       # Cumulative time (in ticks) in various power states
system.cpu.dcache.tags.replacements                 1                       # number of replacements
system.cpu.dcache.tags.tagsinuse           119.552677                       # Cycle average of tags in use
system.cpu.dcache.tags.total_refs                2828                       # Total number of references to valid blocks.
system.cpu.dcache.tags.sampled_refs               202                       # Sample count of references to valid blocks.
system.cpu.dcache.tags.avg_refs                    14                       # Average number of references to valid blocks.
system.cpu.dcache.tags.warmup_cycle            140850                       # Cycle when the warmup percentage was hit.
system.cpu.dcache.tags.occ_blocks::cpu.data   119.552677                       # Average occupied blocks per requestor
system.cpu.dcache.tags.occ_percent::cpu.data     0.233501                       # Average percentage of cache occupancy
system.cpu.dcache.tags.occ_percent::total     0.233501                       # Average percentage of cache occupancy
system.cpu.dcache.tags.occ_task_id_blocks::1024          201                       # Occupied blocks per task id
system.cpu.dcache.tags.age_task_id_blocks_1024::0           43                       # Occupied blocks per task id
system.cpu.dcache.tags.age_task_id_blocks_1024::1          158                       # Occupied blocks per task id
system.cpu.dcache.tags.occ_task_id_percent::1024     0.392578                       # Percentage of cache occupancy per task id
system.cpu.dcache.tags.tag_accesses             12622                       # Number of tag accesses
system.cpu.dcache.tags.data_accesses            12622                       # Number of data accesses
system.cpu.dcache.pwrStateResidencyTicks::UNDEFINED     34612792                       # Cumulative time (in ticks) in various power states
system.cpu.dcache.ReadReq_hits::cpu.data         1635                       # number of ReadReq hits
system.cpu.dcache.ReadReq_hits::total            1635                       # number of ReadReq hits
system.cpu.dcache.WriteReq_hits::cpu.data         1180                       # number of WriteReq hits
system.cpu.dcache.WriteReq_hits::total           1180                       # number of WriteReq hits
system.cpu.dcache.LoadLockedReq_hits::cpu.data            5                       # number of LoadLockedReq hits
system.cpu.dcache.LoadLockedReq_hits::total            5                       # number of LoadLockedReq hits
system.cpu.dcache.StoreCondReq_hits::cpu.data            8                       # number of StoreCondReq hits
system.cpu.dcache.StoreCondReq_hits::total            8                       # number of StoreCondReq hits
system.cpu.dcache.demand_hits::cpu.data          2815                       # number of demand (read+write) hits
system.cpu.dcache.demand_hits::total             2815                       # number of demand (read+write) hits
system.cpu.dcache.overall_hits::cpu.data         2815                       # number of overall hits
system.cpu.dcache.overall_hits::total            2815                       # number of overall hits
system.cpu.dcache.ReadReq_misses::cpu.data           87                       # number of ReadReq misses
system.cpu.dcache.ReadReq_misses::total            87                       # number of ReadReq misses
system.cpu.dcache.WriteReq_misses::cpu.data          187                       # number of WriteReq misses
system.cpu.dcache.WriteReq_misses::total          187                       # number of WriteReq misses
system.cpu.dcache.LoadLockedReq_misses::cpu.data            3                       # number of LoadLockedReq misses
system.cpu.dcache.LoadLockedReq_misses::total            3                       # number of LoadLockedReq misses
system.cpu.dcache.demand_misses::cpu.data          274                       # number of demand (read+write) misses
system.cpu.dcache.demand_misses::total            274                       # number of demand (read+write) misses
system.cpu.dcache.overall_misses::cpu.data          274                       # number of overall misses
system.cpu.dcache.overall_misses::total           274                       # number of overall misses
system.cpu.dcache.ReadReq_miss_latency::cpu.data      5895355                       # number of ReadReq miss cycles
system.cpu.dcache.ReadReq_miss_latency::total      5895355                       # number of ReadReq miss cycles
system.cpu.dcache.WriteReq_miss_latency::cpu.data      9934307                       # number of WriteReq miss cycles
system.cpu.dcache.WriteReq_miss_latency::total      9934307                       # number of WriteReq miss cycles
system.cpu.dcache.LoadLockedReq_miss_latency::cpu.data       181540                       # number of LoadLockedReq miss cycles
system.cpu.dcache.LoadLockedReq_miss_latency::total       181540                       # number of LoadLockedReq miss cycles
system.cpu.dcache.demand_miss_latency::cpu.data     15829662                       # number of demand (read+write) miss cycles
system.cpu.dcache.demand_miss_latency::total     15829662                       # number of demand (read+write) miss cycles
system.cpu.dcache.overall_miss_latency::cpu.data     15829662                       # number of overall miss cycles
system.cpu.dcache.overall_miss_latency::total     15829662                       # number of overall miss cycles
system.cpu.dcache.ReadReq_accesses::cpu.data         1722                       # number of ReadReq accesses(hits+misses)
system.cpu.dcache.ReadReq_accesses::total         1722                       # number of ReadReq accesses(hits+misses)
system.cpu.dcache.WriteReq_accesses::cpu.data         1367                       # number of WriteReq accesses(hits+misses)
system.cpu.dcache.WriteReq_accesses::total         1367                       # number of WriteReq accesses(hits+misses)
system.cpu.dcache.LoadLockedReq_accesses::cpu.data            8                       # number of LoadLockedReq accesses(hits+misses)
system.cpu.dcache.LoadLockedReq_accesses::total            8                       # number of LoadLockedReq accesses(hits+misses)
system.cpu.dcache.StoreCondReq_accesses::cpu.data            8                       # number of StoreCondReq accesses(hits+misses)
system.cpu.dcache.StoreCondReq_accesses::total            8                       # number of StoreCondReq accesses(hits+misses)
system.cpu.dcache.demand_accesses::cpu.data         3089                       # number of demand (read+write) accesses
system.cpu.dcache.demand_accesses::total         3089                       # number of demand (read+write) accesses
system.cpu.dcache.overall_accesses::cpu.data         3089                       # number of overall (read+write) accesses
system.cpu.dcache.overall_accesses::total         3089                       # number of overall (read+write) accesses
system.cpu.dcache.ReadReq_miss_rate::cpu.data     0.050523                       # miss rate for ReadReq accesses
system.cpu.dcache.ReadReq_miss_rate::total     0.050523                       # miss rate for ReadReq accesses
system.cpu.dcache.WriteReq_miss_rate::cpu.data     0.136796                       # miss rate for WriteReq accesses
system.cpu.dcache.WriteReq_miss_rate::total     0.136796                       # miss rate for WriteReq accesses
system.cpu.dcache.LoadLockedReq_miss_rate::cpu.data     0.375000                       # miss rate for LoadLockedReq accesses
system.cpu.dcache.LoadLockedReq_miss_rate::total     0.375000                       # miss rate for LoadLockedReq accesses
system.cpu.dcache.demand_miss_rate::cpu.data     0.088702                       # miss rate for demand accesses
system.cpu.dcache.demand_miss_rate::total     0.088702                       # miss rate for demand accesses
system.cpu.dcache.overall_miss_rate::cpu.data     0.088702                       # miss rate for overall accesses
system.cpu.dcache.overall_miss_rate::total     0.088702                       # miss rate for overall accesses
system.cpu.dcache.ReadReq_avg_miss_latency::cpu.data 67762.701149                       # average ReadReq miss latency
system.cpu.dcache.ReadReq_avg_miss_latency::total 67762.701149                       # average ReadReq miss latency
system.cpu.dcache.WriteReq_avg_miss_latency::cpu.data 53124.636364                       # average WriteReq miss latency
system.cpu.dcache.WriteReq_avg_miss_latency::total 53124.636364                       # average WriteReq miss latency
system.cpu.dcache.LoadLockedReq_avg_miss_latency::cpu.data 60513.333333                       # average LoadLockedReq miss latency
system.cpu.dcache.LoadLockedReq_avg_miss_latency::total 60513.333333                       # average LoadLockedReq miss latency
system.cpu.dcache.demand_avg_miss_latency::cpu.data 57772.489051                       # average overall miss latency
system.cpu.dcache.demand_avg_miss_latency::total 57772.489051                       # average overall miss latency
system.cpu.dcache.overall_avg_miss_latency::cpu.data 57772.489051                       # average overall miss latency
system.cpu.dcache.overall_avg_miss_latency::total 57772.489051                       # average overall miss latency
system.cpu.dcache.blocked_cycles::no_mshrs            0                       # number of cycles access was blocked
system.cpu.dcache.blocked_cycles::no_targets            0                       # number of cycles access was blocked
system.cpu.dcache.blocked::no_mshrs                 0                       # number of cycles access was blocked
system.cpu.dcache.blocked::no_targets               0                       # number of cycles access was blocked
system.cpu.dcache.avg_blocked_cycles::no_mshrs          nan                       # average number of cycles each access was blocked
system.cpu.dcache.avg_blocked_cycles::no_targets          nan                       # average number of cycles each access was blocked
system.cpu.dcache.writebacks::writebacks            1                       # number of writebacks
system.cpu.dcache.writebacks::total                 1                       # number of writebacks
system.cpu.dcache.ReadReq_mshr_hits::cpu.data            1                       # number of ReadReq MSHR hits
system.cpu.dcache.ReadReq_mshr_hits::total            1                       # number of ReadReq MSHR hits
system.cpu.dcache.WriteReq_mshr_hits::cpu.data           74                       # number of WriteReq MSHR hits
system.cpu.dcache.WriteReq_mshr_hits::total           74                       # number of WriteReq MSHR hits
system.cpu.dcache.demand_mshr_hits::cpu.data           75                       # number of demand (read+write) MSHR hits
system.cpu.dcache.demand_mshr_hits::total           75                       # number of demand (read+write) MSHR hits
system.cpu.dcache.overall_mshr_hits::cpu.data           75                       # number of overall MSHR hits
system.cpu.dcache.overall_mshr_hits::total           75                       # number of overall MSHR hits
system.cpu.dcache.ReadReq_mshr_misses::cpu.data           86                       # number of ReadReq MSHR misses
system.cpu.dcache.ReadReq_mshr_misses::total           86                       # number of ReadReq MSHR misses
system.cpu.dcache.WriteReq_mshr_misses::cpu.data          113                       # number of WriteReq MSHR misses
system.cpu.dcache.WriteReq_mshr_misses::total          113                       # number of WriteReq MSHR misses
system.cpu.dcache.LoadLockedReq_mshr_misses::cpu.data            3                       # number of LoadLockedReq MSHR misses
system.cpu.dcache.LoadLockedReq_mshr_misses::total            3                       # number of LoadLockedReq MSHR misses
system.cpu.dcache.demand_mshr_misses::cpu.data          199                       # number of demand (read+write) MSHR misses
system.cpu.dcache.demand_mshr_misses::total          199                       # number of demand (read+write) MSHR misses
system.cpu.dcache.overall_mshr_misses::cpu.data          199                       # number of overall MSHR misses
system.cpu.dcache.overall_mshr_misses::total          199                       # number of overall MSHR misses
system.cpu.dcache.ReadReq_mshr_miss_latency::cpu.data      5777667                       # number of ReadReq MSHR miss cycles
system.cpu.dcache.ReadReq_mshr_miss_latency::total      5777667                       # number of ReadReq MSHR miss cycles
system.cpu.dcache.WriteReq_mshr_miss_latency::cpu.data      6346701                       # number of WriteReq MSHR miss cycles
system.cpu.dcache.WriteReq_mshr_miss_latency::total      6346701                       # number of WriteReq MSHR miss cycles
system.cpu.dcache.LoadLockedReq_mshr_miss_latency::cpu.data       179662                       # number of LoadLockedReq MSHR miss cycles
system.cpu.dcache.LoadLockedReq_mshr_miss_latency::total       179662                       # number of LoadLockedReq MSHR miss cycles
system.cpu.dcache.demand_mshr_miss_latency::cpu.data     12124368                       # number of demand (read+write) MSHR miss cycles
system.cpu.dcache.demand_mshr_miss_latency::total     12124368                       # number of demand (read+write) MSHR miss cycles
system.cpu.dcache.overall_mshr_miss_latency::cpu.data     12124368                       # number of overall MSHR miss cycles
system.cpu.dcache.overall_mshr_miss_latency::total     12124368                       # number of overall MSHR miss cycles
system.cpu.dcache.ReadReq_mshr_miss_rate::cpu.data     0.049942                       # mshr miss rate for ReadReq accesses
system.cpu.dcache.ReadReq_mshr_miss_rate::total     0.049942                       # mshr miss rate for ReadReq accesses
system.cpu.dcache.WriteReq_mshr_miss_rate::cpu.data     0.082663                       # mshr miss rate for WriteReq accesses
system.cpu.dcache.WriteReq_mshr_miss_rate::total     0.082663                       # mshr miss rate for WriteReq accesses
system.cpu.dcache.LoadLockedReq_mshr_miss_rate::cpu.data     0.375000                       # mshr miss rate for LoadLockedReq accesses
system.cpu.dcache.LoadLockedReq_mshr_miss_rate::total     0.375000                       # mshr miss rate for LoadLockedReq accesses
system.cpu.dcache.demand_mshr_miss_rate::cpu.data     0.064422                       # mshr miss rate for demand accesses
system.cpu.dcache.demand_mshr_miss_rate::total     0.064422                       # mshr miss rate for demand accesses
system.cpu.dcache.overall_mshr_miss_rate::cpu.data     0.064422                       # mshr miss rate for overall accesses
system.cpu.dcache.overall_mshr_miss_rate::total     0.064422                       # mshr miss rate for overall accesses
system.cpu.dcache.ReadReq_avg_mshr_miss_latency::cpu.data 67182.174419                       # average ReadReq mshr miss latency
system.cpu.dcache.ReadReq_avg_mshr_miss_latency::total 67182.174419                       # average ReadReq mshr miss latency
system.cpu.dcache.WriteReq_avg_mshr_miss_latency::cpu.data 56165.495575                       # average WriteReq mshr miss latency
system.cpu.dcache.WriteReq_avg_mshr_miss_latency::total 56165.495575                       # average WriteReq mshr miss latency
system.cpu.dcache.LoadLockedReq_avg_mshr_miss_latency::cpu.data 59887.333333                       # average LoadLockedReq mshr miss latency
system.cpu.dcache.LoadLockedReq_avg_mshr_miss_latency::total 59887.333333                       # average LoadLockedReq mshr miss latency
system.cpu.dcache.demand_avg_mshr_miss_latency::cpu.data 60926.472362                       # average overall mshr miss latency
system.cpu.dcache.demand_avg_mshr_miss_latency::total 60926.472362                       # average overall mshr miss latency
system.cpu.dcache.overall_avg_mshr_miss_latency::cpu.data 60926.472362                       # average overall mshr miss latency
system.cpu.dcache.overall_avg_mshr_miss_latency::total 60926.472362                       # average overall mshr miss latency
system.cpu.icache.tags.pwrStateResidencyTicks::UNDEFINED     34612792                       # Cumulative time (in ticks) in various power states
system.cpu.icache.tags.replacements                87                       # number of replacements
system.cpu.icache.tags.tagsinuse           184.877608                       # Cycle average of tags in use
system.cpu.icache.tags.total_refs                3041                       # Total number of references to valid blocks.
system.cpu.icache.tags.sampled_refs               410                       # Sample count of references to valid blocks.
system.cpu.icache.tags.avg_refs              7.417073                       # Average number of references to valid blocks.
system.cpu.icache.tags.warmup_cycle             72929                       # Cycle when the warmup percentage was hit.
system.cpu.icache.tags.occ_blocks::cpu.inst   184.877608                       # Average occupied blocks per requestor
system.cpu.icache.tags.occ_percent::cpu.inst     0.361089                       # Average percentage of cache occupancy
system.cpu.icache.tags.occ_percent::total     0.361089                       # Average percentage of cache occupancy
system.cpu.icache.tags.occ_task_id_blocks::1024          323                       # Occupied blocks per task id
system.cpu.icache.tags.age_task_id_blocks_1024::0          110                       # Occupied blocks per task id
system.cpu.icache.tags.age_task_id_blocks_1024::1          213                       # Occupied blocks per task id
system.cpu.icache.tags.occ_task_id_percent::1024     0.630859                       # Percentage of cache occupancy per task id
system.cpu.icache.tags.tag_accesses              7314                       # Number of tag accesses
system.cpu.icache.tags.data_accesses             7314                       # Number of data accesses
system.cpu.icache.pwrStateResidencyTicks::UNDEFINED     34612792                       # Cumulative time (in ticks) in various power states
system.cpu.icache.ReadReq_hits::cpu.inst         3041                       # number of ReadReq hits
system.cpu.icache.ReadReq_hits::total            3041                       # number of ReadReq hits
system.cpu.icache.demand_hits::cpu.inst          3041                       # number of demand (read+write) hits
system.cpu.icache.demand_hits::total             3041                       # number of demand (read+write) hits
system.cpu.icache.overall_hits::cpu.inst         3041                       # number of overall hits
system.cpu.icache.overall_hits::total            3041                       # number of overall hits
system.cpu.icache.ReadReq_misses::cpu.inst          411                       # number of ReadReq misses
system.cpu.icache.ReadReq_misses::total           411                       # number of ReadReq misses
system.cpu.icache.demand_misses::cpu.inst          411                       # number of demand (read+write) misses
system.cpu.icache.demand_misses::total            411                       # number of demand (read+write) misses
system.cpu.icache.overall_misses::cpu.inst          411                       # number of overall misses
system.cpu.icache.overall_misses::total           411                       # number of overall misses
system.cpu.icache.ReadReq_miss_latency::cpu.inst     25270368                       # number of ReadReq miss cycles
system.cpu.icache.ReadReq_miss_latency::total     25270368                       # number of ReadReq miss cycles
system.cpu.icache.demand_miss_latency::cpu.inst     25270368                       # number of demand (read+write) miss cycles
system.cpu.icache.demand_miss_latency::total     25270368                       # number of demand (read+write) miss cycles
system.cpu.icache.overall_miss_latency::cpu.inst     25270368                       # number of overall miss cycles
system.cpu.icache.overall_miss_latency::total     25270368                       # number of overall miss cycles
system.cpu.icache.ReadReq_accesses::cpu.inst         3452                       # number of ReadReq accesses(hits+misses)
system.cpu.icache.ReadReq_accesses::total         3452                       # number of ReadReq accesses(hits+misses)
system.cpu.icache.demand_accesses::cpu.inst         3452                       # number of demand (read+write) accesses
system.cpu.icache.demand_accesses::total         3452                       # number of demand (read+write) accesses
system.cpu.icache.overall_accesses::cpu.inst         3452                       # number of overall (read+write) accesses
system.cpu.icache.overall_accesses::total         3452                       # number of overall (read+write) accesses
system.cpu.icache.ReadReq_miss_rate::cpu.inst     0.119061                       # miss rate for ReadReq accesses
system.cpu.icache.ReadReq_miss_rate::total     0.119061                       # miss rate for ReadReq accesses
system.cpu.icache.demand_miss_rate::cpu.inst     0.119061                       # miss rate for demand accesses
system.cpu.icache.demand_miss_rate::total     0.119061                       # miss rate for demand accesses
system.cpu.icache.overall_miss_rate::cpu.inst     0.119061                       # miss rate for overall accesses
system.cpu.icache.overall_miss_rate::total     0.119061                       # miss rate for overall accesses
system.cpu.icache.ReadReq_avg_miss_latency::cpu.inst 61485.080292                       # average ReadReq miss latency
system.cpu.icache.ReadReq_avg_miss_latency::total 61485.080292                       # average ReadReq miss latency
system.cpu.icache.demand_avg_miss_latency::cpu.inst 61485.080292                       # average overall miss latency
system.cpu.icache.demand_avg_miss_latency::total 61485.080292                       # average overall miss latency
system.cpu.icache.overall_avg_miss_latency::cpu.inst 61485.080292                       # average overall miss latency
system.cpu.icache.overall_avg_miss_latency::total 61485.080292                       # average overall miss latency
system.cpu.icache.blocked_cycles::no_mshrs            0                       # number of cycles access was blocked
system.cpu.icache.blocked_cycles::no_targets            0                       # number of cycles access was blocked
system.cpu.icache.blocked::no_mshrs                 0                       # number of cycles access was blocked
system.cpu.icache.blocked::no_targets               0                       # number of cycles access was blocked
system.cpu.icache.avg_blocked_cycles::no_mshrs          nan                       # average number of cycles each access was blocked
system.cpu.icache.avg_blocked_cycles::no_targets          nan                       # average number of cycles each access was blocked
system.cpu.icache.writebacks::writebacks           87                       # number of writebacks
system.cpu.icache.writebacks::total                87                       # number of writebacks
system.cpu.icache.ReadReq_mshr_misses::cpu.inst          411                       # number of ReadReq MSHR misses
system.cpu.icache.ReadReq_mshr_misses::total          411                       # number of ReadReq MSHR misses
system.cpu.icache.demand_mshr_misses::cpu.inst          411                       # number of demand (read+write) MSHR misses
system.cpu.icache.demand_mshr_misses::total          411                       # number of demand (read+write) MSHR misses
system.cpu.icache.overall_mshr_misses::cpu.inst          411                       # number of overall MSHR misses
system.cpu.icache.overall_mshr_misses::total          411                       # number of overall MSHR misses
system.cpu.icache.ReadReq_mshr_miss_latency::cpu.inst     25013708                       # number of ReadReq MSHR miss cycles
system.cpu.icache.ReadReq_mshr_miss_latency::total     25013708                       # number of ReadReq MSHR miss cycles
system.cpu.icache.demand_mshr_miss_latency::cpu.inst     25013708                       # number of demand (read+write) MSHR miss cycles
system.cpu.icache.demand_mshr_miss_latency::total     25013708                       # number of demand (read+write) MSHR miss cycles
system.cpu.icache.overall_mshr_miss_latency::cpu.inst     25013708                       # number of overall MSHR miss cycles
system.cpu.icache.overall_mshr_miss_latency::total     25013708                       # number of overall MSHR miss cycles
system.cpu.icache.ReadReq_mshr_miss_rate::cpu.inst     0.119061                       # mshr miss rate for ReadReq accesses
system.cpu.icache.ReadReq_mshr_miss_rate::total     0.119061                       # mshr miss rate for ReadReq accesses
system.cpu.icache.demand_mshr_miss_rate::cpu.inst     0.119061                       # mshr miss rate for demand accesses
system.cpu.icache.demand_mshr_miss_rate::total     0.119061                       # mshr miss rate for demand accesses
system.cpu.icache.overall_mshr_miss_rate::cpu.inst     0.119061                       # mshr miss rate for overall accesses
system.cpu.icache.overall_mshr_miss_rate::total     0.119061                       # mshr miss rate for overall accesses
system.cpu.icache.ReadReq_avg_mshr_miss_latency::cpu.inst 60860.603406                       # average ReadReq mshr miss latency
system.cpu.icache.ReadReq_avg_mshr_miss_latency::total 60860.603406                       # average ReadReq mshr miss latency
system.cpu.icache.demand_avg_mshr_miss_latency::cpu.inst 60860.603406                       # average overall mshr miss latency
system.cpu.icache.demand_avg_mshr_miss_latency::total 60860.603406                       # average overall mshr miss latency
system.cpu.icache.overall_avg_mshr_miss_latency::cpu.inst 60860.603406                       # average overall mshr miss latency
system.cpu.icache.overall_avg_mshr_miss_latency::total 60860.603406                       # average overall mshr miss latency
system.l2bus.snoop_filter.tot_requests            701                       # Total number of requests made to the snoop filter.
system.l2bus.snoop_filter.hit_single_requests           88                       # Number of requests hitting in the snoop filter with a single holder of the requested data.
system.l2bus.snoop_filter.hit_multi_requests            0                       # Number of requests hitting in the snoop filter with multiple (>1) holders of the requested data.
system.l2bus.snoop_filter.tot_snoops                2                       # Total number of snoops made to the snoop filter.
system.l2bus.snoop_filter.hit_single_snoops            2                       # Number of snoops hitting in the snoop filter with a single holder of the requested data.
system.l2bus.snoop_filter.hit_multi_snoops            0                       # Number of snoops hitting in the snoop filter with multiple (>1) holders of the requested data.
system.l2bus.pwrStateResidencyTicks::UNDEFINED     34612792                       # Cumulative time (in ticks) in various power states
system.l2bus.trans_dist::ReadResp                 499                       # Transaction distribution
system.l2bus.trans_dist::WritebackDirty             1                       # Transaction distribution
system.l2bus.trans_dist::WritebackClean            87                       # Transaction distribution
system.l2bus.trans_dist::HardPFReq                 32                       # Transaction distribution
system.l2bus.trans_dist::ReadExReq                113                       # Transaction distribution
system.l2bus.trans_dist::ReadExResp               113                       # Transaction distribution
system.l2bus.trans_dist::ReadCleanReq             411                       # Transaction distribution
system.l2bus.trans_dist::ReadSharedReq             89                       # Transaction distribution
system.l2bus.pkt_count_system.cpu.icache.mem_side::system.l2cache.cpu_side          908                       # Packet count per connected master and slave (bytes)
system.l2bus.pkt_count_system.cpu.dcache.mem_side::system.l2cache.cpu_side          405                       # Packet count per connected master and slave (bytes)
system.l2bus.pkt_count::total                    1313                       # Packet count per connected master and slave (bytes)
system.l2bus.pkt_size_system.cpu.icache.mem_side::system.l2cache.cpu_side        31808                       # Cumulative packet size per connected master and slave (bytes)
system.l2bus.pkt_size_system.cpu.dcache.mem_side::system.l2cache.cpu_side        12992                       # Cumulative packet size per connected master and slave (bytes)
system.l2bus.pkt_size::total                    44800                       # Cumulative packet size per connected master and slave (bytes)
system.l2bus.snoops                                32                       # Total snoops (count)
system.l2bus.snoopTraffic                           0                       # Total snoop traffic (bytes)
system.l2bus.snoop_fanout::samples                645                       # Request fanout histogram
system.l2bus.snoop_fanout::mean              0.003101                       # Request fanout histogram
system.l2bus.snoop_fanout::stdev             0.055641                       # Request fanout histogram
system.l2bus.snoop_fanout::underflows               0      0.00%      0.00% # Request fanout histogram
system.l2bus.snoop_fanout::0                      643     99.69%     99.69% # Request fanout histogram
system.l2bus.snoop_fanout::1                        2      0.31%    100.00% # Request fanout histogram
system.l2bus.snoop_fanout::2                        0      0.00%    100.00% # Request fanout histogram
system.l2bus.snoop_fanout::overflows                0      0.00%    100.00% # Request fanout histogram
system.l2bus.snoop_fanout::min_value                0                       # Request fanout histogram
system.l2bus.snoop_fanout::max_value                1                       # Request fanout histogram
system.l2bus.snoop_fanout::total                  645                       # Request fanout histogram
system.l2bus.reqLayer0.occupancy               329589                       # Layer occupancy (ticks)
system.l2bus.reqLayer0.utilization                1.0                       # Layer utilization (%)
system.l2bus.respLayer0.occupancy              641650                       # Layer occupancy (ticks)
system.l2bus.respLayer0.utilization               1.9                       # Layer utilization (%)
system.l2bus.respLayer1.occupancy              316130                       # Layer occupancy (ticks)
system.l2bus.respLayer1.utilization               0.9                       # Layer utilization (%)
system.l2cache.prefetcher.pwrStateResidencyTicks::UNDEFINED     34612792                       # Cumulative time (in ticks) in various power states
system.l2cache.prefetcher.num_hwpf_issued           33                       # number of hwpf issued
system.l2cache.prefetcher.pfIdentified             33                       # number of prefetch candidates identified
system.l2cache.prefetcher.pfBufferHit               0                       # number of redundant prefetches already in prefetch queue
system.l2cache.prefetcher.pfInCache                 0                       # number of redundant prefetches already in cache/mshr dropped
system.l2cache.prefetcher.pfRemovedFull             0                       # number of prefetches dropped due to prefetch queue size
system.l2cache.prefetcher.pfSpanPage                1                       # number of prefetches not generated due to page crossing
system.l2cache.tags.pwrStateResidencyTicks::UNDEFINED     34612792                       # Cumulative time (in ticks) in various power states
system.l2cache.tags.replacements                    0                       # number of replacements
system.l2cache.tags.tagsinuse               18.434124                       # Cycle average of tags in use
system.l2cache.tags.total_refs                      0                       # Total number of references to valid blocks.
system.l2cache.tags.sampled_refs                   79                       # Sample count of references to valid blocks.
system.l2cache.tags.avg_refs                        0                       # Average number of references to valid blocks.
system.l2cache.tags.warmup_cycle              6798047                       # Cycle when the warmup percentage was hit.
system.l2cache.tags.occ_blocks::writebacks    18.312931                       # Average occupied blocks per requestor
system.l2cache.tags.occ_blocks::l2cache.prefetcher     0.121193                       # Average occupied blocks per requestor
system.l2cache.tags.occ_percent::writebacks     0.002235                       # Average percentage of cache occupancy
system.l2cache.tags.occ_percent::l2cache.prefetcher     0.000015                       # Average percentage of cache occupancy
system.l2cache.tags.occ_percent::total       0.002250                       # Average percentage of cache occupancy
system.l2cache.tags.occ_task_id_blocks::1024           79                       # Occupied blocks per task id
system.l2cache.tags.age_task_id_blocks_1024::0           58                       # Occupied blocks per task id
system.l2cache.tags.age_task_id_blocks_1024::1           21                       # Occupied blocks per task id
system.l2cache.tags.occ_task_id_percent::1024     0.009644                       # Percentage of cache occupancy per task id
system.l2cache.tags.tag_accesses                 5726                       # Number of tag accesses
system.l2cache.tags.data_accesses                5726                       # Number of data accesses
system.l2cache.pwrStateResidencyTicks::UNDEFINED     34612792                       # Cumulative time (in ticks) in various power states
system.l2cache.WritebackDirty_hits::writebacks            1                       # number of WritebackDirty hits
system.l2cache.WritebackDirty_hits::total            1                       # number of WritebackDirty hits
system.l2cache.WritebackClean_hits::writebacks           87                       # number of WritebackClean hits
system.l2cache.WritebackClean_hits::total           87                       # number of WritebackClean hits
system.l2cache.ReadExReq_hits::cpu.data            11                       # number of ReadExReq hits
system.l2cache.ReadExReq_hits::total               11                       # number of ReadExReq hits
system.l2cache.ReadCleanReq_hits::cpu.inst            9                       # number of ReadCleanReq hits
system.l2cache.ReadCleanReq_hits::total             9                       # number of ReadCleanReq hits
system.l2cache.ReadSharedReq_hits::cpu.data            1                       # number of ReadSharedReq hits
system.l2cache.ReadSharedReq_hits::total            1                       # number of ReadSharedReq hits
system.l2cache.demand_hits::cpu.inst                9                       # number of demand (read+write) hits
system.l2cache.demand_hits::cpu.data               12                       # number of demand (read+write) hits
system.l2cache.demand_hits::total                  21                       # number of demand (read+write) hits
system.l2cache.overall_hits::cpu.inst               9                       # number of overall hits
system.l2cache.overall_hits::cpu.data              12                       # number of overall hits
system.l2cache.overall_hits::total                 21                       # number of overall hits
system.l2cache.ReadExReq_misses::cpu.data          102                       # number of ReadExReq misses
system.l2cache.ReadExReq_misses::total            102                       # number of ReadExReq misses
system.l2cache.ReadCleanReq_misses::cpu.inst          402                       # number of ReadCleanReq misses
system.l2cache.ReadCleanReq_misses::total          402                       # number of ReadCleanReq misses
system.l2cache.ReadSharedReq_misses::cpu.data           88                       # number of ReadSharedReq misses
system.l2cache.ReadSharedReq_misses::total           88                       # number of ReadSharedReq misses
system.l2cache.demand_misses::cpu.inst            402                       # number of demand (read+write) misses
system.l2cache.demand_misses::cpu.data            190                       # number of demand (read+write) misses
system.l2cache.demand_misses::total               592                       # number of demand (read+write) misses
system.l2cache.overall_misses::cpu.inst           402                       # number of overall misses
system.l2cache.overall_misses::cpu.data           190                       # number of overall misses
system.l2cache.overall_misses::total              592                       # number of overall misses
system.l2cache.ReadExReq_miss_latency::cpu.data      6146381                       # number of ReadExReq miss cycles
system.l2cache.ReadExReq_miss_latency::total      6146381                       # number of ReadExReq miss cycles
system.l2cache.ReadCleanReq_miss_latency::cpu.inst     24438101                       # number of ReadCleanReq miss cycles
system.l2cache.ReadCleanReq_miss_latency::total     24438101                       # number of ReadCleanReq miss cycles
system.l2cache.ReadSharedReq_miss_latency::cpu.data      5840267                       # number of ReadSharedReq miss cycles
system.l2cache.ReadSharedReq_miss_latency::total      5840267                       # number of ReadSharedReq miss cycles
system.l2cache.demand_miss_latency::cpu.inst     24438101                       # number of demand (read+write) miss cycles
system.l2cache.demand_miss_latency::cpu.data     11986648                       # number of demand (read+write) miss cycles
system.l2cache.demand_miss_latency::total     36424749                       # number of demand (read+write) miss cycles
system.l2cache.overall_miss_latency::cpu.inst     24438101                       # number of overall miss cycles
system.l2cache.overall_miss_latency::cpu.data     11986648                       # number of overall miss cycles
system.l2cache.overall_miss_latency::total     36424749                       # number of overall miss cycles
system.l2cache.WritebackDirty_accesses::writebacks            1                       # number of WritebackDirty accesses(hits+misses)
system.l2cache.WritebackDirty_accesses::total            1                       # number of WritebackDirty accesses(hits+misses)
system.l2cache.WritebackClean_accesses::writebacks           87                       # number of WritebackClean accesses(hits+misses)
system.l2cache.WritebackClean_accesses::total           87                       # number of WritebackClean accesses(hits+misses)
system.l2cache.ReadExReq_accesses::cpu.data          113                       # number of ReadExReq accesses(hits+misses)
system.l2cache.ReadExReq_accesses::total          113                       # number of ReadExReq accesses(hits+misses)
system.l2cache.ReadCleanReq_accesses::cpu.inst          411                       # number of ReadCleanReq accesses(hits+misses)
system.l2cache.ReadCleanReq_accesses::total          411                       # number of ReadCleanReq accesses(hits+misses)
system.l2cache.ReadSharedReq_accesses::cpu.data           89                       # number of ReadSharedReq accesses(hits+misses)
system.l2cache.ReadSharedReq_accesses::total           89                       # number of ReadSharedReq accesses(hits+misses)
system.l2cache.demand_accesses::cpu.inst          411                       # number of demand (read+write) accesses
system.l2cache.demand_accesses::cpu.data          202                       # number of demand (read+write) accesses
system.l2cache.demand_accesses::total             613                       # number of demand (read+write) accesses
system.l2cache.overall_accesses::cpu.inst          411                       # number of overall (read+write) accesses
system.l2cache.overall_accesses::cpu.data          202                       # number of overall (read+write) accesses
system.l2cache.overall_accesses::total            613                       # number of overall (read+write) accesses
system.l2cache.ReadExReq_miss_rate::cpu.data     0.902655                       # miss rate for ReadExReq accesses
system.l2cache.ReadExReq_miss_rate::total     0.902655                       # miss rate for ReadExReq accesses
system.l2cache.ReadCleanReq_miss_rate::cpu.inst     0.978102                       # miss rate for ReadCleanReq accesses
system.l2cache.ReadCleanReq_miss_rate::total     0.978102                       # miss rate for ReadCleanReq accesses
system.l2cache.ReadSharedReq_miss_rate::cpu.data     0.988764                       # miss rate for ReadSharedReq accesses
system.l2cache.ReadSharedReq_miss_rate::total     0.988764                       # miss rate for ReadSharedReq accesses
system.l2cache.demand_miss_rate::cpu.inst     0.978102                       # miss rate for demand accesses
system.l2cache.demand_miss_rate::cpu.data     0.940594                       # miss rate for demand accesses
system.l2cache.demand_miss_rate::total       0.965742                       # miss rate for demand accesses
system.l2cache.overall_miss_rate::cpu.inst     0.978102                       # miss rate for overall accesses
system.l2cache.overall_miss_rate::cpu.data     0.940594                       # miss rate for overall accesses
system.l2cache.overall_miss_rate::total      0.965742                       # miss rate for overall accesses
system.l2cache.ReadExReq_avg_miss_latency::cpu.data 60258.637255                       # average ReadExReq miss latency
system.l2cache.ReadExReq_avg_miss_latency::total 60258.637255                       # average ReadExReq miss latency
system.l2cache.ReadCleanReq_avg_miss_latency::cpu.inst 60791.296020                       # average ReadCleanReq miss latency
system.l2cache.ReadCleanReq_avg_miss_latency::total 60791.296020                       # average ReadCleanReq miss latency
system.l2cache.ReadSharedReq_avg_miss_latency::cpu.data 66366.670455                       # average ReadSharedReq miss latency
system.l2cache.ReadSharedReq_avg_miss_latency::total 66366.670455                       # average ReadSharedReq miss latency
system.l2cache.demand_avg_miss_latency::cpu.inst 60791.296020                       # average overall miss latency
system.l2cache.demand_avg_miss_latency::cpu.data 63087.621053                       # average overall miss latency
system.l2cache.demand_avg_miss_latency::total 61528.292230                       # average overall miss latency
system.l2cache.overall_avg_miss_latency::cpu.inst 60791.296020                       # average overall miss latency
system.l2cache.overall_avg_miss_latency::cpu.data 63087.621053                       # average overall miss latency
system.l2cache.overall_avg_miss_latency::total 61528.292230                       # average overall miss latency
system.l2cache.blocked_cycles::no_mshrs             0                       # number of cycles access was blocked
system.l2cache.blocked_cycles::no_targets            0                       # number of cycles access was blocked
system.l2cache.blocked::no_mshrs                    0                       # number of cycles access was blocked
system.l2cache.blocked::no_targets                  0                       # number of cycles access was blocked
system.l2cache.avg_blocked_cycles::no_mshrs          nan                       # average number of cycles each access was blocked
system.l2cache.avg_blocked_cycles::no_targets          nan                       # average number of cycles each access was blocked
system.l2cache.ReadExReq_mshr_hits::cpu.data           18                       # number of ReadExReq MSHR hits
system.l2cache.ReadExReq_mshr_hits::total           18                       # number of ReadExReq MSHR hits
system.l2cache.demand_mshr_hits::cpu.data           18                       # number of demand (read+write) MSHR hits
system.l2cache.demand_mshr_hits::total             18                       # number of demand (read+write) MSHR hits
system.l2cache.overall_mshr_hits::cpu.data           18                       # number of overall MSHR hits
system.l2cache.overall_mshr_hits::total            18                       # number of overall MSHR hits
system.l2cache.HardPFReq_mshr_misses::l2cache.prefetcher           32                       # number of HardPFReq MSHR misses
system.l2cache.HardPFReq_mshr_misses::total           32                       # number of HardPFReq MSHR misses
system.l2cache.ReadExReq_mshr_misses::cpu.data           84                       # number of ReadExReq MSHR misses
system.l2cache.ReadExReq_mshr_misses::total           84                       # number of ReadExReq MSHR misses
system.l2cache.ReadCleanReq_mshr_misses::cpu.inst          402                       # number of ReadCleanReq MSHR misses
system.l2cache.ReadCleanReq_mshr_misses::total          402                       # number of ReadCleanReq MSHR misses
system.l2cache.ReadSharedReq_mshr_misses::cpu.data           88                       # number of ReadSharedReq MSHR misses
system.l2cache.ReadSharedReq_mshr_misses::total           88                       # number of ReadSharedReq MSHR misses
system.l2cache.demand_mshr_misses::cpu.inst          402                       # number of demand (read+write) MSHR misses
system.l2cache.demand_mshr_misses::cpu.data          172                       # number of demand (read+write) MSHR misses
system.l2cache.demand_mshr_misses::total          574                       # number of demand (read+write) MSHR misses
system.l2cache.overall_mshr_misses::cpu.inst          402                       # number of overall MSHR misses
system.l2cache.overall_mshr_misses::cpu.data          172                       # number of overall MSHR misses
system.l2cache.overall_mshr_misses::l2cache.prefetcher           32                       # number of overall MSHR misses
system.l2cache.overall_mshr_misses::total          606                       # number of overall MSHR misses
system.l2cache.HardPFReq_mshr_miss_latency::l2cache.prefetcher      1397545                       # number of HardPFReq MSHR miss cycles
system.l2cache.HardPFReq_mshr_miss_latency::total      1397545                       # number of HardPFReq MSHR miss cycles
system.l2cache.ReadExReq_mshr_miss_latency::cpu.data      5299403                       # number of ReadExReq MSHR miss cycles
system.l2cache.ReadExReq_mshr_miss_latency::total      5299403                       # number of ReadExReq MSHR miss cycles
system.l2cache.ReadCleanReq_mshr_miss_latency::cpu.inst     23308484                       # number of ReadCleanReq MSHR miss cycles
system.l2cache.ReadCleanReq_mshr_miss_latency::total     23308484                       # number of ReadCleanReq MSHR miss cycles
system.l2cache.ReadSharedReq_mshr_miss_latency::cpu.data      5592371                       # number of ReadSharedReq MSHR miss cycles
system.l2cache.ReadSharedReq_mshr_miss_latency::total      5592371                       # number of ReadSharedReq MSHR miss cycles
system.l2cache.demand_mshr_miss_latency::cpu.inst     23308484                       # number of demand (read+write) MSHR miss cycles
system.l2cache.demand_mshr_miss_latency::cpu.data     10891774                       # number of demand (read+write) MSHR miss cycles
system.l2cache.demand_mshr_miss_latency::total     34200258                       # number of demand (read+write) MSHR miss cycles
system.l2cache.overall_mshr_miss_latency::cpu.inst     23308484                       # number of overall MSHR miss cycles
system.l2cache.overall_mshr_miss_latency::cpu.data     10891774                       # number of overall MSHR miss cycles
system.l2cache.overall_mshr_miss_latency::l2cache.prefetcher      1397545                       # number of overall MSHR miss cycles
system.l2cache.overall_mshr_miss_latency::total     35597803                       # number of overall MSHR miss cycles
system.l2cache.HardPFReq_mshr_miss_rate::l2cache.prefetcher          inf                       # mshr miss rate for HardPFReq accesses
system.l2cache.HardPFReq_mshr_miss_rate::total          inf                       # mshr miss rate for HardPFReq accesses
system.l2cache.ReadExReq_mshr_miss_rate::cpu.data     0.743363                       # mshr miss rate for ReadExReq accesses
system.l2cache.ReadExReq_mshr_miss_rate::total     0.743363                       # mshr miss rate for ReadExReq accesses
system.l2cache.ReadCleanReq_mshr_miss_rate::cpu.inst     0.978102                       # mshr miss rate for ReadCleanReq accesses
system.l2cache.ReadCleanReq_mshr_miss_rate::total     0.978102                       # mshr miss rate for ReadCleanReq accesses
system.l2cache.ReadSharedReq_mshr_miss_rate::cpu.data     0.988764                       # mshr miss rate for ReadSharedReq accesses
system.l2cache.ReadSharedReq_mshr_miss_rate::total     0.988764                       # mshr miss rate for ReadSharedReq accesses
system.l2cache.demand_mshr_miss_rate::cpu.inst     0.978102                       # mshr miss rate for demand accesses
system.l2cache.demand_mshr_miss_rate::cpu.data     0.851485                       # mshr miss rate for demand accesses
system.l2cache.demand_mshr_miss_rate::total     0.936378                       # mshr miss rate for demand accesses
system.l2cache.overall_mshr_miss_rate::cpu.inst     0.978102                       # mshr miss rate for overall accesses
system.l2cache.overall_mshr_miss_rate::cpu.data     0.851485                       # mshr miss rate for overall accesses
system.l2cache.overall_mshr_miss_rate::l2cache.prefetcher          inf                       # mshr miss rate for overall accesses
system.l2cache.overall_mshr_miss_rate::total     0.988581                       # mshr miss rate for overall accesses
system.l2cache.HardPFReq_avg_mshr_miss_latency::l2cache.prefetcher 43673.281250                       # average HardPFReq mshr miss latency
system.l2cache.HardPFReq_avg_mshr_miss_latency::total 43673.281250                       # average HardPFReq mshr miss latency
system.l2cache.ReadExReq_avg_mshr_miss_latency::cpu.data 63088.130952                       # average ReadExReq mshr miss latency
system.l2cache.ReadExReq_avg_mshr_miss_latency::total 63088.130952                       # average ReadExReq mshr miss latency
system.l2cache.ReadCleanReq_avg_mshr_miss_latency::cpu.inst 57981.303483                       # average ReadCleanReq mshr miss latency
system.l2cache.ReadCleanReq_avg_mshr_miss_latency::total 57981.303483                       # average ReadCleanReq mshr miss latency
system.l2cache.ReadSharedReq_avg_mshr_miss_latency::cpu.data 63549.670455                       # average ReadSharedReq mshr miss latency
system.l2cache.ReadSharedReq_avg_mshr_miss_latency::total 63549.670455                       # average ReadSharedReq mshr miss latency
system.l2cache.demand_avg_mshr_miss_latency::cpu.inst 57981.303483                       # average overall mshr miss latency
system.l2cache.demand_avg_mshr_miss_latency::cpu.data 63324.267442                       # average overall mshr miss latency
system.l2cache.demand_avg_mshr_miss_latency::total 59582.331010                       # average overall mshr miss latency
system.l2cache.overall_avg_mshr_miss_latency::cpu.inst 57981.303483                       # average overall mshr miss latency
system.l2cache.overall_avg_mshr_miss_latency::cpu.data 63324.267442                       # average overall mshr miss latency
system.l2cache.overall_avg_mshr_miss_latency::l2cache.prefetcher 43673.281250                       # average overall mshr miss latency
system.l2cache.overall_avg_mshr_miss_latency::total 58742.249175                       # average overall mshr miss latency
system.membus.snoop_filter.tot_requests           603                       # Total number of requests made to the snoop filter.
system.membus.snoop_filter.hit_single_requests            0                       # Number of requests hitting in the snoop filter with a single holder of the requested data.
system.membus.snoop_filter.hit_multi_requests            0                       # Number of requests hitting in the snoop filter with multiple (>1) holders of the requested data.
system.membus.snoop_filter.tot_snoops               0                       # Total number of snoops made to the snoop filter.
system.membus.snoop_filter.hit_single_snoops            0                       # Number of snoops hitting in the snoop filter with a single holder of the requested data.
system.membus.snoop_filter.hit_multi_snoops            0                       # Number of snoops hitting in the snoop filter with multiple (>1) holders of the requested data.
system.membus.pwrStateResidencyTicks::UNDEFINED     34612792                       # Cumulative time (in ticks) in various power states
system.membus.trans_dist::ReadResp                519                       # Transaction distribution
system.membus.trans_dist::ReadExReq                84                       # Transaction distribution
system.membus.trans_dist::ReadExResp               84                       # Transaction distribution
system.membus.trans_dist::ReadCleanReq            519                       # Transaction distribution
system.membus.pkt_count_system.l2cache.mem_side::system.mem_ctrl.port         1206                       # Packet count per connected master and slave (bytes)
system.membus.pkt_count::total                   1206                       # Packet count per connected master and slave (bytes)
system.membus.pkt_size_system.l2cache.mem_side::system.mem_ctrl.port        38592                       # Cumulative packet size per connected master and slave (bytes)
system.membus.pkt_size::total                   38592                       # Cumulative packet size per connected master and slave (bytes)
system.membus.snoops                                0                       # Total snoops (count)
system.membus.snoopTraffic                          0                       # Total snoop traffic (bytes)
system.membus.snoop_fanout::samples               603                       # Request fanout histogram
system.membus.snoop_fanout::mean                    0                       # Request fanout histogram
system.membus.snoop_fanout::stdev                   0                       # Request fanout histogram
system.membus.snoop_fanout::underflows              0      0.00%      0.00% # Request fanout histogram
system.membus.snoop_fanout::0                     603    100.00%    100.00% # Request fanout histogram
system.membus.snoop_fanout::1                       0      0.00%    100.00% # Request fanout histogram
system.membus.snoop_fanout::overflows               0      0.00%    100.00% # Request fanout histogram
system.membus.snoop_fanout::min_value               0                       # Request fanout histogram
system.membus.snoop_fanout::max_value               0                       # Request fanout histogram
system.membus.snoop_fanout::total                 603                       # Request fanout histogram
system.membus.reqLayer0.occupancy              188739                       # Layer occupancy (ticks)
system.membus.reqLayer0.utilization               0.5                       # Layer utilization (%)
system.membus.respLayer0.occupancy             956131                       # Layer occupancy (ticks)
system.membus.respLayer0.utilization              2.8                       # Layer utilization (%)

---------- End Simulation Statistics   ----------
