
---------- Begin Simulation Statistics ----------
sim_seconds                                  0.009429                       # Number of seconds simulated
sim_ticks                                  9429346875                       # Number of ticks simulated
final_tick                                 9429346875                       # Number of ticks from beginning of simulation (restored from checkpoints and never reset)
sim_freq                                 1000000000000                       # Frequency of simulated ticks
host_inst_rate                                 481242                       # Simulator instruction rate (inst/s)
host_op_rate                                   482486                       # Simulator op (including micro ops) rate (op/s)
host_tick_rate                              365099159                       # Simulator tick rate (ticks/s)
host_mem_usage                                 640440                       # Number of bytes of host memory used
host_seconds                                    25.82                       # Real time elapsed on the host
sim_insts                                    12428958                       # Number of instructions simulated
sim_ops                                      12461085                       # Number of ops (including micro ops) simulated
system.clk_domain.voltage_domain.voltage            1                       # Voltage in Volts
system.clk_domain.clock                           625                       # Clock period in ticks
system.mem_ctrl.pwrStateResidencyTicks::UNDEFINED   9429346875                       # Cumulative time (in ticks) in various power states
system.mem_ctrl.bytes_read::cpu.inst            38144                       # Number of bytes read from this memory
system.mem_ctrl.bytes_read::cpu.data            15040                       # Number of bytes read from this memory
system.mem_ctrl.bytes_read::l2cache.prefetcher       127808                       # Number of bytes read from this memory
system.mem_ctrl.bytes_read::total              180992                       # Number of bytes read from this memory
system.mem_ctrl.bytes_inst_read::cpu.inst        38144                       # Number of instructions bytes read from this memory
system.mem_ctrl.bytes_inst_read::total          38144                       # Number of instructions bytes read from this memory
system.mem_ctrl.num_reads::writebacks               0                       # Number of read requests responded to by this memory
system.mem_ctrl.num_reads::functional               0                       # Number of read requests responded to by this memory
system.mem_ctrl.num_reads::interrupt                0                       # Number of read requests responded to by this memory
system.mem_ctrl.num_reads::cpu.inst               596                       # Number of read requests responded to by this memory
system.mem_ctrl.num_reads::cpu.data               235                       # Number of read requests responded to by this memory
system.mem_ctrl.num_reads::l2cache.prefetcher         1997                       # Number of read requests responded to by this memory
system.mem_ctrl.num_reads::total                 2828                       # Number of read requests responded to by this memory
system.mem_ctrl.num_writes::writebacks              0                       # Number of write requests responded to by this memory
system.mem_ctrl.num_writes::functional              0                       # Number of write requests responded to by this memory
system.mem_ctrl.num_writes::interrupt               0                       # Number of write requests responded to by this memory
system.mem_ctrl.num_writes::cpu.inst                0                       # Number of write requests responded to by this memory
system.mem_ctrl.num_writes::cpu.data                0                       # Number of write requests responded to by this memory
system.mem_ctrl.num_writes::l2cache.prefetcher            0                       # Number of write requests responded to by this memory
system.mem_ctrl.num_writes::total                   0                       # Number of write requests responded to by this memory
system.mem_ctrl.bw_read::cpu.inst             4045243                       # Total read bandwidth from this memory (bytes/s)
system.mem_ctrl.bw_read::cpu.data             1595020                       # Total read bandwidth from this memory (bytes/s)
system.mem_ctrl.bw_read::l2cache.prefetcher     13554279                       # Total read bandwidth from this memory (bytes/s)
system.mem_ctrl.bw_read::total               19194542                       # Total read bandwidth from this memory (bytes/s)
system.mem_ctrl.bw_inst_read::cpu.inst        4045243                       # Instruction read bandwidth from this memory (bytes/s)
system.mem_ctrl.bw_inst_read::total           4045243                       # Instruction read bandwidth from this memory (bytes/s)
system.mem_ctrl.bw_total::cpu.inst            4045243                       # Total bandwidth to/from this memory (bytes/s)
system.mem_ctrl.bw_total::cpu.data            1595020                       # Total bandwidth to/from this memory (bytes/s)
system.mem_ctrl.bw_total::l2cache.prefetcher     13554279                       # Total bandwidth to/from this memory (bytes/s)
system.mem_ctrl.bw_total::total              19194542                       # Total bandwidth to/from this memory (bytes/s)
system.mem_ctrl.readReqs                         2828                       # Number of read requests accepted
system.mem_ctrl.writeReqs                           0                       # Number of write requests accepted
system.mem_ctrl.readBursts                       2828                       # Number of DRAM read bursts, including those serviced by the write queue
system.mem_ctrl.writeBursts                         0                       # Number of DRAM write bursts, including those merged in the write queue
system.mem_ctrl.bytesReadDRAM                  180992                       # Total number of bytes read from DRAM
system.mem_ctrl.bytesReadWrQ                        0                       # Total number of bytes read from write queue
system.mem_ctrl.bytesWritten                        0                       # Total number of bytes written to DRAM
system.mem_ctrl.bytesReadSys                   180992                       # Total read bytes from the system interface side
system.mem_ctrl.bytesWrittenSys                     0                       # Total written bytes from the system interface side
system.mem_ctrl.servicedByWrQ                       0                       # Number of DRAM read bursts serviced by the write queue
system.mem_ctrl.mergedWrBursts                      0                       # Number of DRAM write bursts merged with an existing one
system.mem_ctrl.neitherReadNorWriteReqs             0                       # Number of requests that are neither read nor write
system.mem_ctrl.perBankRdBursts::0                182                       # Per bank write bursts
system.mem_ctrl.perBankRdBursts::1                132                       # Per bank write bursts
system.mem_ctrl.perBankRdBursts::2                179                       # Per bank write bursts
system.mem_ctrl.perBankRdBursts::3                150                       # Per bank write bursts
system.mem_ctrl.perBankRdBursts::4                339                       # Per bank write bursts
system.mem_ctrl.perBankRdBursts::5                208                       # Per bank write bursts
system.mem_ctrl.perBankRdBursts::6                279                       # Per bank write bursts
system.mem_ctrl.perBankRdBursts::7                180                       # Per bank write bursts
system.mem_ctrl.perBankRdBursts::8                175                       # Per bank write bursts
system.mem_ctrl.perBankRdBursts::9                140                       # Per bank write bursts
system.mem_ctrl.perBankRdBursts::10               159                       # Per bank write bursts
system.mem_ctrl.perBankRdBursts::11               135                       # Per bank write bursts
system.mem_ctrl.perBankRdBursts::12               131                       # Per bank write bursts
system.mem_ctrl.perBankRdBursts::13               136                       # Per bank write bursts
system.mem_ctrl.perBankRdBursts::14               134                       # Per bank write bursts
system.mem_ctrl.perBankRdBursts::15               169                       # Per bank write bursts
system.mem_ctrl.perBankWrBursts::0                  0                       # Per bank write bursts
system.mem_ctrl.perBankWrBursts::1                  0                       # Per bank write bursts
system.mem_ctrl.perBankWrBursts::2                  0                       # Per bank write bursts
system.mem_ctrl.perBankWrBursts::3                  0                       # Per bank write bursts
system.mem_ctrl.perBankWrBursts::4                  0                       # Per bank write bursts
system.mem_ctrl.perBankWrBursts::5                  0                       # Per bank write bursts
system.mem_ctrl.perBankWrBursts::6                  0                       # Per bank write bursts
system.mem_ctrl.perBankWrBursts::7                  0                       # Per bank write bursts
system.mem_ctrl.perBankWrBursts::8                  0                       # Per bank write bursts
system.mem_ctrl.perBankWrBursts::9                  0                       # Per bank write bursts
system.mem_ctrl.perBankWrBursts::10                 0                       # Per bank write bursts
system.mem_ctrl.perBankWrBursts::11                 0                       # Per bank write bursts
system.mem_ctrl.perBankWrBursts::12                 0                       # Per bank write bursts
system.mem_ctrl.perBankWrBursts::13                 0                       # Per bank write bursts
system.mem_ctrl.perBankWrBursts::14                 0                       # Per bank write bursts
system.mem_ctrl.perBankWrBursts::15                 0                       # Per bank write bursts
system.mem_ctrl.numRdRetry                          0                       # Number of times read queue was full causing retry
system.mem_ctrl.numWrRetry                          0                       # Number of times write queue was full causing retry
system.mem_ctrl.totGap                     9429256250                       # Total gap between requests
system.mem_ctrl.readPktSize::0                      0                       # Read request sizes (log2)
system.mem_ctrl.readPktSize::1                      0                       # Read request sizes (log2)
system.mem_ctrl.readPktSize::2                      0                       # Read request sizes (log2)
system.mem_ctrl.readPktSize::3                      0                       # Read request sizes (log2)
system.mem_ctrl.readPktSize::4                      0                       # Read request sizes (log2)
system.mem_ctrl.readPktSize::5                      0                       # Read request sizes (log2)
system.mem_ctrl.readPktSize::6                   2828                       # Read request sizes (log2)
system.mem_ctrl.writePktSize::0                     0                       # Write request sizes (log2)
system.mem_ctrl.writePktSize::1                     0                       # Write request sizes (log2)
system.mem_ctrl.writePktSize::2                     0                       # Write request sizes (log2)
system.mem_ctrl.writePktSize::3                     0                       # Write request sizes (log2)
system.mem_ctrl.writePktSize::4                     0                       # Write request sizes (log2)
system.mem_ctrl.writePktSize::5                     0                       # Write request sizes (log2)
system.mem_ctrl.writePktSize::6                     0                       # Write request sizes (log2)
system.mem_ctrl.rdQLenPdf::0                     2686                       # What read queue length does an incoming req see
system.mem_ctrl.rdQLenPdf::1                      136                       # What read queue length does an incoming req see
system.mem_ctrl.rdQLenPdf::2                        6                       # What read queue length does an incoming req see
system.mem_ctrl.rdQLenPdf::3                        0                       # What read queue length does an incoming req see
system.mem_ctrl.rdQLenPdf::4                        0                       # What read queue length does an incoming req see
system.mem_ctrl.rdQLenPdf::5                        0                       # What read queue length does an incoming req see
system.mem_ctrl.rdQLenPdf::6                        0                       # What read queue length does an incoming req see
system.mem_ctrl.rdQLenPdf::7                        0                       # What read queue length does an incoming req see
system.mem_ctrl.rdQLenPdf::8                        0                       # What read queue length does an incoming req see
system.mem_ctrl.rdQLenPdf::9                        0                       # What read queue length does an incoming req see
system.mem_ctrl.rdQLenPdf::10                       0                       # What read queue length does an incoming req see
system.mem_ctrl.rdQLenPdf::11                       0                       # What read queue length does an incoming req see
system.mem_ctrl.rdQLenPdf::12                       0                       # What read queue length does an incoming req see
system.mem_ctrl.rdQLenPdf::13                       0                       # What read queue length does an incoming req see
system.mem_ctrl.rdQLenPdf::14                       0                       # What read queue length does an incoming req see
system.mem_ctrl.rdQLenPdf::15                       0                       # What read queue length does an incoming req see
system.mem_ctrl.rdQLenPdf::16                       0                       # What read queue length does an incoming req see
system.mem_ctrl.rdQLenPdf::17                       0                       # What read queue length does an incoming req see
system.mem_ctrl.rdQLenPdf::18                       0                       # What read queue length does an incoming req see
system.mem_ctrl.rdQLenPdf::19                       0                       # What read queue length does an incoming req see
system.mem_ctrl.rdQLenPdf::20                       0                       # What read queue length does an incoming req see
system.mem_ctrl.rdQLenPdf::21                       0                       # What read queue length does an incoming req see
system.mem_ctrl.rdQLenPdf::22                       0                       # What read queue length does an incoming req see
system.mem_ctrl.rdQLenPdf::23                       0                       # What read queue length does an incoming req see
system.mem_ctrl.rdQLenPdf::24                       0                       # What read queue length does an incoming req see
system.mem_ctrl.rdQLenPdf::25                       0                       # What read queue length does an incoming req see
system.mem_ctrl.rdQLenPdf::26                       0                       # What read queue length does an incoming req see
system.mem_ctrl.rdQLenPdf::27                       0                       # What read queue length does an incoming req see
system.mem_ctrl.rdQLenPdf::28                       0                       # What read queue length does an incoming req see
system.mem_ctrl.rdQLenPdf::29                       0                       # What read queue length does an incoming req see
system.mem_ctrl.rdQLenPdf::30                       0                       # What read queue length does an incoming req see
system.mem_ctrl.rdQLenPdf::31                       0                       # What read queue length does an incoming req see
system.mem_ctrl.wrQLenPdf::0                        0                       # What write queue length does an incoming req see
system.mem_ctrl.wrQLenPdf::1                        0                       # What write queue length does an incoming req see
system.mem_ctrl.wrQLenPdf::2                        0                       # What write queue length does an incoming req see
system.mem_ctrl.wrQLenPdf::3                        0                       # What write queue length does an incoming req see
system.mem_ctrl.wrQLenPdf::4                        0                       # What write queue length does an incoming req see
system.mem_ctrl.wrQLenPdf::5                        0                       # What write queue length does an incoming req see
system.mem_ctrl.wrQLenPdf::6                        0                       # What write queue length does an incoming req see
system.mem_ctrl.wrQLenPdf::7                        0                       # What write queue length does an incoming req see
system.mem_ctrl.wrQLenPdf::8                        0                       # What write queue length does an incoming req see
system.mem_ctrl.wrQLenPdf::9                        0                       # What write queue length does an incoming req see
system.mem_ctrl.wrQLenPdf::10                       0                       # What write queue length does an incoming req see
system.mem_ctrl.wrQLenPdf::11                       0                       # What write queue length does an incoming req see
system.mem_ctrl.wrQLenPdf::12                       0                       # What write queue length does an incoming req see
system.mem_ctrl.wrQLenPdf::13                       0                       # What write queue length does an incoming req see
system.mem_ctrl.wrQLenPdf::14                       0                       # What write queue length does an incoming req see
system.mem_ctrl.wrQLenPdf::15                       0                       # What write queue length does an incoming req see
system.mem_ctrl.wrQLenPdf::16                       0                       # What write queue length does an incoming req see
system.mem_ctrl.wrQLenPdf::17                       0                       # What write queue length does an incoming req see
system.mem_ctrl.wrQLenPdf::18                       0                       # What write queue length does an incoming req see
system.mem_ctrl.wrQLenPdf::19                       0                       # What write queue length does an incoming req see
system.mem_ctrl.wrQLenPdf::20                       0                       # What write queue length does an incoming req see
system.mem_ctrl.wrQLenPdf::21                       0                       # What write queue length does an incoming req see
system.mem_ctrl.wrQLenPdf::22                       0                       # What write queue length does an incoming req see
system.mem_ctrl.wrQLenPdf::23                       0                       # What write queue length does an incoming req see
system.mem_ctrl.wrQLenPdf::24                       0                       # What write queue length does an incoming req see
system.mem_ctrl.wrQLenPdf::25                       0                       # What write queue length does an incoming req see
system.mem_ctrl.wrQLenPdf::26                       0                       # What write queue length does an incoming req see
system.mem_ctrl.wrQLenPdf::27                       0                       # What write queue length does an incoming req see
system.mem_ctrl.wrQLenPdf::28                       0                       # What write queue length does an incoming req see
system.mem_ctrl.wrQLenPdf::29                       0                       # What write queue length does an incoming req see
system.mem_ctrl.wrQLenPdf::30                       0                       # What write queue length does an incoming req see
system.mem_ctrl.wrQLenPdf::31                       0                       # What write queue length does an incoming req see
system.mem_ctrl.wrQLenPdf::32                       0                       # What write queue length does an incoming req see
system.mem_ctrl.wrQLenPdf::33                       0                       # What write queue length does an incoming req see
system.mem_ctrl.wrQLenPdf::34                       0                       # What write queue length does an incoming req see
system.mem_ctrl.wrQLenPdf::35                       0                       # What write queue length does an incoming req see
system.mem_ctrl.wrQLenPdf::36                       0                       # What write queue length does an incoming req see
system.mem_ctrl.wrQLenPdf::37                       0                       # What write queue length does an incoming req see
system.mem_ctrl.wrQLenPdf::38                       0                       # What write queue length does an incoming req see
system.mem_ctrl.wrQLenPdf::39                       0                       # What write queue length does an incoming req see
system.mem_ctrl.wrQLenPdf::40                       0                       # What write queue length does an incoming req see
system.mem_ctrl.wrQLenPdf::41                       0                       # What write queue length does an incoming req see
system.mem_ctrl.wrQLenPdf::42                       0                       # What write queue length does an incoming req see
system.mem_ctrl.wrQLenPdf::43                       0                       # What write queue length does an incoming req see
system.mem_ctrl.wrQLenPdf::44                       0                       # What write queue length does an incoming req see
system.mem_ctrl.wrQLenPdf::45                       0                       # What write queue length does an incoming req see
system.mem_ctrl.wrQLenPdf::46                       0                       # What write queue length does an incoming req see
system.mem_ctrl.wrQLenPdf::47                       0                       # What write queue length does an incoming req see
system.mem_ctrl.wrQLenPdf::48                       0                       # What write queue length does an incoming req see
system.mem_ctrl.wrQLenPdf::49                       0                       # What write queue length does an incoming req see
system.mem_ctrl.wrQLenPdf::50                       0                       # What write queue length does an incoming req see
system.mem_ctrl.wrQLenPdf::51                       0                       # What write queue length does an incoming req see
system.mem_ctrl.wrQLenPdf::52                       0                       # What write queue length does an incoming req see
system.mem_ctrl.wrQLenPdf::53                       0                       # What write queue length does an incoming req see
system.mem_ctrl.wrQLenPdf::54                       0                       # What write queue length does an incoming req see
system.mem_ctrl.wrQLenPdf::55                       0                       # What write queue length does an incoming req see
system.mem_ctrl.wrQLenPdf::56                       0                       # What write queue length does an incoming req see
system.mem_ctrl.wrQLenPdf::57                       0                       # What write queue length does an incoming req see
system.mem_ctrl.wrQLenPdf::58                       0                       # What write queue length does an incoming req see
system.mem_ctrl.wrQLenPdf::59                       0                       # What write queue length does an incoming req see
system.mem_ctrl.wrQLenPdf::60                       0                       # What write queue length does an incoming req see
system.mem_ctrl.wrQLenPdf::61                       0                       # What write queue length does an incoming req see
system.mem_ctrl.wrQLenPdf::62                       0                       # What write queue length does an incoming req see
system.mem_ctrl.wrQLenPdf::63                       0                       # What write queue length does an incoming req see
system.mem_ctrl.bytesPerActivate::samples         1359                       # Bytes accessed per row activation
system.mem_ctrl.bytesPerActivate::mean     132.568064                       # Bytes accessed per row activation
system.mem_ctrl.bytesPerActivate::gmean    110.750338                       # Bytes accessed per row activation
system.mem_ctrl.bytesPerActivate::stdev    125.862284                       # Bytes accessed per row activation
system.mem_ctrl.bytesPerActivate::0-127           454     33.40%     33.40% # Bytes accessed per row activation
system.mem_ctrl.bytesPerActivate::128-255          827     60.85%     94.26% # Bytes accessed per row activation
system.mem_ctrl.bytesPerActivate::256-383           20      1.47%     95.73% # Bytes accessed per row activation
system.mem_ctrl.bytesPerActivate::384-511           18      1.32%     97.05% # Bytes accessed per row activation
system.mem_ctrl.bytesPerActivate::512-639           12      0.88%     97.93% # Bytes accessed per row activation
system.mem_ctrl.bytesPerActivate::640-767           10      0.73%     98.67% # Bytes accessed per row activation
system.mem_ctrl.bytesPerActivate::768-895            2      0.14%     98.82% # Bytes accessed per row activation
system.mem_ctrl.bytesPerActivate::896-1023            5      0.36%     99.19% # Bytes accessed per row activation
system.mem_ctrl.bytesPerActivate::1024-1151           11      0.80%     99.99% # Bytes accessed per row activation
system.mem_ctrl.bytesPerActivate::total          1359                       # Bytes accessed per row activation
system.mem_ctrl.totQLat                      55229125                       # Total ticks spent queuing
system.mem_ctrl.totMemAccLat                108254125                       # Total ticks spent from burst creation until serviced by the DRAM
system.mem_ctrl.totBusLat                    14140000                       # Total ticks spent in databus transfers
system.mem_ctrl.avgQLat                      19529.39                       # Average queueing delay per DRAM burst
system.mem_ctrl.avgBusLat                     5000.00                       # Average bus latency per DRAM burst
system.mem_ctrl.avgMemAccLat                 38279.39                       # Average memory access latency per DRAM burst
system.mem_ctrl.avgRdBW                         19.19                       # Average DRAM read bandwidth in MiByte/s
system.mem_ctrl.avgWrBW                          0.00                       # Average achieved write bandwidth in MiByte/s
system.mem_ctrl.avgRdBWSys                      19.19                       # Average system read bandwidth in MiByte/s
system.mem_ctrl.avgWrBWSys                       0.00                       # Average system write bandwidth in MiByte/s
system.mem_ctrl.peakBW                       12800.00                       # Theoretical peak bandwidth in MiByte/s
system.mem_ctrl.busUtil                          0.14                       # Data bus utilization in percentage
system.mem_ctrl.busUtilRead                      0.14                       # Data bus utilization in percentage for reads
system.mem_ctrl.busUtilWrite                     0.00                       # Data bus utilization in percentage for writes
system.mem_ctrl.avgRdQLen                        1.01                       # Average read queue length when enqueuing
system.mem_ctrl.avgWrQLen                        0.00                       # Average write queue length when enqueuing
system.mem_ctrl.readRowHits                      1463                       # Number of row buffer hits during reads
system.mem_ctrl.writeRowHits                        0                       # Number of row buffer hits during writes
system.mem_ctrl.readRowHitRate                  51.73                       # Row buffer hit rate for reads
system.mem_ctrl.writeRowHitRate                   nan                       # Row buffer hit rate for writes
system.mem_ctrl.avgGap                     3334249.02                       # Average gap between requests
system.mem_ctrl.pageHitRate                     51.73                       # Row buffer hit rate, read and write combined
system.mem_ctrl_0.actEnergy                   5269320                       # Energy for activate commands per rank (pJ)
system.mem_ctrl_0.preEnergy                   2785530                       # Energy for precharge commands per rank (pJ)
system.mem_ctrl_0.readEnergy                 11773860                       # Energy for read commands per rank (pJ)
system.mem_ctrl_0.writeEnergy                       0                       # Energy for write commands per rank (pJ)
system.mem_ctrl_0.refreshEnergy             389067120                       # Energy for refresh commands per rank (pJ)
system.mem_ctrl_0.actBackEnergy              94252350                       # Energy for active background per rank (pJ)
system.mem_ctrl_0.preBackEnergy               8562240                       # Energy for precharge background per rank (pJ)
system.mem_ctrl_0.actPowerDownEnergy       1517956170                       # Energy for active power-down per rank (pJ)
system.mem_ctrl_0.prePowerDownEnergy        517753920                       # Energy for precharge power-down per rank (pJ)
system.mem_ctrl_0.selfRefreshEnergy        1087773960                       # Energy for self refresh per rank (pJ)
system.mem_ctrl_0.totalEnergy              3635194470                       # Total energy per rank (pJ)
system.mem_ctrl_0.averagePower             385.519221                       # Core power per rank (mW)
system.mem_ctrl_0.totalIdleTime            9200763375                       # Total Idle time Per DRAM Rank
system.mem_ctrl_0.memoryStateTime::IDLE       4806500                       # Time in different power states
system.mem_ctrl_0.memoryStateTime::REF      164604000                       # Time in different power states
system.mem_ctrl_0.memoryStateTime::SREF    4523188500                       # Time in different power states
system.mem_ctrl_0.memoryStateTime::PRE_PDN   1348286250                       # Time in different power states
system.mem_ctrl_0.memoryStateTime::ACT       59040250                       # Time in different power states
system.mem_ctrl_0.memoryStateTime::ACT_PDN   3329421375                       # Time in different power states
system.mem_ctrl_1.actEnergy                   4476780                       # Energy for activate commands per rank (pJ)
system.mem_ctrl_1.preEnergy                   2371875                       # Energy for precharge commands per rank (pJ)
system.mem_ctrl_1.readEnergy                  8418060                       # Energy for read commands per rank (pJ)
system.mem_ctrl_1.writeEnergy                       0                       # Energy for write commands per rank (pJ)
system.mem_ctrl_1.refreshEnergy             368169360                       # Energy for refresh commands per rank (pJ)
system.mem_ctrl_1.actBackEnergy              84516180                       # Energy for active background per rank (pJ)
system.mem_ctrl_1.preBackEnergy               8405760                       # Energy for precharge background per rank (pJ)
system.mem_ctrl_1.actPowerDownEnergy       1437424860                       # Energy for active power-down per rank (pJ)
system.mem_ctrl_1.prePowerDownEnergy        488388480                       # Energy for precharge power-down per rank (pJ)
system.mem_ctrl_1.selfRefreshEnergy        1154286600                       # Energy for self refresh per rank (pJ)
system.mem_ctrl_1.totalEnergy              3556552305                       # Total energy per rank (pJ)
system.mem_ctrl_1.averagePower             377.179072                       # Core power per rank (mW)
system.mem_ctrl_1.totalIdleTime            9222295625                       # Total Idle time Per DRAM Rank
system.mem_ctrl_1.memoryStateTime::IDLE       5547125                       # Time in different power states
system.mem_ctrl_1.memoryStateTime::REF      155770000                       # Time in different power states
system.mem_ctrl_1.memoryStateTime::SREF    4797812500                       # Time in different power states
system.mem_ctrl_1.memoryStateTime::PRE_PDN   1271963375                       # Time in different power states
system.mem_ctrl_1.memoryStateTime::ACT       45694500                       # Time in different power states
system.mem_ctrl_1.memoryStateTime::ACT_PDN   3152559375                       # Time in different power states
system.pwrStateResidencyTicks::UNDEFINED   9429346875                       # Cumulative time (in ticks) in various power states
system.cpu.branchPred.lookups                 2829732                       # Number of BP lookups
system.cpu.branchPred.condPredicted           2089189                       # Number of conditional branches predicted
system.cpu.branchPred.condIncorrect              1552                       # Number of conditional branches incorrect
system.cpu.branchPred.BTBLookups              1836212                       # Number of BTB lookups
system.cpu.branchPred.BTBHits                 1347601                       # Number of BTB hits
system.cpu.branchPred.BTBCorrect                    0                       # Number of correct BTB predictions (this stat may not work properly.
system.cpu.branchPred.BTBHitPct             73.390273                       # BTB Hit Percentage
system.cpu.branchPred.usedRAS                       0                       # Number of times the RAS was used to get a target.
system.cpu.branchPred.RASInCorrect                  0                       # Number of incorrect RAS predictions.
system.cpu.branchPred.indirectLookups          354960                       # Number of indirect predictor lookups.
system.cpu.branchPred.indirectHits             353289                       # Number of indirect target hits.
system.cpu.branchPred.indirectMisses             1671                       # Number of indirect misses.
system.cpu.branchPredindirectMispredicted          526                       # Number of mispredicted indirect branches.
system.cpu.dtb.read_hits                            0                       # DTB read hits
system.cpu.dtb.read_misses                          0                       # DTB read misses
system.cpu.dtb.read_accesses                        0                       # DTB read accesses
system.cpu.dtb.write_hits                           0                       # DTB write hits
system.cpu.dtb.write_misses                         0                       # DTB write misses
system.cpu.dtb.write_accesses                       0                       # DTB write accesses
system.cpu.dtb.hits                                 0                       # DTB hits
system.cpu.dtb.misses                               0                       # DTB misses
system.cpu.dtb.accesses                             0                       # DTB accesses
system.cpu.itb.read_hits                            0                       # DTB read hits
system.cpu.itb.read_misses                          0                       # DTB read misses
system.cpu.itb.read_accesses                        0                       # DTB read accesses
system.cpu.itb.write_hits                           0                       # DTB write hits
system.cpu.itb.write_misses                         0                       # DTB write misses
system.cpu.itb.write_accesses                       0                       # DTB write accesses
system.cpu.itb.hits                                 0                       # DTB hits
system.cpu.itb.misses                               0                       # DTB misses
system.cpu.itb.accesses                             0                       # DTB accesses
system.cpu.workload.numSyscalls                    75                       # Number of system calls
system.cpu.pwrStateResidencyTicks::ON      9429346875                       # Cumulative time (in ticks) in various power states
system.cpu.numCycles                         15086955                       # number of cpu cycles simulated
system.cpu.numWorkItemsStarted                      0                       # number of work items this cpu started
system.cpu.numWorkItemsCompleted                    0                       # number of work items this cpu completed
system.cpu.committedInsts                    12428958                       # Number of instructions committed
system.cpu.committedOps                      12461085                       # Number of ops (including micro ops) committed
system.cpu.discardedOps                          4574                       # Number of ops (including micro ops) which were discarded before commit
system.cpu.numFetchSuspends                         0                       # Number of times Execute suspended instruction fetching
system.cpu.cpi                               1.213855                       # CPI: cycles per instruction
system.cpu.ipc                               0.823821                       # IPC: instructions per cycle
system.cpu.op_class_0::No_OpClass               32203      0.25%      0.25% # Class of committed instruction
system.cpu.op_class_0::IntAdd                       0      0.00%      0.25% # Class of committed instruction
system.cpu.op_class_0::IntSub                       0      0.00%      0.25% # Class of committed instruction
system.cpu.op_class_0::IntMult                      3      0.00%      0.25% # Class of committed instruction
system.cpu.op_class_0::IntDiv                      65      0.00%      0.25% # Class of committed instruction
system.cpu.op_class_0::IntLogic                     0      0.00%      0.25% # Class of committed instruction
system.cpu.op_class_0::IntShift                     0      0.00%      0.25% # Class of committed instruction
system.cpu.op_class_0::IntMov                       0      0.00%      0.25% # Class of committed instruction
system.cpu.op_class_0::IntCtrl                      0      0.00%      0.25% # Class of committed instruction
system.cpu.op_class_0::IntALU                 7258766     58.25%     58.51% # Class of committed instruction
system.cpu.op_class_0::FloatAdd                     3      0.00%     58.51% # Class of committed instruction
system.cpu.op_class_0::FloatCmp                 64000      0.51%     59.02% # Class of committed instruction
system.cpu.op_class_0::FloatCvt                     5      0.00%     59.02% # Class of committed instruction
system.cpu.op_class_0::FloatMult                    1      0.00%     59.02% # Class of committed instruction
system.cpu.op_class_0::FloatMultAcc                 0      0.00%     59.02% # Class of committed instruction
system.cpu.op_class_0::FloatDiv                     1      0.00%     59.02% # Class of committed instruction
system.cpu.op_class_0::FloatMisc                    3      0.00%     59.02% # Class of committed instruction
system.cpu.op_class_0::FloatSqrt                    0      0.00%     59.02% # Class of committed instruction
system.cpu.op_class_0::SimdAdd                      0      0.00%     59.02% # Class of committed instruction
system.cpu.op_class_0::SimdAddAcc                   0      0.00%     59.02% # Class of committed instruction
system.cpu.op_class_0::SimdAlu                      0      0.00%     59.02% # Class of committed instruction
system.cpu.op_class_0::SimdCmp                      0      0.00%     59.02% # Class of committed instruction
system.cpu.op_class_0::SimdCvt                      0      0.00%     59.02% # Class of committed instruction
system.cpu.op_class_0::SimdMisc                     0      0.00%     59.02% # Class of committed instruction
system.cpu.op_class_0::SimdMult                     0      0.00%     59.02% # Class of committed instruction
system.cpu.op_class_0::SimdMultAcc                  0      0.00%     59.02% # Class of committed instruction
system.cpu.op_class_0::SimdShift                    0      0.00%     59.02% # Class of committed instruction
system.cpu.op_class_0::SimdShiftAcc                 0      0.00%     59.02% # Class of committed instruction
system.cpu.op_class_0::SimdSqrt                     0      0.00%     59.02% # Class of committed instruction
system.cpu.op_class_0::SimdFloatAdd                 0      0.00%     59.02% # Class of committed instruction
system.cpu.op_class_0::SimdFloatAlu                 0      0.00%     59.02% # Class of committed instruction
system.cpu.op_class_0::SimdFloatCmp                 0      0.00%     59.02% # Class of committed instruction
system.cpu.op_class_0::SimdFloatCvt                 0      0.00%     59.02% # Class of committed instruction
system.cpu.op_class_0::SimdFloatDiv                 0      0.00%     59.02% # Class of committed instruction
system.cpu.op_class_0::SimdFloatMisc                0      0.00%     59.02% # Class of committed instruction
system.cpu.op_class_0::SimdFloatMult                0      0.00%     59.02% # Class of committed instruction
system.cpu.op_class_0::SimdFloatMultAcc             0      0.00%     59.02% # Class of committed instruction
system.cpu.op_class_0::SimdFloatSqrt                0      0.00%     59.02% # Class of committed instruction
system.cpu.op_class_0::MemRead                2729109     21.90%     80.92% # Class of committed instruction
system.cpu.op_class_0::MemWrite               2312908     18.56%     99.48% # Class of committed instruction
system.cpu.op_class_0::FloatMemRead             32003      0.25%     99.74% # Class of committed instruction
system.cpu.op_class_0::FloatMemWrite            32015      0.25%     99.99% # Class of committed instruction
system.cpu.op_class_0::IprAccess                    0      0.00%     99.99% # Class of committed instruction
system.cpu.op_class_0::InstPrefetch                 0      0.00%     99.99% # Class of committed instruction
system.cpu.op_class_0::total                 12461085                       # Class of committed instruction
system.cpu.tickCycles                        14828846                       # Number of cycles that the object actually ticked
system.cpu.idleCycles                          258109                       # Total number of cycles that the object has spent stopped
system.cpu.fetch2.int_instructions            7142225                       # Number of integer instructions successfully decoded
system.cpu.fetch2.fp_instructions               64044                       # Number of floating point instructions successfully decoded
system.cpu.fetch2.vec_instructions                  0                       # Number of SIMD instructions successfully decoded
system.cpu.fetch2.load_instructions           2732373                       # Number of memory load instructions successfully decoded
system.cpu.fetch2.store_instructions          2315520                       # Number of memory store instructions successfully decoded
system.cpu.dcache.tags.pwrStateResidencyTicks::UNDEFINED   9429346875                       # Cumulative time (in ticks) in various power states
system.cpu.dcache.tags.replacements              1736                       # number of replacements
system.cpu.dcache.tags.tagsinuse           481.861478                       # Cycle average of tags in use
system.cpu.dcache.tags.total_refs             5104323                       # Total number of references to valid blocks.
system.cpu.dcache.tags.sampled_refs              2248                       # Sample count of references to valid blocks.
system.cpu.dcache.tags.avg_refs           2270.606316                       # Average number of references to valid blocks.
system.cpu.dcache.tags.warmup_cycle            165625                       # Cycle when the warmup percentage was hit.
system.cpu.dcache.tags.occ_blocks::cpu.data   481.861478                       # Average occupied blocks per requestor
system.cpu.dcache.tags.occ_percent::cpu.data     0.941135                       # Average percentage of cache occupancy
system.cpu.dcache.tags.occ_percent::total     0.941135                       # Average percentage of cache occupancy
system.cpu.dcache.tags.occ_task_id_blocks::1024          512                       # Occupied blocks per task id
system.cpu.dcache.tags.age_task_id_blocks_1024::0           26                       # Occupied blocks per task id
system.cpu.dcache.tags.age_task_id_blocks_1024::1           19                       # Occupied blocks per task id
system.cpu.dcache.tags.age_task_id_blocks_1024::2          189                       # Occupied blocks per task id
system.cpu.dcache.tags.age_task_id_blocks_1024::3          278                       # Occupied blocks per task id
system.cpu.dcache.tags.occ_task_id_percent::1024            1                       # Percentage of cache occupancy per task id
system.cpu.dcache.tags.tag_accesses          20428916                       # Number of tag accesses
system.cpu.dcache.tags.data_accesses         20428916                       # Number of data accesses
system.cpu.dcache.pwrStateResidencyTicks::UNDEFINED   9429346875                       # Cumulative time (in ticks) in various power states
system.cpu.dcache.ReadReq_hits::cpu.data      2729499                       # number of ReadReq hits
system.cpu.dcache.ReadReq_hits::total         2729499                       # number of ReadReq hits
system.cpu.dcache.WriteReq_hits::cpu.data      2310574                       # number of WriteReq hits
system.cpu.dcache.WriteReq_hits::total        2310574                       # number of WriteReq hits
system.cpu.dcache.LoadLockedReq_hits::cpu.data        32124                       # number of LoadLockedReq hits
system.cpu.dcache.LoadLockedReq_hits::total        32124                       # number of LoadLockedReq hits
system.cpu.dcache.StoreCondReq_hits::cpu.data        32126                       # number of StoreCondReq hits
system.cpu.dcache.StoreCondReq_hits::total        32126                       # number of StoreCondReq hits
system.cpu.dcache.demand_hits::cpu.data       5040073                       # number of demand (read+write) hits
system.cpu.dcache.demand_hits::total          5040073                       # number of demand (read+write) hits
system.cpu.dcache.overall_hits::cpu.data      5040073                       # number of overall hits
system.cpu.dcache.overall_hits::total         5040073                       # number of overall hits
system.cpu.dcache.ReadReq_misses::cpu.data          119                       # number of ReadReq misses
system.cpu.dcache.ReadReq_misses::total           119                       # number of ReadReq misses
system.cpu.dcache.WriteReq_misses::cpu.data         2223                       # number of WriteReq misses
system.cpu.dcache.WriteReq_misses::total         2223                       # number of WriteReq misses
system.cpu.dcache.LoadLockedReq_misses::cpu.data            2                       # number of LoadLockedReq misses
system.cpu.dcache.LoadLockedReq_misses::total            2                       # number of LoadLockedReq misses
system.cpu.dcache.demand_misses::cpu.data         2342                       # number of demand (read+write) misses
system.cpu.dcache.demand_misses::total           2342                       # number of demand (read+write) misses
system.cpu.dcache.overall_misses::cpu.data         2342                       # number of overall misses
system.cpu.dcache.overall_misses::total          2342                       # number of overall misses
system.cpu.dcache.ReadReq_miss_latency::cpu.data      8505000                       # number of ReadReq miss cycles
system.cpu.dcache.ReadReq_miss_latency::total      8505000                       # number of ReadReq miss cycles
system.cpu.dcache.WriteReq_miss_latency::cpu.data     47525000                       # number of WriteReq miss cycles
system.cpu.dcache.WriteReq_miss_latency::total     47525000                       # number of WriteReq miss cycles
system.cpu.dcache.LoadLockedReq_miss_latency::cpu.data       145625                       # number of LoadLockedReq miss cycles
system.cpu.dcache.LoadLockedReq_miss_latency::total       145625                       # number of LoadLockedReq miss cycles
system.cpu.dcache.demand_miss_latency::cpu.data     56030000                       # number of demand (read+write) miss cycles
system.cpu.dcache.demand_miss_latency::total     56030000                       # number of demand (read+write) miss cycles
system.cpu.dcache.overall_miss_latency::cpu.data     56030000                       # number of overall miss cycles
system.cpu.dcache.overall_miss_latency::total     56030000                       # number of overall miss cycles
system.cpu.dcache.ReadReq_accesses::cpu.data      2729618                       # number of ReadReq accesses(hits+misses)
system.cpu.dcache.ReadReq_accesses::total      2729618                       # number of ReadReq accesses(hits+misses)
system.cpu.dcache.WriteReq_accesses::cpu.data      2312797                       # number of WriteReq accesses(hits+misses)
system.cpu.dcache.WriteReq_accesses::total      2312797                       # number of WriteReq accesses(hits+misses)
system.cpu.dcache.LoadLockedReq_accesses::cpu.data        32126                       # number of LoadLockedReq accesses(hits+misses)
system.cpu.dcache.LoadLockedReq_accesses::total        32126                       # number of LoadLockedReq accesses(hits+misses)
system.cpu.dcache.StoreCondReq_accesses::cpu.data        32126                       # number of StoreCondReq accesses(hits+misses)
system.cpu.dcache.StoreCondReq_accesses::total        32126                       # number of StoreCondReq accesses(hits+misses)
system.cpu.dcache.demand_accesses::cpu.data      5042415                       # number of demand (read+write) accesses
system.cpu.dcache.demand_accesses::total      5042415                       # number of demand (read+write) accesses
system.cpu.dcache.overall_accesses::cpu.data      5042415                       # number of overall (read+write) accesses
system.cpu.dcache.overall_accesses::total      5042415                       # number of overall (read+write) accesses
system.cpu.dcache.ReadReq_miss_rate::cpu.data     0.000043                       # miss rate for ReadReq accesses
system.cpu.dcache.ReadReq_miss_rate::total     0.000043                       # miss rate for ReadReq accesses
system.cpu.dcache.WriteReq_miss_rate::cpu.data     0.000961                       # miss rate for WriteReq accesses
system.cpu.dcache.WriteReq_miss_rate::total     0.000961                       # miss rate for WriteReq accesses
system.cpu.dcache.LoadLockedReq_miss_rate::cpu.data     0.000062                       # miss rate for LoadLockedReq accesses
system.cpu.dcache.LoadLockedReq_miss_rate::total     0.000062                       # miss rate for LoadLockedReq accesses
system.cpu.dcache.demand_miss_rate::cpu.data     0.000464                       # miss rate for demand accesses
system.cpu.dcache.demand_miss_rate::total     0.000464                       # miss rate for demand accesses
system.cpu.dcache.overall_miss_rate::cpu.data     0.000464                       # miss rate for overall accesses
system.cpu.dcache.overall_miss_rate::total     0.000464                       # miss rate for overall accesses
system.cpu.dcache.ReadReq_avg_miss_latency::cpu.data 71470.588235                       # average ReadReq miss latency
system.cpu.dcache.ReadReq_avg_miss_latency::total 71470.588235                       # average ReadReq miss latency
system.cpu.dcache.WriteReq_avg_miss_latency::cpu.data 21378.767431                       # average WriteReq miss latency
system.cpu.dcache.WriteReq_avg_miss_latency::total 21378.767431                       # average WriteReq miss latency
system.cpu.dcache.LoadLockedReq_avg_miss_latency::cpu.data 72812.500000                       # average LoadLockedReq miss latency
system.cpu.dcache.LoadLockedReq_avg_miss_latency::total 72812.500000                       # average LoadLockedReq miss latency
system.cpu.dcache.demand_avg_miss_latency::cpu.data 23923.996584                       # average overall miss latency
system.cpu.dcache.demand_avg_miss_latency::total 23923.996584                       # average overall miss latency
system.cpu.dcache.overall_avg_miss_latency::cpu.data 23923.996584                       # average overall miss latency
system.cpu.dcache.overall_avg_miss_latency::total 23923.996584                       # average overall miss latency
system.cpu.dcache.blocked_cycles::no_mshrs            0                       # number of cycles access was blocked
system.cpu.dcache.blocked_cycles::no_targets            0                       # number of cycles access was blocked
system.cpu.dcache.blocked::no_mshrs                 0                       # number of cycles access was blocked
system.cpu.dcache.blocked::no_targets               0                       # number of cycles access was blocked
system.cpu.dcache.avg_blocked_cycles::no_mshrs          nan                       # average number of cycles each access was blocked
system.cpu.dcache.avg_blocked_cycles::no_targets          nan                       # average number of cycles each access was blocked
system.cpu.dcache.writebacks::writebacks         1736                       # number of writebacks
system.cpu.dcache.writebacks::total              1736                       # number of writebacks
system.cpu.dcache.ReadReq_mshr_hits::cpu.data            5                       # number of ReadReq MSHR hits
system.cpu.dcache.ReadReq_mshr_hits::total            5                       # number of ReadReq MSHR hits
system.cpu.dcache.WriteReq_mshr_hits::cpu.data           91                       # number of WriteReq MSHR hits
system.cpu.dcache.WriteReq_mshr_hits::total           91                       # number of WriteReq MSHR hits
system.cpu.dcache.demand_mshr_hits::cpu.data           96                       # number of demand (read+write) MSHR hits
system.cpu.dcache.demand_mshr_hits::total           96                       # number of demand (read+write) MSHR hits
system.cpu.dcache.overall_mshr_hits::cpu.data           96                       # number of overall MSHR hits
system.cpu.dcache.overall_mshr_hits::total           96                       # number of overall MSHR hits
system.cpu.dcache.ReadReq_mshr_misses::cpu.data          114                       # number of ReadReq MSHR misses
system.cpu.dcache.ReadReq_mshr_misses::total          114                       # number of ReadReq MSHR misses
system.cpu.dcache.WriteReq_mshr_misses::cpu.data         2132                       # number of WriteReq MSHR misses
system.cpu.dcache.WriteReq_mshr_misses::total         2132                       # number of WriteReq MSHR misses
system.cpu.dcache.LoadLockedReq_mshr_misses::cpu.data            2                       # number of LoadLockedReq MSHR misses
system.cpu.dcache.LoadLockedReq_mshr_misses::total            2                       # number of LoadLockedReq MSHR misses
system.cpu.dcache.demand_mshr_misses::cpu.data         2246                       # number of demand (read+write) MSHR misses
system.cpu.dcache.demand_mshr_misses::total         2246                       # number of demand (read+write) MSHR misses
system.cpu.dcache.overall_mshr_misses::cpu.data         2246                       # number of overall MSHR misses
system.cpu.dcache.overall_mshr_misses::total         2246                       # number of overall MSHR misses
system.cpu.dcache.ReadReq_mshr_miss_latency::cpu.data      7986250                       # number of ReadReq MSHR miss cycles
system.cpu.dcache.ReadReq_mshr_miss_latency::total      7986250                       # number of ReadReq MSHR miss cycles
system.cpu.dcache.WriteReq_mshr_miss_latency::cpu.data     39733750                       # number of WriteReq MSHR miss cycles
system.cpu.dcache.WriteReq_mshr_miss_latency::total     39733750                       # number of WriteReq MSHR miss cycles
system.cpu.dcache.LoadLockedReq_mshr_miss_latency::cpu.data       143125                       # number of LoadLockedReq MSHR miss cycles
system.cpu.dcache.LoadLockedReq_mshr_miss_latency::total       143125                       # number of LoadLockedReq MSHR miss cycles
system.cpu.dcache.demand_mshr_miss_latency::cpu.data     47720000                       # number of demand (read+write) MSHR miss cycles
system.cpu.dcache.demand_mshr_miss_latency::total     47720000                       # number of demand (read+write) MSHR miss cycles
system.cpu.dcache.overall_mshr_miss_latency::cpu.data     47720000                       # number of overall MSHR miss cycles
system.cpu.dcache.overall_mshr_miss_latency::total     47720000                       # number of overall MSHR miss cycles
system.cpu.dcache.ReadReq_mshr_miss_rate::cpu.data     0.000041                       # mshr miss rate for ReadReq accesses
system.cpu.dcache.ReadReq_mshr_miss_rate::total     0.000041                       # mshr miss rate for ReadReq accesses
system.cpu.dcache.WriteReq_mshr_miss_rate::cpu.data     0.000921                       # mshr miss rate for WriteReq accesses
system.cpu.dcache.WriteReq_mshr_miss_rate::total     0.000921                       # mshr miss rate for WriteReq accesses
system.cpu.dcache.LoadLockedReq_mshr_miss_rate::cpu.data     0.000062                       # mshr miss rate for LoadLockedReq accesses
system.cpu.dcache.LoadLockedReq_mshr_miss_rate::total     0.000062                       # mshr miss rate for LoadLockedReq accesses
system.cpu.dcache.demand_mshr_miss_rate::cpu.data     0.000445                       # mshr miss rate for demand accesses
system.cpu.dcache.demand_mshr_miss_rate::total     0.000445                       # mshr miss rate for demand accesses
system.cpu.dcache.overall_mshr_miss_rate::cpu.data     0.000445                       # mshr miss rate for overall accesses
system.cpu.dcache.overall_mshr_miss_rate::total     0.000445                       # mshr miss rate for overall accesses
system.cpu.dcache.ReadReq_avg_mshr_miss_latency::cpu.data 70054.824561                       # average ReadReq mshr miss latency
system.cpu.dcache.ReadReq_avg_mshr_miss_latency::total 70054.824561                       # average ReadReq mshr miss latency
system.cpu.dcache.WriteReq_avg_mshr_miss_latency::cpu.data 18636.843339                       # average WriteReq mshr miss latency
system.cpu.dcache.WriteReq_avg_mshr_miss_latency::total 18636.843339                       # average WriteReq mshr miss latency
system.cpu.dcache.LoadLockedReq_avg_mshr_miss_latency::cpu.data 71562.500000                       # average LoadLockedReq mshr miss latency
system.cpu.dcache.LoadLockedReq_avg_mshr_miss_latency::total 71562.500000                       # average LoadLockedReq mshr miss latency
system.cpu.dcache.demand_avg_mshr_miss_latency::cpu.data 21246.660730                       # average overall mshr miss latency
system.cpu.dcache.demand_avg_mshr_miss_latency::total 21246.660730                       # average overall mshr miss latency
system.cpu.dcache.overall_avg_mshr_miss_latency::cpu.data 21246.660730                       # average overall mshr miss latency
system.cpu.dcache.overall_avg_mshr_miss_latency::total 21246.660730                       # average overall mshr miss latency
system.cpu.icache.tags.pwrStateResidencyTicks::UNDEFINED   9429346875                       # Cumulative time (in ticks) in various power states
system.cpu.icache.tags.replacements              1296                       # number of replacements
system.cpu.icache.tags.tagsinuse           377.840587                       # Cycle average of tags in use
system.cpu.icache.tags.total_refs             4430785                       # Total number of references to valid blocks.
system.cpu.icache.tags.sampled_refs              1694                       # Sample count of references to valid blocks.
system.cpu.icache.tags.avg_refs           2615.575560                       # Average number of references to valid blocks.
system.cpu.icache.tags.warmup_cycle             79375                       # Cycle when the warmup percentage was hit.
system.cpu.icache.tags.occ_blocks::cpu.inst   377.840587                       # Average occupied blocks per requestor
system.cpu.icache.tags.occ_percent::cpu.inst     0.737969                       # Average percentage of cache occupancy
system.cpu.icache.tags.occ_percent::total     0.737969                       # Average percentage of cache occupancy
system.cpu.icache.tags.occ_task_id_blocks::1024          398                       # Occupied blocks per task id
system.cpu.icache.tags.age_task_id_blocks_1024::0           86                       # Occupied blocks per task id
system.cpu.icache.tags.age_task_id_blocks_1024::2           16                       # Occupied blocks per task id
system.cpu.icache.tags.age_task_id_blocks_1024::3          296                       # Occupied blocks per task id
system.cpu.icache.tags.occ_task_id_percent::1024     0.777343                       # Percentage of cache occupancy per task id
system.cpu.icache.tags.tag_accesses           8866654                       # Number of tag accesses
system.cpu.icache.tags.data_accesses          8866654                       # Number of data accesses
system.cpu.icache.pwrStateResidencyTicks::UNDEFINED   9429346875                       # Cumulative time (in ticks) in various power states
system.cpu.icache.ReadReq_hits::cpu.inst      4430785                       # number of ReadReq hits
system.cpu.icache.ReadReq_hits::total         4430785                       # number of ReadReq hits
system.cpu.icache.demand_hits::cpu.inst       4430785                       # number of demand (read+write) hits
system.cpu.icache.demand_hits::total          4430785                       # number of demand (read+write) hits
system.cpu.icache.overall_hits::cpu.inst      4430785                       # number of overall hits
system.cpu.icache.overall_hits::total         4430785                       # number of overall hits
system.cpu.icache.ReadReq_misses::cpu.inst         1695                       # number of ReadReq misses
system.cpu.icache.ReadReq_misses::total          1695                       # number of ReadReq misses
system.cpu.icache.demand_misses::cpu.inst         1695                       # number of demand (read+write) misses
system.cpu.icache.demand_misses::total           1695                       # number of demand (read+write) misses
system.cpu.icache.overall_misses::cpu.inst         1695                       # number of overall misses
system.cpu.icache.overall_misses::total          1695                       # number of overall misses
system.cpu.icache.ReadReq_miss_latency::cpu.inst     64000625                       # number of ReadReq miss cycles
system.cpu.icache.ReadReq_miss_latency::total     64000625                       # number of ReadReq miss cycles
system.cpu.icache.demand_miss_latency::cpu.inst     64000625                       # number of demand (read+write) miss cycles
system.cpu.icache.demand_miss_latency::total     64000625                       # number of demand (read+write) miss cycles
system.cpu.icache.overall_miss_latency::cpu.inst     64000625                       # number of overall miss cycles
system.cpu.icache.overall_miss_latency::total     64000625                       # number of overall miss cycles
system.cpu.icache.ReadReq_accesses::cpu.inst      4432480                       # number of ReadReq accesses(hits+misses)
system.cpu.icache.ReadReq_accesses::total      4432480                       # number of ReadReq accesses(hits+misses)
system.cpu.icache.demand_accesses::cpu.inst      4432480                       # number of demand (read+write) accesses
system.cpu.icache.demand_accesses::total      4432480                       # number of demand (read+write) accesses
system.cpu.icache.overall_accesses::cpu.inst      4432480                       # number of overall (read+write) accesses
system.cpu.icache.overall_accesses::total      4432480                       # number of overall (read+write) accesses
system.cpu.icache.ReadReq_miss_rate::cpu.inst     0.000382                       # miss rate for ReadReq accesses
system.cpu.icache.ReadReq_miss_rate::total     0.000382                       # miss rate for ReadReq accesses
system.cpu.icache.demand_miss_rate::cpu.inst     0.000382                       # miss rate for demand accesses
system.cpu.icache.demand_miss_rate::total     0.000382                       # miss rate for demand accesses
system.cpu.icache.overall_miss_rate::cpu.inst     0.000382                       # miss rate for overall accesses
system.cpu.icache.overall_miss_rate::total     0.000382                       # miss rate for overall accesses
system.cpu.icache.ReadReq_avg_miss_latency::cpu.inst 37758.480825                       # average ReadReq miss latency
system.cpu.icache.ReadReq_avg_miss_latency::total 37758.480825                       # average ReadReq miss latency
system.cpu.icache.demand_avg_miss_latency::cpu.inst 37758.480825                       # average overall miss latency
system.cpu.icache.demand_avg_miss_latency::total 37758.480825                       # average overall miss latency
system.cpu.icache.overall_avg_miss_latency::cpu.inst 37758.480825                       # average overall miss latency
system.cpu.icache.overall_avg_miss_latency::total 37758.480825                       # average overall miss latency
system.cpu.icache.blocked_cycles::no_mshrs            0                       # number of cycles access was blocked
system.cpu.icache.blocked_cycles::no_targets            0                       # number of cycles access was blocked
system.cpu.icache.blocked::no_mshrs                 0                       # number of cycles access was blocked
system.cpu.icache.blocked::no_targets               0                       # number of cycles access was blocked
system.cpu.icache.avg_blocked_cycles::no_mshrs          nan                       # average number of cycles each access was blocked
system.cpu.icache.avg_blocked_cycles::no_targets          nan                       # average number of cycles each access was blocked
system.cpu.icache.writebacks::writebacks         1296                       # number of writebacks
system.cpu.icache.writebacks::total              1296                       # number of writebacks
system.cpu.icache.ReadReq_mshr_misses::cpu.inst         1695                       # number of ReadReq MSHR misses
system.cpu.icache.ReadReq_mshr_misses::total         1695                       # number of ReadReq MSHR misses
system.cpu.icache.demand_mshr_misses::cpu.inst         1695                       # number of demand (read+write) MSHR misses
system.cpu.icache.demand_mshr_misses::total         1695                       # number of demand (read+write) MSHR misses
system.cpu.icache.overall_mshr_misses::cpu.inst         1695                       # number of overall MSHR misses
system.cpu.icache.overall_mshr_misses::total         1695                       # number of overall MSHR misses
system.cpu.icache.ReadReq_mshr_miss_latency::cpu.inst     61883125                       # number of ReadReq MSHR miss cycles
system.cpu.icache.ReadReq_mshr_miss_latency::total     61883125                       # number of ReadReq MSHR miss cycles
system.cpu.icache.demand_mshr_miss_latency::cpu.inst     61883125                       # number of demand (read+write) MSHR miss cycles
system.cpu.icache.demand_mshr_miss_latency::total     61883125                       # number of demand (read+write) MSHR miss cycles
system.cpu.icache.overall_mshr_miss_latency::cpu.inst     61883125                       # number of overall MSHR miss cycles
system.cpu.icache.overall_mshr_miss_latency::total     61883125                       # number of overall MSHR miss cycles
system.cpu.icache.ReadReq_mshr_miss_rate::cpu.inst     0.000382                       # mshr miss rate for ReadReq accesses
system.cpu.icache.ReadReq_mshr_miss_rate::total     0.000382                       # mshr miss rate for ReadReq accesses
system.cpu.icache.demand_mshr_miss_rate::cpu.inst     0.000382                       # mshr miss rate for demand accesses
system.cpu.icache.demand_mshr_miss_rate::total     0.000382                       # mshr miss rate for demand accesses
system.cpu.icache.overall_mshr_miss_rate::cpu.inst     0.000382                       # mshr miss rate for overall accesses
system.cpu.icache.overall_mshr_miss_rate::total     0.000382                       # mshr miss rate for overall accesses
system.cpu.icache.ReadReq_avg_mshr_miss_latency::cpu.inst 36509.218289                       # average ReadReq mshr miss latency
system.cpu.icache.ReadReq_avg_mshr_miss_latency::total 36509.218289                       # average ReadReq mshr miss latency
system.cpu.icache.demand_avg_mshr_miss_latency::cpu.inst 36509.218289                       # average overall mshr miss latency
system.cpu.icache.demand_avg_mshr_miss_latency::total 36509.218289                       # average overall mshr miss latency
system.cpu.icache.overall_avg_mshr_miss_latency::cpu.inst 36509.218289                       # average overall mshr miss latency
system.cpu.icache.overall_avg_mshr_miss_latency::total 36509.218289                       # average overall mshr miss latency
system.l2bus.snoop_filter.tot_requests           6975                       # Total number of requests made to the snoop filter.
system.l2bus.snoop_filter.hit_single_requests         3033                       # Number of requests hitting in the snoop filter with a single holder of the requested data.
system.l2bus.snoop_filter.hit_multi_requests            0                       # Number of requests hitting in the snoop filter with multiple (>1) holders of the requested data.
system.l2bus.snoop_filter.tot_snoops                3                       # Total number of snoops made to the snoop filter.
system.l2bus.snoop_filter.hit_single_snoops            3                       # Number of snoops hitting in the snoop filter with a single holder of the requested data.
system.l2bus.snoop_filter.hit_multi_snoops            0                       # Number of snoops hitting in the snoop filter with multiple (>1) holders of the requested data.
system.l2bus.pwrStateResidencyTicks::UNDEFINED   9429346875                       # Cumulative time (in ticks) in various power states
system.l2bus.trans_dist::ReadResp                1810                       # Transaction distribution
system.l2bus.trans_dist::WritebackDirty          1697                       # Transaction distribution
system.l2bus.trans_dist::WritebackClean          1335                       # Transaction distribution
system.l2bus.trans_dist::HardPFReq               2000                       # Transaction distribution
system.l2bus.trans_dist::ReadExReq               2132                       # Transaction distribution
system.l2bus.trans_dist::ReadExResp              2132                       # Transaction distribution
system.l2bus.trans_dist::ReadCleanReq            1695                       # Transaction distribution
system.l2bus.trans_dist::ReadSharedReq            116                       # Transaction distribution
system.l2bus.pkt_count_system.cpu.icache.mem_side::system.l2cache.cpu_side         4685                       # Packet count per connected master and slave (bytes)
system.l2bus.pkt_count_system.cpu.dcache.mem_side::system.l2cache.cpu_side         6232                       # Packet count per connected master and slave (bytes)
system.l2bus.pkt_count::total                   10917                       # Packet count per connected master and slave (bytes)
system.l2bus.pkt_size_system.cpu.icache.mem_side::system.l2cache.cpu_side       191360                       # Cumulative packet size per connected master and slave (bytes)
system.l2bus.pkt_size_system.cpu.dcache.mem_side::system.l2cache.cpu_side       254976                       # Cumulative packet size per connected master and slave (bytes)
system.l2bus.pkt_size::total                   446336                       # Cumulative packet size per connected master and slave (bytes)
system.l2bus.snoops                              2000                       # Total snoops (count)
system.l2bus.snoopTraffic                           0                       # Total snoop traffic (bytes)
system.l2bus.snoop_fanout::samples               5943                       # Request fanout histogram
system.l2bus.snoop_fanout::mean              0.000673                       # Request fanout histogram
system.l2bus.snoop_fanout::stdev             0.025936                       # Request fanout histogram
system.l2bus.snoop_fanout::underflows               0      0.00%      0.00% # Request fanout histogram
system.l2bus.snoop_fanout::0                     5939     99.93%     99.93% # Request fanout histogram
system.l2bus.snoop_fanout::1                        4      0.06%     99.99% # Request fanout histogram
system.l2bus.snoop_fanout::2                        0      0.00%     99.99% # Request fanout histogram
system.l2bus.snoop_fanout::overflows                0      0.00%     99.99% # Request fanout histogram
system.l2bus.snoop_fanout::min_value                0                       # Request fanout histogram
system.l2bus.snoop_fanout::max_value                1                       # Request fanout histogram
system.l2bus.snoop_fanout::total                 5943                       # Request fanout histogram
system.l2bus.reqLayer0.occupancy             11939375                       # Layer occupancy (ticks)
system.l2bus.reqLayer0.utilization                0.1                       # Layer utilization (%)
system.l2bus.respLayer0.occupancy             5293750                       # Layer occupancy (ticks)
system.l2bus.respLayer0.utilization               0.0                       # Layer utilization (%)
system.l2bus.respLayer1.occupancy             7025624                       # Layer occupancy (ticks)
system.l2bus.respLayer1.utilization               0.0                       # Layer utilization (%)
system.l2cache.prefetcher.pwrStateResidencyTicks::UNDEFINED   9429346875                       # Cumulative time (in ticks) in various power states
system.l2cache.prefetcher.num_hwpf_issued         2000                       # number of hwpf issued
system.l2cache.prefetcher.pfIdentified           2000                       # number of prefetch candidates identified
system.l2cache.prefetcher.pfBufferHit               0                       # number of redundant prefetches already in prefetch queue
system.l2cache.prefetcher.pfInCache                 0                       # number of redundant prefetches already in cache/mshr dropped
system.l2cache.prefetcher.pfRemovedFull             0                       # number of prefetches dropped due to prefetch queue size
system.l2cache.prefetcher.pfSpanPage               32                       # number of prefetches not generated due to page crossing
system.l2cache.tags.pwrStateResidencyTicks::UNDEFINED   9429346875                       # Cumulative time (in ticks) in various power states
system.l2cache.tags.replacements                    0                       # number of replacements
system.l2cache.tags.tagsinuse              903.060323                       # Cycle average of tags in use
system.l2cache.tags.total_refs                      0                       # Total number of references to valid blocks.
system.l2cache.tags.sampled_refs                 1918                       # Sample count of references to valid blocks.
system.l2cache.tags.avg_refs                        0                       # Average number of references to valid blocks.
system.l2cache.tags.warmup_cycle              8727500                       # Cycle when the warmup percentage was hit.
system.l2cache.tags.occ_blocks::writebacks   902.097988                       # Average occupied blocks per requestor
system.l2cache.tags.occ_blocks::l2cache.prefetcher     0.962334                       # Average occupied blocks per requestor
system.l2cache.tags.occ_percent::writebacks     0.110119                       # Average percentage of cache occupancy
system.l2cache.tags.occ_percent::l2cache.prefetcher     0.000117                       # Average percentage of cache occupancy
system.l2cache.tags.occ_percent::total       0.110236                       # Average percentage of cache occupancy
system.l2cache.tags.occ_task_id_blocks::1024         1918                       # Occupied blocks per task id
system.l2cache.tags.age_task_id_blocks_1024::0           92                       # Occupied blocks per task id
system.l2cache.tags.age_task_id_blocks_1024::1           19                       # Occupied blocks per task id
system.l2cache.tags.age_task_id_blocks_1024::2          204                       # Occupied blocks per task id
system.l2cache.tags.age_task_id_blocks_1024::3         1603                       # Occupied blocks per task id
system.l2cache.tags.occ_task_id_percent::1024     0.234130                       # Percentage of cache occupancy per task id
system.l2cache.tags.tag_accesses                60829                       # Number of tag accesses
system.l2cache.tags.data_accesses               60829                       # Number of data accesses
system.l2cache.pwrStateResidencyTicks::UNDEFINED   9429346875                       # Cumulative time (in ticks) in various power states
system.l2cache.WritebackDirty_hits::writebacks         1697                       # number of WritebackDirty hits
system.l2cache.WritebackDirty_hits::total         1697                       # number of WritebackDirty hits
system.l2cache.WritebackClean_hits::writebacks         1335                       # number of WritebackClean hits
system.l2cache.WritebackClean_hits::total         1335                       # number of WritebackClean hits
system.l2cache.ReadExReq_hits::cpu.data          1968                       # number of ReadExReq hits
system.l2cache.ReadExReq_hits::total             1968                       # number of ReadExReq hits
system.l2cache.ReadCleanReq_hits::cpu.inst         1098                       # number of ReadCleanReq hits
system.l2cache.ReadCleanReq_hits::total          1098                       # number of ReadCleanReq hits
system.l2cache.ReadSharedReq_hits::cpu.data           15                       # number of ReadSharedReq hits
system.l2cache.ReadSharedReq_hits::total           15                       # number of ReadSharedReq hits
system.l2cache.demand_hits::cpu.inst             1098                       # number of demand (read+write) hits
system.l2cache.demand_hits::cpu.data             1983                       # number of demand (read+write) hits
system.l2cache.demand_hits::total                3081                       # number of demand (read+write) hits
system.l2cache.overall_hits::cpu.inst            1098                       # number of overall hits
system.l2cache.overall_hits::cpu.data            1983                       # number of overall hits
system.l2cache.overall_hits::total               3081                       # number of overall hits
system.l2cache.ReadExReq_misses::cpu.data          164                       # number of ReadExReq misses
system.l2cache.ReadExReq_misses::total            164                       # number of ReadExReq misses
system.l2cache.ReadCleanReq_misses::cpu.inst          597                       # number of ReadCleanReq misses
system.l2cache.ReadCleanReq_misses::total          597                       # number of ReadCleanReq misses
system.l2cache.ReadSharedReq_misses::cpu.data          101                       # number of ReadSharedReq misses
system.l2cache.ReadSharedReq_misses::total          101                       # number of ReadSharedReq misses
system.l2cache.demand_misses::cpu.inst            597                       # number of demand (read+write) misses
system.l2cache.demand_misses::cpu.data            265                       # number of demand (read+write) misses
system.l2cache.demand_misses::total               862                       # number of demand (read+write) misses
system.l2cache.overall_misses::cpu.inst           597                       # number of overall misses
system.l2cache.overall_misses::cpu.data           265                       # number of overall misses
system.l2cache.overall_misses::total              862                       # number of overall misses
system.l2cache.ReadExReq_miss_latency::cpu.data     13490000                       # number of ReadExReq miss cycles
system.l2cache.ReadExReq_miss_latency::total     13490000                       # number of ReadExReq miss cycles
system.l2cache.ReadCleanReq_miss_latency::cpu.inst     45579375                       # number of ReadCleanReq miss cycles
system.l2cache.ReadCleanReq_miss_latency::total     45579375                       # number of ReadCleanReq miss cycles
system.l2cache.ReadSharedReq_miss_latency::cpu.data      7673750                       # number of ReadSharedReq miss cycles
system.l2cache.ReadSharedReq_miss_latency::total      7673750                       # number of ReadSharedReq miss cycles
system.l2cache.demand_miss_latency::cpu.inst     45579375                       # number of demand (read+write) miss cycles
system.l2cache.demand_miss_latency::cpu.data     21163750                       # number of demand (read+write) miss cycles
system.l2cache.demand_miss_latency::total     66743125                       # number of demand (read+write) miss cycles
system.l2cache.overall_miss_latency::cpu.inst     45579375                       # number of overall miss cycles
system.l2cache.overall_miss_latency::cpu.data     21163750                       # number of overall miss cycles
system.l2cache.overall_miss_latency::total     66743125                       # number of overall miss cycles
system.l2cache.WritebackDirty_accesses::writebacks         1697                       # number of WritebackDirty accesses(hits+misses)
system.l2cache.WritebackDirty_accesses::total         1697                       # number of WritebackDirty accesses(hits+misses)
system.l2cache.WritebackClean_accesses::writebacks         1335                       # number of WritebackClean accesses(hits+misses)
system.l2cache.WritebackClean_accesses::total         1335                       # number of WritebackClean accesses(hits+misses)
system.l2cache.ReadExReq_accesses::cpu.data         2132                       # number of ReadExReq accesses(hits+misses)
system.l2cache.ReadExReq_accesses::total         2132                       # number of ReadExReq accesses(hits+misses)
system.l2cache.ReadCleanReq_accesses::cpu.inst         1695                       # number of ReadCleanReq accesses(hits+misses)
system.l2cache.ReadCleanReq_accesses::total         1695                       # number of ReadCleanReq accesses(hits+misses)
system.l2cache.ReadSharedReq_accesses::cpu.data          116                       # number of ReadSharedReq accesses(hits+misses)
system.l2cache.ReadSharedReq_accesses::total          116                       # number of ReadSharedReq accesses(hits+misses)
system.l2cache.demand_accesses::cpu.inst         1695                       # number of demand (read+write) accesses
system.l2cache.demand_accesses::cpu.data         2248                       # number of demand (read+write) accesses
system.l2cache.demand_accesses::total            3943                       # number of demand (read+write) accesses
system.l2cache.overall_accesses::cpu.inst         1695                       # number of overall (read+write) accesses
system.l2cache.overall_accesses::cpu.data         2248                       # number of overall (read+write) accesses
system.l2cache.overall_accesses::total           3943                       # number of overall (read+write) accesses
system.l2cache.ReadExReq_miss_rate::cpu.data     0.076923                       # miss rate for ReadExReq accesses
system.l2cache.ReadExReq_miss_rate::total     0.076923                       # miss rate for ReadExReq accesses
system.l2cache.ReadCleanReq_miss_rate::cpu.inst     0.352212                       # miss rate for ReadCleanReq accesses
system.l2cache.ReadCleanReq_miss_rate::total     0.352212                       # miss rate for ReadCleanReq accesses
system.l2cache.ReadSharedReq_miss_rate::cpu.data     0.870689                       # miss rate for ReadSharedReq accesses
system.l2cache.ReadSharedReq_miss_rate::total     0.870689                       # miss rate for ReadSharedReq accesses
system.l2cache.demand_miss_rate::cpu.inst     0.352212                       # miss rate for demand accesses
system.l2cache.demand_miss_rate::cpu.data     0.117882                       # miss rate for demand accesses
system.l2cache.demand_miss_rate::total       0.218615                       # miss rate for demand accesses
system.l2cache.overall_miss_rate::cpu.inst     0.352212                       # miss rate for overall accesses
system.l2cache.overall_miss_rate::cpu.data     0.117882                       # miss rate for overall accesses
system.l2cache.overall_miss_rate::total      0.218615                       # miss rate for overall accesses
system.l2cache.ReadExReq_avg_miss_latency::cpu.data 82256.097560                       # average ReadExReq miss latency
system.l2cache.ReadExReq_avg_miss_latency::total 82256.097560                       # average ReadExReq miss latency
system.l2cache.ReadCleanReq_avg_miss_latency::cpu.inst 76347.361809                       # average ReadCleanReq miss latency
system.l2cache.ReadCleanReq_avg_miss_latency::total 76347.361809                       # average ReadCleanReq miss latency
system.l2cache.ReadSharedReq_avg_miss_latency::cpu.data 75977.722772                       # average ReadSharedReq miss latency
system.l2cache.ReadSharedReq_avg_miss_latency::total 75977.722772                       # average ReadSharedReq miss latency
system.l2cache.demand_avg_miss_latency::cpu.inst 76347.361809                       # average overall miss latency
system.l2cache.demand_avg_miss_latency::cpu.data 79863.207547                       # average overall miss latency
system.l2cache.demand_avg_miss_latency::total 77428.219257                       # average overall miss latency
system.l2cache.overall_avg_miss_latency::cpu.inst 76347.361809                       # average overall miss latency
system.l2cache.overall_avg_miss_latency::cpu.data 79863.207547                       # average overall miss latency
system.l2cache.overall_avg_miss_latency::total 77428.219257                       # average overall miss latency
system.l2cache.blocked_cycles::no_mshrs             0                       # number of cycles access was blocked
system.l2cache.blocked_cycles::no_targets            0                       # number of cycles access was blocked
system.l2cache.blocked::no_mshrs                    0                       # number of cycles access was blocked
system.l2cache.blocked::no_targets                  0                       # number of cycles access was blocked
system.l2cache.avg_blocked_cycles::no_mshrs          nan                       # average number of cycles each access was blocked
system.l2cache.avg_blocked_cycles::no_targets          nan                       # average number of cycles each access was blocked
system.l2cache.ReadExReq_mshr_hits::cpu.data           30                       # number of ReadExReq MSHR hits
system.l2cache.ReadExReq_mshr_hits::total           30                       # number of ReadExReq MSHR hits
system.l2cache.demand_mshr_hits::cpu.data           30                       # number of demand (read+write) MSHR hits
system.l2cache.demand_mshr_hits::total             30                       # number of demand (read+write) MSHR hits
system.l2cache.overall_mshr_hits::cpu.data           30                       # number of overall MSHR hits
system.l2cache.overall_mshr_hits::total            30                       # number of overall MSHR hits
system.l2cache.HardPFReq_mshr_misses::l2cache.prefetcher         2000                       # number of HardPFReq MSHR misses
system.l2cache.HardPFReq_mshr_misses::total         2000                       # number of HardPFReq MSHR misses
system.l2cache.ReadExReq_mshr_misses::cpu.data          134                       # number of ReadExReq MSHR misses
system.l2cache.ReadExReq_mshr_misses::total          134                       # number of ReadExReq MSHR misses
system.l2cache.ReadCleanReq_mshr_misses::cpu.inst          597                       # number of ReadCleanReq MSHR misses
system.l2cache.ReadCleanReq_mshr_misses::total          597                       # number of ReadCleanReq MSHR misses
system.l2cache.ReadSharedReq_mshr_misses::cpu.data          101                       # number of ReadSharedReq MSHR misses
system.l2cache.ReadSharedReq_mshr_misses::total          101                       # number of ReadSharedReq MSHR misses
system.l2cache.demand_mshr_misses::cpu.inst          597                       # number of demand (read+write) MSHR misses
system.l2cache.demand_mshr_misses::cpu.data          235                       # number of demand (read+write) MSHR misses
system.l2cache.demand_mshr_misses::total          832                       # number of demand (read+write) MSHR misses
system.l2cache.overall_mshr_misses::cpu.inst          597                       # number of overall MSHR misses
system.l2cache.overall_mshr_misses::cpu.data          235                       # number of overall MSHR misses
system.l2cache.overall_mshr_misses::l2cache.prefetcher         2000                       # number of overall MSHR misses
system.l2cache.overall_mshr_misses::total         2832                       # number of overall MSHR misses
system.l2cache.HardPFReq_mshr_miss_latency::l2cache.prefetcher    130689375                       # number of HardPFReq MSHR miss cycles
system.l2cache.HardPFReq_mshr_miss_latency::total    130689375                       # number of HardPFReq MSHR miss cycles
system.l2cache.ReadExReq_mshr_miss_latency::cpu.data     12013125                       # number of ReadExReq MSHR miss cycles
system.l2cache.ReadExReq_mshr_miss_latency::total     12013125                       # number of ReadExReq MSHR miss cycles
system.l2cache.ReadCleanReq_mshr_miss_latency::cpu.inst     42226875                       # number of ReadCleanReq MSHR miss cycles
system.l2cache.ReadCleanReq_mshr_miss_latency::total     42226875                       # number of ReadCleanReq MSHR miss cycles
system.l2cache.ReadSharedReq_mshr_miss_latency::cpu.data      7105625                       # number of ReadSharedReq MSHR miss cycles
system.l2cache.ReadSharedReq_mshr_miss_latency::total      7105625                       # number of ReadSharedReq MSHR miss cycles
system.l2cache.demand_mshr_miss_latency::cpu.inst     42226875                       # number of demand (read+write) MSHR miss cycles
system.l2cache.demand_mshr_miss_latency::cpu.data     19118750                       # number of demand (read+write) MSHR miss cycles
system.l2cache.demand_mshr_miss_latency::total     61345625                       # number of demand (read+write) MSHR miss cycles
system.l2cache.overall_mshr_miss_latency::cpu.inst     42226875                       # number of overall MSHR miss cycles
system.l2cache.overall_mshr_miss_latency::cpu.data     19118750                       # number of overall MSHR miss cycles
system.l2cache.overall_mshr_miss_latency::l2cache.prefetcher    130689375                       # number of overall MSHR miss cycles
system.l2cache.overall_mshr_miss_latency::total    192035000                       # number of overall MSHR miss cycles
system.l2cache.HardPFReq_mshr_miss_rate::l2cache.prefetcher          inf                       # mshr miss rate for HardPFReq accesses
system.l2cache.HardPFReq_mshr_miss_rate::total          inf                       # mshr miss rate for HardPFReq accesses
system.l2cache.ReadExReq_mshr_miss_rate::cpu.data     0.062851                       # mshr miss rate for ReadExReq accesses
system.l2cache.ReadExReq_mshr_miss_rate::total     0.062851                       # mshr miss rate for ReadExReq accesses
system.l2cache.ReadCleanReq_mshr_miss_rate::cpu.inst     0.352212                       # mshr miss rate for ReadCleanReq accesses
system.l2cache.ReadCleanReq_mshr_miss_rate::total     0.352212                       # mshr miss rate for ReadCleanReq accesses
system.l2cache.ReadSharedReq_mshr_miss_rate::cpu.data     0.870689                       # mshr miss rate for ReadSharedReq accesses
system.l2cache.ReadSharedReq_mshr_miss_rate::total     0.870689                       # mshr miss rate for ReadSharedReq accesses
system.l2cache.demand_mshr_miss_rate::cpu.inst     0.352212                       # mshr miss rate for demand accesses
system.l2cache.demand_mshr_miss_rate::cpu.data     0.104537                       # mshr miss rate for demand accesses
system.l2cache.demand_mshr_miss_rate::total     0.211006                       # mshr miss rate for demand accesses
system.l2cache.overall_mshr_miss_rate::cpu.inst     0.352212                       # mshr miss rate for overall accesses
system.l2cache.overall_mshr_miss_rate::cpu.data     0.104537                       # mshr miss rate for overall accesses
system.l2cache.overall_mshr_miss_rate::l2cache.prefetcher          inf                       # mshr miss rate for overall accesses
system.l2cache.overall_mshr_miss_rate::total     0.718234                       # mshr miss rate for overall accesses
system.l2cache.HardPFReq_avg_mshr_miss_latency::l2cache.prefetcher 65344.687500                       # average HardPFReq mshr miss latency
system.l2cache.HardPFReq_avg_mshr_miss_latency::total 65344.687500                       # average HardPFReq mshr miss latency
system.l2cache.ReadExReq_avg_mshr_miss_latency::cpu.data 89650.186567                       # average ReadExReq mshr miss latency
system.l2cache.ReadExReq_avg_mshr_miss_latency::total 89650.186567                       # average ReadExReq mshr miss latency
system.l2cache.ReadCleanReq_avg_mshr_miss_latency::cpu.inst 70731.783919                       # average ReadCleanReq mshr miss latency
system.l2cache.ReadCleanReq_avg_mshr_miss_latency::total 70731.783919                       # average ReadCleanReq mshr miss latency
system.l2cache.ReadSharedReq_avg_mshr_miss_latency::cpu.data 70352.722772                       # average ReadSharedReq mshr miss latency
system.l2cache.ReadSharedReq_avg_mshr_miss_latency::total 70352.722772                       # average ReadSharedReq mshr miss latency
system.l2cache.demand_avg_mshr_miss_latency::cpu.inst 70731.783919                       # average overall mshr miss latency
system.l2cache.demand_avg_mshr_miss_latency::cpu.data 81356.382978                       # average overall mshr miss latency
system.l2cache.demand_avg_mshr_miss_latency::total 73732.722355                       # average overall mshr miss latency
system.l2cache.overall_avg_mshr_miss_latency::cpu.inst 70731.783919                       # average overall mshr miss latency
system.l2cache.overall_avg_mshr_miss_latency::cpu.data 81356.382978                       # average overall mshr miss latency
system.l2cache.overall_avg_mshr_miss_latency::l2cache.prefetcher 65344.687500                       # average overall mshr miss latency
system.l2cache.overall_avg_mshr_miss_latency::total 67808.968926                       # average overall mshr miss latency
system.membus.snoop_filter.tot_requests          2828                       # Total number of requests made to the snoop filter.
system.membus.snoop_filter.hit_single_requests            1                       # Number of requests hitting in the snoop filter with a single holder of the requested data.
system.membus.snoop_filter.hit_multi_requests            0                       # Number of requests hitting in the snoop filter with multiple (>1) holders of the requested data.
system.membus.snoop_filter.tot_snoops               0                       # Total number of snoops made to the snoop filter.
system.membus.snoop_filter.hit_single_snoops            0                       # Number of snoops hitting in the snoop filter with a single holder of the requested data.
system.membus.snoop_filter.hit_multi_snoops            0                       # Number of snoops hitting in the snoop filter with multiple (>1) holders of the requested data.
system.membus.pwrStateResidencyTicks::UNDEFINED   9429346875                       # Cumulative time (in ticks) in various power states
system.membus.trans_dist::ReadResp               2694                       # Transaction distribution
system.membus.trans_dist::ReadExReq               134                       # Transaction distribution
system.membus.trans_dist::ReadExResp              134                       # Transaction distribution
system.membus.trans_dist::ReadCleanReq           2694                       # Transaction distribution
system.membus.pkt_count_system.l2cache.mem_side::system.mem_ctrl.port         5656                       # Packet count per connected master and slave (bytes)
system.membus.pkt_count::total                   5656                       # Packet count per connected master and slave (bytes)
system.membus.pkt_size_system.l2cache.mem_side::system.mem_ctrl.port       180992                       # Cumulative packet size per connected master and slave (bytes)
system.membus.pkt_size::total                  180992                       # Cumulative packet size per connected master and slave (bytes)
system.membus.snoops                                0                       # Total snoops (count)
system.membus.snoopTraffic                          0                       # Total snoop traffic (bytes)
system.membus.snoop_fanout::samples              2828                       # Request fanout histogram
system.membus.snoop_fanout::mean                    0                       # Request fanout histogram
system.membus.snoop_fanout::stdev                   0                       # Request fanout histogram
system.membus.snoop_fanout::underflows              0      0.00%      0.00% # Request fanout histogram
system.membus.snoop_fanout::0                    2828    100.00%    100.00% # Request fanout histogram
system.membus.snoop_fanout::1                       0      0.00%    100.00% # Request fanout histogram
system.membus.snoop_fanout::overflows               0      0.00%    100.00% # Request fanout histogram
system.membus.snoop_fanout::min_value               0                       # Request fanout histogram
system.membus.snoop_fanout::max_value               0                       # Request fanout histogram
system.membus.snoop_fanout::total                2828                       # Request fanout histogram
system.membus.reqLayer0.occupancy             1767500                       # Layer occupancy (ticks)
system.membus.reqLayer0.utilization               0.0                       # Layer utilization (%)
system.membus.respLayer0.occupancy            9552750                       # Layer occupancy (ticks)
system.membus.respLayer0.utilization              0.1                       # Layer utilization (%)

---------- End Simulation Statistics   ----------
