  75746: system.cpu.execute: 75746;s;i;0
30458656: system.cpu.execute: 30458656;f;i;0
30458656: system.cpu.execute: 30458656;s;i;1
37208188: system.cpu.execute: 37208188;f;i;1
37208814: system.cpu.execute: 37208814;s;i;2
39851160: system.cpu.execute: 39851160;f;i;2
39851160: system.cpu.execute: 39851160;s;f;0
50305047: system.cpu.execute: 50305047;f;f;0
50305360: system.cpu.execute: 50305360;s;i;3
65076769: system.cpu.execute: 65076769;f;i;3
65077395: system.cpu.execute: 65077395;s;i;4
70352071: system.cpu.execute: 70352071;f;i;4
70353636: system.cpu.execute: 70353636;s;i;5
71870434: system.cpu.execute: 71870434;f;i;5
71870434: system.cpu.execute: 71870434;s;f;1
89991569: system.cpu.execute: 89991569;f;f;1
89991882: system.cpu.execute: 89991882;s;i;6
93943820: system.cpu.execute: 93943820;f;i;6
93944446: system.cpu.execute: 93944446;s;i;7
97761794: system.cpu.execute: 97761794;f;i;7
97761794: system.cpu.execute: 97761794;s;i;8
100919651: system.cpu.execute: 100919651;f;i;8
100919964: system.cpu.execute: 100919964;s;i;9
104508509: system.cpu.execute: 104508509;f;i;9
104508822: system.cpu.execute: 104508822;s;i;10
108373433: system.cpu.execute: 108373433;f;i;10
108373746: system.cpu.execute: 108373746;s;i;11
111558521: system.cpu.execute: 111558521;f;i;11
111558834: system.cpu.execute: 111558834;s;i;12
114941738: system.cpu.execute: 114941738;f;i;12
114941738: system.cpu.execute: 114941738;s;i;13
119088362: system.cpu.execute: 119088362;f;i;13
119088362: system.cpu.execute: 119088362;s;i;14
122223057: system.cpu.execute: 122223057;f;i;14
122223370: system.cpu.execute: 122223370;s;i;15
125551186: system.cpu.execute: 125551186;f;i;15
125551186: system.cpu.execute: 125551186;s;i;16
129334417: system.cpu.execute: 129334417;f;i;16
129334730: system.cpu.execute: 129334730;s;i;17
133595912: system.cpu.execute: 133595912;f;i;17
133595912: system.cpu.execute: 133595912;s;i;18
137654896: system.cpu.execute: 137654896;f;i;18
137655209: system.cpu.execute: 137655209;s;i;19
144218193: system.cpu.execute: 144218193;f;i;19
144218506: system.cpu.execute: 144218506;s;i;20
150817172: system.cpu.execute: 150817172;f;i;20
150817485: system.cpu.execute: 150817485;s;i;21
153580649: system.cpu.execute: 153580649;f;i;21
153580962: system.cpu.execute: 153580962;s;i;22
156918481: system.cpu.execute: 156918481;f;i;22
156918794: system.cpu.execute: 156918794;s;i;23
162557176: system.cpu.execute: 162557176;f;i;23
162557489: system.cpu.execute: 162557489;s;i;24
167979588: system.cpu.execute: 167979588;f;i;24
167979901: system.cpu.execute: 167979901;s;i;25
170615987: system.cpu.execute: 170615987;f;i;25
170616300: system.cpu.execute: 170616300;s;i;26
174615814: system.cpu.execute: 174615814;f;i;26
174615814: system.cpu.execute: 174615814;s;i;27
179479834: system.cpu.execute: 179479834;f;i;27
179480147: system.cpu.execute: 179480147;s;i;28
184741364: system.cpu.execute: 184741364;f;i;28
184741990: system.cpu.execute: 184741990;s;i;29
187471350: system.cpu.execute: 187471350;f;i;29
187471663: system.cpu.execute: 187471663;s;i;30
192185443: system.cpu.execute: 192185443;f;i;30
192186069: system.cpu.execute: 192186069;s;i;31
196373070: system.cpu.execute: 196373070;f;i;31
196373383: system.cpu.execute: 196373383;s;i;32
201502514: system.cpu.execute: 201502514;f;i;32
201502827: system.cpu.execute: 201502827;s;i;33
204336103: system.cpu.execute: 204336103;f;i;33
204336416: system.cpu.execute: 204336416;s;i;34
209676822: system.cpu.execute: 209676822;f;i;34
209677448: system.cpu.execute: 209677448;s;i;35
213518897: system.cpu.execute: 213518897;f;i;35
213518897: system.cpu.execute: 213518897;s;i;36
218201690: system.cpu.execute: 218201690;f;i;36
218202629: system.cpu.execute: 218202629;s;i;37
221176129: system.cpu.execute: 221176129;f;i;37
221176129: system.cpu.execute: 221176129;s;i;38
226654255: system.cpu.execute: 226654255;f;i;38
226654568: system.cpu.execute: 226654568;s;i;39
231007146: system.cpu.execute: 231007146;f;i;39
231008085: system.cpu.execute: 231008085;s;i;40
234926845: system.cpu.execute: 234926845;f;i;40
234926845: system.cpu.execute: 234926845;s;i;41
238018346: system.cpu.execute: 238018346;f;i;41
238018659: system.cpu.execute: 238018659;s;i;42
243471432: system.cpu.execute: 243471432;f;i;42
243471745: system.cpu.execute: 243471745;s;i;43
249246908: system.cpu.execute: 249246908;f;i;43
249248786: system.cpu.execute: 249248786;s;i;44
254003882: system.cpu.execute: 254003882;f;i;44
254004195: system.cpu.execute: 254004195;s;i;45
257306345: system.cpu.execute: 257306345;f;i;45
257306658: system.cpu.execute: 257306658;s;i;46
260474218: system.cpu.execute: 260474218;f;i;46
260474218: system.cpu.execute: 260474218;s;i;47
263612356: system.cpu.execute: 263612356;f;i;47
263612982: system.cpu.execute: 263612982;s;i;48
266978671: system.cpu.execute: 266978671;f;i;48
266978671: system.cpu.execute: 266978671;s;i;49
270109297: system.cpu.execute: 270109297;f;i;49
270109297: system.cpu.execute: 270109297;s;i;50
273208310: system.cpu.execute: 273208310;f;i;50
273208623: system.cpu.execute: 273208623;s;i;51
276744584: system.cpu.execute: 276744584;f;i;51
276744584: system.cpu.execute: 276744584;s;i;52
279829825: system.cpu.execute: 279829825;f;i;52
279830138: system.cpu.execute: 279830138;s;i;53
282883766: system.cpu.execute: 282883766;f;i;53
282884079: system.cpu.execute: 282884079;s;i;54
286164006: system.cpu.execute: 286164006;f;i;54
286164006: system.cpu.execute: 286164006;s;i;55
289302770: system.cpu.execute: 289302770;f;i;55
289303083: system.cpu.execute: 289303083;s;i;56
294877926: system.cpu.execute: 294877926;f;i;56
294878239: system.cpu.execute: 294878239;s;i;57
299865268: system.cpu.execute: 299865268;f;i;57
299866207: system.cpu.execute: 299866207;s;i;58
303140813: system.cpu.execute: 303140813;f;i;58
303141126: system.cpu.execute: 303141126;s;i;59
306359705: system.cpu.execute: 306359705;f;i;59
306360018: system.cpu.execute: 306360018;s;i;60
311838144: system.cpu.execute: 311838144;f;i;60
311838457: system.cpu.execute: 311838457;s;i;61
317326912: system.cpu.execute: 317326912;f;i;61
317326912: system.cpu.execute: 317326912;s;i;62
319958303: system.cpu.execute: 319958303;f;i;62
319958303: system.cpu.execute: 319958303;s;i;63
323480492: system.cpu.execute: 323480492;f;i;63
323482370: system.cpu.execute: 323482370;s;i;64
328807439: system.cpu.execute: 328807439;f;i;64
328807752: system.cpu.execute: 328807752;s;i;65
334159426: system.cpu.execute: 334159426;f;i;65
334159739: system.cpu.execute: 334159739;s;i;66
336827438: system.cpu.execute: 336827438;f;i;66
336827438: system.cpu.execute: 336827438;s;i;67
341025394: system.cpu.execute: 341025394;f;i;67
341027272: system.cpu.execute: 341027272;s;i;68
345686903: system.cpu.execute: 345686903;f;i;68
345687529: system.cpu.execute: 345687529;s;i;69
350896475: system.cpu.execute: 350896475;f;i;69
350897414: system.cpu.execute: 350897414;s;i;70
353664021: system.cpu.execute: 353664021;f;i;70
353664334: system.cpu.execute: 353664334;s;i;71
358527102: system.cpu.execute: 358527102;f;i;71
358527728: system.cpu.execute: 358527728;s;i;72
362559794: system.cpu.execute: 362559794;f;i;72
362560420: system.cpu.execute: 362560420;s;i;73
367646357: system.cpu.execute: 367646357;f;i;73
367646357: system.cpu.execute: 367646357;s;i;74
370525018: system.cpu.execute: 370525018;f;i;74
370525331: system.cpu.execute: 370525331;s;i;75
375978104: system.cpu.execute: 375978104;f;i;75
375978417: system.cpu.execute: 375978417;s;i;76
379912827: system.cpu.execute: 379912827;f;i;76
379914705: system.cpu.execute: 379914705;s;i;77
384351167: system.cpu.execute: 384351167;f;i;77
384351480: system.cpu.execute: 384351480;s;i;78
387357532: system.cpu.execute: 387357532;f;i;78
387357845: system.cpu.execute: 387357845;s;i;79
392836284: system.cpu.execute: 392836284;f;i;79
392836597: system.cpu.execute: 392836597;s;i;80
397397320: system.cpu.execute: 397397320;f;i;80
397397946: system.cpu.execute: 397397946;s;i;81
401075383: system.cpu.execute: 401075383;f;i;81
401075696: system.cpu.execute: 401075696;s;i;82
404206948: system.cpu.execute: 404206948;f;i;82
404207261: system.cpu.execute: 404207261;s;i;83
409660347: system.cpu.execute: 409660347;f;i;83
409660973: system.cpu.execute: 409660973;s;i;84
414895585: system.cpu.execute: 414895585;f;i;84
414895585: system.cpu.execute: 414895585;s;i;85
418402437: system.cpu.execute: 418402437;f;i;85
418402750: system.cpu.execute: 418402750;s;i;86
421473906: system.cpu.execute: 421473906;f;i;86
421474219: system.cpu.execute: 421474219;s;i;87
424791080: system.cpu.execute: 424791080;f;i;87
424791080: system.cpu.execute: 424791080;s;i;88
427793063: system.cpu.execute: 427793063;f;i;88
427793376: system.cpu.execute: 427793376;s;i;89
430831980: system.cpu.execute: 430831980;f;i;89
430832293: system.cpu.execute: 430832293;s;i;90
433855247: system.cpu.execute: 433855247;f;i;90
433855560: system.cpu.execute: 433855560;s;i;91
436775537: system.cpu.execute: 436775537;f;i;91
436775850: system.cpu.execute: 436775850;s;i;92
439822905: system.cpu.execute: 439822905;f;i;92
439823218: system.cpu.execute: 439823218;s;i;93
442861509: system.cpu.execute: 442861509;f;i;93
442862135: system.cpu.execute: 442862135;s;i;94
445904182: system.cpu.execute: 445904182;f;i;94
445905121: system.cpu.execute: 445905121;s;i;95
448759681: system.cpu.execute: 448759681;f;i;95
448759681: system.cpu.execute: 448759681;s;i;96
451695934: system.cpu.execute: 451695934;f;i;96
451696247: system.cpu.execute: 451696247;s;i;97
457264204: system.cpu.execute: 457264204;f;i;97
457265143: system.cpu.execute: 457265143;s;i;98
461143839: system.cpu.execute: 461143839;f;i;98
461144778: system.cpu.execute: 461144778;s;i;99
465669193: system.cpu.execute: 465669193;f;i;99
465669819: system.cpu.execute: 465669819;s;i;100
468712805: system.cpu.execute: 468712805;f;i;100
468713118: system.cpu.execute: 468713118;s;i;101
474182167: system.cpu.execute: 474182167;f;i;101
474182480: system.cpu.execute: 474182480;s;i;102
479311611: system.cpu.execute: 479311611;f;i;102
479312550: system.cpu.execute: 479312550;s;i;103
483082322: system.cpu.execute: 483082322;f;i;103
483082948: system.cpu.execute: 483082948;s;i;104
486259898: system.cpu.execute: 486259898;f;i;104
486260837: system.cpu.execute: 486260837;s;i;105
491739902: system.cpu.execute: 491739902;f;i;105
491740215: system.cpu.execute: 491740215;s;i;106
496951665: system.cpu.execute: 496951665;f;i;106
496951665: system.cpu.execute: 496951665;s;i;107
499908889: system.cpu.execute: 499908889;f;i;107
499909515: system.cpu.execute: 499909515;s;i;108
503170036: system.cpu.execute: 503170036;f;i;108
503170349: system.cpu.execute: 503170349;s;i;109
508623122: system.cpu.execute: 508623122;f;i;109
508623435: system.cpu.execute: 508623435;s;i;110
514043656: system.cpu.execute: 514043656;f;i;110
514043656: system.cpu.execute: 514043656;s;i;111
516613386: system.cpu.execute: 516613386;f;i;111
516613386: system.cpu.execute: 516613386;s;i;112
520416962: system.cpu.execute: 520416962;f;i;112
520417901: system.cpu.execute: 520417901;s;i;113
525490066: system.cpu.execute: 525490066;f;i;113
525490379: system.cpu.execute: 525490379;s;i;114
530785087: system.cpu.execute: 530785087;f;i;114
530785087: system.cpu.execute: 530785087;s;i;115
533447465: system.cpu.execute: 533447465;f;i;115
533447778: system.cpu.execute: 533447778;s;i;116
537891126: system.cpu.execute: 537891126;f;i;116
537892065: system.cpu.execute: 537892065;s;i;117
542307556: system.cpu.execute: 542307556;f;i;117
542307556: system.cpu.execute: 542307556;s;i;118
547468613: system.cpu.execute: 547468613;f;i;118
547468926: system.cpu.execute: 547468926;s;i;119
550264329: system.cpu.execute: 550264329;f;i;119
550265268: system.cpu.execute: 550265268;s;i;120
555368107: system.cpu.execute: 555368107;f;i;120
555369046: system.cpu.execute: 555369046;s;i;121
559205487: system.cpu.execute: 559205487;f;i;121
559206113: system.cpu.execute: 559206113;s;i;122
564185943: system.cpu.execute: 564185943;f;i;122
564186569: system.cpu.execute: 564186569;s;i;123
567107172: system.cpu.execute: 567107172;f;i;123
567107485: system.cpu.execute: 567107485;s;i;124
572560258: system.cpu.execute: 572560258;f;i;124
572560571: system.cpu.execute: 572560571;s;i;125
576682155: system.cpu.execute: 576682155;f;i;125
576682155: system.cpu.execute: 576682155;s;i;126
581409081: system.cpu.execute: 581409081;f;i;126
581409394: system.cpu.execute: 581409394;s;i;127
584505903: system.cpu.execute: 584505903;f;i;127
584506216: system.cpu.execute: 584506216;s;i;128
587707580: system.cpu.execute: 587707580;f;i;128
587707893: system.cpu.execute: 587707893;s;i;129
590692035: system.cpu.execute: 590692035;f;i;129
590692035: system.cpu.execute: 590692035;s;i;130
593944731: system.cpu.execute: 593944731;f;i;130
593945044: system.cpu.execute: 593945044;s;i;131
596816819: system.cpu.execute: 596816819;f;i;131
596817132: system.cpu.execute: 596817132;s;i;132
599996273: system.cpu.execute: 599996273;f;i;132
599996586: system.cpu.execute: 599996586;s;i;133
603142862: system.cpu.execute: 603142862;f;i;133
603143175: system.cpu.execute: 603143175;s;i;134
606357998: system.cpu.execute: 606357998;f;i;134
606357998: system.cpu.execute: 606357998;s;i;135
609438544: system.cpu.execute: 609438544;f;i;135
609438544: system.cpu.execute: 609438544;s;i;136
612363216: system.cpu.execute: 612363216;f;i;136
612363529: system.cpu.execute: 612363529;s;i;137
615453152: system.cpu.execute: 615453152;f;i;137
615453465: system.cpu.execute: 615453465;s;i;138
618484557: system.cpu.execute: 618484557;f;i;138
618484870: system.cpu.execute: 618484870;s;i;139
621245843: system.cpu.execute: 621245843;f;i;139
621245843: system.cpu.execute: 621245843;s;i;140
624262850: system.cpu.execute: 624262850;f;i;140
624263163: system.cpu.execute: 624263163;s;i;141
629828616: system.cpu.execute: 629828616;f;i;141
629829242: system.cpu.execute: 629829242;s;i;142
634134557: system.cpu.execute: 634134557;f;i;142
634134557: system.cpu.execute: 634134557;s;i;143
638163180: system.cpu.execute: 638163180;f;i;143
638163180: system.cpu.execute: 638163180;s;i;144
641276904: system.cpu.execute: 641276904;f;i;144
641277530: system.cpu.execute: 641277530;s;i;145
646745640: system.cpu.execute: 646745640;f;i;145
646746266: system.cpu.execute: 646746266;s;i;146
651710759: system.cpu.execute: 651710759;f;i;146
651710759: system.cpu.execute: 651710759;s;i;147
654990373: system.cpu.execute: 654990373;f;i;147
654990373: system.cpu.execute: 654990373;s;i;148
658232427: system.cpu.execute: 658232427;f;i;148
658233679: system.cpu.execute: 658233679;s;i;149
663719004: system.cpu.execute: 663719004;f;i;149
663719317: system.cpu.execute: 663719317;s;i;150
669199947: system.cpu.execute: 669199947;f;i;150
669200573: system.cpu.execute: 669200573;s;i;151
671804107: system.cpu.execute: 671804107;f;i;151
671804420: system.cpu.execute: 671804420;s;i;152
675268078: system.cpu.execute: 675268078;f;i;152
675269017: system.cpu.execute: 675269017;s;i;153
680596277: system.cpu.execute: 680596277;f;i;153
680596277: system.cpu.execute: 680596277;s;i;154
685932301: system.cpu.execute: 685932301;f;i;154
685932301: system.cpu.execute: 685932301;s;i;155
688573082: system.cpu.execute: 688573082;f;i;155
688573082: system.cpu.execute: 688573082;s;i;156
692816736: system.cpu.execute: 692816736;f;i;156
692817049: system.cpu.execute: 692817049;s;i;157
697462282: system.cpu.execute: 697462282;f;i;157
697462908: system.cpu.execute: 697462908;s;i;158
702679053: system.cpu.execute: 702679053;f;i;158
702679053: system.cpu.execute: 702679053;s;i;159
705419994: system.cpu.execute: 705419994;f;i;159
705420620: system.cpu.execute: 705420620;s;i;160
710290900: system.cpu.execute: 710290900;f;i;160
710291213: system.cpu.execute: 710291213;s;i;161
714279459: system.cpu.execute: 714279459;f;i;161
714280085: system.cpu.execute: 714280085;s;i;162
719357258: system.cpu.execute: 719357258;f;i;162
719357571: system.cpu.execute: 719357571;s;i;163
722236858: system.cpu.execute: 722236858;f;i;163
722238110: system.cpu.execute: 722238110;s;i;164
727718740: system.cpu.execute: 727718740;f;i;164
727718740: system.cpu.execute: 727718740;s;i;165
731610269: system.cpu.execute: 731610269;f;i;165
731611208: system.cpu.execute: 731611208;s;i;166
736087734: system.cpu.execute: 736087734;f;i;166
736088673: system.cpu.execute: 736088673;s;i;167
739087526: system.cpu.execute: 739087526;f;i;167
739087839: system.cpu.execute: 739087839;s;i;168
744540925: system.cpu.execute: 744540925;f;i;168
744540925: system.cpu.execute: 744540925;s;i;169
749088815: system.cpu.execute: 749088815;f;i;169
749089441: system.cpu.execute: 749089441;s;i;170
753381610: system.cpu.execute: 753381610;f;i;170
753381923: system.cpu.execute: 753381923;s;i;171
756469981: system.cpu.execute: 756469981;f;i;171
756469981: system.cpu.execute: 756469981;s;i;172
759588400: system.cpu.execute: 759588400;f;i;172
759588713: system.cpu.execute: 759588713;s;i;173
762602903: system.cpu.execute: 762602903;f;i;173
762603216: system.cpu.execute: 762603216;s;i;174
765877822: system.cpu.execute: 765877822;f;i;174
765878135: system.cpu.execute: 765878135;s;i;175
768582768: system.cpu.execute: 768582768;f;i;175
768583394: system.cpu.execute: 768583394;s;i;176
771884918: system.cpu.execute: 771884918;f;i;176
771885231: system.cpu.execute: 771885231;s;i;177
775135423: system.cpu.execute: 775135423;f;i;177
775135423: system.cpu.execute: 775135423;s;i;178
778189990: system.cpu.execute: 778189990;f;i;178
778190303: system.cpu.execute: 778190303;s;i;179
781043611: system.cpu.execute: 781043611;f;i;179
781043611: system.cpu.execute: 781043611;s;i;180
784023684: system.cpu.execute: 784023684;f;i;180
784023997: system.cpu.execute: 784023997;s;i;181
787074808: system.cpu.execute: 787074808;f;i;181
787075121: system.cpu.execute: 787075121;s;i;182
790137513: system.cpu.execute: 790137513;f;i;182
790138139: system.cpu.execute: 790138139;s;i;183
793165475: system.cpu.execute: 793165475;f;i;183
793165475: system.cpu.execute: 793165475;s;i;184
796248838: system.cpu.execute: 796248838;f;i;184
796248838: system.cpu.execute: 796248838;s;i;185
799369135: system.cpu.execute: 799369135;f;i;185
799369448: system.cpu.execute: 799369448;s;i;186
802082532: system.cpu.execute: 802082532;f;i;186
802083471: system.cpu.execute: 802083471;s;i;187
804841627: system.cpu.execute: 804841627;f;i;187
804842253: system.cpu.execute: 804842253;s;i;188
809561354: system.cpu.execute: 809561354;f;i;188
809561354: system.cpu.execute: 809561354;s;i;189
813834430: system.cpu.execute: 813834430;f;i;189
813834743: system.cpu.execute: 813834743;s;i;190
818994548: system.cpu.execute: 818994548;f;i;190
818994548: system.cpu.execute: 818994548;s;i;191
821880721: system.cpu.execute: 821880721;f;i;191
821880721: system.cpu.execute: 821880721;s;i;192
827192331: system.cpu.execute: 827192331;f;i;192
827192331: system.cpu.execute: 827192331;s;i;193
831057568: system.cpu.execute: 831057568;f;i;193
831058507: system.cpu.execute: 831058507;s;i;194
835806091: system.cpu.execute: 835806091;f;i;194
835806404: system.cpu.execute: 835806404;s;i;195
838840000: system.cpu.execute: 838840000;f;i;195
838840313: system.cpu.execute: 838840313;s;i;196
844323447: system.cpu.execute: 844323447;f;i;196
844324073: system.cpu.execute: 844324073;s;i;197
848650359: system.cpu.execute: 848650359;f;i;197
848652237: system.cpu.execute: 848652237;s;i;198
852641735: system.cpu.execute: 852641735;f;i;198
852641735: system.cpu.execute: 852641735;s;i;199
855753268: system.cpu.execute: 855753268;f;i;199
855754520: system.cpu.execute: 855754520;s;i;200
861206667: system.cpu.execute: 861206667;f;i;200
861206980: system.cpu.execute: 861206980;s;i;201
866183367: system.cpu.execute: 866183367;f;i;201
866185245: system.cpu.execute: 866185245;s;i;202
869365325: system.cpu.execute: 869365325;f;i;202
869365325: system.cpu.execute: 869365325;s;i;203
872593294: system.cpu.execute: 872593294;f;i;203
872593607: system.cpu.execute: 872593607;s;i;204
878073611: system.cpu.execute: 878073611;f;i;204
878073611: system.cpu.execute: 878073611;s;i;205
883542660: system.cpu.execute: 883542660;f;i;205
883543286: system.cpu.execute: 883543286;s;i;206
886092984: system.cpu.execute: 886092984;f;i;206
886093297: system.cpu.execute: 886093297;s;i;207
889591698: system.cpu.execute: 889591698;f;i;207
889592324: system.cpu.execute: 889592324;s;i;208
894890475: system.cpu.execute: 894890475;f;i;208
894890788: system.cpu.execute: 894890788;s;i;209
900221178: system.cpu.execute: 900221178;f;i;209
900221178: system.cpu.execute: 900221178;s;i;210
902854760: system.cpu.execute: 902854760;f;i;210
902855073: system.cpu.execute: 902855073;s;i;211
907120950: system.cpu.execute: 907120950;f;i;211
907121889: system.cpu.execute: 907121889;s;i;212
911739891: system.cpu.execute: 911739891;f;i;212
911740517: system.cpu.execute: 911740517;s;i;213
916951028: system.cpu.execute: 916951028;f;i;213
916951028: system.cpu.execute: 916951028;s;i;214
919697290: system.cpu.execute: 919697290;f;i;214
919698542: system.cpu.execute: 919698542;s;i;215
924595114: system.cpu.execute: 924595114;f;i;215
924596053: system.cpu.execute: 924596053;s;i;216
928557068: system.cpu.execute: 928557068;f;i;216
928557381: system.cpu.execute: 928557381;s;i;217
934035507: system.cpu.execute: 934035507;f;i;217
934035820: system.cpu.execute: 934035820;s;i;218
937169889: system.cpu.execute: 937169889;f;i;218
937170202: system.cpu.execute: 937170202;s;i;219
940313348: system.cpu.execute: 940313348;f;i;219
940313661: system.cpu.execute: 940313661;s;i;220
943471518: system.cpu.execute: 943471518;f;i;220
943472457: system.cpu.execute: 943472457;s;i;221
946444392: system.cpu.execute: 946444392;f;i;221
946444705: system.cpu.execute: 946444705;s;i;222
949615395: system.cpu.execute: 949615395;f;i;222
949615708: system.cpu.execute: 949615708;s;i;223
952377620: system.cpu.execute: 952377620;f;i;223
952377933: system.cpu.execute: 952377933;s;i;224
955324202: system.cpu.execute: 955324202;f;i;224
955324515: system.cpu.execute: 955324515;s;i;225
958261707: system.cpu.execute: 958261707;f;i;225
958262020: system.cpu.execute: 958262020;s;i;226
961528488: system.cpu.execute: 961528488;f;i;226
961529114: system.cpu.execute: 961529114;s;i;227
964800903: system.cpu.execute: 964800903;f;i;227
964800903: system.cpu.execute: 964800903;s;i;228
967734652: system.cpu.execute: 967734652;f;i;228
967734965: system.cpu.execute: 967734965;s;i;229
970579822: system.cpu.execute: 970579822;f;i;229
970580135: system.cpu.execute: 970580135;s;i;230
973500738: system.cpu.execute: 973500738;f;i;230
973500738: system.cpu.execute: 973500738;s;i;231
976624165: system.cpu.execute: 976624165;f;i;231
976624165: system.cpu.execute: 976624165;s;i;232
979623644: system.cpu.execute: 979623644;f;i;232
979623957: system.cpu.execute: 979623957;s;i;233
982549881: system.cpu.execute: 982549881;f;i;233
982549881: system.cpu.execute: 982549881;s;i;234
985205060: system.cpu.execute: 985205060;f;i;234
985205373: system.cpu.execute: 985205373;s;i;235
989295031: system.cpu.execute: 989295031;f;i;235
989295344: system.cpu.execute: 989295344;s;i;236
994198176: system.cpu.execute: 994198176;f;i;236
994198176: system.cpu.execute: 994198176;s;i;237
999480051: system.cpu.execute: 999480051;f;i;237
999480051: system.cpu.execute: 999480051;s;i;238
1002247597: system.cpu.execute: 1002247597;f;i;238
1002247910: system.cpu.execute: 1002247910;s;i;239
1006925069: system.cpu.execute: 1006925069;f;i;239
1006925382: system.cpu.execute: 1006925382;s;i;240
1011128659: system.cpu.execute: 1011128659;f;i;240
1011129285: system.cpu.execute: 1011129285;s;i;241
1016264363: system.cpu.execute: 1016264363;f;i;241
1016264363: system.cpu.execute: 1016264363;s;i;242
1019194043: system.cpu.execute: 1019194043;f;i;242
1019194043: system.cpu.execute: 1019194043;s;i;243
1024535388: system.cpu.execute: 1024535388;f;i;243
1024535388: system.cpu.execute: 1024535388;s;i;244
1028378402: system.cpu.execute: 1028378402;f;i;244
1028379341: system.cpu.execute: 1028379341;s;i;245
1033118787: system.cpu.execute: 1033118787;f;i;245
1033119413: system.cpu.execute: 1033119413;s;i;246
1036112945: system.cpu.execute: 1036112945;f;i;246
1036113258: system.cpu.execute: 1036113258;s;i;247
1041566657: system.cpu.execute: 1041566657;f;i;247
1041566657: system.cpu.execute: 1041566657;s;i;248
1045911410: system.cpu.execute: 1045911410;f;i;248
1045912349: system.cpu.execute: 1045912349;s;i;249
1049843629: system.cpu.execute: 1049843629;f;i;249
1049843629: system.cpu.execute: 1049843629;s;i;250
1052952971: system.cpu.execute: 1052952971;f;i;250
1052953284: system.cpu.execute: 1052953284;s;i;251
1058433288: system.cpu.execute: 1058433288;f;i;251
1058433601: system.cpu.execute: 1058433601;s;i;252
1063459442: system.cpu.execute: 1063459442;f;i;252
1063459442: system.cpu.execute: 1063459442;s;i;253
1066577548: system.cpu.execute: 1066577548;f;i;253
1066577548: system.cpu.execute: 1066577548;s;i;254
1069797379: system.cpu.execute: 1069797379;f;i;254
1069797379: system.cpu.execute: 1069797379;s;i;255
1075249839: system.cpu.execute: 1075249839;f;i;255
1075250465: system.cpu.execute: 1075250465;s;i;256
1080705429: system.cpu.execute: 1080705429;f;i;256
1080705742: system.cpu.execute: 1080705742;s;i;257
1083255753: system.cpu.execute: 1083255753;f;i;257
1083256066: system.cpu.execute: 1083256066;s;i;258
1086842107: system.cpu.execute: 1086842107;f;i;258
1086843046: system.cpu.execute: 1086843046;s;i;259
1092092682: system.cpu.execute: 1092092682;f;i;259
1092092995: system.cpu.execute: 1092092995;s;i;260
1097422759: system.cpu.execute: 1097422759;f;i;260
1097423385: system.cpu.execute: 1097423385;s;i;261
1100050081: system.cpu.execute: 1100050081;f;i;261
1100050394: system.cpu.execute: 1100050394;s;i;262
1104316271: system.cpu.execute: 1104316271;f;i;262
1104317210: system.cpu.execute: 1104317210;s;i;263
1108909859: system.cpu.execute: 1108909859;f;i;263
1108910172: system.cpu.execute: 1108910172;s;i;264
1114455906: system.cpu.execute: 1114455906;f;i;264
1114455906: system.cpu.execute: 1114455906;s;i;265
1117751483: system.cpu.execute: 1117751483;f;i;265
1117751796: system.cpu.execute: 1117751796;s;i;266
1121070848: system.cpu.execute: 1121070848;f;i;266
1121074604: system.cpu.execute: 1121074604;s;i;267
1123804903: system.cpu.execute: 1123804903;f;i;267
1123805216: system.cpu.execute: 1123805216;s;i;268
1126810642: system.cpu.execute: 1126810642;f;i;268
1126810955: system.cpu.execute: 1126810955;s;i;269
1129847368: system.cpu.execute: 1129847368;f;i;269
1129847681: system.cpu.execute: 1129847681;s;i;270
1132877521: system.cpu.execute: 1132877521;f;i;270
1132877834: system.cpu.execute: 1132877834;s;i;271
1135920820: system.cpu.execute: 1135920820;f;i;271
1135921133: system.cpu.execute: 1135921133;s;i;272
1138944400: system.cpu.execute: 1138944400;f;i;272
1138944713: system.cpu.execute: 1138944713;s;i;273
1141832138: system.cpu.execute: 1141832138;f;i;273
1141832138: system.cpu.execute: 1141832138;s;i;274
1145062611: system.cpu.execute: 1145062611;f;i;274
1145062611: system.cpu.execute: 1145062611;s;i;275
1148263975: system.cpu.execute: 1148263975;f;i;275
1148264288: system.cpu.execute: 1148264288;s;i;276
1151087235: system.cpu.execute: 1151087235;f;i;276
1151087235: system.cpu.execute: 1151087235;s;i;277
1154318334: system.cpu.execute: 1154318334;f;i;277
1154318647: system.cpu.execute: 1154318647;s;i;278
1157588871: system.cpu.execute: 1157588871;f;i;278
1157588871: system.cpu.execute: 1157588871;s;i;279
1160749232: system.cpu.execute: 1160749232;f;i;279
1160749545: system.cpu.execute: 1160749545;s;i;280
1163862330: system.cpu.execute: 1163862330;f;i;280
1163862330: system.cpu.execute: 1163862330;s;i;281
1166636449: system.cpu.execute: 1166636449;f;i;281
1166636762: system.cpu.execute: 1166636762;s;i;282
1169330753: system.cpu.execute: 1169330753;f;i;282
1169330753: system.cpu.execute: 1169330753;s;i;283
1174287108: system.cpu.execute: 1174287108;f;i;283
1174287734: system.cpu.execute: 1174287734;s;i;284
1178922638: system.cpu.execute: 1178922638;f;i;284
1178922951: system.cpu.execute: 1178922951;s;i;285
1184155059: system.cpu.execute: 1184155059;f;i;285
1184155372: system.cpu.execute: 1184155372;s;i;286
1186970807: system.cpu.execute: 1186970807;f;i;286
1186970807: system.cpu.execute: 1186970807;s;i;287
1191923093: system.cpu.execute: 1191923093;f;i;287
1191923719: system.cpu.execute: 1191923719;s;i;288
1195856251: system.cpu.execute: 1195856251;f;i;288
1195856251: system.cpu.execute: 1195856251;s;i;289
1200934363: system.cpu.execute: 1200934363;f;i;289
1200934676: system.cpu.execute: 1200934676;s;i;290
1203916940: system.cpu.execute: 1203916940;f;i;290
1203917253: system.cpu.execute: 1203917253;s;i;291
1209408838: system.cpu.execute: 1209408838;f;i;291
1209408838: system.cpu.execute: 1209408838;s;i;292
1213370792: system.cpu.execute: 1213370792;f;i;292
1213371731: system.cpu.execute: 1213371731;s;i;293
1217791604: system.cpu.execute: 1217791604;f;i;293
1217791917: system.cpu.execute: 1217791917;s;i;294
1220838659: system.cpu.execute: 1220838659;f;i;294
1220838659: system.cpu.execute: 1220838659;s;i;295
1226291432: system.cpu.execute: 1226291432;f;i;295
1226292058: system.cpu.execute: 1226292058;s;i;296
1230903800: system.cpu.execute: 1230903800;f;i;296
1230904739: system.cpu.execute: 1230904739;s;i;297
1234516446: system.cpu.execute: 1234516446;f;i;297
1234516446: system.cpu.execute: 1234516446;s;i;298
1237678059: system.cpu.execute: 1237678059;f;i;298
1237678372: system.cpu.execute: 1237678372;s;i;299
1243158376: system.cpu.execute: 1243158376;f;i;299
1243158376: system.cpu.execute: 1243158376;s;i;300
1248452458: system.cpu.execute: 1248452458;f;i;300
1248452771: system.cpu.execute: 1248452771;s;i;301
1251250365: system.cpu.execute: 1251250365;f;i;301
1251250365: system.cpu.execute: 1251250365;s;i;302
1254521841: system.cpu.execute: 1254521841;f;i;302
1254522154: system.cpu.execute: 1254522154;s;i;303
1259975240: system.cpu.execute: 1259975240;f;i;303
1259975240: system.cpu.execute: 1259975240;s;i;304
1265378246: system.cpu.execute: 1265378246;f;i;304
1265378559: system.cpu.execute: 1265378559;s;i;305
1267941403: system.cpu.execute: 1267941403;f;i;305
1267942342: system.cpu.execute: 1267942342;s;i;306
1271842322: system.cpu.execute: 1271842322;f;i;306
1271842322: system.cpu.execute: 1271842322;s;i;307
1276824656: system.cpu.execute: 1276824656;f;i;307
1276825282: system.cpu.execute: 1276825282;s;i;308
1282102149: system.cpu.execute: 1282102149;f;i;308
1282102149: system.cpu.execute: 1282102149;s;i;309
1284789567: system.cpu.execute: 1284789567;f;i;309
1284789567: system.cpu.execute: 1284789567;s;i;310
1289323372: system.cpu.execute: 1289323372;f;i;310
1289323372: system.cpu.execute: 1289323372;s;i;311
1293648406: system.cpu.execute: 1293648406;f;i;311
1293649658: system.cpu.execute: 1293649658;s;i;312
1299166283: system.cpu.execute: 1299166283;f;i;312
1299166596: system.cpu.execute: 1299166596;s;i;313
1302265296: system.cpu.execute: 1302265296;f;i;313
1302265296: system.cpu.execute: 1302265296;s;i;314
1305531451: system.cpu.execute: 1305531451;f;i;314
1305532390: system.cpu.execute: 1305532390;s;i;315
1308494935: system.cpu.execute: 1308494935;f;i;315
1308495248: system.cpu.execute: 1308495248;s;i;316
1311222104: system.cpu.execute: 1311222104;f;i;316
1311222417: system.cpu.execute: 1311222417;s;i;317
1314181519: system.cpu.execute: 1314181519;f;i;317
1314181832: system.cpu.execute: 1314181832;s;i;318
1317257057: system.cpu.execute: 1317257057;f;i;318
1317257996: system.cpu.execute: 1317257996;s;i;319
1320347619: system.cpu.execute: 1320347619;f;i;319
1320347932: system.cpu.execute: 1320347932;s;i;320
1323295453: system.cpu.execute: 1323295453;f;i;320
1323295766: system.cpu.execute: 1323295766;s;i;321
1326218560: system.cpu.execute: 1326218560;f;i;321
1326218873: system.cpu.execute: 1326218873;s;i;322
1329362332: system.cpu.execute: 1329362332;f;i;322
1329362645: system.cpu.execute: 1329362645;s;i;323
1332543664: system.cpu.execute: 1332543664;f;i;323
1332543664: system.cpu.execute: 1332543664;s;i;324
1335228578: system.cpu.execute: 1335228578;f;i;324
1335228578: system.cpu.execute: 1335228578;s;i;325
1338192062: system.cpu.execute: 1338192062;f;i;325
1338192062: system.cpu.execute: 1338192062;s;i;326
1341480753: system.cpu.execute: 1341480753;f;i;326
1341480753: system.cpu.execute: 1341480753;s;i;327
1344518731: system.cpu.execute: 1344518731;f;i;327
1344518731: system.cpu.execute: 1344518731;s;i;328
1347656556: system.cpu.execute: 1347656556;f;i;328
1347656556: system.cpu.execute: 1347656556;s;i;329
1350711123: system.cpu.execute: 1350711123;f;i;329
1350712062: system.cpu.execute: 1350712062;s;i;330
1353738459: system.cpu.execute: 1353738459;f;i;330
1353739085: system.cpu.execute: 1353739085;s;i;331
1356353574: system.cpu.execute: 1356353574;f;i;331
1356353887: system.cpu.execute: 1356353887;s;i;332
1359930225: system.cpu.execute: 1359930225;f;i;332
1359931164: system.cpu.execute: 1359931164;s;i;333
1365282525: system.cpu.execute: 1365282525;f;i;333
1365282525: system.cpu.execute: 1365282525;s;i;334
1370647658: system.cpu.execute: 1370647658;f;i;334
1370647658: system.cpu.execute: 1370647658;s;i;335
1373324121: system.cpu.execute: 1373324121;f;i;335
1373324434: system.cpu.execute: 1373324434;s;i;336
1377543361: system.cpu.execute: 1377543361;f;i;336
1377544300: system.cpu.execute: 1377544300;s;i;337
1382202992: system.cpu.execute: 1382202992;f;i;337
1382202992: system.cpu.execute: 1382202992;s;i;338
1387439482: system.cpu.execute: 1387439482;f;i;338
1387440108: system.cpu.execute: 1387440108;s;i;339
1390272445: system.cpu.execute: 1390272445;f;i;339
1390272445: system.cpu.execute: 1390272445;s;i;340
1395162757: system.cpu.execute: 1395162757;f;i;340
1395164635: system.cpu.execute: 1395164635;s;i;341
1399181051: system.cpu.execute: 1399181051;f;i;341
1399181364: system.cpu.execute: 1399181364;s;i;342
1404268553: system.cpu.execute: 1404268553;f;i;342
1404269492: system.cpu.execute: 1404269492;s;i;343
1407198233: system.cpu.execute: 1407198233;f;i;343
1407198859: system.cpu.execute: 1407198859;s;i;344
1412651319: system.cpu.execute: 1412651319;f;i;344
1412652258: system.cpu.execute: 1412652258;s;i;345
1416586042: system.cpu.execute: 1416586042;f;i;345
1416586981: system.cpu.execute: 1416586981;s;i;346
1421019687: system.cpu.execute: 1421019687;f;i;346
1421019687: system.cpu.execute: 1421019687;s;i;347
1424034816: system.cpu.execute: 1424034816;f;i;347
1424035442: system.cpu.execute: 1424035442;s;i;348
1429517950: system.cpu.execute: 1429517950;f;i;348
1429518263: system.cpu.execute: 1429518263;s;i;349
1434086811: system.cpu.execute: 1434086811;f;i;349
1434088689: system.cpu.execute: 1434088689;s;i;350
1437747346: system.cpu.execute: 1437747346;f;i;350
1437747659: system.cpu.execute: 1437747659;s;i;351
1440882041: system.cpu.execute: 1440882041;f;i;351
1440882041: system.cpu.execute: 1440882041;s;i;352
1446335753: system.cpu.execute: 1446335753;f;i;352
1446335753: system.cpu.execute: 1446335753;s;i;353
1451560975: system.cpu.execute: 1451560975;f;i;353
1451562853: system.cpu.execute: 1451562853;s;i;354
1454431185: system.cpu.execute: 1454431185;f;i;354
1454432124: system.cpu.execute: 1454432124;s;i;355
1457699218: system.cpu.execute: 1457699218;f;i;355
1457699218: system.cpu.execute: 1457699218;s;i;356
1463177970: system.cpu.execute: 1463177970;f;i;356
1463178283: system.cpu.execute: 1463178283;s;i;357
1468598504: system.cpu.execute: 1468598504;f;i;357
1468598504: system.cpu.execute: 1468598504;s;i;358
1471148828: system.cpu.execute: 1471148828;f;i;358
1471148828: system.cpu.execute: 1471148828;s;i;359
1474945518: system.cpu.execute: 1474945518;f;i;359
1474946144: system.cpu.execute: 1474946144;s;i;360
1479995147: system.cpu.execute: 1479995147;f;i;360
1479995147: system.cpu.execute: 1479995147;s;i;361
1485623200: system.cpu.execute: 1485623200;f;i;361
1485623513: system.cpu.execute: 1485623513;s;i;362
1488995775: system.cpu.execute: 1488995775;f;i;362
1488996088: system.cpu.execute: 1488996088;s;i;363
1491778032: system.cpu.execute: 1491778032;f;i;363
1491779910: system.cpu.execute: 1491779910;s;i;364
1494734317: system.cpu.execute: 1494734317;f;i;364
1494734317: system.cpu.execute: 1494734317;s;i;365
1497858996: system.cpu.execute: 1497858996;f;i;365
1497858996: system.cpu.execute: 1497858996;s;i;366
1500772713: system.cpu.execute: 1500772713;f;i;366
1500773026: system.cpu.execute: 1500773026;s;i;367
1503758733: system.cpu.execute: 1503758733;f;i;367
1503759046: system.cpu.execute: 1503759046;s;i;368
1506835210: system.cpu.execute: 1506835210;f;i;368
1506835210: system.cpu.execute: 1506835210;s;i;369
1510053789: system.cpu.execute: 1510053789;f;i;369
1510053789: system.cpu.execute: 1510053789;s;i;370
1512786905: system.cpu.execute: 1512786905;f;i;370
1512787218: system.cpu.execute: 1512787218;s;i;371
1515812989: system.cpu.execute: 1515812989;f;i;371
1515813302: system.cpu.execute: 1515813302;s;i;372
1518921705: system.cpu.execute: 1518921705;f;i;372
1518921705: system.cpu.execute: 1518921705;s;i;373
1522024161: system.cpu.execute: 1522024161;f;i;373
1522024474: system.cpu.execute: 1522024474;s;i;374
1524879660: system.cpu.execute: 1524879660;f;i;374
1524879973: system.cpu.execute: 1524879973;s;i;375
1527790873: system.cpu.execute: 1527790873;f;i;375
1527791499: system.cpu.execute: 1527791499;s;i;376
1530949982: system.cpu.execute: 1530949982;f;i;376
1530949982: system.cpu.execute: 1530949982;s;i;377
1533926612: system.cpu.execute: 1533926612;f;i;377
1533926925: system.cpu.execute: 1533926925;s;i;378
1536921396: system.cpu.execute: 1536921396;f;i;378
1536922335: system.cpu.execute: 1536922335;s;i;379
1539921814: system.cpu.execute: 1539921814;f;i;379
1539922440: system.cpu.execute: 1539922440;s;i;380
1542513767: system.cpu.execute: 1542513767;f;i;380
1542514393: system.cpu.execute: 1542514393;s;i;381
1545987441: system.cpu.execute: 1545987441;f;i;381
1545988067: system.cpu.execute: 1545988067;s;i;382
1551434580: system.cpu.execute: 1551434580;f;i;382
1551434893: system.cpu.execute: 1551434893;s;i;383
1556817867: system.cpu.execute: 1556817867;f;i;383
1556817867: system.cpu.execute: 1556817867;s;i;384
1559476489: system.cpu.execute: 1559476489;f;i;384
1559476802: system.cpu.execute: 1559476802;s;i;385
1563612784: system.cpu.execute: 1563612784;f;i;385
1563613410: system.cpu.execute: 1563613410;s;i;386
1568362559: system.cpu.execute: 1568362559;f;i;386
1568362559: system.cpu.execute: 1568362559;s;i;387
1573601866: system.cpu.execute: 1573601866;f;i;387
1573602179: system.cpu.execute: 1573602179;s;i;388
1576416362: system.cpu.execute: 1576416362;f;i;388
1576416675: system.cpu.execute: 1576416675;s;i;389
1581215904: system.cpu.execute: 1581215904;f;i;389
1581216217: system.cpu.execute: 1581216217;s;i;390
1585324968: system.cpu.execute: 1585324968;f;i;390
1585325281: system.cpu.execute: 1585325281;s;i;391
1590431250: system.cpu.execute: 1590431250;f;i;391
1590432189: system.cpu.execute: 1590432189;s;i;392
1593342776: system.cpu.execute: 1593342776;f;i;392
1593343089: system.cpu.execute: 1593343089;s;i;393
1598794297: system.cpu.execute: 1598794297;f;i;393
1598794610: system.cpu.execute: 1598794610;s;i;394
1602639502: system.cpu.execute: 1602639502;f;i;394
1602640128: system.cpu.execute: 1602640128;s;i;395
1607181758: system.cpu.execute: 1607181758;f;i;395
1607181758: system.cpu.execute: 1607181758;s;i;396
1610179046: system.cpu.execute: 1610179046;f;i;396
1610179672: system.cpu.execute: 1610179672;s;i;397
1615662493: system.cpu.execute: 1615662493;f;i;397
1615662806: system.cpu.execute: 1615662806;s;i;398
1620139958: system.cpu.execute: 1620139958;f;i;398
1620140271: system.cpu.execute: 1620140271;s;i;399
1623909417: system.cpu.execute: 1623909417;f;i;399
1623910043: system.cpu.execute: 1623910043;s;i;400
1627025958: system.cpu.execute: 1627025958;f;i;400
1627026271: system.cpu.execute: 1627026271;s;i;401
1632479357: system.cpu.execute: 1632479357;f;i;401
1632479357: system.cpu.execute: 1632479357;s;i;402
1637614122: system.cpu.execute: 1637614122;f;i;402
1637614435: system.cpu.execute: 1637614435;s;i;403
1640600768: system.cpu.execute: 1640600768;f;i;403
1640601081: system.cpu.execute: 1640601081;s;i;404
1643850334: system.cpu.execute: 1643850334;f;i;404
1643850334: system.cpu.execute: 1643850334;s;i;405
1649328773: system.cpu.execute: 1649328773;f;i;405
1649329086: system.cpu.execute: 1649329086;s;i;406
1654767461: system.cpu.execute: 1654767461;f;i;406
1654767461: system.cpu.execute: 1654767461;s;i;407
1657317785: system.cpu.execute: 1657317785;f;i;407
1657317785: system.cpu.execute: 1657317785;s;i;408
1661003986: system.cpu.execute: 1661003986;f;i;408
1661003986: system.cpu.execute: 1661003986;s;i;409
1666145637: system.cpu.execute: 1666145637;f;i;409
1666146576: system.cpu.execute: 1666146576;s;i;410
1671804677: system.cpu.execute: 1671804677;f;i;410
1671804677: system.cpu.execute: 1671804677;s;i;411
1674981940: system.cpu.execute: 1674981940;f;i;411
1674982879: system.cpu.execute: 1674982879;s;i;412
1678048401: system.cpu.execute: 1678048401;f;i;412
1678048714: system.cpu.execute: 1678048714;s;i;413
1680791220: system.cpu.execute: 1680791220;f;i;413
1680791220: system.cpu.execute: 1680791220;s;i;414
1683945947: system.cpu.execute: 1683945947;f;i;414
1683946260: system.cpu.execute: 1683946260;s;i;415
1686888460: system.cpu.execute: 1686888460;f;i;415
1686889399: system.cpu.execute: 1686889399;s;i;416
1689989351: system.cpu.execute: 1689989351;f;i;416
1689989351: system.cpu.execute: 1689989351;s;i;417
1693089616: system.cpu.execute: 1693089616;f;i;417
1693089929: system.cpu.execute: 1693089929;s;i;418
1696866274: system.cpu.execute: 1696866274;f;i;418
1696866587: system.cpu.execute: 1696866587;s;i;419
1699879212: system.cpu.execute: 1699879212;f;i;419
1699879212: system.cpu.execute: 1699879212;s;i;420
1702727199: system.cpu.execute: 1702727199;f;i;420
1702727199: system.cpu.execute: 1702727199;s;i;421
1705752970: system.cpu.execute: 1705752970;f;i;421
1705753596: system.cpu.execute: 1705753596;s;i;422
1708805033: system.cpu.execute: 1708805033;f;i;422
1708805033: system.cpu.execute: 1708805033;s;i;423
1711829865: system.cpu.execute: 1711829865;f;i;423
1711829865: system.cpu.execute: 1711829865;s;i;424
1714947032: system.cpu.execute: 1714947032;f;i;424
1714947345: system.cpu.execute: 1714947345;s;i;425
1717917402: system.cpu.execute: 1717917402;f;i;425
1717917715: system.cpu.execute: 1717917715;s;i;426
1721078389: system.cpu.execute: 1721078389;f;i;426
1721078702: system.cpu.execute: 1721078702;s;i;427
1724121062: system.cpu.execute: 1724121062;f;i;427
1724121375: system.cpu.execute: 1724121375;s;i;428
1726823817: system.cpu.execute: 1726823817;f;i;428
1726823817: system.cpu.execute: 1726823817;s;i;429
1729621098: system.cpu.execute: 1729621098;f;i;429
1729622037: system.cpu.execute: 1729622037;s;i;430
1734342077: system.cpu.execute: 1734342077;f;i;430
1734343016: system.cpu.execute: 1734343016;s;i;431
1738614527: system.cpu.execute: 1738614527;f;i;431
1738614840: system.cpu.execute: 1738614840;s;i;432
1743782783: system.cpu.execute: 1743782783;f;i;432
1743783096: system.cpu.execute: 1743783096;s;i;433
1746671460: system.cpu.execute: 1746671460;f;i;433
1746671460: system.cpu.execute: 1746671460;s;i;434
1751984635: system.cpu.execute: 1751984635;f;i;434
1751985574: system.cpu.execute: 1751985574;s;i;435
1755846116: system.cpu.execute: 1755846116;f;i;435
1755847994: system.cpu.execute: 1755847994;s;i;436
1760592761: system.cpu.execute: 1760592761;f;i;436
1760593700: system.cpu.execute: 1760593700;s;i;437
1763628548: system.cpu.execute: 1763628548;f;i;437
1763628861: system.cpu.execute: 1763628861;s;i;438
1769113560: system.cpu.execute: 1769113560;f;i;438
1769114499: system.cpu.execute: 1769114499;s;i;439
1773447671: system.cpu.execute: 1773447671;f;i;439
1773448297: system.cpu.execute: 1773448297;s;i;440
1777433726: system.cpu.execute: 1777433726;f;i;440
1777433726: system.cpu.execute: 1777433726;s;i;441
1780546198: system.cpu.execute: 1780546198;f;i;441
1780546824: system.cpu.execute: 1780546824;s;i;442
1785999284: system.cpu.execute: 1785999284;f;i;442
1785999597: system.cpu.execute: 1785999597;s;i;443
1790982870: system.cpu.execute: 1790982870;f;i;443
1790983496: system.cpu.execute: 1790983496;s;i;444
1794156377: system.cpu.execute: 1794156377;f;i;444
1794156377: system.cpu.execute: 1794156377;s;i;445
1797386224: system.cpu.execute: 1797386224;f;i;445
1797386537: system.cpu.execute: 1797386537;s;i;446
1802866541: system.cpu.execute: 1802866541;f;i;446
1802866541: system.cpu.execute: 1802866541;s;i;447
1808334964: system.cpu.execute: 1808334964;f;i;447
1808335277: system.cpu.execute: 1808335277;s;i;448
1810885288: system.cpu.execute: 1810885288;f;i;448
1810885601: system.cpu.execute: 1810885601;s;i;449
1814389949: system.cpu.execute: 1814389949;f;i;449
1814390262: system.cpu.execute: 1814390262;s;i;450
1819683092: system.cpu.execute: 1819683092;f;i;450
1819683405: system.cpu.execute: 1819683405;s;i;451
1825013482: system.cpu.execute: 1825013482;f;i;451
1825013482: system.cpu.execute: 1825013482;s;i;452
1827640804: system.cpu.execute: 1827640804;f;i;452
1827641117: system.cpu.execute: 1827641117;s;i;453
1831912628: system.cpu.execute: 1831912628;f;i;453
1831914506: system.cpu.execute: 1831914506;s;i;454
1836525935: system.cpu.execute: 1836525935;f;i;454
1836525935: system.cpu.execute: 1836525935;s;i;455
1841736446: system.cpu.execute: 1841736446;f;i;455
1841736446: system.cpu.execute: 1841736446;s;i;456
1844483334: system.cpu.execute: 1844483334;f;i;456
1844483960: system.cpu.execute: 1844483960;s;i;457
1849386792: system.cpu.execute: 1849386792;f;i;457
1849388670: system.cpu.execute: 1849388670;s;i;458
1853342486: system.cpu.execute: 1853342486;f;i;458
1853342799: system.cpu.execute: 1853342799;s;i;459
1858831254: system.cpu.execute: 1858831254;f;i;459
1858831567: system.cpu.execute: 1858831567;s;i;460
1861967201: system.cpu.execute: 1861967201;f;i;460
1861968140: system.cpu.execute: 1861968140;s;i;461
1864839289: system.cpu.execute: 1864839289;f;i;461
1864839602: system.cpu.execute: 1864839602;s;i;462
1867963655: system.cpu.execute: 1867963655;f;i;462
1867963968: system.cpu.execute: 1867963968;s;i;463
1870846698: system.cpu.execute: 1870846698;f;i;463
1870847011: system.cpu.execute: 1870847011;s;i;464
1873858697: system.cpu.execute: 1873858697;f;i;464
1873859010: system.cpu.execute: 1873859010;s;i;465
1877017180: system.cpu.execute: 1877017180;f;i;465
1877017180: system.cpu.execute: 1877017180;s;i;466
1880214788: system.cpu.execute: 1880214788;f;i;466
1880215101: system.cpu.execute: 1880215101;s;i;467
1883263408: system.cpu.execute: 1883263408;f;i;467
1883264034: system.cpu.execute: 1883264034;s;i;468
1886025946: system.cpu.execute: 1886025946;f;i;468
1886026259: system.cpu.execute: 1886026259;s;i;469
1889128715: system.cpu.execute: 1889128715;f;i;469
1889129028: system.cpu.execute: 1889129028;s;i;470
1892170762: system.cpu.execute: 1892170762;f;i;470
1892171075: system.cpu.execute: 1892171075;s;i;471
1895189647: system.cpu.execute: 1895189647;f;i;471
1895189960: system.cpu.execute: 1895189960;s;i;472
1898346252: system.cpu.execute: 1898346252;f;i;472
1898346565: system.cpu.execute: 1898346565;s;i;473
1901422416: system.cpu.execute: 1901422416;f;i;473
1901422729: system.cpu.execute: 1901422729;s;i;474
1904533949: system.cpu.execute: 1904533949;f;i;474
1904535827: system.cpu.execute: 1904535827;s;i;475
1907281463: system.cpu.execute: 1907281463;f;i;475
1907281463: system.cpu.execute: 1907281463;s;i;476
1910395187: system.cpu.execute: 1910395187;f;i;476
1910395500: system.cpu.execute: 1910395500;s;i;477
1913043167: system.cpu.execute: 1913043167;f;i;477
1913043480: system.cpu.execute: 1913043480;s;i;478
1916060800: system.cpu.execute: 1916060800;f;i;478
1916061113: system.cpu.execute: 1916061113;s;i;479
1921616550: system.cpu.execute: 1921616550;f;i;479
1921617176: system.cpu.execute: 1921617176;s;i;480
1925956921: system.cpu.execute: 1925956921;f;i;480
1925957234: system.cpu.execute: 1925957234;s;i;481
1929948610: system.cpu.execute: 1929948610;f;i;481
1929948923: system.cpu.execute: 1929948923;s;i;482
1933069220: system.cpu.execute: 1933069220;f;i;482
1933069533: system.cpu.execute: 1933069533;s;i;483
1938534200: system.cpu.execute: 1938534200;f;i;483
1938534826: system.cpu.execute: 1938534826;s;i;484
1943534062: system.cpu.execute: 1943534062;f;i;484
1943534375: system.cpu.execute: 1943534375;s;i;485
1946767352: system.cpu.execute: 1946767352;f;i;485
1946767665: system.cpu.execute: 1946767665;s;i;486
1950017231: system.cpu.execute: 1950017231;f;i;486
1950017857: system.cpu.execute: 1950017857;s;i;487
1955503808: system.cpu.execute: 1955503808;f;i;487
1955504121: system.cpu.execute: 1955504121;s;i;488
1960978491: system.cpu.execute: 1960978491;f;i;488
1960978491: system.cpu.execute: 1960978491;s;i;489
1963582651: system.cpu.execute: 1963582651;f;i;489
1963582651: system.cpu.execute: 1963582651;s;i;490
1967087312: system.cpu.execute: 1967087312;f;i;490
1967087312: system.cpu.execute: 1967087312;s;i;491
1972380455: system.cpu.execute: 1972380455;f;i;491
1972380455: system.cpu.execute: 1972380455;s;i;492
1977710532: system.cpu.execute: 1977710532;f;i;492
1977710845: system.cpu.execute: 1977710845;s;i;493
1980357573: system.cpu.execute: 1980357573;f;i;493
1980357886: system.cpu.execute: 1980357886;s;i;494
1984635344: system.cpu.execute: 1984635344;f;i;494
1984635970: system.cpu.execute: 1984635970;s;i;495
1989246773: system.cpu.execute: 1989246773;f;i;495
1989247086: system.cpu.execute: 1989247086;s;i;496
1994457284: system.cpu.execute: 1994457284;f;i;496
1994457597: system.cpu.execute: 1994457597;s;i;497
1997204798: system.cpu.execute: 1997204798;f;i;497
1997205111: system.cpu.execute: 1997205111;s;i;498
2002109508: system.cpu.execute: 2002109508;f;i;498
2002110134: system.cpu.execute: 2002110134;s;i;499
2006063637: system.cpu.execute: 2006063637;f;i;499
2006064576: system.cpu.execute: 2006064576;s;i;500
2011135176: system.cpu.execute: 2011135176;f;i;500
2011135176: system.cpu.execute: 2011135176;s;i;501
2014021662: system.cpu.execute: 2014021662;f;i;501
2014022288: system.cpu.execute: 2014022288;s;i;502
2019500727: system.cpu.execute: 2019500727;f;i;502
2019501040: system.cpu.execute: 2019501040;s;i;503
2023421052: system.cpu.execute: 2023421052;f;i;503
2023421991: system.cpu.execute: 2023421991;s;i;504
2027857514: system.cpu.execute: 2027857514;f;i;504
2027857827: system.cpu.execute: 2027857827;s;i;505
2030864192: system.cpu.execute: 2030864192;f;i;505
2030864505: system.cpu.execute: 2030864505;s;i;506
2036317591: system.cpu.execute: 2036317591;f;i;506
2036317591: system.cpu.execute: 2036317591;s;i;507
2040894903: system.cpu.execute: 2040894903;f;i;507
2040896781: system.cpu.execute: 2040896781;s;i;508
2045210547: system.cpu.execute: 2045210547;f;i;508
2045210860: system.cpu.execute: 2045210860;s;i;509
2048277947: system.cpu.execute: 2048277947;f;i;509
2048278886: system.cpu.execute: 2048278886;s;i;510
2051325002: system.cpu.execute: 2051325002;f;i;510
2051325315: system.cpu.execute: 2051325315;s;i;511
2054318847: system.cpu.execute: 2054318847;f;i;511
2054319160: system.cpu.execute: 2054319160;s;i;512
2057385934: system.cpu.execute: 2057385934;f;i;512
2057385934: system.cpu.execute: 2057385934;s;i;513
2060241746: system.cpu.execute: 2060241746;f;i;513
2060242372: system.cpu.execute: 2060242372;s;i;514
2063352653: system.cpu.execute: 2063352653;f;i;514
2063353279: system.cpu.execute: 2063353279;s;i;515
2066370599: system.cpu.execute: 2066370599;f;i;515
2066370912: system.cpu.execute: 2066370912;s;i;516
2069516875: system.cpu.execute: 2069516875;f;i;516
2069517188: system.cpu.execute: 2069517188;s;i;517
2072393658: system.cpu.execute: 2072393658;f;i;517
2072393658: system.cpu.execute: 2072393658;s;i;518
2075258234: system.cpu.execute: 2075258234;f;i;518
2075258547: system.cpu.execute: 2075258547;s;i;519
2078375714: system.cpu.execute: 2078375714;f;i;519
2078375714: system.cpu.execute: 2078375714;s;i;520
2081551099: system.cpu.execute: 2081551099;f;i;520
2081551412: system.cpu.execute: 2081551412;s;i;521
2084627889: system.cpu.execute: 2084627889;f;i;521
2084628202: system.cpu.execute: 2084628202;s;i;522
2087457722: system.cpu.execute: 2087457722;f;i;522
2087457722: system.cpu.execute: 2087457722;s;i;523
2090331688: system.cpu.execute: 2090331688;f;i;523
2090332001: system.cpu.execute: 2090332001;s;i;524
2093336488: system.cpu.execute: 2093336488;f;i;524
2093336801: system.cpu.execute: 2093336801;s;i;525
2095950038: system.cpu.execute: 2095950038;f;i;525
2095950351: system.cpu.execute: 2095950351;s;i;526
2099406497: system.cpu.execute: 2099406497;f;i;526
2099407123: system.cpu.execute: 2099407123;s;i;527
2104861774: system.cpu.execute: 2104861774;f;i;527
2104861774: system.cpu.execute: 2104861774;s;i;528
2110246939: system.cpu.execute: 2110246939;f;i;528
2110246939: system.cpu.execute: 2110246939;s;i;529
2112905874: system.cpu.execute: 2112905874;f;i;529
2112906187: system.cpu.execute: 2112906187;s;i;530
2117031527: system.cpu.execute: 2117031527;f;i;530
2117032153: system.cpu.execute: 2117032153;s;i;531
2121784119: system.cpu.execute: 2121784119;f;i;531
2121784432: system.cpu.execute: 2121784432;s;i;532
2127028434: system.cpu.execute: 2127028434;f;i;532
2127028747: system.cpu.execute: 2127028747;s;i;533
2129842617: system.cpu.execute: 2129842617;f;i;533
2129842617: system.cpu.execute: 2129842617;s;i;534
2134639029: system.cpu.execute: 2134639029;f;i;534
2134639342: system.cpu.execute: 2134639342;s;i;535
2138750597: system.cpu.execute: 2138750597;f;i;535
2138750910: system.cpu.execute: 2138750910;s;i;536
2143857192: system.cpu.execute: 2143857192;f;i;536
2143857818: system.cpu.execute: 2143857818;s;i;537
2146768405: system.cpu.execute: 2146768405;f;i;537
2146768718: system.cpu.execute: 2146768718;s;i;538
2152220239: system.cpu.execute: 2152220239;f;i;538
2152220552: system.cpu.execute: 2152220552;s;i;539
2156062627: system.cpu.execute: 2156062627;f;i;539
2156063253: system.cpu.execute: 2156063253;s;i;540
2160608013: system.cpu.execute: 2160608013;f;i;540
2160608013: system.cpu.execute: 2160608013;s;i;541
2163604988: system.cpu.execute: 2163604988;f;i;541
2163604988: system.cpu.execute: 2163604988;s;i;542
2169088122: system.cpu.execute: 2169088122;f;i;542
2169088435: system.cpu.execute: 2169088435;s;i;543
2173563083: system.cpu.execute: 2173563083;f;i;543
2173563396: system.cpu.execute: 2173563396;s;i;544
2177336298: system.cpu.execute: 2177336298;f;i;544
2177336611: system.cpu.execute: 2177336611;s;i;545
2180452213: system.cpu.execute: 2180452213;f;i;545
2180452526: system.cpu.execute: 2180452526;s;i;546
2185905299: system.cpu.execute: 2185905299;f;i;546
2185905612: system.cpu.execute: 2185905612;s;i;547
2191037247: system.cpu.execute: 2191037247;f;i;547
2191037560: system.cpu.execute: 2191037560;s;i;548
2194019511: system.cpu.execute: 2194019511;f;i;548
2194019824: system.cpu.execute: 2194019824;s;i;549
2197268764: system.cpu.execute: 2197268764;f;i;549
2197269390: system.cpu.execute: 2197269390;s;i;550
2202747516: system.cpu.execute: 2202747516;f;i;550
2202747829: system.cpu.execute: 2202747829;s;i;551
2208187456: system.cpu.execute: 2208187456;f;i;551
2208187456: system.cpu.execute: 2208187456;s;i;552
2210737780: system.cpu.execute: 2210737780;f;i;552
2210737780: system.cpu.execute: 2210737780;s;i;553
2214426485: system.cpu.execute: 2214426485;f;i;553
2214426485: system.cpu.execute: 2214426485;s;i;554
2219570953: system.cpu.execute: 2219570953;f;i;554
2219571266: system.cpu.execute: 2219571266;s;i;555
2225193372: system.cpu.execute: 2225193372;f;i;555
2225193685: system.cpu.execute: 2225193685;s;i;556
2228150283: system.cpu.execute: 2228150283;f;i;556
2228150909: system.cpu.execute: 2228150909;s;i;557
2231285917: system.cpu.execute: 2231285917;f;i;557
2231285917: system.cpu.execute: 2231285917;s;i;558
2234204642: system.cpu.execute: 2234204642;f;i;558
2234204955: system.cpu.execute: 2234204955;s;i;559
2237211007: system.cpu.execute: 2237211007;f;i;559
2237211320: system.cpu.execute: 2237211320;s;i;560
2240290301: system.cpu.execute: 2240290301;f;i;560
2240290614: system.cpu.execute: 2240290614;s;i;561
2243342051: system.cpu.execute: 2243342051;f;i;561
2243342364: system.cpu.execute: 2243342364;s;i;562
2246480502: system.cpu.execute: 2246480502;f;i;562
2246480815: system.cpu.execute: 2246480815;s;i;563
2249460575: system.cpu.execute: 2249460575;f;i;563
2249460888: system.cpu.execute: 2249460888;s;i;564
2252789643: system.cpu.execute: 2252789643;f;i;564
2252789956: system.cpu.execute: 2252789956;s;i;565
2256021055: system.cpu.execute: 2256021055;f;i;565
2256021368: system.cpu.execute: 2256021368;s;i;566
2258826474: system.cpu.execute: 2258826474;f;i;566
2258826474: system.cpu.execute: 2258826474;s;i;567
2261833152: system.cpu.execute: 2261833152;f;i;567
2261833152: system.cpu.execute: 2261833152;s;i;568
2265017301: system.cpu.execute: 2265017301;f;i;568
2265017614: system.cpu.execute: 2265017614;s;i;569
2268290655: system.cpu.execute: 2268290655;f;i;569
2268290968: system.cpu.execute: 2268290968;s;i;570
2271484507: system.cpu.execute: 2271484507;f;i;570
2271484820: system.cpu.execute: 2271484820;s;i;571
2274303698: system.cpu.execute: 2274303698;f;i;571
2274304324: system.cpu.execute: 2274304324;s;i;572
2277416170: system.cpu.execute: 2277416170;f;i;572
2277416483: system.cpu.execute: 2277416483;s;i;573
2280050691: system.cpu.execute: 2280050691;f;i;573
2280050691: system.cpu.execute: 2280050691;s;i;574
2283089921: system.cpu.execute: 2283089921;f;i;574
2283090234: system.cpu.execute: 2283090234;s;i;575
2288650053: system.cpu.execute: 2288650053;f;i;575
2288650992: system.cpu.execute: 2288650992;s;i;576
2292998249: system.cpu.execute: 2292998249;f;i;576
2292998875: system.cpu.execute: 2292998875;s;i;577
2296981174: system.cpu.execute: 2296981174;f;i;577
2296981487: system.cpu.execute: 2296981487;s;i;578
2300102723: system.cpu.execute: 2300102723;f;i;578
2300103036: system.cpu.execute: 2300103036;s;i;579
2305568642: system.cpu.execute: 2305568642;f;i;579
2305568642: system.cpu.execute: 2305568642;s;i;580
2310575390: system.cpu.execute: 2310575390;f;i;580
2310576016: system.cpu.execute: 2310576016;s;i;581
2313809619: system.cpu.execute: 2313809619;f;i;581
2313809619: system.cpu.execute: 2313809619;s;i;582
2317061063: system.cpu.execute: 2317061063;f;i;582
2317061063: system.cpu.execute: 2317061063;s;i;583
2322547327: system.cpu.execute: 2322547327;f;i;583
2322547640: system.cpu.execute: 2322547640;s;i;584
2328021071: system.cpu.execute: 2328021071;f;i;584
2328021071: system.cpu.execute: 2328021071;s;i;585
2330624605: system.cpu.execute: 2330624605;f;i;585
2330624605: system.cpu.execute: 2330624605;s;i;586
2334138969: system.cpu.execute: 2334138969;f;i;586
2334139282: system.cpu.execute: 2334139282;s;i;587
2339424287: system.cpu.execute: 2339424287;f;i;587
2339424287: system.cpu.execute: 2339424287;s;i;588
2344751860: system.cpu.execute: 2344751860;f;i;588
2344752799: system.cpu.execute: 2344752799;s;i;589
2347401718: system.cpu.execute: 2347401718;f;i;589
2347401718: system.cpu.execute: 2347401718;s;i;590
2351685436: system.cpu.execute: 2351685436;f;i;590
2351687314: system.cpu.execute: 2351687314;s;i;591
2356290918: system.cpu.execute: 2356290918;f;i;591
2356291231: system.cpu.execute: 2356291231;s;i;592
2361498612: system.cpu.execute: 2361498612;f;i;592
2361499551: system.cpu.execute: 2361499551;s;i;593
2364248317: system.cpu.execute: 2364248317;f;i;593
2364248630: system.cpu.execute: 2364248630;s;i;594
2369159600: system.cpu.execute: 2369159600;f;i;594
2369161478: system.cpu.execute: 2369161478;s;i;595
2373107469: system.cpu.execute: 2373107469;f;i;595
2373108095: system.cpu.execute: 2373108095;s;i;596
2378177130: system.cpu.execute: 2378177130;f;i;596
2378177130: system.cpu.execute: 2378177130;s;i;597
2381065494: system.cpu.execute: 2381065494;f;i;597
2381065494: system.cpu.execute: 2381065494;s;i;598
2386544246: system.cpu.execute: 2386544246;f;i;598
2386544559: system.cpu.execute: 2386544559;s;i;599
2390473022: system.cpu.execute: 2390473022;f;i;599
2390473022: system.cpu.execute: 2390473022;s;i;600
2394899781: system.cpu.execute: 2394899781;f;i;600
2394900094: system.cpu.execute: 2394900094;s;i;601
2397914597: system.cpu.execute: 2397914597;f;i;601
2397914910: system.cpu.execute: 2397914910;s;i;602
2403368309: system.cpu.execute: 2403368309;f;i;602
2403368309: system.cpu.execute: 2403368309;s;i;603
2407959080: system.cpu.execute: 2407959080;f;i;603
2407960019: system.cpu.execute: 2407960019;s;i;604
2412219010: system.cpu.execute: 2412219010;f;i;604
2412219323: system.cpu.execute: 2412219323;s;i;605
2415308320: system.cpu.execute: 2415308320;f;i;605
2415308633: system.cpu.execute: 2415308633;s;i;606
2418308425: system.cpu.execute: 2418308425;f;i;606
2418309051: system.cpu.execute: 2418309051;s;i;607
2421287246: system.cpu.execute: 2421287246;f;i;607
2421287559: system.cpu.execute: 2421287559;s;i;608
2424376869: system.cpu.execute: 2424376869;f;i;608
2424376869: system.cpu.execute: 2424376869;s;i;609
2427395441: system.cpu.execute: 2427395441;f;i;609
2427395754: system.cpu.execute: 2427395754;s;i;610
2430490072: system.cpu.execute: 2430490072;f;i;610
2430490072: system.cpu.execute: 2430490072;s;i;611
2433591589: system.cpu.execute: 2433591589;f;i;611
2433591902: system.cpu.execute: 2433591902;s;i;612
2436530972: system.cpu.execute: 2436530972;f;i;612
2436531285: system.cpu.execute: 2436531285;s;i;613
2439527947: system.cpu.execute: 2439527947;f;i;613
2439528260: system.cpu.execute: 2439528260;s;i;614
2442713348: system.cpu.execute: 2442713348;f;i;614
2442714287: system.cpu.execute: 2442714287;s;i;615
2445829889: system.cpu.execute: 2445829889;f;i;615
2445830202: system.cpu.execute: 2445830202;s;i;616
2448891029: system.cpu.execute: 2448891029;f;i;616
2448891029: system.cpu.execute: 2448891029;s;i;617
2451930885: system.cpu.execute: 2451930885;f;i;617
2451931198: system.cpu.execute: 2451931198;s;i;618
2455002980: system.cpu.execute: 2455002980;f;i;618
2455003293: system.cpu.execute: 2455003293;s;i;619
2458005276: system.cpu.execute: 2458005276;f;i;619
2458005276: system.cpu.execute: 2458005276;s;i;620
2461218847: system.cpu.execute: 2461218847;f;i;620
2461219160: system.cpu.execute: 2461219160;s;i;621
2463854933: system.cpu.execute: 2463854933;f;i;621
2463855246: system.cpu.execute: 2463855246;s;i;622
2466549237: system.cpu.execute: 2466549237;f;i;622
2466549863: system.cpu.execute: 2466549863;s;i;623
2470874897: system.cpu.execute: 2470874897;f;i;623
2470876775: system.cpu.execute: 2470876775;s;i;624
2475549552: system.cpu.execute: 2475549552;f;i;624
2475549865: system.cpu.execute: 2475549865;s;i;625
2480785103: system.cpu.execute: 2480785103;f;i;625
2480785103: system.cpu.execute: 2480785103;s;i;626
2483593652: system.cpu.execute: 2483593652;f;i;626
2483593965: system.cpu.execute: 2483593965;s;i;627
2488505248: system.cpu.execute: 2488505248;f;i;627
2488507126: system.cpu.execute: 2488507126;s;i;628
2492471584: system.cpu.execute: 2492471584;f;i;628
2492471897: system.cpu.execute: 2492471897;s;i;629
2497561277: system.cpu.execute: 2497561277;f;i;629
2497561590: system.cpu.execute: 2497561590;s;i;630
2500536968: system.cpu.execute: 2500536968;f;i;630
2500537281: system.cpu.execute: 2500537281;s;i;631
2506031370: system.cpu.execute: 2506031370;f;i;631
2506031996: system.cpu.execute: 2506031996;s;i;632
2509962650: system.cpu.execute: 2509962650;f;i;632
2509962650: system.cpu.execute: 2509962650;s;i;633
2514423213: system.cpu.execute: 2514423213;f;i;633
2514424152: system.cpu.execute: 2514424152;s;i;634
2517463695: system.cpu.execute: 2517463695;f;i;634
2517464008: system.cpu.execute: 2517464008;s;i;635
2522917407: system.cpu.execute: 2522917407;f;i;635
2522917720: system.cpu.execute: 2522917720;s;i;636
2527497849: system.cpu.execute: 2527497849;f;i;636
2527497849: system.cpu.execute: 2527497849;s;i;637
2531148055: system.cpu.execute: 2531148055;f;i;637
2531148055: system.cpu.execute: 2531148055;s;i;638
2534303721: system.cpu.execute: 2534303721;f;i;638
2534304034: system.cpu.execute: 2534304034;s;i;639
2539783725: system.cpu.execute: 2539783725;f;i;639
2539783725: system.cpu.execute: 2539783725;s;i;640
2545045881: system.cpu.execute: 2545045881;f;i;640
2545046507: system.cpu.execute: 2545046507;s;i;641
2547881974: system.cpu.execute: 2547881974;f;i;641
2547881974: system.cpu.execute: 2547881974;s;i;642
2551147816: system.cpu.execute: 2551147816;f;i;642
2551148442: system.cpu.execute: 2551148442;s;i;643
2556600589: system.cpu.execute: 2556600589;f;i;643
2556600902: system.cpu.execute: 2556600902;s;i;644
2562009542: system.cpu.execute: 2562009542;f;i;644
2562010168: system.cpu.execute: 2562010168;s;i;645
2564559866: system.cpu.execute: 2564559866;f;i;645
2564559866: system.cpu.execute: 2564559866;s;i;646
2568429172: system.cpu.execute: 2568429172;f;i;646
2568429485: system.cpu.execute: 2568429485;s;i;647
2573443119: system.cpu.execute: 2573443119;f;i;647
2573444371: system.cpu.execute: 2573444371;s;i;648
2578728124: system.cpu.execute: 2578728124;f;i;648
2578728124: system.cpu.execute: 2578728124;s;i;649
2581400831: system.cpu.execute: 2581400831;f;i;649
2581401144: system.cpu.execute: 2581401144;s;i;650
2585903336: system.cpu.execute: 2585903336;f;i;650
2585903649: system.cpu.execute: 2585903649;s;i;651
2590260296: system.cpu.execute: 2590260296;f;i;651
2590260609: system.cpu.execute: 2590260609;s;i;652
2596031077: system.cpu.execute: 2596031077;f;i;652
2596031077: system.cpu.execute: 2596031077;s;i;653
2599126960: system.cpu.execute: 2599126960;f;i;653
2599126960: system.cpu.execute: 2599126960;s;i;654
2602095452: system.cpu.execute: 2602095452;f;i;654
2602095765: system.cpu.execute: 2602095765;s;i;655
2605064257: system.cpu.execute: 2605064257;f;i;655
2605064570: system.cpu.execute: 2605064570;s;i;656
2608020229: system.cpu.execute: 2608020229;f;i;656
2608020542: system.cpu.execute: 2608020542;s;i;657
2611007501: system.cpu.execute: 2611007501;f;i;657
2611007814: system.cpu.execute: 2611007814;s;i;658
2614004476: system.cpu.execute: 2614004476;f;i;658
2614005415: system.cpu.execute: 2614005415;s;i;659
2617008963: system.cpu.execute: 2617008963;f;i;659
2617009276: system.cpu.execute: 2617009276;s;i;660
2620064156: system.cpu.execute: 2620064156;f;i;660
2620064469: system.cpu.execute: 2620064469;s;i;661
2623123418: system.cpu.execute: 2623123418;f;i;661
2623124357: system.cpu.execute: 2623124357;s;i;662
2626103804: system.cpu.execute: 2626103804;f;i;662
2626104743: system.cpu.execute: 2626104743;s;i;663
2629174334: system.cpu.execute: 2629174334;f;i;663
2629174334: system.cpu.execute: 2629174334;s;i;664
2632221389: system.cpu.execute: 2632221389;f;i;664
2632221702: system.cpu.execute: 2632221702;s;i;665
2635103180: system.cpu.execute: 2635103180;f;i;665
2635103493: system.cpu.execute: 2635103493;s;i;666
2638153052: system.cpu.execute: 2638153052;f;i;666
2638153052: system.cpu.execute: 2638153052;s;i;667
2641445812: system.cpu.execute: 2641445812;f;i;667
2641445812: system.cpu.execute: 2641445812;s;i;668
2644091914: system.cpu.execute: 2644091914;f;i;668
2644092227: system.cpu.execute: 2644092227;s;i;669
2646685432: system.cpu.execute: 2646685432;f;i;669
2646685745: system.cpu.execute: 2646685745;s;i;670
2650298391: system.cpu.execute: 2650298391;f;i;670
2650299330: system.cpu.execute: 2650299330;s;i;671
2655630346: system.cpu.execute: 2655630346;f;i;671
2655630659: system.cpu.execute: 2655630659;s;i;672
2660989532: system.cpu.execute: 2660989532;f;i;672
2660989532: system.cpu.execute: 2660989532;s;i;673
2663672255: system.cpu.execute: 2663672255;f;i;673
2663672568: system.cpu.execute: 2663672568;s;i;674
2667917161: system.cpu.execute: 2667917161;f;i;674
2667918100: system.cpu.execute: 2667918100;s;i;675
2672550500: system.cpu.execute: 2672550500;f;i;675
2672550500: system.cpu.execute: 2672550500;s;i;676
2677766645: system.cpu.execute: 2677766645;f;i;676
2677766958: system.cpu.execute: 2677766958;s;i;677
2680604303: system.cpu.execute: 2680604303;f;i;677
2680604616: system.cpu.execute: 2680604616;s;i;678
2685520594: system.cpu.execute: 2685520594;f;i;678
2685521533: system.cpu.execute: 2685521533;s;i;679
2689512596: system.cpu.execute: 2689512596;f;i;679
2689513535: system.cpu.execute: 2689513535;s;i;680
2694595403: system.cpu.execute: 2694595403;f;i;680
2694596029: system.cpu.execute: 2694596029;s;i;681
2697530404: system.cpu.execute: 2697530404;f;i;681
2697531030: system.cpu.execute: 2697531030;s;i;682
2702983490: system.cpu.execute: 2702983490;f;i;682
2702984116: system.cpu.execute: 2702984116;s;i;683
2706943879: system.cpu.execute: 2706943879;f;i;683
2706944818: system.cpu.execute: 2706944818;s;i;684
2711346224: system.cpu.execute: 2711346224;f;i;684
2711346224: system.cpu.execute: 2711346224;s;i;685
2714366674: system.cpu.execute: 2714366674;f;i;685
2714366987: system.cpu.execute: 2714366987;s;i;686
2719850121: system.cpu.execute: 2719850121;f;i;686
2719850121: system.cpu.execute: 2719850121;s;i;687
2724444648: system.cpu.execute: 2724444648;f;i;687
2724445587: system.cpu.execute: 2724445587;s;i;688
2728074509: system.cpu.execute: 2728074509;f;i;688
2728074822: system.cpu.execute: 2728074822;s;i;689
2731214212: system.cpu.execute: 2731214212;f;i;689
2731214212: system.cpu.execute: 2731214212;s;i;690
2736667298: system.cpu.execute: 2736667298;f;i;690
2736667298: system.cpu.execute: 2736667298;s;i;691
2741918812: system.cpu.execute: 2741918812;f;i;691
2741919751: system.cpu.execute: 2741919751;s;i;692
2744764608: system.cpu.execute: 2744764608;f;i;692
2744764921: system.cpu.execute: 2744764921;s;i;693
2748037962: system.cpu.execute: 2748037962;f;i;693
2748038275: system.cpu.execute: 2748038275;s;i;694
2753516401: system.cpu.execute: 2753516401;f;i;694
2753517340: system.cpu.execute: 2753517340;s;i;695
2758932553: system.cpu.execute: 2758932553;f;i;695
2758932553: system.cpu.execute: 2758932553;s;i;696
2761489763: system.cpu.execute: 2761489763;f;i;696
2761489763: system.cpu.execute: 2761489763;s;i;697
2765316188: system.cpu.execute: 2765316188;f;i;697
2765318066: system.cpu.execute: 2765318066;s;i;698
2770340464: system.cpu.execute: 2770340464;f;i;698
2770340777: system.cpu.execute: 2770340777;s;i;699
2776077441: system.cpu.execute: 2776077441;f;i;699
2776079319: system.cpu.execute: 2776079319;s;i;700
2779341092: system.cpu.execute: 2779341092;f;i;700
2779341092: system.cpu.execute: 2779341092;s;i;701
2782232586: system.cpu.execute: 2782232586;f;i;701
2782232899: system.cpu.execute: 2782232899;s;i;702
2785147868: system.cpu.execute: 2785147868;f;i;702
2785148181: system.cpu.execute: 2785148181;s;i;703
2788363630: system.cpu.execute: 2788363630;f;i;703
2788363630: system.cpu.execute: 2788363630;s;i;704
2791406929: system.cpu.execute: 2791406929;f;i;704
2791407242: system.cpu.execute: 2791407242;s;i;705
2794454923: system.cpu.execute: 2794454923;f;i;705
2794455549: system.cpu.execute: 2794455549;s;i;706
2797437813: system.cpu.execute: 2797437813;f;i;706
2797438439: system.cpu.execute: 2797438439;s;i;707
2800436040: system.cpu.execute: 2800436040;f;i;707
2800436353: system.cpu.execute: 2800436353;s;i;708
2803513143: system.cpu.execute: 2803513143;f;i;708
2803513456: system.cpu.execute: 2803513456;s;i;709
2806516691: system.cpu.execute: 2806516691;f;i;709
2806517004: system.cpu.execute: 2806517004;s;i;710
2809505528: system.cpu.execute: 2809505528;f;i;710
2809505841: system.cpu.execute: 2809505841;s;i;711
2812764484: system.cpu.execute: 2812764484;f;i;711
2812764484: system.cpu.execute: 2812764484;s;i;712
2815945503: system.cpu.execute: 2815945503;f;i;712
2815945816: system.cpu.execute: 2815945816;s;i;713
2819073938: system.cpu.execute: 2819073938;f;i;713
2819074564: system.cpu.execute: 2819074564;s;i;714
2821957607: system.cpu.execute: 2821957607;f;i;714
2821957920: system.cpu.execute: 2821957920;s;i;715
2824619046: system.cpu.execute: 2824619046;f;i;715
2824619359: system.cpu.execute: 2824619359;s;i;716
2827878941: system.cpu.execute: 2827878941;f;i;716
2827879254: system.cpu.execute: 2827879254;s;i;717
2834033147: system.cpu.execute: 2834033147;f;i;717
2834033773: system.cpu.execute: 2834033773;s;i;718
2839602669: system.cpu.execute: 2839602669;f;i;718
2839602982: system.cpu.execute: 2839602982;s;i;719
2842206516: system.cpu.execute: 2842206516;f;i;719
2842206829: system.cpu.execute: 2842206829;s;i;720
2845714620: system.cpu.execute: 2845714620;f;i;720
2845714620: system.cpu.execute: 2845714620;s;i;721
2851041880: system.cpu.execute: 2851041880;f;i;721
2851042193: system.cpu.execute: 2851042193;s;i;722
2856391676: system.cpu.execute: 2856391676;f;i;722
2856391676: system.cpu.execute: 2856391676;s;i;723
2859099752: system.cpu.execute: 2859099752;f;i;723
2859100378: system.cpu.execute: 2859100378;s;i;724
2863382218: system.cpu.execute: 2863382218;f;i;724
2863382844: system.cpu.execute: 2863382844;s;i;725
2868010549: system.cpu.execute: 2868010549;f;i;725
2868011175: system.cpu.execute: 2868011175;s;i;726
2873230450: system.cpu.execute: 2873230450;f;i;726
2873230450: system.cpu.execute: 2873230450;s;i;727
2876029922: system.cpu.execute: 2876029922;f;i;727
2876030548: system.cpu.execute: 2876030548;s;i;728
2880927120: system.cpu.execute: 2880927120;f;i;728
2880927746: system.cpu.execute: 2880927746;s;i;729
2884889387: system.cpu.execute: 2884889387;f;i;729
2884889700: system.cpu.execute: 2884889700;s;i;730
2889962491: system.cpu.execute: 2889962491;f;i;730
2889962804: system.cpu.execute: 2889962804;s;i;731
2892866818: system.cpu.execute: 2892866818;f;i;731
2892867131: system.cpu.execute: 2892867131;s;i;732
2898350265: system.cpu.execute: 2898350265;f;i;732
2898350265: system.cpu.execute: 2898350265;s;i;733
2902262452: system.cpu.execute: 2902262452;f;i;733
2902263391: system.cpu.execute: 2902263391;s;i;734
2906708617: system.cpu.execute: 2906708617;f;i;734
2906708930: system.cpu.execute: 2906708930;s;i;735
2909713730: system.cpu.execute: 2909713730;f;i;735
2909713730: system.cpu.execute: 2909713730;s;i;736
2915167129: system.cpu.execute: 2915167129;f;i;736
2915167442: system.cpu.execute: 2915167442;s;i;737
2919736616: system.cpu.execute: 2919736616;f;i;737
2919737555: system.cpu.execute: 2919737555;s;i;738
2923386509: system.cpu.execute: 2923386509;f;i;738
2923386822: system.cpu.execute: 2923386822;s;i;739
2926530594: system.cpu.execute: 2926530594;f;i;739
2926530907: system.cpu.execute: 2926530907;s;i;740
2932009659: system.cpu.execute: 2932009659;f;i;740
2932010285: system.cpu.execute: 2932010285;s;i;741
2937261486: system.cpu.execute: 2937261486;f;i;741
2937261799: system.cpu.execute: 2937261799;s;i;742
2940109473: system.cpu.execute: 2940109473;f;i;742
2940109786: system.cpu.execute: 2940109786;s;i;743
2943373124: system.cpu.execute: 2943373124;f;i;743
2943374376: system.cpu.execute: 2943374376;s;i;744
2948826523: system.cpu.execute: 2948826523;f;i;744
2948826836: system.cpu.execute: 2948826836;s;i;745
2954237667: system.cpu.execute: 2954237667;f;i;745
2954237667: system.cpu.execute: 2954237667;s;i;746
2956787678: system.cpu.execute: 2956787678;f;i;746
2956787678: system.cpu.execute: 2956787678;s;i;747
2960644464: system.cpu.execute: 2960644464;f;i;747
2960644464: system.cpu.execute: 2960644464;s;i;748
2965677504: system.cpu.execute: 2965677504;f;i;748
2965678130: system.cpu.execute: 2965678130;s;i;749
2975540760: system.cpu.execute: 2975540760;f;i;749
2975541073: system.cpu.execute: 2975541073;s;i;750
2975560479: system.cpu.execute: 2975560479;f;i;750
