
---------- Begin Simulation Statistics ----------
sim_seconds                                  0.002976                       # Number of seconds simulated
sim_ticks                                  2975560479                       # Number of ticks simulated
final_tick                                 2975560479                       # Number of ticks from beginning of simulation (restored from checkpoints and never reset)
sim_freq                                 1000000000000                       # Frequency of simulated ticks
host_inst_rate                                 348404                       # Simulator instruction rate (inst/s)
host_op_rate                                   348404                       # Simulator op (including micro ops) rate (op/s)
host_tick_rate                              138129893                       # Simulator tick rate (ticks/s)
host_mem_usage                                 635280                       # Number of bytes of host memory used
host_seconds                                    21.54                       # Real time elapsed on the host
sim_insts                                     7505234                       # Number of instructions simulated
sim_ops                                       7505234                       # Number of ops (including micro ops) simulated
system.clk_domain.voltage_domain.voltage            1                       # Voltage in Volts
system.clk_domain.clock                           313                       # Clock period in ticks
system.mem_ctrl.pwrStateResidencyTicks::UNDEFINED   2975560479                       # Cumulative time (in ticks) in various power states
system.mem_ctrl.bytes_read::cpu.inst            55040                       # Number of bytes read from this memory
system.mem_ctrl.bytes_read::cpu.data            25536                       # Number of bytes read from this memory
system.mem_ctrl.bytes_read::l2cache.prefetcher        19328                       # Number of bytes read from this memory
system.mem_ctrl.bytes_read::total               99904                       # Number of bytes read from this memory
system.mem_ctrl.bytes_inst_read::cpu.inst        55040                       # Number of instructions bytes read from this memory
system.mem_ctrl.bytes_inst_read::total          55040                       # Number of instructions bytes read from this memory
system.mem_ctrl.num_reads::writebacks               0                       # Number of read requests responded to by this memory
system.mem_ctrl.num_reads::functional               0                       # Number of read requests responded to by this memory
system.mem_ctrl.num_reads::interrupt                0                       # Number of read requests responded to by this memory
system.mem_ctrl.num_reads::cpu.inst               860                       # Number of read requests responded to by this memory
system.mem_ctrl.num_reads::cpu.data               399                       # Number of read requests responded to by this memory
system.mem_ctrl.num_reads::l2cache.prefetcher          302                       # Number of read requests responded to by this memory
system.mem_ctrl.num_reads::total                 1561                       # Number of read requests responded to by this memory
system.mem_ctrl.num_writes::writebacks              0                       # Number of write requests responded to by this memory
system.mem_ctrl.num_writes::functional              0                       # Number of write requests responded to by this memory
system.mem_ctrl.num_writes::interrupt               0                       # Number of write requests responded to by this memory
system.mem_ctrl.num_writes::cpu.inst                0                       # Number of write requests responded to by this memory
system.mem_ctrl.num_writes::cpu.data                0                       # Number of write requests responded to by this memory
system.mem_ctrl.num_writes::l2cache.prefetcher            0                       # Number of write requests responded to by this memory
system.mem_ctrl.num_writes::total                   0                       # Number of write requests responded to by this memory
system.mem_ctrl.bw_read::cpu.inst            18497356                       # Total read bandwidth from this memory (bytes/s)
system.mem_ctrl.bw_read::cpu.data             8581913                       # Total read bandwidth from this memory (bytes/s)
system.mem_ctrl.bw_read::l2cache.prefetcher      6495583                       # Total read bandwidth from this memory (bytes/s)
system.mem_ctrl.bw_read::total               33574851                       # Total read bandwidth from this memory (bytes/s)
system.mem_ctrl.bw_inst_read::cpu.inst       18497356                       # Instruction read bandwidth from this memory (bytes/s)
system.mem_ctrl.bw_inst_read::total          18497356                       # Instruction read bandwidth from this memory (bytes/s)
system.mem_ctrl.bw_total::cpu.inst           18497356                       # Total bandwidth to/from this memory (bytes/s)
system.mem_ctrl.bw_total::cpu.data            8581913                       # Total bandwidth to/from this memory (bytes/s)
system.mem_ctrl.bw_total::l2cache.prefetcher      6495583                       # Total bandwidth to/from this memory (bytes/s)
system.mem_ctrl.bw_total::total              33574851                       # Total bandwidth to/from this memory (bytes/s)
system.mem_ctrl.readReqs                         1561                       # Number of read requests accepted
system.mem_ctrl.writeReqs                           0                       # Number of write requests accepted
system.mem_ctrl.readBursts                       1561                       # Number of DRAM read bursts, including those serviced by the write queue
system.mem_ctrl.writeBursts                         0                       # Number of DRAM write bursts, including those merged in the write queue
system.mem_ctrl.bytesReadDRAM                   99904                       # Total number of bytes read from DRAM
system.mem_ctrl.bytesReadWrQ                        0                       # Total number of bytes read from write queue
system.mem_ctrl.bytesWritten                        0                       # Total number of bytes written to DRAM
system.mem_ctrl.bytesReadSys                    99904                       # Total read bytes from the system interface side
system.mem_ctrl.bytesWrittenSys                     0                       # Total written bytes from the system interface side
system.mem_ctrl.servicedByWrQ                       0                       # Number of DRAM read bursts serviced by the write queue
system.mem_ctrl.mergedWrBursts                      0                       # Number of DRAM write bursts merged with an existing one
system.mem_ctrl.neitherReadNorWriteReqs             0                       # Number of requests that are neither read nor write
system.mem_ctrl.perBankRdBursts::0                 69                       # Per bank write bursts
system.mem_ctrl.perBankRdBursts::1                  0                       # Per bank write bursts
system.mem_ctrl.perBankRdBursts::2                 52                       # Per bank write bursts
system.mem_ctrl.perBankRdBursts::3                112                       # Per bank write bursts
system.mem_ctrl.perBankRdBursts::4                129                       # Per bank write bursts
system.mem_ctrl.perBankRdBursts::5                 60                       # Per bank write bursts
system.mem_ctrl.perBankRdBursts::6                 80                       # Per bank write bursts
system.mem_ctrl.perBankRdBursts::7                 66                       # Per bank write bursts
system.mem_ctrl.perBankRdBursts::8                121                       # Per bank write bursts
system.mem_ctrl.perBankRdBursts::9                127                       # Per bank write bursts
system.mem_ctrl.perBankRdBursts::10               183                       # Per bank write bursts
system.mem_ctrl.perBankRdBursts::11               219                       # Per bank write bursts
system.mem_ctrl.perBankRdBursts::12               164                       # Per bank write bursts
system.mem_ctrl.perBankRdBursts::13                87                       # Per bank write bursts
system.mem_ctrl.perBankRdBursts::14                68                       # Per bank write bursts
system.mem_ctrl.perBankRdBursts::15                24                       # Per bank write bursts
system.mem_ctrl.perBankWrBursts::0                  0                       # Per bank write bursts
system.mem_ctrl.perBankWrBursts::1                  0                       # Per bank write bursts
system.mem_ctrl.perBankWrBursts::2                  0                       # Per bank write bursts
system.mem_ctrl.perBankWrBursts::3                  0                       # Per bank write bursts
system.mem_ctrl.perBankWrBursts::4                  0                       # Per bank write bursts
system.mem_ctrl.perBankWrBursts::5                  0                       # Per bank write bursts
system.mem_ctrl.perBankWrBursts::6                  0                       # Per bank write bursts
system.mem_ctrl.perBankWrBursts::7                  0                       # Per bank write bursts
system.mem_ctrl.perBankWrBursts::8                  0                       # Per bank write bursts
system.mem_ctrl.perBankWrBursts::9                  0                       # Per bank write bursts
system.mem_ctrl.perBankWrBursts::10                 0                       # Per bank write bursts
system.mem_ctrl.perBankWrBursts::11                 0                       # Per bank write bursts
system.mem_ctrl.perBankWrBursts::12                 0                       # Per bank write bursts
system.mem_ctrl.perBankWrBursts::13                 0                       # Per bank write bursts
system.mem_ctrl.perBankWrBursts::14                 0                       # Per bank write bursts
system.mem_ctrl.perBankWrBursts::15                 0                       # Per bank write bursts
system.mem_ctrl.numRdRetry                          0                       # Number of times read queue was full causing retry
system.mem_ctrl.numWrRetry                          0                       # Number of times write queue was full causing retry
system.mem_ctrl.totGap                     2975352960                       # Total gap between requests
system.mem_ctrl.readPktSize::0                      0                       # Read request sizes (log2)
system.mem_ctrl.readPktSize::1                      0                       # Read request sizes (log2)
system.mem_ctrl.readPktSize::2                      0                       # Read request sizes (log2)
system.mem_ctrl.readPktSize::3                      0                       # Read request sizes (log2)
system.mem_ctrl.readPktSize::4                      0                       # Read request sizes (log2)
system.mem_ctrl.readPktSize::5                      0                       # Read request sizes (log2)
system.mem_ctrl.readPktSize::6                   1561                       # Read request sizes (log2)
system.mem_ctrl.writePktSize::0                     0                       # Write request sizes (log2)
system.mem_ctrl.writePktSize::1                     0                       # Write request sizes (log2)
system.mem_ctrl.writePktSize::2                     0                       # Write request sizes (log2)
system.mem_ctrl.writePktSize::3                     0                       # Write request sizes (log2)
system.mem_ctrl.writePktSize::4                     0                       # Write request sizes (log2)
system.mem_ctrl.writePktSize::5                     0                       # Write request sizes (log2)
system.mem_ctrl.writePktSize::6                     0                       # Write request sizes (log2)
system.mem_ctrl.rdQLenPdf::0                     1277                       # What read queue length does an incoming req see
system.mem_ctrl.rdQLenPdf::1                      244                       # What read queue length does an incoming req see
system.mem_ctrl.rdQLenPdf::2                       24                       # What read queue length does an incoming req see
system.mem_ctrl.rdQLenPdf::3                       13                       # What read queue length does an incoming req see
system.mem_ctrl.rdQLenPdf::4                        3                       # What read queue length does an incoming req see
system.mem_ctrl.rdQLenPdf::5                        0                       # What read queue length does an incoming req see
system.mem_ctrl.rdQLenPdf::6                        0                       # What read queue length does an incoming req see
system.mem_ctrl.rdQLenPdf::7                        0                       # What read queue length does an incoming req see
system.mem_ctrl.rdQLenPdf::8                        0                       # What read queue length does an incoming req see
system.mem_ctrl.rdQLenPdf::9                        0                       # What read queue length does an incoming req see
system.mem_ctrl.rdQLenPdf::10                       0                       # What read queue length does an incoming req see
system.mem_ctrl.rdQLenPdf::11                       0                       # What read queue length does an incoming req see
system.mem_ctrl.rdQLenPdf::12                       0                       # What read queue length does an incoming req see
system.mem_ctrl.rdQLenPdf::13                       0                       # What read queue length does an incoming req see
system.mem_ctrl.rdQLenPdf::14                       0                       # What read queue length does an incoming req see
system.mem_ctrl.rdQLenPdf::15                       0                       # What read queue length does an incoming req see
system.mem_ctrl.rdQLenPdf::16                       0                       # What read queue length does an incoming req see
system.mem_ctrl.rdQLenPdf::17                       0                       # What read queue length does an incoming req see
system.mem_ctrl.rdQLenPdf::18                       0                       # What read queue length does an incoming req see
system.mem_ctrl.rdQLenPdf::19                       0                       # What read queue length does an incoming req see
system.mem_ctrl.rdQLenPdf::20                       0                       # What read queue length does an incoming req see
system.mem_ctrl.rdQLenPdf::21                       0                       # What read queue length does an incoming req see
system.mem_ctrl.rdQLenPdf::22                       0                       # What read queue length does an incoming req see
system.mem_ctrl.rdQLenPdf::23                       0                       # What read queue length does an incoming req see
system.mem_ctrl.rdQLenPdf::24                       0                       # What read queue length does an incoming req see
system.mem_ctrl.rdQLenPdf::25                       0                       # What read queue length does an incoming req see
system.mem_ctrl.rdQLenPdf::26                       0                       # What read queue length does an incoming req see
system.mem_ctrl.rdQLenPdf::27                       0                       # What read queue length does an incoming req see
system.mem_ctrl.rdQLenPdf::28                       0                       # What read queue length does an incoming req see
system.mem_ctrl.rdQLenPdf::29                       0                       # What read queue length does an incoming req see
system.mem_ctrl.rdQLenPdf::30                       0                       # What read queue length does an incoming req see
system.mem_ctrl.rdQLenPdf::31                       0                       # What read queue length does an incoming req see
system.mem_ctrl.wrQLenPdf::0                        0                       # What write queue length does an incoming req see
system.mem_ctrl.wrQLenPdf::1                        0                       # What write queue length does an incoming req see
system.mem_ctrl.wrQLenPdf::2                        0                       # What write queue length does an incoming req see
system.mem_ctrl.wrQLenPdf::3                        0                       # What write queue length does an incoming req see
system.mem_ctrl.wrQLenPdf::4                        0                       # What write queue length does an incoming req see
system.mem_ctrl.wrQLenPdf::5                        0                       # What write queue length does an incoming req see
system.mem_ctrl.wrQLenPdf::6                        0                       # What write queue length does an incoming req see
system.mem_ctrl.wrQLenPdf::7                        0                       # What write queue length does an incoming req see
system.mem_ctrl.wrQLenPdf::8                        0                       # What write queue length does an incoming req see
system.mem_ctrl.wrQLenPdf::9                        0                       # What write queue length does an incoming req see
system.mem_ctrl.wrQLenPdf::10                       0                       # What write queue length does an incoming req see
system.mem_ctrl.wrQLenPdf::11                       0                       # What write queue length does an incoming req see
system.mem_ctrl.wrQLenPdf::12                       0                       # What write queue length does an incoming req see
system.mem_ctrl.wrQLenPdf::13                       0                       # What write queue length does an incoming req see
system.mem_ctrl.wrQLenPdf::14                       0                       # What write queue length does an incoming req see
system.mem_ctrl.wrQLenPdf::15                       0                       # What write queue length does an incoming req see
system.mem_ctrl.wrQLenPdf::16                       0                       # What write queue length does an incoming req see
system.mem_ctrl.wrQLenPdf::17                       0                       # What write queue length does an incoming req see
system.mem_ctrl.wrQLenPdf::18                       0                       # What write queue length does an incoming req see
system.mem_ctrl.wrQLenPdf::19                       0                       # What write queue length does an incoming req see
system.mem_ctrl.wrQLenPdf::20                       0                       # What write queue length does an incoming req see
system.mem_ctrl.wrQLenPdf::21                       0                       # What write queue length does an incoming req see
system.mem_ctrl.wrQLenPdf::22                       0                       # What write queue length does an incoming req see
system.mem_ctrl.wrQLenPdf::23                       0                       # What write queue length does an incoming req see
system.mem_ctrl.wrQLenPdf::24                       0                       # What write queue length does an incoming req see
system.mem_ctrl.wrQLenPdf::25                       0                       # What write queue length does an incoming req see
system.mem_ctrl.wrQLenPdf::26                       0                       # What write queue length does an incoming req see
system.mem_ctrl.wrQLenPdf::27                       0                       # What write queue length does an incoming req see
system.mem_ctrl.wrQLenPdf::28                       0                       # What write queue length does an incoming req see
system.mem_ctrl.wrQLenPdf::29                       0                       # What write queue length does an incoming req see
system.mem_ctrl.wrQLenPdf::30                       0                       # What write queue length does an incoming req see
system.mem_ctrl.wrQLenPdf::31                       0                       # What write queue length does an incoming req see
system.mem_ctrl.wrQLenPdf::32                       0                       # What write queue length does an incoming req see
system.mem_ctrl.wrQLenPdf::33                       0                       # What write queue length does an incoming req see
system.mem_ctrl.wrQLenPdf::34                       0                       # What write queue length does an incoming req see
system.mem_ctrl.wrQLenPdf::35                       0                       # What write queue length does an incoming req see
system.mem_ctrl.wrQLenPdf::36                       0                       # What write queue length does an incoming req see
system.mem_ctrl.wrQLenPdf::37                       0                       # What write queue length does an incoming req see
system.mem_ctrl.wrQLenPdf::38                       0                       # What write queue length does an incoming req see
system.mem_ctrl.wrQLenPdf::39                       0                       # What write queue length does an incoming req see
system.mem_ctrl.wrQLenPdf::40                       0                       # What write queue length does an incoming req see
system.mem_ctrl.wrQLenPdf::41                       0                       # What write queue length does an incoming req see
system.mem_ctrl.wrQLenPdf::42                       0                       # What write queue length does an incoming req see
system.mem_ctrl.wrQLenPdf::43                       0                       # What write queue length does an incoming req see
system.mem_ctrl.wrQLenPdf::44                       0                       # What write queue length does an incoming req see
system.mem_ctrl.wrQLenPdf::45                       0                       # What write queue length does an incoming req see
system.mem_ctrl.wrQLenPdf::46                       0                       # What write queue length does an incoming req see
system.mem_ctrl.wrQLenPdf::47                       0                       # What write queue length does an incoming req see
system.mem_ctrl.wrQLenPdf::48                       0                       # What write queue length does an incoming req see
system.mem_ctrl.wrQLenPdf::49                       0                       # What write queue length does an incoming req see
system.mem_ctrl.wrQLenPdf::50                       0                       # What write queue length does an incoming req see
system.mem_ctrl.wrQLenPdf::51                       0                       # What write queue length does an incoming req see
system.mem_ctrl.wrQLenPdf::52                       0                       # What write queue length does an incoming req see
system.mem_ctrl.wrQLenPdf::53                       0                       # What write queue length does an incoming req see
system.mem_ctrl.wrQLenPdf::54                       0                       # What write queue length does an incoming req see
system.mem_ctrl.wrQLenPdf::55                       0                       # What write queue length does an incoming req see
system.mem_ctrl.wrQLenPdf::56                       0                       # What write queue length does an incoming req see
system.mem_ctrl.wrQLenPdf::57                       0                       # What write queue length does an incoming req see
system.mem_ctrl.wrQLenPdf::58                       0                       # What write queue length does an incoming req see
system.mem_ctrl.wrQLenPdf::59                       0                       # What write queue length does an incoming req see
system.mem_ctrl.wrQLenPdf::60                       0                       # What write queue length does an incoming req see
system.mem_ctrl.wrQLenPdf::61                       0                       # What write queue length does an incoming req see
system.mem_ctrl.wrQLenPdf::62                       0                       # What write queue length does an incoming req see
system.mem_ctrl.wrQLenPdf::63                       0                       # What write queue length does an incoming req see
system.mem_ctrl.bytesPerActivate::samples          197                       # Bytes accessed per row activation
system.mem_ctrl.bytesPerActivate::mean     499.005076                       # Bytes accessed per row activation
system.mem_ctrl.bytesPerActivate::gmean    334.451180                       # Bytes accessed per row activation
system.mem_ctrl.bytesPerActivate::stdev    369.066867                       # Bytes accessed per row activation
system.mem_ctrl.bytesPerActivate::0-127            35     17.77%     17.77% # Bytes accessed per row activation
system.mem_ctrl.bytesPerActivate::128-255           32     16.24%     34.01% # Bytes accessed per row activation
system.mem_ctrl.bytesPerActivate::256-383           20     10.15%     44.16% # Bytes accessed per row activation
system.mem_ctrl.bytesPerActivate::384-511           24     12.18%     56.35% # Bytes accessed per row activation
system.mem_ctrl.bytesPerActivate::512-639           13      6.60%     62.94% # Bytes accessed per row activation
system.mem_ctrl.bytesPerActivate::640-767            9      4.57%     67.51% # Bytes accessed per row activation
system.mem_ctrl.bytesPerActivate::768-895           12      6.09%     73.60% # Bytes accessed per row activation
system.mem_ctrl.bytesPerActivate::896-1023            6      3.05%     76.65% # Bytes accessed per row activation
system.mem_ctrl.bytesPerActivate::1024-1151           46     23.35%    100.00% # Bytes accessed per row activation
system.mem_ctrl.bytesPerActivate::total           197                       # Bytes accessed per row activation
system.mem_ctrl.totQLat                      22396903                       # Total ticks spent queuing
system.mem_ctrl.totMemAccLat                 51665653                       # Total ticks spent from burst creation until serviced by the DRAM
system.mem_ctrl.totBusLat                     7805000                       # Total ticks spent in databus transfers
system.mem_ctrl.avgQLat                      14347.79                       # Average queueing delay per DRAM burst
system.mem_ctrl.avgBusLat                     5000.00                       # Average bus latency per DRAM burst
system.mem_ctrl.avgMemAccLat                 33097.79                       # Average memory access latency per DRAM burst
system.mem_ctrl.avgRdBW                         33.57                       # Average DRAM read bandwidth in MiByte/s
system.mem_ctrl.avgWrBW                          0.00                       # Average achieved write bandwidth in MiByte/s
system.mem_ctrl.avgRdBWSys                      33.57                       # Average system read bandwidth in MiByte/s
system.mem_ctrl.avgWrBWSys                       0.00                       # Average system write bandwidth in MiByte/s
system.mem_ctrl.peakBW                       12800.00                       # Theoretical peak bandwidth in MiByte/s
system.mem_ctrl.busUtil                          0.26                       # Data bus utilization in percentage
system.mem_ctrl.busUtilRead                      0.26                       # Data bus utilization in percentage for reads
system.mem_ctrl.busUtilWrite                     0.00                       # Data bus utilization in percentage for writes
system.mem_ctrl.avgRdQLen                        1.01                       # Average read queue length when enqueuing
system.mem_ctrl.avgWrQLen                        0.00                       # Average write queue length when enqueuing
system.mem_ctrl.readRowHits                      1356                       # Number of row buffer hits during reads
system.mem_ctrl.writeRowHits                        0                       # Number of row buffer hits during writes
system.mem_ctrl.readRowHitRate                  86.87                       # Row buffer hit rate for reads
system.mem_ctrl.writeRowHitRate                   nan                       # Row buffer hit rate for writes
system.mem_ctrl.avgGap                     1906055.71                       # Average gap between requests
system.mem_ctrl.pageHitRate                     86.87                       # Row buffer hit rate, read and write combined
system.mem_ctrl_0.actEnergy                    606900                       # Energy for activate commands per rank (pJ)
system.mem_ctrl_0.preEnergy                    307395                       # Energy for precharge commands per rank (pJ)
system.mem_ctrl_0.readEnergy                  4055520                       # Energy for read commands per rank (pJ)
system.mem_ctrl_0.writeEnergy                       0                       # Energy for write commands per rank (pJ)
system.mem_ctrl_0.refreshEnergy          19668480.000000                       # Energy for refresh commands per rank (pJ)
system.mem_ctrl_0.actBackEnergy              11194800                       # Energy for active background per rank (pJ)
system.mem_ctrl_0.preBackEnergy                943680                       # Energy for precharge background per rank (pJ)
system.mem_ctrl_0.actPowerDownEnergy         58444950                       # Energy for active power-down per rank (pJ)
system.mem_ctrl_0.prePowerDownEnergy         21270240                       # Energy for precharge power-down per rank (pJ)
system.mem_ctrl_0.selfRefreshEnergy         666911940                       # Energy for self refresh per rank (pJ)
system.mem_ctrl_0.totalEnergy               783403905                       # Total energy per rank (pJ)
system.mem_ctrl_0.averagePower             263.279443                       # Core power per rank (mW)
system.mem_ctrl_0.totalIdleTime            2947925994                       # Total Idle time Per DRAM Rank
system.mem_ctrl_0.memoryStateTime::IDLE       1692260                       # Time in different power states
system.mem_ctrl_0.memoryStateTime::REF        8356000                       # Time in different power states
system.mem_ctrl_0.memoryStateTime::SREF    2764991516                       # Time in different power states
system.mem_ctrl_0.memoryStateTime::PRE_PDN     55388431                       # Time in different power states
system.mem_ctrl_0.memoryStateTime::ACT       16940194                       # Time in different power states
system.mem_ctrl_0.memoryStateTime::ACT_PDN    128192078                       # Time in different power states
system.mem_ctrl_1.actEnergy                    856800                       # Energy for activate commands per rank (pJ)
system.mem_ctrl_1.preEnergy                    440220                       # Energy for precharge commands per rank (pJ)
system.mem_ctrl_1.readEnergy                  7090020                       # Energy for read commands per rank (pJ)
system.mem_ctrl_1.writeEnergy                       0                       # Energy for write commands per rank (pJ)
system.mem_ctrl_1.refreshEnergy          19668480.000000                       # Energy for refresh commands per rank (pJ)
system.mem_ctrl_1.actBackEnergy              14887830                       # Energy for active background per rank (pJ)
system.mem_ctrl_1.preBackEnergy                794400                       # Energy for precharge background per rank (pJ)
system.mem_ctrl_1.actPowerDownEnergy         63930630                       # Energy for active power-down per rank (pJ)
system.mem_ctrl_1.prePowerDownEnergy         21566880                       # Energy for precharge power-down per rank (pJ)
system.mem_ctrl_1.selfRefreshEnergy         660332220                       # Energy for self refresh per rank (pJ)
system.mem_ctrl_1.totalEnergy               789567480                       # Total energy per rank (pJ)
system.mem_ctrl_1.averagePower             265.350842                       # Core power per rank (mW)
system.mem_ctrl_1.totalIdleTime            2940670147                       # Total Idle time Per DRAM Rank
system.mem_ctrl_1.memoryStateTime::IDLE       1110659                       # Time in different power states
system.mem_ctrl_1.memoryStateTime::REF        8338000                       # Time in different power states
system.mem_ctrl_1.memoryStateTime::SREF    2744481185                       # Time in different power states
system.mem_ctrl_1.memoryStateTime::PRE_PDN     56161288                       # Time in different power states
system.mem_ctrl_1.memoryStateTime::ACT       25259164                       # Time in different power states
system.mem_ctrl_1.memoryStateTime::ACT_PDN    140210183                       # Time in different power states
system.pwrStateResidencyTicks::UNDEFINED   2975560479                       # Cumulative time (in ticks) in various power states
system.cpu.branchPred.lookups                  779062                       # Number of BP lookups
system.cpu.branchPred.condPredicted            541299                       # Number of conditional branches predicted
system.cpu.branchPred.condIncorrect             18584                       # Number of conditional branches incorrect
system.cpu.branchPred.BTBLookups               674868                       # Number of BTB lookups
system.cpu.branchPred.BTBHits                  653871                       # Number of BTB hits
system.cpu.branchPred.BTBCorrect                    0                       # Number of correct BTB predictions (this stat may not work properly.
system.cpu.branchPred.BTBHitPct             96.888725                       # BTB Hit Percentage
system.cpu.branchPred.usedRAS                       0                       # Number of times the RAS was used to get a target.
system.cpu.branchPred.RASInCorrect                  0                       # Number of incorrect RAS predictions.
system.cpu.branchPred.indirectLookups           14266                       # Number of indirect predictor lookups.
system.cpu.branchPred.indirectHits              11885                       # Number of indirect target hits.
system.cpu.branchPred.indirectMisses             2381                       # Number of indirect misses.
system.cpu.branchPredindirectMispredicted         1833                       # Number of mispredicted indirect branches.
system.cpu.dtb.read_hits                            0                       # DTB read hits
system.cpu.dtb.read_misses                          0                       # DTB read misses
system.cpu.dtb.read_accesses                        0                       # DTB read accesses
system.cpu.dtb.write_hits                           0                       # DTB write hits
system.cpu.dtb.write_misses                         0                       # DTB write misses
system.cpu.dtb.write_accesses                       0                       # DTB write accesses
system.cpu.dtb.hits                                 0                       # DTB hits
system.cpu.dtb.misses                               0                       # DTB misses
system.cpu.dtb.accesses                             0                       # DTB accesses
system.cpu.itb.read_hits                            0                       # DTB read hits
system.cpu.itb.read_misses                          0                       # DTB read misses
system.cpu.itb.read_accesses                        0                       # DTB read accesses
system.cpu.itb.write_hits                           0                       # DTB write hits
system.cpu.itb.write_misses                         0                       # DTB write misses
system.cpu.itb.write_accesses                       0                       # DTB write accesses
system.cpu.itb.hits                                 0                       # DTB hits
system.cpu.itb.misses                               0                       # DTB misses
system.cpu.itb.accesses                             0                       # DTB accesses
system.cpu.workload.numSyscalls                   218                       # Number of system calls
system.cpu.pwrStateResidencyTicks::ON      2975560479                       # Cumulative time (in ticks) in various power states
system.cpu.numCycles                          9506583                       # number of cpu cycles simulated
system.cpu.numWorkItemsStarted                      0                       # number of work items this cpu started
system.cpu.numWorkItemsCompleted                    0                       # number of work items this cpu completed
system.cpu.committedInsts                     7505234                       # Number of instructions committed
system.cpu.committedOps                       7505234                       # Number of ops (including micro ops) committed
system.cpu.discardedOps                         51882                       # Number of ops (including micro ops) which were discarded before commit
system.cpu.numFetchSuspends                         0                       # Number of times Execute suspended instruction fetching
system.cpu.cpi                               1.266660                       # CPI: cycles per instruction
system.cpu.ipc                               0.789478                       # IPC: instructions per cycle
system.cpu.op_class_0::No_OpClass                 218      0.00%      0.00% # Class of committed instruction
system.cpu.op_class_0::IntAdd                       0      0.00%      0.00% # Class of committed instruction
system.cpu.op_class_0::IntSub                       0      0.00%      0.00% # Class of committed instruction
system.cpu.op_class_0::IntMult                 146056      1.95%      1.95% # Class of committed instruction
system.cpu.op_class_0::IntDiv                      85      0.00%      1.95% # Class of committed instruction
system.cpu.op_class_0::IntLogic                     0      0.00%      1.95% # Class of committed instruction
system.cpu.op_class_0::IntShift                     0      0.00%      1.95% # Class of committed instruction
system.cpu.op_class_0::IntMov                       0      0.00%      1.95% # Class of committed instruction
system.cpu.op_class_0::IntCtrl                      0      0.00%      1.95% # Class of committed instruction
system.cpu.op_class_0::IntALU                 4903829     65.34%     67.29% # Class of committed instruction
system.cpu.op_class_0::FloatAdd                     0      0.00%     67.29% # Class of committed instruction
system.cpu.op_class_0::FloatCmp                     0      0.00%     67.29% # Class of committed instruction
system.cpu.op_class_0::FloatCvt                     0      0.00%     67.29% # Class of committed instruction
system.cpu.op_class_0::FloatMult                    0      0.00%     67.29% # Class of committed instruction
system.cpu.op_class_0::FloatMultAcc                 0      0.00%     67.29% # Class of committed instruction
system.cpu.op_class_0::FloatDiv                     0      0.00%     67.29% # Class of committed instruction
system.cpu.op_class_0::FloatMisc                    0      0.00%     67.29% # Class of committed instruction
system.cpu.op_class_0::FloatSqrt                    0      0.00%     67.29% # Class of committed instruction
system.cpu.op_class_0::SimdAdd                      0      0.00%     67.29% # Class of committed instruction
system.cpu.op_class_0::SimdAddAcc                   0      0.00%     67.29% # Class of committed instruction
system.cpu.op_class_0::SimdAlu                      0      0.00%     67.29% # Class of committed instruction
system.cpu.op_class_0::SimdCmp                      0      0.00%     67.29% # Class of committed instruction
system.cpu.op_class_0::SimdCvt                      0      0.00%     67.29% # Class of committed instruction
system.cpu.op_class_0::SimdMisc                     0      0.00%     67.29% # Class of committed instruction
system.cpu.op_class_0::SimdMult                     0      0.00%     67.29% # Class of committed instruction
system.cpu.op_class_0::SimdMultAcc                  0      0.00%     67.29% # Class of committed instruction
system.cpu.op_class_0::SimdShift                    0      0.00%     67.29% # Class of committed instruction
system.cpu.op_class_0::SimdShiftAcc                 0      0.00%     67.29% # Class of committed instruction
system.cpu.op_class_0::SimdSqrt                     0      0.00%     67.29% # Class of committed instruction
system.cpu.op_class_0::SimdFloatAdd                 0      0.00%     67.29% # Class of committed instruction
system.cpu.op_class_0::SimdFloatAlu                 0      0.00%     67.29% # Class of committed instruction
system.cpu.op_class_0::SimdFloatCmp                 0      0.00%     67.29% # Class of committed instruction
system.cpu.op_class_0::SimdFloatCvt                 0      0.00%     67.29% # Class of committed instruction
system.cpu.op_class_0::SimdFloatDiv                 0      0.00%     67.29% # Class of committed instruction
system.cpu.op_class_0::SimdFloatMisc                0      0.00%     67.29% # Class of committed instruction
system.cpu.op_class_0::SimdFloatMult                0      0.00%     67.29% # Class of committed instruction
system.cpu.op_class_0::SimdFloatMultAcc             0      0.00%     67.29% # Class of committed instruction
system.cpu.op_class_0::SimdFloatSqrt                0      0.00%     67.29% # Class of committed instruction
system.cpu.op_class_0::MemRead                1572601     20.95%     88.24% # Class of committed instruction
system.cpu.op_class_0::MemWrite                882428     11.76%    100.00% # Class of committed instruction
system.cpu.op_class_0::FloatMemRead                11      0.00%    100.00% # Class of committed instruction
system.cpu.op_class_0::FloatMemWrite                6      0.00%    100.00% # Class of committed instruction
system.cpu.op_class_0::IprAccess                    0      0.00%    100.00% # Class of committed instruction
system.cpu.op_class_0::InstPrefetch                 0      0.00%    100.00% # Class of committed instruction
system.cpu.op_class_0::total                  7505234                       # Class of committed instruction
system.cpu.tickCycles                         9137267                       # Number of cycles that the object actually ticked
system.cpu.idleCycles                          369316                       # Total number of cycles that the object has spent stopped
system.cpu.fetch2.int_instructions            5242719                       # Number of integer instructions successfully decoded
system.cpu.fetch2.fp_instructions                   1                       # Number of floating point instructions successfully decoded
system.cpu.fetch2.vec_instructions                  0                       # Number of SIMD instructions successfully decoded
system.cpu.fetch2.load_instructions           1632775                       # Number of memory load instructions successfully decoded
system.cpu.fetch2.store_instructions           909561                       # Number of memory store instructions successfully decoded
system.cpu.dcache.tags.pwrStateResidencyTicks::UNDEFINED   2975560479                       # Cumulative time (in ticks) in various power states
system.cpu.dcache.tags.replacements              2140                       # number of replacements
system.cpu.dcache.tags.tagsinuse           504.563188                       # Cycle average of tags in use
system.cpu.dcache.tags.total_refs             2459972                       # Total number of references to valid blocks.
system.cpu.dcache.tags.sampled_refs              2652                       # Sample count of references to valid blocks.
system.cpu.dcache.tags.avg_refs            927.591252                       # Average number of references to valid blocks.
system.cpu.dcache.tags.warmup_cycle            505495                       # Cycle when the warmup percentage was hit.
system.cpu.dcache.tags.occ_blocks::cpu.data   504.563188                       # Average occupied blocks per requestor
system.cpu.dcache.tags.occ_percent::cpu.data     0.985475                       # Average percentage of cache occupancy
system.cpu.dcache.tags.occ_percent::total     0.985475                       # Average percentage of cache occupancy
system.cpu.dcache.tags.occ_task_id_blocks::1024          512                       # Occupied blocks per task id
system.cpu.dcache.tags.age_task_id_blocks_1024::0           45                       # Occupied blocks per task id
system.cpu.dcache.tags.age_task_id_blocks_1024::1            5                       # Occupied blocks per task id
system.cpu.dcache.tags.age_task_id_blocks_1024::2           36                       # Occupied blocks per task id
system.cpu.dcache.tags.age_task_id_blocks_1024::3          426                       # Occupied blocks per task id
system.cpu.dcache.tags.occ_task_id_percent::1024            1                       # Percentage of cache occupancy per task id
system.cpu.dcache.tags.tag_accesses           9859396                       # Number of tag accesses
system.cpu.dcache.tags.data_accesses          9859396                       # Number of data accesses
system.cpu.dcache.pwrStateResidencyTicks::UNDEFINED   2975560479                       # Cumulative time (in ticks) in various power states
system.cpu.dcache.ReadReq_hits::cpu.data      1580588                       # number of ReadReq hits
system.cpu.dcache.ReadReq_hits::total         1580588                       # number of ReadReq hits
system.cpu.dcache.WriteReq_hits::cpu.data       879384                       # number of WriteReq hits
system.cpu.dcache.WriteReq_hits::total         879384                       # number of WriteReq hits
system.cpu.dcache.demand_hits::cpu.data       2459972                       # number of demand (read+write) hits
system.cpu.dcache.demand_hits::total          2459972                       # number of demand (read+write) hits
system.cpu.dcache.overall_hits::cpu.data      2459972                       # number of overall hits
system.cpu.dcache.overall_hits::total         2459972                       # number of overall hits
system.cpu.dcache.ReadReq_misses::cpu.data         1164                       # number of ReadReq misses
system.cpu.dcache.ReadReq_misses::total          1164                       # number of ReadReq misses
system.cpu.dcache.WriteReq_misses::cpu.data         3050                       # number of WriteReq misses
system.cpu.dcache.WriteReq_misses::total         3050                       # number of WriteReq misses
system.cpu.dcache.demand_misses::cpu.data         4214                       # number of demand (read+write) misses
system.cpu.dcache.demand_misses::total           4214                       # number of demand (read+write) misses
system.cpu.dcache.overall_misses::cpu.data         4214                       # number of overall misses
system.cpu.dcache.overall_misses::total          4214                       # number of overall misses
system.cpu.dcache.ReadReq_miss_latency::cpu.data     12997951                       # number of ReadReq miss cycles
system.cpu.dcache.ReadReq_miss_latency::total     12997951                       # number of ReadReq miss cycles
system.cpu.dcache.WriteReq_miss_latency::cpu.data     59310057                       # number of WriteReq miss cycles
system.cpu.dcache.WriteReq_miss_latency::total     59310057                       # number of WriteReq miss cycles
system.cpu.dcache.demand_miss_latency::cpu.data     72308008                       # number of demand (read+write) miss cycles
system.cpu.dcache.demand_miss_latency::total     72308008                       # number of demand (read+write) miss cycles
system.cpu.dcache.overall_miss_latency::cpu.data     72308008                       # number of overall miss cycles
system.cpu.dcache.overall_miss_latency::total     72308008                       # number of overall miss cycles
system.cpu.dcache.ReadReq_accesses::cpu.data      1581752                       # number of ReadReq accesses(hits+misses)
system.cpu.dcache.ReadReq_accesses::total      1581752                       # number of ReadReq accesses(hits+misses)
system.cpu.dcache.WriteReq_accesses::cpu.data       882434                       # number of WriteReq accesses(hits+misses)
system.cpu.dcache.WriteReq_accesses::total       882434                       # number of WriteReq accesses(hits+misses)
system.cpu.dcache.demand_accesses::cpu.data      2464186                       # number of demand (read+write) accesses
system.cpu.dcache.demand_accesses::total      2464186                       # number of demand (read+write) accesses
system.cpu.dcache.overall_accesses::cpu.data      2464186                       # number of overall (read+write) accesses
system.cpu.dcache.overall_accesses::total      2464186                       # number of overall (read+write) accesses
system.cpu.dcache.ReadReq_miss_rate::cpu.data     0.000736                       # miss rate for ReadReq accesses
system.cpu.dcache.ReadReq_miss_rate::total     0.000736                       # miss rate for ReadReq accesses
system.cpu.dcache.WriteReq_miss_rate::cpu.data     0.003456                       # miss rate for WriteReq accesses
system.cpu.dcache.WriteReq_miss_rate::total     0.003456                       # miss rate for WriteReq accesses
system.cpu.dcache.demand_miss_rate::cpu.data     0.001710                       # miss rate for demand accesses
system.cpu.dcache.demand_miss_rate::total     0.001710                       # miss rate for demand accesses
system.cpu.dcache.overall_miss_rate::cpu.data     0.001710                       # miss rate for overall accesses
system.cpu.dcache.overall_miss_rate::total     0.001710                       # miss rate for overall accesses
system.cpu.dcache.ReadReq_avg_miss_latency::cpu.data 11166.624570                       # average ReadReq miss latency
system.cpu.dcache.ReadReq_avg_miss_latency::total 11166.624570                       # average ReadReq miss latency
system.cpu.dcache.WriteReq_avg_miss_latency::cpu.data 19445.920328                       # average WriteReq miss latency
system.cpu.dcache.WriteReq_avg_miss_latency::total 19445.920328                       # average WriteReq miss latency
system.cpu.dcache.demand_avg_miss_latency::cpu.data 17158.995729                       # average overall miss latency
system.cpu.dcache.demand_avg_miss_latency::total 17158.995729                       # average overall miss latency
system.cpu.dcache.overall_avg_miss_latency::cpu.data 17158.995729                       # average overall miss latency
system.cpu.dcache.overall_avg_miss_latency::total 17158.995729                       # average overall miss latency
system.cpu.dcache.blocked_cycles::no_mshrs            0                       # number of cycles access was blocked
system.cpu.dcache.blocked_cycles::no_targets            0                       # number of cycles access was blocked
system.cpu.dcache.blocked::no_mshrs                 0                       # number of cycles access was blocked
system.cpu.dcache.blocked::no_targets               0                       # number of cycles access was blocked
system.cpu.dcache.avg_blocked_cycles::no_mshrs          nan                       # average number of cycles each access was blocked
system.cpu.dcache.avg_blocked_cycles::no_targets          nan                       # average number of cycles each access was blocked
system.cpu.dcache.writebacks::writebacks         2140                       # number of writebacks
system.cpu.dcache.writebacks::total              2140                       # number of writebacks
system.cpu.dcache.ReadReq_mshr_hits::cpu.data          133                       # number of ReadReq MSHR hits
system.cpu.dcache.ReadReq_mshr_hits::total          133                       # number of ReadReq MSHR hits
system.cpu.dcache.WriteReq_mshr_hits::cpu.data         1429                       # number of WriteReq MSHR hits
system.cpu.dcache.WriteReq_mshr_hits::total         1429                       # number of WriteReq MSHR hits
system.cpu.dcache.demand_mshr_hits::cpu.data         1562                       # number of demand (read+write) MSHR hits
system.cpu.dcache.demand_mshr_hits::total         1562                       # number of demand (read+write) MSHR hits
system.cpu.dcache.overall_mshr_hits::cpu.data         1562                       # number of overall MSHR hits
system.cpu.dcache.overall_mshr_hits::total         1562                       # number of overall MSHR hits
system.cpu.dcache.ReadReq_mshr_misses::cpu.data         1031                       # number of ReadReq MSHR misses
system.cpu.dcache.ReadReq_mshr_misses::total         1031                       # number of ReadReq MSHR misses
system.cpu.dcache.WriteReq_mshr_misses::cpu.data         1621                       # number of WriteReq MSHR misses
system.cpu.dcache.WriteReq_mshr_misses::total         1621                       # number of WriteReq MSHR misses
system.cpu.dcache.demand_mshr_misses::cpu.data         2652                       # number of demand (read+write) MSHR misses
system.cpu.dcache.demand_mshr_misses::total         2652                       # number of demand (read+write) MSHR misses
system.cpu.dcache.overall_mshr_misses::cpu.data         2652                       # number of overall MSHR misses
system.cpu.dcache.overall_mshr_misses::total         2652                       # number of overall MSHR misses
system.cpu.dcache.ReadReq_mshr_miss_latency::cpu.data     11229501                       # number of ReadReq MSHR miss cycles
system.cpu.dcache.ReadReq_mshr_miss_latency::total     11229501                       # number of ReadReq MSHR miss cycles
system.cpu.dcache.WriteReq_mshr_miss_latency::cpu.data     33179252                       # number of WriteReq MSHR miss cycles
system.cpu.dcache.WriteReq_mshr_miss_latency::total     33179252                       # number of WriteReq MSHR miss cycles
system.cpu.dcache.demand_mshr_miss_latency::cpu.data     44408753                       # number of demand (read+write) MSHR miss cycles
system.cpu.dcache.demand_mshr_miss_latency::total     44408753                       # number of demand (read+write) MSHR miss cycles
system.cpu.dcache.overall_mshr_miss_latency::cpu.data     44408753                       # number of overall MSHR miss cycles
system.cpu.dcache.overall_mshr_miss_latency::total     44408753                       # number of overall MSHR miss cycles
system.cpu.dcache.ReadReq_mshr_miss_rate::cpu.data     0.000652                       # mshr miss rate for ReadReq accesses
system.cpu.dcache.ReadReq_mshr_miss_rate::total     0.000652                       # mshr miss rate for ReadReq accesses
system.cpu.dcache.WriteReq_mshr_miss_rate::cpu.data     0.001837                       # mshr miss rate for WriteReq accesses
system.cpu.dcache.WriteReq_mshr_miss_rate::total     0.001837                       # mshr miss rate for WriteReq accesses
system.cpu.dcache.demand_mshr_miss_rate::cpu.data     0.001076                       # mshr miss rate for demand accesses
system.cpu.dcache.demand_mshr_miss_rate::total     0.001076                       # mshr miss rate for demand accesses
system.cpu.dcache.overall_mshr_miss_rate::cpu.data     0.001076                       # mshr miss rate for overall accesses
system.cpu.dcache.overall_mshr_miss_rate::total     0.001076                       # mshr miss rate for overall accesses
system.cpu.dcache.ReadReq_avg_mshr_miss_latency::cpu.data 10891.853540                       # average ReadReq mshr miss latency
system.cpu.dcache.ReadReq_avg_mshr_miss_latency::total 10891.853540                       # average ReadReq mshr miss latency
system.cpu.dcache.WriteReq_avg_mshr_miss_latency::cpu.data 20468.384948                       # average WriteReq mshr miss latency
system.cpu.dcache.WriteReq_avg_mshr_miss_latency::total 20468.384948                       # average WriteReq mshr miss latency
system.cpu.dcache.demand_avg_mshr_miss_latency::cpu.data 16745.381976                       # average overall mshr miss latency
system.cpu.dcache.demand_avg_mshr_miss_latency::total 16745.381976                       # average overall mshr miss latency
system.cpu.dcache.overall_avg_mshr_miss_latency::cpu.data 16745.381976                       # average overall mshr miss latency
system.cpu.dcache.overall_avg_mshr_miss_latency::total 16745.381976                       # average overall mshr miss latency
system.cpu.icache.tags.pwrStateResidencyTicks::UNDEFINED   2975560479                       # Cumulative time (in ticks) in various power states
system.cpu.icache.tags.replacements               804                       # number of replacements
system.cpu.icache.tags.tagsinuse           487.404115                       # Cycle average of tags in use
system.cpu.icache.tags.total_refs             2130866                       # Total number of references to valid blocks.
system.cpu.icache.tags.sampled_refs              1299                       # Sample count of references to valid blocks.
system.cpu.icache.tags.avg_refs           1640.389530                       # Average number of references to valid blocks.
system.cpu.icache.tags.warmup_cycle             72929                       # Cycle when the warmup percentage was hit.
system.cpu.icache.tags.occ_blocks::cpu.inst   487.404115                       # Average occupied blocks per requestor
system.cpu.icache.tags.occ_percent::cpu.inst     0.951961                       # Average percentage of cache occupancy
system.cpu.icache.tags.occ_percent::total     0.951961                       # Average percentage of cache occupancy
system.cpu.icache.tags.occ_task_id_blocks::1024          495                       # Occupied blocks per task id
system.cpu.icache.tags.age_task_id_blocks_1024::0           80                       # Occupied blocks per task id
system.cpu.icache.tags.age_task_id_blocks_1024::2            9                       # Occupied blocks per task id
system.cpu.icache.tags.age_task_id_blocks_1024::3          406                       # Occupied blocks per task id
system.cpu.icache.tags.occ_task_id_percent::1024     0.966797                       # Percentage of cache occupancy per task id
system.cpu.icache.tags.tag_accesses           4265629                       # Number of tag accesses
system.cpu.icache.tags.data_accesses          4265629                       # Number of data accesses
system.cpu.icache.pwrStateResidencyTicks::UNDEFINED   2975560479                       # Cumulative time (in ticks) in various power states
system.cpu.icache.ReadReq_hits::cpu.inst      2130866                       # number of ReadReq hits
system.cpu.icache.ReadReq_hits::total         2130866                       # number of ReadReq hits
system.cpu.icache.demand_hits::cpu.inst       2130866                       # number of demand (read+write) hits
system.cpu.icache.demand_hits::total          2130866                       # number of demand (read+write) hits
system.cpu.icache.overall_hits::cpu.inst      2130866                       # number of overall hits
system.cpu.icache.overall_hits::total         2130866                       # number of overall hits
system.cpu.icache.ReadReq_misses::cpu.inst         1299                       # number of ReadReq misses
system.cpu.icache.ReadReq_misses::total          1299                       # number of ReadReq misses
system.cpu.icache.demand_misses::cpu.inst         1299                       # number of demand (read+write) misses
system.cpu.icache.demand_misses::total           1299                       # number of demand (read+write) misses
system.cpu.icache.overall_misses::cpu.inst         1299                       # number of overall misses
system.cpu.icache.overall_misses::total          1299                       # number of overall misses
system.cpu.icache.ReadReq_miss_latency::cpu.inst     60803693                       # number of ReadReq miss cycles
system.cpu.icache.ReadReq_miss_latency::total     60803693                       # number of ReadReq miss cycles
system.cpu.icache.demand_miss_latency::cpu.inst     60803693                       # number of demand (read+write) miss cycles
system.cpu.icache.demand_miss_latency::total     60803693                       # number of demand (read+write) miss cycles
system.cpu.icache.overall_miss_latency::cpu.inst     60803693                       # number of overall miss cycles
system.cpu.icache.overall_miss_latency::total     60803693                       # number of overall miss cycles
system.cpu.icache.ReadReq_accesses::cpu.inst      2132165                       # number of ReadReq accesses(hits+misses)
system.cpu.icache.ReadReq_accesses::total      2132165                       # number of ReadReq accesses(hits+misses)
system.cpu.icache.demand_accesses::cpu.inst      2132165                       # number of demand (read+write) accesses
system.cpu.icache.demand_accesses::total      2132165                       # number of demand (read+write) accesses
system.cpu.icache.overall_accesses::cpu.inst      2132165                       # number of overall (read+write) accesses
system.cpu.icache.overall_accesses::total      2132165                       # number of overall (read+write) accesses
system.cpu.icache.ReadReq_miss_rate::cpu.inst     0.000609                       # miss rate for ReadReq accesses
system.cpu.icache.ReadReq_miss_rate::total     0.000609                       # miss rate for ReadReq accesses
system.cpu.icache.demand_miss_rate::cpu.inst     0.000609                       # miss rate for demand accesses
system.cpu.icache.demand_miss_rate::total     0.000609                       # miss rate for demand accesses
system.cpu.icache.overall_miss_rate::cpu.inst     0.000609                       # miss rate for overall accesses
system.cpu.icache.overall_miss_rate::total     0.000609                       # miss rate for overall accesses
system.cpu.icache.ReadReq_avg_miss_latency::cpu.inst 46808.077752                       # average ReadReq miss latency
system.cpu.icache.ReadReq_avg_miss_latency::total 46808.077752                       # average ReadReq miss latency
system.cpu.icache.demand_avg_miss_latency::cpu.inst 46808.077752                       # average overall miss latency
system.cpu.icache.demand_avg_miss_latency::total 46808.077752                       # average overall miss latency
system.cpu.icache.overall_avg_miss_latency::cpu.inst 46808.077752                       # average overall miss latency
system.cpu.icache.overall_avg_miss_latency::total 46808.077752                       # average overall miss latency
system.cpu.icache.blocked_cycles::no_mshrs            0                       # number of cycles access was blocked
system.cpu.icache.blocked_cycles::no_targets            0                       # number of cycles access was blocked
system.cpu.icache.blocked::no_mshrs                 0                       # number of cycles access was blocked
system.cpu.icache.blocked::no_targets               0                       # number of cycles access was blocked
system.cpu.icache.avg_blocked_cycles::no_mshrs          nan                       # average number of cycles each access was blocked
system.cpu.icache.avg_blocked_cycles::no_targets          nan                       # average number of cycles each access was blocked
system.cpu.icache.writebacks::writebacks          804                       # number of writebacks
system.cpu.icache.writebacks::total               804                       # number of writebacks
system.cpu.icache.ReadReq_mshr_misses::cpu.inst         1299                       # number of ReadReq MSHR misses
system.cpu.icache.ReadReq_mshr_misses::total         1299                       # number of ReadReq MSHR misses
system.cpu.icache.demand_mshr_misses::cpu.inst         1299                       # number of demand (read+write) MSHR misses
system.cpu.icache.demand_mshr_misses::total         1299                       # number of demand (read+write) MSHR misses
system.cpu.icache.overall_mshr_misses::cpu.inst         1299                       # number of overall MSHR misses
system.cpu.icache.overall_mshr_misses::total         1299                       # number of overall MSHR misses
system.cpu.icache.ReadReq_mshr_miss_latency::cpu.inst     59990519                       # number of ReadReq MSHR miss cycles
system.cpu.icache.ReadReq_mshr_miss_latency::total     59990519                       # number of ReadReq MSHR miss cycles
system.cpu.icache.demand_mshr_miss_latency::cpu.inst     59990519                       # number of demand (read+write) MSHR miss cycles
system.cpu.icache.demand_mshr_miss_latency::total     59990519                       # number of demand (read+write) MSHR miss cycles
system.cpu.icache.overall_mshr_miss_latency::cpu.inst     59990519                       # number of overall MSHR miss cycles
system.cpu.icache.overall_mshr_miss_latency::total     59990519                       # number of overall MSHR miss cycles
system.cpu.icache.ReadReq_mshr_miss_rate::cpu.inst     0.000609                       # mshr miss rate for ReadReq accesses
system.cpu.icache.ReadReq_mshr_miss_rate::total     0.000609                       # mshr miss rate for ReadReq accesses
system.cpu.icache.demand_mshr_miss_rate::cpu.inst     0.000609                       # mshr miss rate for demand accesses
system.cpu.icache.demand_mshr_miss_rate::total     0.000609                       # mshr miss rate for demand accesses
system.cpu.icache.overall_mshr_miss_rate::cpu.inst     0.000609                       # mshr miss rate for overall accesses
system.cpu.icache.overall_mshr_miss_rate::total     0.000609                       # mshr miss rate for overall accesses
system.cpu.icache.ReadReq_avg_mshr_miss_latency::cpu.inst 46182.077752                       # average ReadReq mshr miss latency
system.cpu.icache.ReadReq_avg_mshr_miss_latency::total 46182.077752                       # average ReadReq mshr miss latency
system.cpu.icache.demand_avg_mshr_miss_latency::cpu.inst 46182.077752                       # average overall mshr miss latency
system.cpu.icache.demand_avg_mshr_miss_latency::total 46182.077752                       # average overall mshr miss latency
system.cpu.icache.overall_avg_mshr_miss_latency::cpu.inst 46182.077752                       # average overall mshr miss latency
system.cpu.icache.overall_avg_mshr_miss_latency::total 46182.077752                       # average overall mshr miss latency
system.l2bus.snoop_filter.tot_requests           6895                       # Total number of requests made to the snoop filter.
system.l2bus.snoop_filter.hit_single_requests         2944                       # Number of requests hitting in the snoop filter with a single holder of the requested data.
system.l2bus.snoop_filter.hit_multi_requests            0                       # Number of requests hitting in the snoop filter with multiple (>1) holders of the requested data.
system.l2bus.snoop_filter.tot_snoops              254                       # Total number of snoops made to the snoop filter.
system.l2bus.snoop_filter.hit_single_snoops          254                       # Number of snoops hitting in the snoop filter with a single holder of the requested data.
system.l2bus.snoop_filter.hit_multi_snoops            0                       # Number of snoops hitting in the snoop filter with multiple (>1) holders of the requested data.
system.l2bus.pwrStateResidencyTicks::UNDEFINED   2975560479                       # Cumulative time (in ticks) in various power states
system.l2bus.trans_dist::ReadResp                2330                       # Transaction distribution
system.l2bus.trans_dist::WritebackDirty          2013                       # Transaction distribution
system.l2bus.trans_dist::WritebackClean           931                       # Transaction distribution
system.l2bus.trans_dist::HardPFReq                571                       # Transaction distribution
system.l2bus.trans_dist::ReadExReq               1621                       # Transaction distribution
system.l2bus.trans_dist::ReadExResp              1621                       # Transaction distribution
system.l2bus.trans_dist::ReadCleanReq            1299                       # Transaction distribution
system.l2bus.trans_dist::ReadSharedReq           1031                       # Transaction distribution
system.l2bus.pkt_count_system.cpu.icache.mem_side::system.l2cache.cpu_side         3402                       # Packet count per connected master and slave (bytes)
system.l2bus.pkt_count_system.cpu.dcache.mem_side::system.l2cache.cpu_side         7444                       # Packet count per connected master and slave (bytes)
system.l2bus.pkt_count::total                   10846                       # Packet count per connected master and slave (bytes)
system.l2bus.pkt_size_system.cpu.icache.mem_side::system.l2cache.cpu_side       134592                       # Cumulative packet size per connected master and slave (bytes)
system.l2bus.pkt_size_system.cpu.dcache.mem_side::system.l2cache.cpu_side       306688                       # Cumulative packet size per connected master and slave (bytes)
system.l2bus.pkt_size::total                   441280                       # Cumulative packet size per connected master and slave (bytes)
system.l2bus.snoops                               571                       # Total snoops (count)
system.l2bus.snoopTraffic                           0                       # Total snoop traffic (bytes)
system.l2bus.snoop_fanout::samples               4522                       # Request fanout histogram
system.l2bus.snoop_fanout::mean              0.056170                       # Request fanout histogram
system.l2bus.snoop_fanout::stdev             0.230275                       # Request fanout histogram
system.l2bus.snoop_fanout::underflows               0      0.00%      0.00% # Request fanout histogram
system.l2bus.snoop_fanout::0                     4268     94.38%     94.38% # Request fanout histogram
system.l2bus.snoop_fanout::1                      254      5.62%    100.00% # Request fanout histogram
system.l2bus.snoop_fanout::2                        0      0.00%    100.00% # Request fanout histogram
system.l2bus.snoop_fanout::overflows                0      0.00%    100.00% # Request fanout histogram
system.l2bus.snoop_fanout::min_value                0                       # Request fanout histogram
system.l2bus.snoop_fanout::max_value                1                       # Request fanout histogram
system.l2bus.snoop_fanout::total                 4522                       # Request fanout histogram
system.l2bus.reqLayer0.occupancy              5844023                       # Layer occupancy (ticks)
system.l2bus.reqLayer0.utilization                0.2                       # Layer utilization (%)
system.l2bus.respLayer0.occupancy             2032935                       # Layer occupancy (ticks)
system.l2bus.respLayer0.utilization               0.1                       # Layer utilization (%)
system.l2bus.respLayer1.occupancy             4150380                       # Layer occupancy (ticks)
system.l2bus.respLayer1.utilization               0.1                       # Layer utilization (%)
system.l2cache.prefetcher.pwrStateResidencyTicks::UNDEFINED   2975560479                       # Cumulative time (in ticks) in various power states
system.l2cache.prefetcher.num_hwpf_issued          752                       # number of hwpf issued
system.l2cache.prefetcher.pfIdentified            752                       # number of prefetch candidates identified
system.l2cache.prefetcher.pfBufferHit               0                       # number of redundant prefetches already in prefetch queue
system.l2cache.prefetcher.pfInCache                 0                       # number of redundant prefetches already in cache/mshr dropped
system.l2cache.prefetcher.pfRemovedFull             0                       # number of prefetches dropped due to prefetch queue size
system.l2cache.prefetcher.pfSpanPage               29                       # number of prefetches not generated due to page crossing
system.l2cache.tags.pwrStateResidencyTicks::UNDEFINED   2975560479                       # Cumulative time (in ticks) in various power states
system.l2cache.tags.replacements                    0                       # number of replacements
system.l2cache.tags.tagsinuse              498.297847                       # Cycle average of tags in use
system.l2cache.tags.total_refs                      0                       # Total number of references to valid blocks.
system.l2cache.tags.sampled_refs                  554                       # Sample count of references to valid blocks.
system.l2cache.tags.avg_refs                        0                       # Average number of references to valid blocks.
system.l2cache.tags.warmup_cycle               753078                       # Cycle when the warmup percentage was hit.
system.l2cache.tags.occ_blocks::writebacks   494.136733                       # Average occupied blocks per requestor
system.l2cache.tags.occ_blocks::l2cache.prefetcher     4.161114                       # Average occupied blocks per requestor
system.l2cache.tags.occ_percent::writebacks     0.060319                       # Average percentage of cache occupancy
system.l2cache.tags.occ_percent::l2cache.prefetcher     0.000508                       # Average percentage of cache occupancy
system.l2cache.tags.occ_percent::total       0.060827                       # Average percentage of cache occupancy
system.l2cache.tags.occ_task_id_blocks::1022            4                       # Occupied blocks per task id
system.l2cache.tags.occ_task_id_blocks::1024          550                       # Occupied blocks per task id
system.l2cache.tags.age_task_id_blocks_1022::3            4                       # Occupied blocks per task id
system.l2cache.tags.age_task_id_blocks_1024::0          115                       # Occupied blocks per task id
system.l2cache.tags.age_task_id_blocks_1024::1            3                       # Occupied blocks per task id
system.l2cache.tags.age_task_id_blocks_1024::2           25                       # Occupied blocks per task id
system.l2cache.tags.age_task_id_blocks_1024::3          407                       # Occupied blocks per task id
system.l2cache.tags.occ_task_id_percent::1022     0.000488                       # Percentage of cache occupancy per task id
system.l2cache.tags.occ_task_id_percent::1024     0.067139                       # Percentage of cache occupancy per task id
system.l2cache.tags.tag_accesses                58406                       # Number of tag accesses
system.l2cache.tags.data_accesses               58406                       # Number of data accesses
system.l2cache.pwrStateResidencyTicks::UNDEFINED   2975560479                       # Cumulative time (in ticks) in various power states
system.l2cache.WritebackDirty_hits::writebacks         2013                       # number of WritebackDirty hits
system.l2cache.WritebackDirty_hits::total         2013                       # number of WritebackDirty hits
system.l2cache.WritebackClean_hits::writebacks          931                       # number of WritebackClean hits
system.l2cache.WritebackClean_hits::total          931                       # number of WritebackClean hits
system.l2cache.ReadExReq_hits::cpu.data          1168                       # number of ReadExReq hits
system.l2cache.ReadExReq_hits::total             1168                       # number of ReadExReq hits
system.l2cache.ReadCleanReq_hits::cpu.inst          439                       # number of ReadCleanReq hits
system.l2cache.ReadCleanReq_hits::total           439                       # number of ReadCleanReq hits
system.l2cache.ReadSharedReq_hits::cpu.data          956                       # number of ReadSharedReq hits
system.l2cache.ReadSharedReq_hits::total          956                       # number of ReadSharedReq hits
system.l2cache.demand_hits::cpu.inst              439                       # number of demand (read+write) hits
system.l2cache.demand_hits::cpu.data             2124                       # number of demand (read+write) hits
system.l2cache.demand_hits::total                2563                       # number of demand (read+write) hits
system.l2cache.overall_hits::cpu.inst             439                       # number of overall hits
system.l2cache.overall_hits::cpu.data            2124                       # number of overall hits
system.l2cache.overall_hits::total               2563                       # number of overall hits
system.l2cache.ReadExReq_misses::cpu.data          453                       # number of ReadExReq misses
system.l2cache.ReadExReq_misses::total            453                       # number of ReadExReq misses
system.l2cache.ReadCleanReq_misses::cpu.inst          860                       # number of ReadCleanReq misses
system.l2cache.ReadCleanReq_misses::total          860                       # number of ReadCleanReq misses
system.l2cache.ReadSharedReq_misses::cpu.data           75                       # number of ReadSharedReq misses
system.l2cache.ReadSharedReq_misses::total           75                       # number of ReadSharedReq misses
system.l2cache.demand_misses::cpu.inst            860                       # number of demand (read+write) misses
system.l2cache.demand_misses::cpu.data            528                       # number of demand (read+write) misses
system.l2cache.demand_misses::total              1388                       # number of demand (read+write) misses
system.l2cache.overall_misses::cpu.inst           860                       # number of overall misses
system.l2cache.overall_misses::cpu.data           528                       # number of overall misses
system.l2cache.overall_misses::total             1388                       # number of overall misses
system.l2cache.ReadExReq_miss_latency::cpu.data     24902906                       # number of ReadExReq miss cycles
system.l2cache.ReadExReq_miss_latency::total     24902906                       # number of ReadExReq miss cycles
system.l2cache.ReadCleanReq_miss_latency::cpu.inst     55905556                       # number of ReadCleanReq miss cycles
system.l2cache.ReadCleanReq_miss_latency::total     55905556                       # number of ReadCleanReq miss cycles
system.l2cache.ReadSharedReq_miss_latency::cpu.data      4803924                       # number of ReadSharedReq miss cycles
system.l2cache.ReadSharedReq_miss_latency::total      4803924                       # number of ReadSharedReq miss cycles
system.l2cache.demand_miss_latency::cpu.inst     55905556                       # number of demand (read+write) miss cycles
system.l2cache.demand_miss_latency::cpu.data     29706830                       # number of demand (read+write) miss cycles
system.l2cache.demand_miss_latency::total     85612386                       # number of demand (read+write) miss cycles
system.l2cache.overall_miss_latency::cpu.inst     55905556                       # number of overall miss cycles
system.l2cache.overall_miss_latency::cpu.data     29706830                       # number of overall miss cycles
system.l2cache.overall_miss_latency::total     85612386                       # number of overall miss cycles
system.l2cache.WritebackDirty_accesses::writebacks         2013                       # number of WritebackDirty accesses(hits+misses)
system.l2cache.WritebackDirty_accesses::total         2013                       # number of WritebackDirty accesses(hits+misses)
system.l2cache.WritebackClean_accesses::writebacks          931                       # number of WritebackClean accesses(hits+misses)
system.l2cache.WritebackClean_accesses::total          931                       # number of WritebackClean accesses(hits+misses)
system.l2cache.ReadExReq_accesses::cpu.data         1621                       # number of ReadExReq accesses(hits+misses)
system.l2cache.ReadExReq_accesses::total         1621                       # number of ReadExReq accesses(hits+misses)
system.l2cache.ReadCleanReq_accesses::cpu.inst         1299                       # number of ReadCleanReq accesses(hits+misses)
system.l2cache.ReadCleanReq_accesses::total         1299                       # number of ReadCleanReq accesses(hits+misses)
system.l2cache.ReadSharedReq_accesses::cpu.data         1031                       # number of ReadSharedReq accesses(hits+misses)
system.l2cache.ReadSharedReq_accesses::total         1031                       # number of ReadSharedReq accesses(hits+misses)
system.l2cache.demand_accesses::cpu.inst         1299                       # number of demand (read+write) accesses
system.l2cache.demand_accesses::cpu.data         2652                       # number of demand (read+write) accesses
system.l2cache.demand_accesses::total            3951                       # number of demand (read+write) accesses
system.l2cache.overall_accesses::cpu.inst         1299                       # number of overall (read+write) accesses
system.l2cache.overall_accesses::cpu.data         2652                       # number of overall (read+write) accesses
system.l2cache.overall_accesses::total           3951                       # number of overall (read+write) accesses
system.l2cache.ReadExReq_miss_rate::cpu.data     0.279457                       # miss rate for ReadExReq accesses
system.l2cache.ReadExReq_miss_rate::total     0.279457                       # miss rate for ReadExReq accesses
system.l2cache.ReadCleanReq_miss_rate::cpu.inst     0.662048                       # miss rate for ReadCleanReq accesses
system.l2cache.ReadCleanReq_miss_rate::total     0.662048                       # miss rate for ReadCleanReq accesses
system.l2cache.ReadSharedReq_miss_rate::cpu.data     0.072745                       # miss rate for ReadSharedReq accesses
system.l2cache.ReadSharedReq_miss_rate::total     0.072745                       # miss rate for ReadSharedReq accesses
system.l2cache.demand_miss_rate::cpu.inst     0.662048                       # miss rate for demand accesses
system.l2cache.demand_miss_rate::cpu.data     0.199095                       # miss rate for demand accesses
system.l2cache.demand_miss_rate::total       0.351303                       # miss rate for demand accesses
system.l2cache.overall_miss_rate::cpu.inst     0.662048                       # miss rate for overall accesses
system.l2cache.overall_miss_rate::cpu.data     0.199095                       # miss rate for overall accesses
system.l2cache.overall_miss_rate::total      0.351303                       # miss rate for overall accesses
system.l2cache.ReadExReq_avg_miss_latency::cpu.data 54973.302428                       # average ReadExReq miss latency
system.l2cache.ReadExReq_avg_miss_latency::total 54973.302428                       # average ReadExReq miss latency
system.l2cache.ReadCleanReq_avg_miss_latency::cpu.inst 65006.460465                       # average ReadCleanReq miss latency
system.l2cache.ReadCleanReq_avg_miss_latency::total 65006.460465                       # average ReadCleanReq miss latency
system.l2cache.ReadSharedReq_avg_miss_latency::cpu.data 64052.320000                       # average ReadSharedReq miss latency
system.l2cache.ReadSharedReq_avg_miss_latency::total 64052.320000                       # average ReadSharedReq miss latency
system.l2cache.demand_avg_miss_latency::cpu.inst 65006.460465                       # average overall miss latency
system.l2cache.demand_avg_miss_latency::cpu.data 56262.935606                       # average overall miss latency
system.l2cache.demand_avg_miss_latency::total 61680.393372                       # average overall miss latency
system.l2cache.overall_avg_miss_latency::cpu.inst 65006.460465                       # average overall miss latency
system.l2cache.overall_avg_miss_latency::cpu.data 56262.935606                       # average overall miss latency
system.l2cache.overall_avg_miss_latency::total 61680.393372                       # average overall miss latency
system.l2cache.blocked_cycles::no_mshrs             0                       # number of cycles access was blocked
system.l2cache.blocked_cycles::no_targets            0                       # number of cycles access was blocked
system.l2cache.blocked::no_mshrs                    0                       # number of cycles access was blocked
system.l2cache.blocked::no_targets                  0                       # number of cycles access was blocked
system.l2cache.avg_blocked_cycles::no_mshrs          nan                       # average number of cycles each access was blocked
system.l2cache.avg_blocked_cycles::no_targets          nan                       # average number of cycles each access was blocked
system.l2cache.ReadExReq_mshr_hits::cpu.data          129                       # number of ReadExReq MSHR hits
system.l2cache.ReadExReq_mshr_hits::total          129                       # number of ReadExReq MSHR hits
system.l2cache.demand_mshr_hits::cpu.data          129                       # number of demand (read+write) MSHR hits
system.l2cache.demand_mshr_hits::total            129                       # number of demand (read+write) MSHR hits
system.l2cache.overall_mshr_hits::cpu.data          129                       # number of overall MSHR hits
system.l2cache.overall_mshr_hits::total           129                       # number of overall MSHR hits
system.l2cache.HardPFReq_mshr_misses::l2cache.prefetcher          556                       # number of HardPFReq MSHR misses
system.l2cache.HardPFReq_mshr_misses::total          556                       # number of HardPFReq MSHR misses
system.l2cache.ReadExReq_mshr_misses::cpu.data          324                       # number of ReadExReq MSHR misses
system.l2cache.ReadExReq_mshr_misses::total          324                       # number of ReadExReq MSHR misses
system.l2cache.ReadCleanReq_mshr_misses::cpu.inst          860                       # number of ReadCleanReq MSHR misses
system.l2cache.ReadCleanReq_mshr_misses::total          860                       # number of ReadCleanReq MSHR misses
system.l2cache.ReadSharedReq_mshr_misses::cpu.data           75                       # number of ReadSharedReq MSHR misses
system.l2cache.ReadSharedReq_mshr_misses::total           75                       # number of ReadSharedReq MSHR misses
system.l2cache.demand_mshr_misses::cpu.inst          860                       # number of demand (read+write) MSHR misses
system.l2cache.demand_mshr_misses::cpu.data          399                       # number of demand (read+write) MSHR misses
system.l2cache.demand_mshr_misses::total         1259                       # number of demand (read+write) MSHR misses
system.l2cache.overall_mshr_misses::cpu.inst          860                       # number of overall MSHR misses
system.l2cache.overall_mshr_misses::cpu.data          399                       # number of overall MSHR misses
system.l2cache.overall_mshr_misses::l2cache.prefetcher          556                       # number of overall MSHR misses
system.l2cache.overall_mshr_misses::total         1815                       # number of overall MSHR misses
system.l2cache.HardPFReq_mshr_miss_latency::l2cache.prefetcher     16231241                       # number of HardPFReq MSHR miss cycles
system.l2cache.HardPFReq_mshr_miss_latency::total     16231241                       # number of HardPFReq MSHR miss cycles
system.l2cache.ReadExReq_mshr_miss_latency::cpu.data     20196638                       # number of ReadExReq MSHR miss cycles
system.l2cache.ReadExReq_mshr_miss_latency::total     20196638                       # number of ReadExReq MSHR miss cycles
system.l2cache.ReadCleanReq_mshr_miss_latency::cpu.inst     53482936                       # number of ReadCleanReq MSHR miss cycles
system.l2cache.ReadCleanReq_mshr_miss_latency::total     53482936                       # number of ReadCleanReq MSHR miss cycles
system.l2cache.ReadSharedReq_mshr_miss_latency::cpu.data      4592649                       # number of ReadSharedReq MSHR miss cycles
system.l2cache.ReadSharedReq_mshr_miss_latency::total      4592649                       # number of ReadSharedReq MSHR miss cycles
system.l2cache.demand_mshr_miss_latency::cpu.inst     53482936                       # number of demand (read+write) MSHR miss cycles
system.l2cache.demand_mshr_miss_latency::cpu.data     24789287                       # number of demand (read+write) MSHR miss cycles
system.l2cache.demand_mshr_miss_latency::total     78272223                       # number of demand (read+write) MSHR miss cycles
system.l2cache.overall_mshr_miss_latency::cpu.inst     53482936                       # number of overall MSHR miss cycles
system.l2cache.overall_mshr_miss_latency::cpu.data     24789287                       # number of overall MSHR miss cycles
system.l2cache.overall_mshr_miss_latency::l2cache.prefetcher     16231241                       # number of overall MSHR miss cycles
system.l2cache.overall_mshr_miss_latency::total     94503464                       # number of overall MSHR miss cycles
system.l2cache.HardPFReq_mshr_miss_rate::l2cache.prefetcher          inf                       # mshr miss rate for HardPFReq accesses
system.l2cache.HardPFReq_mshr_miss_rate::total          inf                       # mshr miss rate for HardPFReq accesses
system.l2cache.ReadExReq_mshr_miss_rate::cpu.data     0.199877                       # mshr miss rate for ReadExReq accesses
system.l2cache.ReadExReq_mshr_miss_rate::total     0.199877                       # mshr miss rate for ReadExReq accesses
system.l2cache.ReadCleanReq_mshr_miss_rate::cpu.inst     0.662048                       # mshr miss rate for ReadCleanReq accesses
system.l2cache.ReadCleanReq_mshr_miss_rate::total     0.662048                       # mshr miss rate for ReadCleanReq accesses
system.l2cache.ReadSharedReq_mshr_miss_rate::cpu.data     0.072745                       # mshr miss rate for ReadSharedReq accesses
system.l2cache.ReadSharedReq_mshr_miss_rate::total     0.072745                       # mshr miss rate for ReadSharedReq accesses
system.l2cache.demand_mshr_miss_rate::cpu.inst     0.662048                       # mshr miss rate for demand accesses
system.l2cache.demand_mshr_miss_rate::cpu.data     0.150452                       # mshr miss rate for demand accesses
system.l2cache.demand_mshr_miss_rate::total     0.318654                       # mshr miss rate for demand accesses
system.l2cache.overall_mshr_miss_rate::cpu.inst     0.662048                       # mshr miss rate for overall accesses
system.l2cache.overall_mshr_miss_rate::cpu.data     0.150452                       # mshr miss rate for overall accesses
system.l2cache.overall_mshr_miss_rate::l2cache.prefetcher          inf                       # mshr miss rate for overall accesses
system.l2cache.overall_mshr_miss_rate::total     0.459377                       # mshr miss rate for overall accesses
system.l2cache.HardPFReq_avg_mshr_miss_latency::l2cache.prefetcher 29192.879496                       # average HardPFReq mshr miss latency
system.l2cache.HardPFReq_avg_mshr_miss_latency::total 29192.879496                       # average HardPFReq mshr miss latency
system.l2cache.ReadExReq_avg_mshr_miss_latency::cpu.data 62335.302469                       # average ReadExReq mshr miss latency
system.l2cache.ReadExReq_avg_mshr_miss_latency::total 62335.302469                       # average ReadExReq mshr miss latency
system.l2cache.ReadCleanReq_avg_mshr_miss_latency::cpu.inst 62189.460465                       # average ReadCleanReq mshr miss latency
system.l2cache.ReadCleanReq_avg_mshr_miss_latency::total 62189.460465                       # average ReadCleanReq mshr miss latency
system.l2cache.ReadSharedReq_avg_mshr_miss_latency::cpu.data 61235.320000                       # average ReadSharedReq mshr miss latency
system.l2cache.ReadSharedReq_avg_mshr_miss_latency::total 61235.320000                       # average ReadSharedReq mshr miss latency
system.l2cache.demand_avg_mshr_miss_latency::cpu.inst 62189.460465                       # average overall mshr miss latency
system.l2cache.demand_avg_mshr_miss_latency::cpu.data 62128.538847                       # average overall mshr miss latency
system.l2cache.demand_avg_mshr_miss_latency::total 62170.153296                       # average overall mshr miss latency
system.l2cache.overall_avg_mshr_miss_latency::cpu.inst 62189.460465                       # average overall mshr miss latency
system.l2cache.overall_avg_mshr_miss_latency::cpu.data 62128.538847                       # average overall mshr miss latency
system.l2cache.overall_avg_mshr_miss_latency::l2cache.prefetcher 29192.879496                       # average overall mshr miss latency
system.l2cache.overall_avg_mshr_miss_latency::total 52068.024242                       # average overall mshr miss latency
system.membus.snoop_filter.tot_requests          1561                       # Total number of requests made to the snoop filter.
system.membus.snoop_filter.hit_single_requests            0                       # Number of requests hitting in the snoop filter with a single holder of the requested data.
system.membus.snoop_filter.hit_multi_requests            0                       # Number of requests hitting in the snoop filter with multiple (>1) holders of the requested data.
system.membus.snoop_filter.tot_snoops               0                       # Total number of snoops made to the snoop filter.
system.membus.snoop_filter.hit_single_snoops            0                       # Number of snoops hitting in the snoop filter with a single holder of the requested data.
system.membus.snoop_filter.hit_multi_snoops            0                       # Number of snoops hitting in the snoop filter with multiple (>1) holders of the requested data.
system.membus.pwrStateResidencyTicks::UNDEFINED   2975560479                       # Cumulative time (in ticks) in various power states
system.membus.trans_dist::ReadResp               1237                       # Transaction distribution
system.membus.trans_dist::ReadExReq               324                       # Transaction distribution
system.membus.trans_dist::ReadExResp              324                       # Transaction distribution
system.membus.trans_dist::ReadCleanReq           1237                       # Transaction distribution
system.membus.pkt_count_system.l2cache.mem_side::system.mem_ctrl.port         3122                       # Packet count per connected master and slave (bytes)
system.membus.pkt_count::total                   3122                       # Packet count per connected master and slave (bytes)
system.membus.pkt_size_system.l2cache.mem_side::system.mem_ctrl.port        99904                       # Cumulative packet size per connected master and slave (bytes)
system.membus.pkt_size::total                   99904                       # Cumulative packet size per connected master and slave (bytes)
system.membus.snoops                                0                       # Total snoops (count)
system.membus.snoopTraffic                          0                       # Total snoop traffic (bytes)
system.membus.snoop_fanout::samples              1561                       # Request fanout histogram
system.membus.snoop_fanout::mean                    0                       # Request fanout histogram
system.membus.snoop_fanout::stdev                   0                       # Request fanout histogram
system.membus.snoop_fanout::underflows              0      0.00%      0.00% # Request fanout histogram
system.membus.snoop_fanout::0                    1561    100.00%    100.00% # Request fanout histogram
system.membus.snoop_fanout::1                       0      0.00%    100.00% # Request fanout histogram
system.membus.snoop_fanout::overflows               0      0.00%    100.00% # Request fanout histogram
system.membus.snoop_fanout::min_value               0                       # Request fanout histogram
system.membus.snoop_fanout::max_value               0                       # Request fanout histogram
system.membus.snoop_fanout::total                1561                       # Request fanout histogram
system.membus.reqLayer0.occupancy              488593                       # Layer occupancy (ticks)
system.membus.reqLayer0.utilization               0.0                       # Layer utilization (%)
system.membus.respLayer0.occupancy            2475707                       # Layer occupancy (ticks)
system.membus.respLayer0.utilization              0.1                       # Layer utilization (%)

---------- End Simulation Statistics   ----------
