
---------- Begin Simulation Statistics ----------
sim_seconds                                  0.003273                       # Number of seconds simulated
sim_ticks                                  3272734886                       # Number of ticks simulated
final_tick                                 3272734886                       # Number of ticks from beginning of simulation (restored from checkpoints and never reset)
sim_freq                                 1000000000000                       # Frequency of simulated ticks
host_inst_rate                                 839762                       # Simulator instruction rate (inst/s)
host_op_rate                                   839761                       # Simulator op (including micro ops) rate (op/s)
host_tick_rate                              216505022                       # Simulator tick rate (ticks/s)
host_mem_usage                                 634240                       # Number of bytes of host memory used
host_seconds                                    15.12                       # Real time elapsed on the host
sim_insts                                    12694000                       # Number of instructions simulated
sim_ops                                      12694000                       # Number of ops (including micro ops) simulated
system.clk_domain.voltage_domain.voltage            1                       # Voltage in Volts
system.clk_domain.clock                           313                       # Clock period in ticks
system.mem_ctrl.pwrStateResidencyTicks::UNDEFINED   3272734886                       # Cumulative time (in ticks) in various power states
system.mem_ctrl.bytes_read::cpu.inst            18176                       # Number of bytes read from this memory
system.mem_ctrl.bytes_read::cpu.data            12800                       # Number of bytes read from this memory
system.mem_ctrl.bytes_read::l2cache.prefetcher          768                       # Number of bytes read from this memory
system.mem_ctrl.bytes_read::total               31744                       # Number of bytes read from this memory
system.mem_ctrl.bytes_inst_read::cpu.inst        18176                       # Number of instructions bytes read from this memory
system.mem_ctrl.bytes_inst_read::total          18176                       # Number of instructions bytes read from this memory
system.mem_ctrl.num_reads::writebacks               0                       # Number of read requests responded to by this memory
system.mem_ctrl.num_reads::functional               0                       # Number of read requests responded to by this memory
system.mem_ctrl.num_reads::interrupt                0                       # Number of read requests responded to by this memory
system.mem_ctrl.num_reads::cpu.inst               284                       # Number of read requests responded to by this memory
system.mem_ctrl.num_reads::cpu.data               200                       # Number of read requests responded to by this memory
system.mem_ctrl.num_reads::l2cache.prefetcher           12                       # Number of read requests responded to by this memory
system.mem_ctrl.num_reads::total                  496                       # Number of read requests responded to by this memory
system.mem_ctrl.num_writes::writebacks              0                       # Number of write requests responded to by this memory
system.mem_ctrl.num_writes::functional              0                       # Number of write requests responded to by this memory
system.mem_ctrl.num_writes::interrupt               0                       # Number of write requests responded to by this memory
system.mem_ctrl.num_writes::cpu.inst                0                       # Number of write requests responded to by this memory
system.mem_ctrl.num_writes::cpu.data                0                       # Number of write requests responded to by this memory
system.mem_ctrl.num_writes::l2cache.prefetcher            0                       # Number of write requests responded to by this memory
system.mem_ctrl.num_writes::total                   0                       # Number of write requests responded to by this memory
system.mem_ctrl.bw_read::cpu.inst             5553765                       # Total read bandwidth from this memory (bytes/s)
system.mem_ctrl.bw_read::cpu.data             3911102                       # Total read bandwidth from this memory (bytes/s)
system.mem_ctrl.bw_read::l2cache.prefetcher       234666                       # Total read bandwidth from this memory (bytes/s)
system.mem_ctrl.bw_read::total                9699533                       # Total read bandwidth from this memory (bytes/s)
system.mem_ctrl.bw_inst_read::cpu.inst        5553765                       # Instruction read bandwidth from this memory (bytes/s)
system.mem_ctrl.bw_inst_read::total           5553765                       # Instruction read bandwidth from this memory (bytes/s)
system.mem_ctrl.bw_total::cpu.inst            5553765                       # Total bandwidth to/from this memory (bytes/s)
system.mem_ctrl.bw_total::cpu.data            3911102                       # Total bandwidth to/from this memory (bytes/s)
system.mem_ctrl.bw_total::l2cache.prefetcher       234666                       # Total bandwidth to/from this memory (bytes/s)
system.mem_ctrl.bw_total::total               9699533                       # Total bandwidth to/from this memory (bytes/s)
system.mem_ctrl.readReqs                          496                       # Number of read requests accepted
system.mem_ctrl.writeReqs                           0                       # Number of write requests accepted
system.mem_ctrl.readBursts                        496                       # Number of DRAM read bursts, including those serviced by the write queue
system.mem_ctrl.writeBursts                         0                       # Number of DRAM write bursts, including those merged in the write queue
system.mem_ctrl.bytesReadDRAM                   31744                       # Total number of bytes read from DRAM
system.mem_ctrl.bytesReadWrQ                        0                       # Total number of bytes read from write queue
system.mem_ctrl.bytesWritten                        0                       # Total number of bytes written to DRAM
system.mem_ctrl.bytesReadSys                    31744                       # Total read bytes from the system interface side
system.mem_ctrl.bytesWrittenSys                     0                       # Total written bytes from the system interface side
system.mem_ctrl.servicedByWrQ                       0                       # Number of DRAM read bursts serviced by the write queue
system.mem_ctrl.mergedWrBursts                      0                       # Number of DRAM write bursts merged with an existing one
system.mem_ctrl.neitherReadNorWriteReqs             0                       # Number of requests that are neither read nor write
system.mem_ctrl.perBankRdBursts::0                100                       # Per bank write bursts
system.mem_ctrl.perBankRdBursts::1                 93                       # Per bank write bursts
system.mem_ctrl.perBankRdBursts::2                 37                       # Per bank write bursts
system.mem_ctrl.perBankRdBursts::3                  6                       # Per bank write bursts
system.mem_ctrl.perBankRdBursts::4                  8                       # Per bank write bursts
system.mem_ctrl.perBankRdBursts::5                 22                       # Per bank write bursts
system.mem_ctrl.perBankRdBursts::6                 18                       # Per bank write bursts
system.mem_ctrl.perBankRdBursts::7                  9                       # Per bank write bursts
system.mem_ctrl.perBankRdBursts::8                 25                       # Per bank write bursts
system.mem_ctrl.perBankRdBursts::9                 94                       # Per bank write bursts
system.mem_ctrl.perBankRdBursts::10                84                       # Per bank write bursts
system.mem_ctrl.perBankRdBursts::11                 0                       # Per bank write bursts
system.mem_ctrl.perBankRdBursts::12                 0                       # Per bank write bursts
system.mem_ctrl.perBankRdBursts::13                 0                       # Per bank write bursts
system.mem_ctrl.perBankRdBursts::14                 0                       # Per bank write bursts
system.mem_ctrl.perBankRdBursts::15                 0                       # Per bank write bursts
system.mem_ctrl.perBankWrBursts::0                  0                       # Per bank write bursts
system.mem_ctrl.perBankWrBursts::1                  0                       # Per bank write bursts
system.mem_ctrl.perBankWrBursts::2                  0                       # Per bank write bursts
system.mem_ctrl.perBankWrBursts::3                  0                       # Per bank write bursts
system.mem_ctrl.perBankWrBursts::4                  0                       # Per bank write bursts
system.mem_ctrl.perBankWrBursts::5                  0                       # Per bank write bursts
system.mem_ctrl.perBankWrBursts::6                  0                       # Per bank write bursts
system.mem_ctrl.perBankWrBursts::7                  0                       # Per bank write bursts
system.mem_ctrl.perBankWrBursts::8                  0                       # Per bank write bursts
system.mem_ctrl.perBankWrBursts::9                  0                       # Per bank write bursts
system.mem_ctrl.perBankWrBursts::10                 0                       # Per bank write bursts
system.mem_ctrl.perBankWrBursts::11                 0                       # Per bank write bursts
system.mem_ctrl.perBankWrBursts::12                 0                       # Per bank write bursts
system.mem_ctrl.perBankWrBursts::13                 0                       # Per bank write bursts
system.mem_ctrl.perBankWrBursts::14                 0                       # Per bank write bursts
system.mem_ctrl.perBankWrBursts::15                 0                       # Per bank write bursts
system.mem_ctrl.numRdRetry                          0                       # Number of times read queue was full causing retry
system.mem_ctrl.numWrRetry                          0                       # Number of times write queue was full causing retry
system.mem_ctrl.totGap                     3272546773                       # Total gap between requests
system.mem_ctrl.readPktSize::0                      0                       # Read request sizes (log2)
system.mem_ctrl.readPktSize::1                      0                       # Read request sizes (log2)
system.mem_ctrl.readPktSize::2                      0                       # Read request sizes (log2)
system.mem_ctrl.readPktSize::3                      0                       # Read request sizes (log2)
system.mem_ctrl.readPktSize::4                      0                       # Read request sizes (log2)
system.mem_ctrl.readPktSize::5                      0                       # Read request sizes (log2)
system.mem_ctrl.readPktSize::6                    496                       # Read request sizes (log2)
system.mem_ctrl.writePktSize::0                     0                       # Write request sizes (log2)
system.mem_ctrl.writePktSize::1                     0                       # Write request sizes (log2)
system.mem_ctrl.writePktSize::2                     0                       # Write request sizes (log2)
system.mem_ctrl.writePktSize::3                     0                       # Write request sizes (log2)
system.mem_ctrl.writePktSize::4                     0                       # Write request sizes (log2)
system.mem_ctrl.writePktSize::5                     0                       # Write request sizes (log2)
system.mem_ctrl.writePktSize::6                     0                       # Write request sizes (log2)
system.mem_ctrl.rdQLenPdf::0                      439                       # What read queue length does an incoming req see
system.mem_ctrl.rdQLenPdf::1                       54                       # What read queue length does an incoming req see
system.mem_ctrl.rdQLenPdf::2                        3                       # What read queue length does an incoming req see
system.mem_ctrl.rdQLenPdf::3                        0                       # What read queue length does an incoming req see
system.mem_ctrl.rdQLenPdf::4                        0                       # What read queue length does an incoming req see
system.mem_ctrl.rdQLenPdf::5                        0                       # What read queue length does an incoming req see
system.mem_ctrl.rdQLenPdf::6                        0                       # What read queue length does an incoming req see
system.mem_ctrl.rdQLenPdf::7                        0                       # What read queue length does an incoming req see
system.mem_ctrl.rdQLenPdf::8                        0                       # What read queue length does an incoming req see
system.mem_ctrl.rdQLenPdf::9                        0                       # What read queue length does an incoming req see
system.mem_ctrl.rdQLenPdf::10                       0                       # What read queue length does an incoming req see
system.mem_ctrl.rdQLenPdf::11                       0                       # What read queue length does an incoming req see
system.mem_ctrl.rdQLenPdf::12                       0                       # What read queue length does an incoming req see
system.mem_ctrl.rdQLenPdf::13                       0                       # What read queue length does an incoming req see
system.mem_ctrl.rdQLenPdf::14                       0                       # What read queue length does an incoming req see
system.mem_ctrl.rdQLenPdf::15                       0                       # What read queue length does an incoming req see
system.mem_ctrl.rdQLenPdf::16                       0                       # What read queue length does an incoming req see
system.mem_ctrl.rdQLenPdf::17                       0                       # What read queue length does an incoming req see
system.mem_ctrl.rdQLenPdf::18                       0                       # What read queue length does an incoming req see
system.mem_ctrl.rdQLenPdf::19                       0                       # What read queue length does an incoming req see
system.mem_ctrl.rdQLenPdf::20                       0                       # What read queue length does an incoming req see
system.mem_ctrl.rdQLenPdf::21                       0                       # What read queue length does an incoming req see
system.mem_ctrl.rdQLenPdf::22                       0                       # What read queue length does an incoming req see
system.mem_ctrl.rdQLenPdf::23                       0                       # What read queue length does an incoming req see
system.mem_ctrl.rdQLenPdf::24                       0                       # What read queue length does an incoming req see
system.mem_ctrl.rdQLenPdf::25                       0                       # What read queue length does an incoming req see
system.mem_ctrl.rdQLenPdf::26                       0                       # What read queue length does an incoming req see
system.mem_ctrl.rdQLenPdf::27                       0                       # What read queue length does an incoming req see
system.mem_ctrl.rdQLenPdf::28                       0                       # What read queue length does an incoming req see
system.mem_ctrl.rdQLenPdf::29                       0                       # What read queue length does an incoming req see
system.mem_ctrl.rdQLenPdf::30                       0                       # What read queue length does an incoming req see
system.mem_ctrl.rdQLenPdf::31                       0                       # What read queue length does an incoming req see
system.mem_ctrl.wrQLenPdf::0                        0                       # What write queue length does an incoming req see
system.mem_ctrl.wrQLenPdf::1                        0                       # What write queue length does an incoming req see
system.mem_ctrl.wrQLenPdf::2                        0                       # What write queue length does an incoming req see
system.mem_ctrl.wrQLenPdf::3                        0                       # What write queue length does an incoming req see
system.mem_ctrl.wrQLenPdf::4                        0                       # What write queue length does an incoming req see
system.mem_ctrl.wrQLenPdf::5                        0                       # What write queue length does an incoming req see
system.mem_ctrl.wrQLenPdf::6                        0                       # What write queue length does an incoming req see
system.mem_ctrl.wrQLenPdf::7                        0                       # What write queue length does an incoming req see
system.mem_ctrl.wrQLenPdf::8                        0                       # What write queue length does an incoming req see
system.mem_ctrl.wrQLenPdf::9                        0                       # What write queue length does an incoming req see
system.mem_ctrl.wrQLenPdf::10                       0                       # What write queue length does an incoming req see
system.mem_ctrl.wrQLenPdf::11                       0                       # What write queue length does an incoming req see
system.mem_ctrl.wrQLenPdf::12                       0                       # What write queue length does an incoming req see
system.mem_ctrl.wrQLenPdf::13                       0                       # What write queue length does an incoming req see
system.mem_ctrl.wrQLenPdf::14                       0                       # What write queue length does an incoming req see
system.mem_ctrl.wrQLenPdf::15                       0                       # What write queue length does an incoming req see
system.mem_ctrl.wrQLenPdf::16                       0                       # What write queue length does an incoming req see
system.mem_ctrl.wrQLenPdf::17                       0                       # What write queue length does an incoming req see
system.mem_ctrl.wrQLenPdf::18                       0                       # What write queue length does an incoming req see
system.mem_ctrl.wrQLenPdf::19                       0                       # What write queue length does an incoming req see
system.mem_ctrl.wrQLenPdf::20                       0                       # What write queue length does an incoming req see
system.mem_ctrl.wrQLenPdf::21                       0                       # What write queue length does an incoming req see
system.mem_ctrl.wrQLenPdf::22                       0                       # What write queue length does an incoming req see
system.mem_ctrl.wrQLenPdf::23                       0                       # What write queue length does an incoming req see
system.mem_ctrl.wrQLenPdf::24                       0                       # What write queue length does an incoming req see
system.mem_ctrl.wrQLenPdf::25                       0                       # What write queue length does an incoming req see
system.mem_ctrl.wrQLenPdf::26                       0                       # What write queue length does an incoming req see
system.mem_ctrl.wrQLenPdf::27                       0                       # What write queue length does an incoming req see
system.mem_ctrl.wrQLenPdf::28                       0                       # What write queue length does an incoming req see
system.mem_ctrl.wrQLenPdf::29                       0                       # What write queue length does an incoming req see
system.mem_ctrl.wrQLenPdf::30                       0                       # What write queue length does an incoming req see
system.mem_ctrl.wrQLenPdf::31                       0                       # What write queue length does an incoming req see
system.mem_ctrl.wrQLenPdf::32                       0                       # What write queue length does an incoming req see
system.mem_ctrl.wrQLenPdf::33                       0                       # What write queue length does an incoming req see
system.mem_ctrl.wrQLenPdf::34                       0                       # What write queue length does an incoming req see
system.mem_ctrl.wrQLenPdf::35                       0                       # What write queue length does an incoming req see
system.mem_ctrl.wrQLenPdf::36                       0                       # What write queue length does an incoming req see
system.mem_ctrl.wrQLenPdf::37                       0                       # What write queue length does an incoming req see
system.mem_ctrl.wrQLenPdf::38                       0                       # What write queue length does an incoming req see
system.mem_ctrl.wrQLenPdf::39                       0                       # What write queue length does an incoming req see
system.mem_ctrl.wrQLenPdf::40                       0                       # What write queue length does an incoming req see
system.mem_ctrl.wrQLenPdf::41                       0                       # What write queue length does an incoming req see
system.mem_ctrl.wrQLenPdf::42                       0                       # What write queue length does an incoming req see
system.mem_ctrl.wrQLenPdf::43                       0                       # What write queue length does an incoming req see
system.mem_ctrl.wrQLenPdf::44                       0                       # What write queue length does an incoming req see
system.mem_ctrl.wrQLenPdf::45                       0                       # What write queue length does an incoming req see
system.mem_ctrl.wrQLenPdf::46                       0                       # What write queue length does an incoming req see
system.mem_ctrl.wrQLenPdf::47                       0                       # What write queue length does an incoming req see
system.mem_ctrl.wrQLenPdf::48                       0                       # What write queue length does an incoming req see
system.mem_ctrl.wrQLenPdf::49                       0                       # What write queue length does an incoming req see
system.mem_ctrl.wrQLenPdf::50                       0                       # What write queue length does an incoming req see
system.mem_ctrl.wrQLenPdf::51                       0                       # What write queue length does an incoming req see
system.mem_ctrl.wrQLenPdf::52                       0                       # What write queue length does an incoming req see
system.mem_ctrl.wrQLenPdf::53                       0                       # What write queue length does an incoming req see
system.mem_ctrl.wrQLenPdf::54                       0                       # What write queue length does an incoming req see
system.mem_ctrl.wrQLenPdf::55                       0                       # What write queue length does an incoming req see
system.mem_ctrl.wrQLenPdf::56                       0                       # What write queue length does an incoming req see
system.mem_ctrl.wrQLenPdf::57                       0                       # What write queue length does an incoming req see
system.mem_ctrl.wrQLenPdf::58                       0                       # What write queue length does an incoming req see
system.mem_ctrl.wrQLenPdf::59                       0                       # What write queue length does an incoming req see
system.mem_ctrl.wrQLenPdf::60                       0                       # What write queue length does an incoming req see
system.mem_ctrl.wrQLenPdf::61                       0                       # What write queue length does an incoming req see
system.mem_ctrl.wrQLenPdf::62                       0                       # What write queue length does an incoming req see
system.mem_ctrl.wrQLenPdf::63                       0                       # What write queue length does an incoming req see
system.mem_ctrl.bytesPerActivate::samples           48                       # Bytes accessed per row activation
system.mem_ctrl.bytesPerActivate::mean     625.333333                       # Bytes accessed per row activation
system.mem_ctrl.bytesPerActivate::gmean    454.975179                       # Bytes accessed per row activation
system.mem_ctrl.bytesPerActivate::stdev    389.686035                       # Bytes accessed per row activation
system.mem_ctrl.bytesPerActivate::0-127             5     10.42%     10.42% # Bytes accessed per row activation
system.mem_ctrl.bytesPerActivate::128-255            6     12.50%     22.92% # Bytes accessed per row activation
system.mem_ctrl.bytesPerActivate::256-383            7     14.58%     37.50% # Bytes accessed per row activation
system.mem_ctrl.bytesPerActivate::384-511            3      6.25%     43.75% # Bytes accessed per row activation
system.mem_ctrl.bytesPerActivate::512-639            2      4.17%     47.92% # Bytes accessed per row activation
system.mem_ctrl.bytesPerActivate::640-767            3      6.25%     54.17% # Bytes accessed per row activation
system.mem_ctrl.bytesPerActivate::896-1023            2      4.17%     58.33% # Bytes accessed per row activation
system.mem_ctrl.bytesPerActivate::1024-1151           20     41.67%    100.00% # Bytes accessed per row activation
system.mem_ctrl.bytesPerActivate::total            48                       # Bytes accessed per row activation
system.mem_ctrl.totQLat                       5485457                       # Total ticks spent queuing
system.mem_ctrl.totMemAccLat                 14785457                       # Total ticks spent from burst creation until serviced by the DRAM
system.mem_ctrl.totBusLat                     2480000                       # Total ticks spent in databus transfers
system.mem_ctrl.avgQLat                      11059.39                       # Average queueing delay per DRAM burst
system.mem_ctrl.avgBusLat                     5000.00                       # Average bus latency per DRAM burst
system.mem_ctrl.avgMemAccLat                 29809.39                       # Average memory access latency per DRAM burst
system.mem_ctrl.avgRdBW                          9.70                       # Average DRAM read bandwidth in MiByte/s
system.mem_ctrl.avgWrBW                          0.00                       # Average achieved write bandwidth in MiByte/s
system.mem_ctrl.avgRdBWSys                       9.70                       # Average system read bandwidth in MiByte/s
system.mem_ctrl.avgWrBWSys                       0.00                       # Average system write bandwidth in MiByte/s
system.mem_ctrl.peakBW                       12800.00                       # Theoretical peak bandwidth in MiByte/s
system.mem_ctrl.busUtil                          0.08                       # Data bus utilization in percentage
system.mem_ctrl.busUtilRead                      0.08                       # Data bus utilization in percentage for reads
system.mem_ctrl.busUtilWrite                     0.00                       # Data bus utilization in percentage for writes
system.mem_ctrl.avgRdQLen                        1.00                       # Average read queue length when enqueuing
system.mem_ctrl.avgWrQLen                        0.00                       # Average write queue length when enqueuing
system.mem_ctrl.readRowHits                       441                       # Number of row buffer hits during reads
system.mem_ctrl.writeRowHits                        0                       # Number of row buffer hits during writes
system.mem_ctrl.readRowHitRate                  88.91                       # Row buffer hit rate for reads
system.mem_ctrl.writeRowHitRate                   nan                       # Row buffer hit rate for writes
system.mem_ctrl.avgGap                     6597876.56                       # Average gap between requests
system.mem_ctrl.pageHitRate                     88.91                       # Row buffer hit rate, read and write combined
system.mem_ctrl_0.actEnergy                    235620                       # Energy for activate commands per rank (pJ)
system.mem_ctrl_0.preEnergy                    106260                       # Energy for precharge commands per rank (pJ)
system.mem_ctrl_0.readEnergy                  2092020                       # Energy for read commands per rank (pJ)
system.mem_ctrl_0.writeEnergy                       0                       # Energy for write commands per rank (pJ)
system.mem_ctrl_0.refreshEnergy          3687840.000000                       # Energy for refresh commands per rank (pJ)
system.mem_ctrl_0.actBackEnergy               4292670                       # Energy for active background per rank (pJ)
system.mem_ctrl_0.preBackEnergy                176640                       # Energy for precharge background per rank (pJ)
system.mem_ctrl_0.actPowerDownEnergy         10769580                       # Energy for active power-down per rank (pJ)
system.mem_ctrl_0.prePowerDownEnergy          4301760                       # Energy for precharge power-down per rank (pJ)
system.mem_ctrl_0.selfRefreshEnergy         775282140                       # Energy for self refresh per rank (pJ)
system.mem_ctrl_0.totalEnergy               800944530                       # Total energy per rank (pJ)
system.mem_ctrl_0.averagePower             244.732482                       # Core power per rank (mW)
system.mem_ctrl_0.totalIdleTime            3262502866                       # Total Idle time Per DRAM Rank
system.mem_ctrl_0.memoryStateTime::IDLE        300260                       # Time in different power states
system.mem_ctrl_0.memoryStateTime::REF        1566000                       # Time in different power states
system.mem_ctrl_0.memoryStateTime::SREF    3228041105                       # Time in different power states
system.mem_ctrl_0.memoryStateTime::PRE_PDN     11202016                       # Time in different power states
system.mem_ctrl_0.memoryStateTime::ACT        8004268                       # Time in different power states
system.mem_ctrl_0.memoryStateTime::ACT_PDN     23621237                       # Time in different power states
system.mem_ctrl_1.actEnergy                    157080                       # Energy for activate commands per rank (pJ)
system.mem_ctrl_1.preEnergy                     75900                       # Energy for precharge commands per rank (pJ)
system.mem_ctrl_1.readEnergy                  1449420                       # Energy for read commands per rank (pJ)
system.mem_ctrl_1.writeEnergy                       0                       # Energy for write commands per rank (pJ)
system.mem_ctrl_1.refreshEnergy          3687840.000000                       # Energy for refresh commands per rank (pJ)
system.mem_ctrl_1.actBackEnergy               3085980                       # Energy for active background per rank (pJ)
system.mem_ctrl_1.preBackEnergy                218880                       # Energy for precharge background per rank (pJ)
system.mem_ctrl_1.actPowerDownEnergy         12207120                       # Energy for active power-down per rank (pJ)
system.mem_ctrl_1.prePowerDownEnergy          3201600                       # Energy for precharge power-down per rank (pJ)
system.mem_ctrl_1.selfRefreshEnergy         775821840                       # Energy for self refresh per rank (pJ)
system.mem_ctrl_1.totalEnergy               799905660                       # Total energy per rank (pJ)
system.mem_ctrl_1.averagePower             244.415050                       # Core power per rank (mW)
system.mem_ctrl_1.totalIdleTime            3265239375                       # Total Idle time Per DRAM Rank
system.mem_ctrl_1.memoryStateTime::IDLE        382945                       # Time in different power states
system.mem_ctrl_1.memoryStateTime::REF        1566000                       # Time in different power states
system.mem_ctrl_1.memoryStateTime::SREF    3230289071                       # Time in different power states
system.mem_ctrl_1.memoryStateTime::PRE_PDN      8337301                       # Time in different power states
system.mem_ctrl_1.memoryStateTime::ACT        5389463                       # Time in different power states
system.mem_ctrl_1.memoryStateTime::ACT_PDN     26770106                       # Time in different power states
system.pwrStateResidencyTicks::UNDEFINED   3272734886                       # Cumulative time (in ticks) in various power states
system.cpu.branchPred.lookups                  710568                       # Number of BP lookups
system.cpu.branchPred.condPredicted            647551                       # Number of conditional branches predicted
system.cpu.branchPred.condIncorrect             25822                       # Number of conditional branches incorrect
system.cpu.branchPred.BTBLookups               660275                       # Number of BTB lookups
system.cpu.branchPred.BTBHits                  640767                       # Number of BTB hits
system.cpu.branchPred.BTBCorrect                    0                       # Number of correct BTB predictions (this stat may not work properly.
system.cpu.branchPred.BTBHitPct             97.045473                       # BTB Hit Percentage
system.cpu.branchPred.usedRAS                       0                       # Number of times the RAS was used to get a target.
system.cpu.branchPred.RASInCorrect                  0                       # Number of incorrect RAS predictions.
system.cpu.branchPred.indirectLookups           17376                       # Number of indirect predictor lookups.
system.cpu.branchPred.indirectHits              16905                       # Number of indirect target hits.
system.cpu.branchPred.indirectMisses              471                       # Number of indirect misses.
system.cpu.branchPredindirectMispredicted          543                       # Number of mispredicted indirect branches.
system.cpu.dtb.read_hits                            0                       # DTB read hits
system.cpu.dtb.read_misses                          0                       # DTB read misses
system.cpu.dtb.read_accesses                        0                       # DTB read accesses
system.cpu.dtb.write_hits                           0                       # DTB write hits
system.cpu.dtb.write_misses                         0                       # DTB write misses
system.cpu.dtb.write_accesses                       0                       # DTB write accesses
system.cpu.dtb.hits                                 0                       # DTB hits
system.cpu.dtb.misses                               0                       # DTB misses
system.cpu.dtb.accesses                             0                       # DTB accesses
system.cpu.itb.read_hits                            0                       # DTB read hits
system.cpu.itb.read_misses                          0                       # DTB read misses
system.cpu.itb.read_accesses                        0                       # DTB read accesses
system.cpu.itb.write_hits                           0                       # DTB write hits
system.cpu.itb.write_misses                         0                       # DTB write misses
system.cpu.itb.write_accesses                       0                       # DTB write accesses
system.cpu.itb.hits                                 0                       # DTB hits
system.cpu.itb.misses                               0                       # DTB misses
system.cpu.itb.accesses                             0                       # DTB accesses
system.cpu.workload.numSyscalls                   319                       # Number of system calls
system.cpu.pwrStateResidencyTicks::ON      3272734886                       # Cumulative time (in ticks) in various power states
system.cpu.numCycles                         10456022                       # number of cpu cycles simulated
system.cpu.numWorkItemsStarted                      0                       # number of work items this cpu started
system.cpu.numWorkItemsCompleted                    0                       # number of work items this cpu completed
system.cpu.committedInsts                    12694000                       # Number of instructions committed
system.cpu.committedOps                      12694000                       # Number of ops (including micro ops) committed
system.cpu.discardedOps                         17387                       # Number of ops (including micro ops) which were discarded before commit
system.cpu.numFetchSuspends                         0                       # Number of times Execute suspended instruction fetching
system.cpu.cpi                               0.823698                       # CPI: cycles per instruction
system.cpu.ipc                               1.214037                       # IPC: instructions per cycle
system.cpu.op_class_0::No_OpClass                 319      0.00%      0.00% # Class of committed instruction
system.cpu.op_class_0::IntAdd                       0      0.00%      0.00% # Class of committed instruction
system.cpu.op_class_0::IntSub                       0      0.00%      0.00% # Class of committed instruction
system.cpu.op_class_0::IntMult                     47      0.00%      0.00% # Class of committed instruction
system.cpu.op_class_0::IntDiv                       3      0.00%      0.00% # Class of committed instruction
system.cpu.op_class_0::IntLogic                     0      0.00%      0.00% # Class of committed instruction
system.cpu.op_class_0::IntShift                     0      0.00%      0.00% # Class of committed instruction
system.cpu.op_class_0::IntMov                       0      0.00%      0.00% # Class of committed instruction
system.cpu.op_class_0::IntCtrl                      0      0.00%      0.00% # Class of committed instruction
system.cpu.op_class_0::IntALU                10575784     83.31%     83.32% # Class of committed instruction
system.cpu.op_class_0::FloatAdd                     0      0.00%     83.32% # Class of committed instruction
system.cpu.op_class_0::FloatCmp                     0      0.00%     83.32% # Class of committed instruction
system.cpu.op_class_0::FloatCvt                     0      0.00%     83.32% # Class of committed instruction
system.cpu.op_class_0::FloatMult                    0      0.00%     83.32% # Class of committed instruction
system.cpu.op_class_0::FloatMultAcc                 0      0.00%     83.32% # Class of committed instruction
system.cpu.op_class_0::FloatDiv                     0      0.00%     83.32% # Class of committed instruction
system.cpu.op_class_0::FloatMisc                    0      0.00%     83.32% # Class of committed instruction
system.cpu.op_class_0::FloatSqrt                    0      0.00%     83.32% # Class of committed instruction
system.cpu.op_class_0::SimdAdd                      0      0.00%     83.32% # Class of committed instruction
system.cpu.op_class_0::SimdAddAcc                   0      0.00%     83.32% # Class of committed instruction
system.cpu.op_class_0::SimdAlu                      0      0.00%     83.32% # Class of committed instruction
system.cpu.op_class_0::SimdCmp                      0      0.00%     83.32% # Class of committed instruction
system.cpu.op_class_0::SimdCvt                      0      0.00%     83.32% # Class of committed instruction
system.cpu.op_class_0::SimdMisc                     0      0.00%     83.32% # Class of committed instruction
system.cpu.op_class_0::SimdMult                     0      0.00%     83.32% # Class of committed instruction
system.cpu.op_class_0::SimdMultAcc                  0      0.00%     83.32% # Class of committed instruction
system.cpu.op_class_0::SimdShift                    0      0.00%     83.32% # Class of committed instruction
system.cpu.op_class_0::SimdShiftAcc                 0      0.00%     83.32% # Class of committed instruction
system.cpu.op_class_0::SimdSqrt                     0      0.00%     83.32% # Class of committed instruction
system.cpu.op_class_0::SimdFloatAdd                 0      0.00%     83.32% # Class of committed instruction
system.cpu.op_class_0::SimdFloatAlu                 0      0.00%     83.32% # Class of committed instruction
system.cpu.op_class_0::SimdFloatCmp                 0      0.00%     83.32% # Class of committed instruction
system.cpu.op_class_0::SimdFloatCvt                 0      0.00%     83.32% # Class of committed instruction
system.cpu.op_class_0::SimdFloatDiv                 0      0.00%     83.32% # Class of committed instruction
system.cpu.op_class_0::SimdFloatMisc                0      0.00%     83.32% # Class of committed instruction
system.cpu.op_class_0::SimdFloatMult                0      0.00%     83.32% # Class of committed instruction
system.cpu.op_class_0::SimdFloatMultAcc             0      0.00%     83.32% # Class of committed instruction
system.cpu.op_class_0::SimdFloatSqrt                0      0.00%     83.32% # Class of committed instruction
system.cpu.op_class_0::MemRead                1438219     11.33%     94.65% # Class of committed instruction
system.cpu.op_class_0::MemWrite                679628      5.35%    100.00% # Class of committed instruction
system.cpu.op_class_0::FloatMemRead                 0      0.00%    100.00% # Class of committed instruction
system.cpu.op_class_0::FloatMemWrite                0      0.00%    100.00% # Class of committed instruction
system.cpu.op_class_0::IprAccess                    0      0.00%    100.00% # Class of committed instruction
system.cpu.op_class_0::InstPrefetch                 0      0.00%    100.00% # Class of committed instruction
system.cpu.op_class_0::total                 12694000                       # Class of committed instruction
system.cpu.tickCycles                        10190559                       # Number of cycles that the object actually ticked
system.cpu.idleCycles                          265463                       # Total number of cycles that the object has spent stopped
system.cpu.fetch2.int_instructions           10675300                       # Number of integer instructions successfully decoded
system.cpu.fetch2.fp_instructions                   5                       # Number of floating point instructions successfully decoded
system.cpu.fetch2.vec_instructions                  0                       # Number of SIMD instructions successfully decoded
system.cpu.fetch2.load_instructions           1471566                       # Number of memory load instructions successfully decoded
system.cpu.fetch2.store_instructions           698210                       # Number of memory store instructions successfully decoded
system.cpu.dcache.tags.pwrStateResidencyTicks::UNDEFINED   3272734886                       # Cumulative time (in ticks) in various power states
system.cpu.dcache.tags.replacements                 0                       # number of replacements
system.cpu.dcache.tags.tagsinuse           195.322330                       # Cycle average of tags in use
system.cpu.dcache.tags.total_refs             2127785                       # Total number of references to valid blocks.
system.cpu.dcache.tags.sampled_refs               212                       # Sample count of references to valid blocks.
system.cpu.dcache.tags.avg_refs          10036.721698                       # Average number of references to valid blocks.
system.cpu.dcache.tags.warmup_cycle            142102                       # Cycle when the warmup percentage was hit.
system.cpu.dcache.tags.occ_blocks::cpu.data   195.322330                       # Average occupied blocks per requestor
system.cpu.dcache.tags.occ_percent::cpu.data     0.381489                       # Average percentage of cache occupancy
system.cpu.dcache.tags.occ_percent::total     0.381489                       # Average percentage of cache occupancy
system.cpu.dcache.tags.occ_task_id_blocks::1024          212                       # Occupied blocks per task id
system.cpu.dcache.tags.age_task_id_blocks_1024::0           14                       # Occupied blocks per task id
system.cpu.dcache.tags.age_task_id_blocks_1024::1            2                       # Occupied blocks per task id
system.cpu.dcache.tags.age_task_id_blocks_1024::3          196                       # Occupied blocks per task id
system.cpu.dcache.tags.occ_task_id_percent::1024     0.414062                       # Percentage of cache occupancy per task id
system.cpu.dcache.tags.tag_accesses           8512812                       # Number of tag accesses
system.cpu.dcache.tags.data_accesses          8512812                       # Number of data accesses
system.cpu.dcache.pwrStateResidencyTicks::UNDEFINED   3272734886                       # Cumulative time (in ticks) in various power states
system.cpu.dcache.ReadReq_hits::cpu.data      1448478                       # number of ReadReq hits
system.cpu.dcache.ReadReq_hits::total         1448478                       # number of ReadReq hits
system.cpu.dcache.WriteReq_hits::cpu.data       679307                       # number of WriteReq hits
system.cpu.dcache.WriteReq_hits::total         679307                       # number of WriteReq hits
system.cpu.dcache.demand_hits::cpu.data       2127785                       # number of demand (read+write) hits
system.cpu.dcache.demand_hits::total          2127785                       # number of demand (read+write) hits
system.cpu.dcache.overall_hits::cpu.data      2127785                       # number of overall hits
system.cpu.dcache.overall_hits::total         2127785                       # number of overall hits
system.cpu.dcache.ReadReq_misses::cpu.data           45                       # number of ReadReq misses
system.cpu.dcache.ReadReq_misses::total            45                       # number of ReadReq misses
system.cpu.dcache.WriteReq_misses::cpu.data          320                       # number of WriteReq misses
system.cpu.dcache.WriteReq_misses::total          320                       # number of WriteReq misses
system.cpu.dcache.demand_misses::cpu.data          365                       # number of demand (read+write) misses
system.cpu.dcache.demand_misses::total            365                       # number of demand (read+write) misses
system.cpu.dcache.overall_misses::cpu.data          365                       # number of overall misses
system.cpu.dcache.overall_misses::total           365                       # number of overall misses
system.cpu.dcache.ReadReq_miss_latency::cpu.data      3281179                       # number of ReadReq miss cycles
system.cpu.dcache.ReadReq_miss_latency::total      3281179                       # number of ReadReq miss cycles
system.cpu.dcache.WriteReq_miss_latency::cpu.data     18326776                       # number of WriteReq miss cycles
system.cpu.dcache.WriteReq_miss_latency::total     18326776                       # number of WriteReq miss cycles
system.cpu.dcache.demand_miss_latency::cpu.data     21607955                       # number of demand (read+write) miss cycles
system.cpu.dcache.demand_miss_latency::total     21607955                       # number of demand (read+write) miss cycles
system.cpu.dcache.overall_miss_latency::cpu.data     21607955                       # number of overall miss cycles
system.cpu.dcache.overall_miss_latency::total     21607955                       # number of overall miss cycles
system.cpu.dcache.ReadReq_accesses::cpu.data      1448523                       # number of ReadReq accesses(hits+misses)
system.cpu.dcache.ReadReq_accesses::total      1448523                       # number of ReadReq accesses(hits+misses)
system.cpu.dcache.WriteReq_accesses::cpu.data       679627                       # number of WriteReq accesses(hits+misses)
system.cpu.dcache.WriteReq_accesses::total       679627                       # number of WriteReq accesses(hits+misses)
system.cpu.dcache.demand_accesses::cpu.data      2128150                       # number of demand (read+write) accesses
system.cpu.dcache.demand_accesses::total      2128150                       # number of demand (read+write) accesses
system.cpu.dcache.overall_accesses::cpu.data      2128150                       # number of overall (read+write) accesses
system.cpu.dcache.overall_accesses::total      2128150                       # number of overall (read+write) accesses
system.cpu.dcache.ReadReq_miss_rate::cpu.data     0.000031                       # miss rate for ReadReq accesses
system.cpu.dcache.ReadReq_miss_rate::total     0.000031                       # miss rate for ReadReq accesses
system.cpu.dcache.WriteReq_miss_rate::cpu.data     0.000471                       # miss rate for WriteReq accesses
system.cpu.dcache.WriteReq_miss_rate::total     0.000471                       # miss rate for WriteReq accesses
system.cpu.dcache.demand_miss_rate::cpu.data     0.000172                       # miss rate for demand accesses
system.cpu.dcache.demand_miss_rate::total     0.000172                       # miss rate for demand accesses
system.cpu.dcache.overall_miss_rate::cpu.data     0.000172                       # miss rate for overall accesses
system.cpu.dcache.overall_miss_rate::total     0.000172                       # miss rate for overall accesses
system.cpu.dcache.ReadReq_avg_miss_latency::cpu.data 72915.088889                       # average ReadReq miss latency
system.cpu.dcache.ReadReq_avg_miss_latency::total 72915.088889                       # average ReadReq miss latency
system.cpu.dcache.WriteReq_avg_miss_latency::cpu.data 57271.175000                       # average WriteReq miss latency
system.cpu.dcache.WriteReq_avg_miss_latency::total 57271.175000                       # average WriteReq miss latency
system.cpu.dcache.demand_avg_miss_latency::cpu.data 59199.876712                       # average overall miss latency
system.cpu.dcache.demand_avg_miss_latency::total 59199.876712                       # average overall miss latency
system.cpu.dcache.overall_avg_miss_latency::cpu.data 59199.876712                       # average overall miss latency
system.cpu.dcache.overall_avg_miss_latency::total 59199.876712                       # average overall miss latency
system.cpu.dcache.blocked_cycles::no_mshrs            0                       # number of cycles access was blocked
system.cpu.dcache.blocked_cycles::no_targets            0                       # number of cycles access was blocked
system.cpu.dcache.blocked::no_mshrs                 0                       # number of cycles access was blocked
system.cpu.dcache.blocked::no_targets               0                       # number of cycles access was blocked
system.cpu.dcache.avg_blocked_cycles::no_mshrs          nan                       # average number of cycles each access was blocked
system.cpu.dcache.avg_blocked_cycles::no_targets          nan                       # average number of cycles each access was blocked
system.cpu.dcache.ReadReq_mshr_hits::cpu.data            1                       # number of ReadReq MSHR hits
system.cpu.dcache.ReadReq_mshr_hits::total            1                       # number of ReadReq MSHR hits
system.cpu.dcache.WriteReq_mshr_hits::cpu.data          152                       # number of WriteReq MSHR hits
system.cpu.dcache.WriteReq_mshr_hits::total          152                       # number of WriteReq MSHR hits
system.cpu.dcache.demand_mshr_hits::cpu.data          153                       # number of demand (read+write) MSHR hits
system.cpu.dcache.demand_mshr_hits::total          153                       # number of demand (read+write) MSHR hits
system.cpu.dcache.overall_mshr_hits::cpu.data          153                       # number of overall MSHR hits
system.cpu.dcache.overall_mshr_hits::total          153                       # number of overall MSHR hits
system.cpu.dcache.ReadReq_mshr_misses::cpu.data           44                       # number of ReadReq MSHR misses
system.cpu.dcache.ReadReq_mshr_misses::total           44                       # number of ReadReq MSHR misses
system.cpu.dcache.WriteReq_mshr_misses::cpu.data          168                       # number of WriteReq MSHR misses
system.cpu.dcache.WriteReq_mshr_misses::total          168                       # number of WriteReq MSHR misses
system.cpu.dcache.demand_mshr_misses::cpu.data          212                       # number of demand (read+write) MSHR misses
system.cpu.dcache.demand_mshr_misses::total          212                       # number of demand (read+write) MSHR misses
system.cpu.dcache.overall_mshr_misses::cpu.data          212                       # number of overall MSHR misses
system.cpu.dcache.overall_mshr_misses::total          212                       # number of overall MSHR misses
system.cpu.dcache.ReadReq_mshr_miss_latency::cpu.data      3189157                       # number of ReadReq MSHR miss cycles
system.cpu.dcache.ReadReq_mshr_miss_latency::total      3189157                       # number of ReadReq MSHR miss cycles
system.cpu.dcache.WriteReq_mshr_miss_latency::cpu.data      9685785                       # number of WriteReq MSHR miss cycles
system.cpu.dcache.WriteReq_mshr_miss_latency::total      9685785                       # number of WriteReq MSHR miss cycles
system.cpu.dcache.demand_mshr_miss_latency::cpu.data     12874942                       # number of demand (read+write) MSHR miss cycles
system.cpu.dcache.demand_mshr_miss_latency::total     12874942                       # number of demand (read+write) MSHR miss cycles
system.cpu.dcache.overall_mshr_miss_latency::cpu.data     12874942                       # number of overall MSHR miss cycles
system.cpu.dcache.overall_mshr_miss_latency::total     12874942                       # number of overall MSHR miss cycles
system.cpu.dcache.ReadReq_mshr_miss_rate::cpu.data     0.000030                       # mshr miss rate for ReadReq accesses
system.cpu.dcache.ReadReq_mshr_miss_rate::total     0.000030                       # mshr miss rate for ReadReq accesses
system.cpu.dcache.WriteReq_mshr_miss_rate::cpu.data     0.000247                       # mshr miss rate for WriteReq accesses
system.cpu.dcache.WriteReq_mshr_miss_rate::total     0.000247                       # mshr miss rate for WriteReq accesses
system.cpu.dcache.demand_mshr_miss_rate::cpu.data     0.000100                       # mshr miss rate for demand accesses
system.cpu.dcache.demand_mshr_miss_rate::total     0.000100                       # mshr miss rate for demand accesses
system.cpu.dcache.overall_mshr_miss_rate::cpu.data     0.000100                       # mshr miss rate for overall accesses
system.cpu.dcache.overall_mshr_miss_rate::total     0.000100                       # mshr miss rate for overall accesses
system.cpu.dcache.ReadReq_avg_mshr_miss_latency::cpu.data 72480.840909                       # average ReadReq mshr miss latency
system.cpu.dcache.ReadReq_avg_mshr_miss_latency::total 72480.840909                       # average ReadReq mshr miss latency
system.cpu.dcache.WriteReq_avg_mshr_miss_latency::cpu.data 57653.482143                       # average WriteReq mshr miss latency
system.cpu.dcache.WriteReq_avg_mshr_miss_latency::total 57653.482143                       # average WriteReq mshr miss latency
system.cpu.dcache.demand_avg_mshr_miss_latency::cpu.data 60730.858491                       # average overall mshr miss latency
system.cpu.dcache.demand_avg_mshr_miss_latency::total 60730.858491                       # average overall mshr miss latency
system.cpu.dcache.overall_avg_mshr_miss_latency::cpu.data 60730.858491                       # average overall mshr miss latency
system.cpu.dcache.overall_avg_mshr_miss_latency::total 60730.858491                       # average overall mshr miss latency
system.cpu.icache.tags.pwrStateResidencyTicks::UNDEFINED   3272734886                       # Cumulative time (in ticks) in various power states
system.cpu.icache.tags.replacements                41                       # number of replacements
system.cpu.icache.tags.tagsinuse           145.952587                       # Cycle average of tags in use
system.cpu.icache.tags.total_refs             2471039                       # Total number of references to valid blocks.
system.cpu.icache.tags.sampled_refs               304                       # Sample count of references to valid blocks.
system.cpu.icache.tags.avg_refs           8128.417763                       # Average number of references to valid blocks.
system.cpu.icache.tags.warmup_cycle             72929                       # Cycle when the warmup percentage was hit.
system.cpu.icache.tags.occ_blocks::cpu.inst   145.952587                       # Average occupied blocks per requestor
system.cpu.icache.tags.occ_percent::cpu.inst     0.285064                       # Average percentage of cache occupancy
system.cpu.icache.tags.occ_percent::total     0.285064                       # Average percentage of cache occupancy
system.cpu.icache.tags.occ_task_id_blocks::1024          263                       # Occupied blocks per task id
system.cpu.icache.tags.age_task_id_blocks_1024::0          114                       # Occupied blocks per task id
system.cpu.icache.tags.age_task_id_blocks_1024::1           24                       # Occupied blocks per task id
system.cpu.icache.tags.age_task_id_blocks_1024::3          125                       # Occupied blocks per task id
system.cpu.icache.tags.occ_task_id_percent::1024     0.513672                       # Percentage of cache occupancy per task id
system.cpu.icache.tags.tag_accesses           4942992                       # Number of tag accesses
system.cpu.icache.tags.data_accesses          4942992                       # Number of data accesses
system.cpu.icache.pwrStateResidencyTicks::UNDEFINED   3272734886                       # Cumulative time (in ticks) in various power states
system.cpu.icache.ReadReq_hits::cpu.inst      2471039                       # number of ReadReq hits
system.cpu.icache.ReadReq_hits::total         2471039                       # number of ReadReq hits
system.cpu.icache.demand_hits::cpu.inst       2471039                       # number of demand (read+write) hits
system.cpu.icache.demand_hits::total          2471039                       # number of demand (read+write) hits
system.cpu.icache.overall_hits::cpu.inst      2471039                       # number of overall hits
system.cpu.icache.overall_hits::total         2471039                       # number of overall hits
system.cpu.icache.ReadReq_misses::cpu.inst          305                       # number of ReadReq misses
system.cpu.icache.ReadReq_misses::total           305                       # number of ReadReq misses
system.cpu.icache.demand_misses::cpu.inst          305                       # number of demand (read+write) misses
system.cpu.icache.demand_misses::total            305                       # number of demand (read+write) misses
system.cpu.icache.overall_misses::cpu.inst          305                       # number of overall misses
system.cpu.icache.overall_misses::total           305                       # number of overall misses
system.cpu.icache.ReadReq_miss_latency::cpu.inst     17884820                       # number of ReadReq miss cycles
system.cpu.icache.ReadReq_miss_latency::total     17884820                       # number of ReadReq miss cycles
system.cpu.icache.demand_miss_latency::cpu.inst     17884820                       # number of demand (read+write) miss cycles
system.cpu.icache.demand_miss_latency::total     17884820                       # number of demand (read+write) miss cycles
system.cpu.icache.overall_miss_latency::cpu.inst     17884820                       # number of overall miss cycles
system.cpu.icache.overall_miss_latency::total     17884820                       # number of overall miss cycles
system.cpu.icache.ReadReq_accesses::cpu.inst      2471344                       # number of ReadReq accesses(hits+misses)
system.cpu.icache.ReadReq_accesses::total      2471344                       # number of ReadReq accesses(hits+misses)
system.cpu.icache.demand_accesses::cpu.inst      2471344                       # number of demand (read+write) accesses
system.cpu.icache.demand_accesses::total      2471344                       # number of demand (read+write) accesses
system.cpu.icache.overall_accesses::cpu.inst      2471344                       # number of overall (read+write) accesses
system.cpu.icache.overall_accesses::total      2471344                       # number of overall (read+write) accesses
system.cpu.icache.ReadReq_miss_rate::cpu.inst     0.000123                       # miss rate for ReadReq accesses
system.cpu.icache.ReadReq_miss_rate::total     0.000123                       # miss rate for ReadReq accesses
system.cpu.icache.demand_miss_rate::cpu.inst     0.000123                       # miss rate for demand accesses
system.cpu.icache.demand_miss_rate::total     0.000123                       # miss rate for demand accesses
system.cpu.icache.overall_miss_rate::cpu.inst     0.000123                       # miss rate for overall accesses
system.cpu.icache.overall_miss_rate::total     0.000123                       # miss rate for overall accesses
system.cpu.icache.ReadReq_avg_miss_latency::cpu.inst 58638.754098                       # average ReadReq miss latency
system.cpu.icache.ReadReq_avg_miss_latency::total 58638.754098                       # average ReadReq miss latency
system.cpu.icache.demand_avg_miss_latency::cpu.inst 58638.754098                       # average overall miss latency
system.cpu.icache.demand_avg_miss_latency::total 58638.754098                       # average overall miss latency
system.cpu.icache.overall_avg_miss_latency::cpu.inst 58638.754098                       # average overall miss latency
system.cpu.icache.overall_avg_miss_latency::total 58638.754098                       # average overall miss latency
system.cpu.icache.blocked_cycles::no_mshrs            0                       # number of cycles access was blocked
system.cpu.icache.blocked_cycles::no_targets            0                       # number of cycles access was blocked
system.cpu.icache.blocked::no_mshrs                 0                       # number of cycles access was blocked
system.cpu.icache.blocked::no_targets               0                       # number of cycles access was blocked
system.cpu.icache.avg_blocked_cycles::no_mshrs          nan                       # average number of cycles each access was blocked
system.cpu.icache.avg_blocked_cycles::no_targets          nan                       # average number of cycles each access was blocked
system.cpu.icache.writebacks::writebacks           41                       # number of writebacks
system.cpu.icache.writebacks::total                41                       # number of writebacks
system.cpu.icache.ReadReq_mshr_misses::cpu.inst          305                       # number of ReadReq MSHR misses
system.cpu.icache.ReadReq_mshr_misses::total          305                       # number of ReadReq MSHR misses
system.cpu.icache.demand_mshr_misses::cpu.inst          305                       # number of demand (read+write) MSHR misses
system.cpu.icache.demand_mshr_misses::total          305                       # number of demand (read+write) MSHR misses
system.cpu.icache.overall_mshr_misses::cpu.inst          305                       # number of overall MSHR misses
system.cpu.icache.overall_mshr_misses::total          305                       # number of overall MSHR misses
system.cpu.icache.ReadReq_mshr_miss_latency::cpu.inst     17694516                       # number of ReadReq MSHR miss cycles
system.cpu.icache.ReadReq_mshr_miss_latency::total     17694516                       # number of ReadReq MSHR miss cycles
system.cpu.icache.demand_mshr_miss_latency::cpu.inst     17694516                       # number of demand (read+write) MSHR miss cycles
system.cpu.icache.demand_mshr_miss_latency::total     17694516                       # number of demand (read+write) MSHR miss cycles
system.cpu.icache.overall_mshr_miss_latency::cpu.inst     17694516                       # number of overall MSHR miss cycles
system.cpu.icache.overall_mshr_miss_latency::total     17694516                       # number of overall MSHR miss cycles
system.cpu.icache.ReadReq_mshr_miss_rate::cpu.inst     0.000123                       # mshr miss rate for ReadReq accesses
system.cpu.icache.ReadReq_mshr_miss_rate::total     0.000123                       # mshr miss rate for ReadReq accesses
system.cpu.icache.demand_mshr_miss_rate::cpu.inst     0.000123                       # mshr miss rate for demand accesses
system.cpu.icache.demand_mshr_miss_rate::total     0.000123                       # mshr miss rate for demand accesses
system.cpu.icache.overall_mshr_miss_rate::cpu.inst     0.000123                       # mshr miss rate for overall accesses
system.cpu.icache.overall_mshr_miss_rate::total     0.000123                       # mshr miss rate for overall accesses
system.cpu.icache.ReadReq_avg_mshr_miss_latency::cpu.inst 58014.806557                       # average ReadReq mshr miss latency
system.cpu.icache.ReadReq_avg_mshr_miss_latency::total 58014.806557                       # average ReadReq mshr miss latency
system.cpu.icache.demand_avg_mshr_miss_latency::cpu.inst 58014.806557                       # average overall mshr miss latency
system.cpu.icache.demand_avg_mshr_miss_latency::total 58014.806557                       # average overall mshr miss latency
system.cpu.icache.overall_avg_mshr_miss_latency::cpu.inst 58014.806557                       # average overall mshr miss latency
system.cpu.icache.overall_avg_mshr_miss_latency::total 58014.806557                       # average overall mshr miss latency
system.l2bus.snoop_filter.tot_requests            557                       # Total number of requests made to the snoop filter.
system.l2bus.snoop_filter.hit_single_requests           41                       # Number of requests hitting in the snoop filter with a single holder of the requested data.
system.l2bus.snoop_filter.hit_multi_requests            0                       # Number of requests hitting in the snoop filter with multiple (>1) holders of the requested data.
system.l2bus.snoop_filter.tot_snoops                2                       # Total number of snoops made to the snoop filter.
system.l2bus.snoop_filter.hit_single_snoops            2                       # Number of snoops hitting in the snoop filter with a single holder of the requested data.
system.l2bus.snoop_filter.hit_multi_snoops            0                       # Number of snoops hitting in the snoop filter with multiple (>1) holders of the requested data.
system.l2bus.pwrStateResidencyTicks::UNDEFINED   3272734886                       # Cumulative time (in ticks) in various power states
system.l2bus.trans_dist::ReadResp                 348                       # Transaction distribution
system.l2bus.trans_dist::WritebackClean            41                       # Transaction distribution
system.l2bus.trans_dist::HardPFReq                 14                       # Transaction distribution
system.l2bus.trans_dist::ReadExReq                168                       # Transaction distribution
system.l2bus.trans_dist::ReadExResp               168                       # Transaction distribution
system.l2bus.trans_dist::ReadCleanReq             304                       # Transaction distribution
system.l2bus.trans_dist::ReadSharedReq             44                       # Transaction distribution
system.l2bus.pkt_count_system.cpu.icache.mem_side::system.l2cache.cpu_side          649                       # Packet count per connected master and slave (bytes)
system.l2bus.pkt_count_system.cpu.dcache.mem_side::system.l2cache.cpu_side          424                       # Packet count per connected master and slave (bytes)
system.l2bus.pkt_count::total                    1073                       # Packet count per connected master and slave (bytes)
system.l2bus.pkt_size_system.cpu.icache.mem_side::system.l2cache.cpu_side        22080                       # Cumulative packet size per connected master and slave (bytes)
system.l2bus.pkt_size_system.cpu.dcache.mem_side::system.l2cache.cpu_side        13568                       # Cumulative packet size per connected master and slave (bytes)
system.l2bus.pkt_size::total                    35648                       # Cumulative packet size per connected master and slave (bytes)
system.l2bus.snoops                                14                       # Total snoops (count)
system.l2bus.snoopTraffic                           0                       # Total snoop traffic (bytes)
system.l2bus.snoop_fanout::samples                530                       # Request fanout histogram
system.l2bus.snoop_fanout::mean              0.003774                       # Request fanout histogram
system.l2bus.snoop_fanout::stdev             0.061371                       # Request fanout histogram
system.l2bus.snoop_fanout::underflows               0      0.00%      0.00% # Request fanout histogram
system.l2bus.snoop_fanout::0                      528     99.62%     99.62% # Request fanout histogram
system.l2bus.snoop_fanout::1                        2      0.38%    100.00% # Request fanout histogram
system.l2bus.snoop_fanout::2                        0      0.00%    100.00% # Request fanout histogram
system.l2bus.snoop_fanout::overflows                0      0.00%    100.00% # Request fanout histogram
system.l2bus.snoop_fanout::min_value                0                       # Request fanout histogram
system.l2bus.snoop_fanout::max_value                1                       # Request fanout histogram
system.l2bus.snoop_fanout::total                  530                       # Request fanout histogram
system.l2bus.reqLayer0.occupancy               225673                       # Layer occupancy (ticks)
system.l2bus.reqLayer0.utilization                0.0                       # Layer utilization (%)
system.l2bus.respLayer0.occupancy              475760                       # Layer occupancy (ticks)
system.l2bus.respLayer0.utilization               0.0                       # Layer utilization (%)
system.l2bus.respLayer1.occupancy              331780                       # Layer occupancy (ticks)
system.l2bus.respLayer1.utilization               0.0                       # Layer utilization (%)
system.l2cache.prefetcher.pwrStateResidencyTicks::UNDEFINED   3272734886                       # Cumulative time (in ticks) in various power states
system.l2cache.prefetcher.num_hwpf_issued           14                       # number of hwpf issued
system.l2cache.prefetcher.pfIdentified             14                       # number of prefetch candidates identified
system.l2cache.prefetcher.pfBufferHit               0                       # number of redundant prefetches already in prefetch queue
system.l2cache.prefetcher.pfInCache                 0                       # number of redundant prefetches already in cache/mshr dropped
system.l2cache.prefetcher.pfRemovedFull             0                       # number of prefetches dropped due to prefetch queue size
system.l2cache.prefetcher.pfSpanPage                8                       # number of prefetches not generated due to page crossing
system.l2cache.tags.pwrStateResidencyTicks::UNDEFINED   3272734886                       # Cumulative time (in ticks) in various power states
system.l2cache.tags.replacements                    0                       # number of replacements
system.l2cache.tags.tagsinuse                4.009732                       # Cycle average of tags in use
system.l2cache.tags.total_refs                      0                       # Total number of references to valid blocks.
system.l2cache.tags.sampled_refs                   21                       # Sample count of references to valid blocks.
system.l2cache.tags.avg_refs                        0                       # Average number of references to valid blocks.
system.l2cache.tags.warmup_cycle              5050881                       # Cycle when the warmup percentage was hit.
system.l2cache.tags.occ_blocks::writebacks     4.008102                       # Average occupied blocks per requestor
system.l2cache.tags.occ_blocks::l2cache.prefetcher     0.001630                       # Average occupied blocks per requestor
system.l2cache.tags.occ_percent::writebacks     0.000489                       # Average percentage of cache occupancy
system.l2cache.tags.occ_percent::l2cache.prefetcher     0.000000                       # Average percentage of cache occupancy
system.l2cache.tags.occ_percent::total       0.000489                       # Average percentage of cache occupancy
system.l2cache.tags.occ_task_id_blocks::1024           21                       # Occupied blocks per task id
system.l2cache.tags.age_task_id_blocks_1024::0           21                       # Occupied blocks per task id
system.l2cache.tags.occ_task_id_percent::1024     0.002563                       # Percentage of cache occupancy per task id
system.l2cache.tags.tag_accesses                 4509                       # Number of tag accesses
system.l2cache.tags.data_accesses                4509                       # Number of data accesses
system.l2cache.pwrStateResidencyTicks::UNDEFINED   3272734886                       # Cumulative time (in ticks) in various power states
system.l2cache.WritebackClean_hits::writebacks           41                       # number of WritebackClean hits
system.l2cache.WritebackClean_hits::total           41                       # number of WritebackClean hits
system.l2cache.ReadExReq_hits::cpu.data             7                       # number of ReadExReq hits
system.l2cache.ReadExReq_hits::total                7                       # number of ReadExReq hits
system.l2cache.ReadCleanReq_hits::cpu.inst           20                       # number of ReadCleanReq hits
system.l2cache.ReadCleanReq_hits::total            20                       # number of ReadCleanReq hits
system.l2cache.demand_hits::cpu.inst               20                       # number of demand (read+write) hits
system.l2cache.demand_hits::cpu.data                7                       # number of demand (read+write) hits
system.l2cache.demand_hits::total                  27                       # number of demand (read+write) hits
system.l2cache.overall_hits::cpu.inst              20                       # number of overall hits
system.l2cache.overall_hits::cpu.data               7                       # number of overall hits
system.l2cache.overall_hits::total                 27                       # number of overall hits
system.l2cache.ReadExReq_misses::cpu.data          161                       # number of ReadExReq misses
system.l2cache.ReadExReq_misses::total            161                       # number of ReadExReq misses
system.l2cache.ReadCleanReq_misses::cpu.inst          284                       # number of ReadCleanReq misses
system.l2cache.ReadCleanReq_misses::total          284                       # number of ReadCleanReq misses
system.l2cache.ReadSharedReq_misses::cpu.data           44                       # number of ReadSharedReq misses
system.l2cache.ReadSharedReq_misses::total           44                       # number of ReadSharedReq misses
system.l2cache.demand_misses::cpu.inst            284                       # number of demand (read+write) misses
system.l2cache.demand_misses::cpu.data            205                       # number of demand (read+write) misses
system.l2cache.demand_misses::total               489                       # number of demand (read+write) misses
system.l2cache.overall_misses::cpu.inst           284                       # number of overall misses
system.l2cache.overall_misses::cpu.data           205                       # number of overall misses
system.l2cache.overall_misses::total              489                       # number of overall misses
system.l2cache.ReadExReq_miss_latency::cpu.data      9437263                       # number of ReadExReq miss cycles
system.l2cache.ReadExReq_miss_latency::total      9437263                       # number of ReadExReq miss cycles
system.l2cache.ReadCleanReq_miss_latency::cpu.inst     17203419                       # number of ReadCleanReq miss cycles
system.l2cache.ReadCleanReq_miss_latency::total     17203419                       # number of ReadCleanReq miss cycles
system.l2cache.ReadSharedReq_miss_latency::cpu.data      3133443                       # number of ReadSharedReq miss cycles
system.l2cache.ReadSharedReq_miss_latency::total      3133443                       # number of ReadSharedReq miss cycles
system.l2cache.demand_miss_latency::cpu.inst     17203419                       # number of demand (read+write) miss cycles
system.l2cache.demand_miss_latency::cpu.data     12570706                       # number of demand (read+write) miss cycles
system.l2cache.demand_miss_latency::total     29774125                       # number of demand (read+write) miss cycles
system.l2cache.overall_miss_latency::cpu.inst     17203419                       # number of overall miss cycles
system.l2cache.overall_miss_latency::cpu.data     12570706                       # number of overall miss cycles
system.l2cache.overall_miss_latency::total     29774125                       # number of overall miss cycles
system.l2cache.WritebackClean_accesses::writebacks           41                       # number of WritebackClean accesses(hits+misses)
system.l2cache.WritebackClean_accesses::total           41                       # number of WritebackClean accesses(hits+misses)
system.l2cache.ReadExReq_accesses::cpu.data          168                       # number of ReadExReq accesses(hits+misses)
system.l2cache.ReadExReq_accesses::total          168                       # number of ReadExReq accesses(hits+misses)
system.l2cache.ReadCleanReq_accesses::cpu.inst          304                       # number of ReadCleanReq accesses(hits+misses)
system.l2cache.ReadCleanReq_accesses::total          304                       # number of ReadCleanReq accesses(hits+misses)
system.l2cache.ReadSharedReq_accesses::cpu.data           44                       # number of ReadSharedReq accesses(hits+misses)
system.l2cache.ReadSharedReq_accesses::total           44                       # number of ReadSharedReq accesses(hits+misses)
system.l2cache.demand_accesses::cpu.inst          304                       # number of demand (read+write) accesses
system.l2cache.demand_accesses::cpu.data          212                       # number of demand (read+write) accesses
system.l2cache.demand_accesses::total             516                       # number of demand (read+write) accesses
system.l2cache.overall_accesses::cpu.inst          304                       # number of overall (read+write) accesses
system.l2cache.overall_accesses::cpu.data          212                       # number of overall (read+write) accesses
system.l2cache.overall_accesses::total            516                       # number of overall (read+write) accesses
system.l2cache.ReadExReq_miss_rate::cpu.data     0.958333                       # miss rate for ReadExReq accesses
system.l2cache.ReadExReq_miss_rate::total     0.958333                       # miss rate for ReadExReq accesses
system.l2cache.ReadCleanReq_miss_rate::cpu.inst     0.934211                       # miss rate for ReadCleanReq accesses
system.l2cache.ReadCleanReq_miss_rate::total     0.934211                       # miss rate for ReadCleanReq accesses
system.l2cache.ReadSharedReq_miss_rate::cpu.data            1                       # miss rate for ReadSharedReq accesses
system.l2cache.ReadSharedReq_miss_rate::total            1                       # miss rate for ReadSharedReq accesses
system.l2cache.demand_miss_rate::cpu.inst     0.934211                       # miss rate for demand accesses
system.l2cache.demand_miss_rate::cpu.data     0.966981                       # miss rate for demand accesses
system.l2cache.demand_miss_rate::total       0.947674                       # miss rate for demand accesses
system.l2cache.overall_miss_rate::cpu.inst     0.934211                       # miss rate for overall accesses
system.l2cache.overall_miss_rate::cpu.data     0.966981                       # miss rate for overall accesses
system.l2cache.overall_miss_rate::total      0.947674                       # miss rate for overall accesses
system.l2cache.ReadExReq_avg_miss_latency::cpu.data 58616.540373                       # average ReadExReq miss latency
system.l2cache.ReadExReq_avg_miss_latency::total 58616.540373                       # average ReadExReq miss latency
system.l2cache.ReadCleanReq_avg_miss_latency::cpu.inst 60575.419014                       # average ReadCleanReq miss latency
system.l2cache.ReadCleanReq_avg_miss_latency::total 60575.419014                       # average ReadCleanReq miss latency
system.l2cache.ReadSharedReq_avg_miss_latency::cpu.data 71214.613636                       # average ReadSharedReq miss latency
system.l2cache.ReadSharedReq_avg_miss_latency::total 71214.613636                       # average ReadSharedReq miss latency
system.l2cache.demand_avg_miss_latency::cpu.inst 60575.419014                       # average overall miss latency
system.l2cache.demand_avg_miss_latency::cpu.data 61320.517073                       # average overall miss latency
system.l2cache.demand_avg_miss_latency::total 60887.781186                       # average overall miss latency
system.l2cache.overall_avg_miss_latency::cpu.inst 60575.419014                       # average overall miss latency
system.l2cache.overall_avg_miss_latency::cpu.data 61320.517073                       # average overall miss latency
system.l2cache.overall_avg_miss_latency::total 60887.781186                       # average overall miss latency
system.l2cache.blocked_cycles::no_mshrs             0                       # number of cycles access was blocked
system.l2cache.blocked_cycles::no_targets            0                       # number of cycles access was blocked
system.l2cache.blocked::no_mshrs                    0                       # number of cycles access was blocked
system.l2cache.blocked::no_targets                  0                       # number of cycles access was blocked
system.l2cache.avg_blocked_cycles::no_mshrs          nan                       # average number of cycles each access was blocked
system.l2cache.avg_blocked_cycles::no_targets          nan                       # average number of cycles each access was blocked
system.l2cache.ReadExReq_mshr_hits::cpu.data            5                       # number of ReadExReq MSHR hits
system.l2cache.ReadExReq_mshr_hits::total            5                       # number of ReadExReq MSHR hits
system.l2cache.demand_mshr_hits::cpu.data            5                       # number of demand (read+write) MSHR hits
system.l2cache.demand_mshr_hits::total              5                       # number of demand (read+write) MSHR hits
system.l2cache.overall_mshr_hits::cpu.data            5                       # number of overall MSHR hits
system.l2cache.overall_mshr_hits::total             5                       # number of overall MSHR hits
system.l2cache.HardPFReq_mshr_misses::l2cache.prefetcher           14                       # number of HardPFReq MSHR misses
system.l2cache.HardPFReq_mshr_misses::total           14                       # number of HardPFReq MSHR misses
system.l2cache.ReadExReq_mshr_misses::cpu.data          156                       # number of ReadExReq MSHR misses
system.l2cache.ReadExReq_mshr_misses::total          156                       # number of ReadExReq MSHR misses
system.l2cache.ReadCleanReq_mshr_misses::cpu.inst          284                       # number of ReadCleanReq MSHR misses
system.l2cache.ReadCleanReq_mshr_misses::total          284                       # number of ReadCleanReq MSHR misses
system.l2cache.ReadSharedReq_mshr_misses::cpu.data           44                       # number of ReadSharedReq MSHR misses
system.l2cache.ReadSharedReq_mshr_misses::total           44                       # number of ReadSharedReq MSHR misses
system.l2cache.demand_mshr_misses::cpu.inst          284                       # number of demand (read+write) MSHR misses
system.l2cache.demand_mshr_misses::cpu.data          200                       # number of demand (read+write) MSHR misses
system.l2cache.demand_mshr_misses::total          484                       # number of demand (read+write) MSHR misses
system.l2cache.overall_mshr_misses::cpu.inst          284                       # number of overall MSHR misses
system.l2cache.overall_mshr_misses::cpu.data          200                       # number of overall MSHR misses
system.l2cache.overall_mshr_misses::l2cache.prefetcher           14                       # number of overall MSHR misses
system.l2cache.overall_mshr_misses::total          498                       # number of overall MSHR misses
system.l2cache.HardPFReq_mshr_miss_latency::l2cache.prefetcher       588127                       # number of HardPFReq MSHR miss cycles
system.l2cache.HardPFReq_mshr_miss_latency::total       588127                       # number of HardPFReq MSHR miss cycles
system.l2cache.ReadExReq_mshr_miss_latency::cpu.data      8840372                       # number of ReadExReq MSHR miss cycles
system.l2cache.ReadExReq_mshr_miss_latency::total      8840372                       # number of ReadExReq MSHR miss cycles
system.l2cache.ReadCleanReq_mshr_miss_latency::cpu.inst     16403391                       # number of ReadCleanReq MSHR miss cycles
system.l2cache.ReadCleanReq_mshr_miss_latency::total     16403391                       # number of ReadCleanReq MSHR miss cycles
system.l2cache.ReadSharedReq_mshr_miss_latency::cpu.data      3009495                       # number of ReadSharedReq MSHR miss cycles
system.l2cache.ReadSharedReq_mshr_miss_latency::total      3009495                       # number of ReadSharedReq MSHR miss cycles
system.l2cache.demand_mshr_miss_latency::cpu.inst     16403391                       # number of demand (read+write) MSHR miss cycles
system.l2cache.demand_mshr_miss_latency::cpu.data     11849867                       # number of demand (read+write) MSHR miss cycles
system.l2cache.demand_mshr_miss_latency::total     28253258                       # number of demand (read+write) MSHR miss cycles
system.l2cache.overall_mshr_miss_latency::cpu.inst     16403391                       # number of overall MSHR miss cycles
system.l2cache.overall_mshr_miss_latency::cpu.data     11849867                       # number of overall MSHR miss cycles
system.l2cache.overall_mshr_miss_latency::l2cache.prefetcher       588127                       # number of overall MSHR miss cycles
system.l2cache.overall_mshr_miss_latency::total     28841385                       # number of overall MSHR miss cycles
system.l2cache.HardPFReq_mshr_miss_rate::l2cache.prefetcher          inf                       # mshr miss rate for HardPFReq accesses
system.l2cache.HardPFReq_mshr_miss_rate::total          inf                       # mshr miss rate for HardPFReq accesses
system.l2cache.ReadExReq_mshr_miss_rate::cpu.data     0.928571                       # mshr miss rate for ReadExReq accesses
system.l2cache.ReadExReq_mshr_miss_rate::total     0.928571                       # mshr miss rate for ReadExReq accesses
system.l2cache.ReadCleanReq_mshr_miss_rate::cpu.inst     0.934211                       # mshr miss rate for ReadCleanReq accesses
system.l2cache.ReadCleanReq_mshr_miss_rate::total     0.934211                       # mshr miss rate for ReadCleanReq accesses
system.l2cache.ReadSharedReq_mshr_miss_rate::cpu.data            1                       # mshr miss rate for ReadSharedReq accesses
system.l2cache.ReadSharedReq_mshr_miss_rate::total            1                       # mshr miss rate for ReadSharedReq accesses
system.l2cache.demand_mshr_miss_rate::cpu.inst     0.934211                       # mshr miss rate for demand accesses
system.l2cache.demand_mshr_miss_rate::cpu.data     0.943396                       # mshr miss rate for demand accesses
system.l2cache.demand_mshr_miss_rate::total     0.937984                       # mshr miss rate for demand accesses
system.l2cache.overall_mshr_miss_rate::cpu.inst     0.934211                       # mshr miss rate for overall accesses
system.l2cache.overall_mshr_miss_rate::cpu.data     0.943396                       # mshr miss rate for overall accesses
system.l2cache.overall_mshr_miss_rate::l2cache.prefetcher          inf                       # mshr miss rate for overall accesses
system.l2cache.overall_mshr_miss_rate::total     0.965116                       # mshr miss rate for overall accesses
system.l2cache.HardPFReq_avg_mshr_miss_latency::l2cache.prefetcher 42009.071429                       # average HardPFReq mshr miss latency
system.l2cache.HardPFReq_avg_mshr_miss_latency::total 42009.071429                       # average HardPFReq mshr miss latency
system.l2cache.ReadExReq_avg_mshr_miss_latency::cpu.data 56669.051282                       # average ReadExReq mshr miss latency
system.l2cache.ReadExReq_avg_mshr_miss_latency::total 56669.051282                       # average ReadExReq mshr miss latency
system.l2cache.ReadCleanReq_avg_mshr_miss_latency::cpu.inst 57758.419014                       # average ReadCleanReq mshr miss latency
system.l2cache.ReadCleanReq_avg_mshr_miss_latency::total 57758.419014                       # average ReadCleanReq mshr miss latency
system.l2cache.ReadSharedReq_avg_mshr_miss_latency::cpu.data 68397.613636                       # average ReadSharedReq mshr miss latency
system.l2cache.ReadSharedReq_avg_mshr_miss_latency::total 68397.613636                       # average ReadSharedReq mshr miss latency
system.l2cache.demand_avg_mshr_miss_latency::cpu.inst 57758.419014                       # average overall mshr miss latency
system.l2cache.demand_avg_mshr_miss_latency::cpu.data 59249.335000                       # average overall mshr miss latency
system.l2cache.demand_avg_mshr_miss_latency::total 58374.500000                       # average overall mshr miss latency
system.l2cache.overall_avg_mshr_miss_latency::cpu.inst 57758.419014                       # average overall mshr miss latency
system.l2cache.overall_avg_mshr_miss_latency::cpu.data 59249.335000                       # average overall mshr miss latency
system.l2cache.overall_avg_mshr_miss_latency::l2cache.prefetcher 42009.071429                       # average overall mshr miss latency
system.l2cache.overall_avg_mshr_miss_latency::total 57914.427711                       # average overall mshr miss latency
system.membus.snoop_filter.tot_requests           496                       # Total number of requests made to the snoop filter.
system.membus.snoop_filter.hit_single_requests            0                       # Number of requests hitting in the snoop filter with a single holder of the requested data.
system.membus.snoop_filter.hit_multi_requests            0                       # Number of requests hitting in the snoop filter with multiple (>1) holders of the requested data.
system.membus.snoop_filter.tot_snoops               0                       # Total number of snoops made to the snoop filter.
system.membus.snoop_filter.hit_single_snoops            0                       # Number of snoops hitting in the snoop filter with a single holder of the requested data.
system.membus.snoop_filter.hit_multi_snoops            0                       # Number of snoops hitting in the snoop filter with multiple (>1) holders of the requested data.
system.membus.pwrStateResidencyTicks::UNDEFINED   3272734886                       # Cumulative time (in ticks) in various power states
system.membus.trans_dist::ReadResp                340                       # Transaction distribution
system.membus.trans_dist::ReadExReq               156                       # Transaction distribution
system.membus.trans_dist::ReadExResp              156                       # Transaction distribution
system.membus.trans_dist::ReadCleanReq            340                       # Transaction distribution
system.membus.pkt_count_system.l2cache.mem_side::system.mem_ctrl.port          992                       # Packet count per connected master and slave (bytes)
system.membus.pkt_count::total                    992                       # Packet count per connected master and slave (bytes)
system.membus.pkt_size_system.l2cache.mem_side::system.mem_ctrl.port        31744                       # Cumulative packet size per connected master and slave (bytes)
system.membus.pkt_size::total                   31744                       # Cumulative packet size per connected master and slave (bytes)
system.membus.snoops                                0                       # Total snoops (count)
system.membus.snoopTraffic                          0                       # Total snoop traffic (bytes)
system.membus.snoop_fanout::samples               496                       # Request fanout histogram
system.membus.snoop_fanout::mean                    0                       # Request fanout histogram
system.membus.snoop_fanout::stdev                   0                       # Request fanout histogram
system.membus.snoop_fanout::underflows              0      0.00%      0.00% # Request fanout histogram
system.membus.snoop_fanout::0                     496    100.00%    100.00% # Request fanout histogram
system.membus.snoop_fanout::1                       0      0.00%    100.00% # Request fanout histogram
system.membus.snoop_fanout::overflows               0      0.00%    100.00% # Request fanout histogram
system.membus.snoop_fanout::min_value               0                       # Request fanout histogram
system.membus.snoop_fanout::max_value               0                       # Request fanout histogram
system.membus.snoop_fanout::total                 496                       # Request fanout histogram
system.membus.reqLayer0.occupancy              155248                       # Layer occupancy (ticks)
system.membus.reqLayer0.utilization               0.0                       # Layer utilization (%)
system.membus.respLayer0.occupancy             784324                       # Layer occupancy (ticks)
system.membus.respLayer0.utilization              0.0                       # Layer utilization (%)

---------- End Simulation Statistics   ----------
