
---------- Begin Simulation Statistics ----------
sim_seconds                                  0.000140                       # Number of seconds simulated
sim_ticks                                   140256239                       # Number of ticks simulated
final_tick                                  140256239                       # Number of ticks from beginning of simulation (restored from checkpoints and never reset)
sim_freq                                 1000000000000                       # Frequency of simulated ticks
host_inst_rate                                  73274                       # Simulator instruction rate (inst/s)
host_op_rate                                    73273                       # Simulator op (including micro ops) rate (op/s)
host_tick_rate                               49568719                       # Simulator tick rate (ticks/s)
host_mem_usage                                 634236                       # Number of bytes of host memory used
host_seconds                                     2.83                       # Real time elapsed on the host
sim_insts                                      207329                       # Number of instructions simulated
sim_ops                                        207329                       # Number of ops (including micro ops) simulated
system.clk_domain.voltage_domain.voltage            1                       # Voltage in Volts
system.clk_domain.clock                           313                       # Clock period in ticks
system.mem_ctrl.pwrStateResidencyTicks::UNDEFINED    140256239                       # Cumulative time (in ticks) in various power states
system.mem_ctrl.bytes_read::cpu.inst            14912                       # Number of bytes read from this memory
system.mem_ctrl.bytes_read::cpu.data             6016                       # Number of bytes read from this memory
system.mem_ctrl.bytes_read::l2cache.prefetcher         6464                       # Number of bytes read from this memory
system.mem_ctrl.bytes_read::total               27392                       # Number of bytes read from this memory
system.mem_ctrl.bytes_inst_read::cpu.inst        14912                       # Number of instructions bytes read from this memory
system.mem_ctrl.bytes_inst_read::total          14912                       # Number of instructions bytes read from this memory
system.mem_ctrl.num_reads::writebacks               0                       # Number of read requests responded to by this memory
system.mem_ctrl.num_reads::functional               0                       # Number of read requests responded to by this memory
system.mem_ctrl.num_reads::interrupt                0                       # Number of read requests responded to by this memory
system.mem_ctrl.num_reads::cpu.inst               233                       # Number of read requests responded to by this memory
system.mem_ctrl.num_reads::cpu.data                94                       # Number of read requests responded to by this memory
system.mem_ctrl.num_reads::l2cache.prefetcher          101                       # Number of read requests responded to by this memory
system.mem_ctrl.num_reads::total                  428                       # Number of read requests responded to by this memory
system.mem_ctrl.num_writes::writebacks              0                       # Number of write requests responded to by this memory
system.mem_ctrl.num_writes::functional              0                       # Number of write requests responded to by this memory
system.mem_ctrl.num_writes::interrupt               0                       # Number of write requests responded to by this memory
system.mem_ctrl.num_writes::cpu.inst                0                       # Number of write requests responded to by this memory
system.mem_ctrl.num_writes::cpu.data                0                       # Number of write requests responded to by this memory
system.mem_ctrl.num_writes::l2cache.prefetcher            0                       # Number of write requests responded to by this memory
system.mem_ctrl.num_writes::total                   0                       # Number of write requests responded to by this memory
system.mem_ctrl.bw_read::cpu.inst           106319691                       # Total read bandwidth from this memory (bytes/s)
system.mem_ctrl.bw_read::cpu.data            42892923                       # Total read bandwidth from this memory (bytes/s)
system.mem_ctrl.bw_read::l2cache.prefetcher     46087076                       # Total read bandwidth from this memory (bytes/s)
system.mem_ctrl.bw_read::total              195299690                       # Total read bandwidth from this memory (bytes/s)
system.mem_ctrl.bw_inst_read::cpu.inst      106319691                       # Instruction read bandwidth from this memory (bytes/s)
system.mem_ctrl.bw_inst_read::total         106319691                       # Instruction read bandwidth from this memory (bytes/s)
system.mem_ctrl.bw_total::cpu.inst          106319691                       # Total bandwidth to/from this memory (bytes/s)
system.mem_ctrl.bw_total::cpu.data           42892923                       # Total bandwidth to/from this memory (bytes/s)
system.mem_ctrl.bw_total::l2cache.prefetcher     46087076                       # Total bandwidth to/from this memory (bytes/s)
system.mem_ctrl.bw_total::total             195299690                       # Total bandwidth to/from this memory (bytes/s)
system.mem_ctrl.readReqs                          428                       # Number of read requests accepted
system.mem_ctrl.writeReqs                           0                       # Number of write requests accepted
system.mem_ctrl.readBursts                        428                       # Number of DRAM read bursts, including those serviced by the write queue
system.mem_ctrl.writeBursts                         0                       # Number of DRAM write bursts, including those merged in the write queue
system.mem_ctrl.bytesReadDRAM                   27392                       # Total number of bytes read from DRAM
system.mem_ctrl.bytesReadWrQ                        0                       # Total number of bytes read from write queue
system.mem_ctrl.bytesWritten                        0                       # Total number of bytes written to DRAM
system.mem_ctrl.bytesReadSys                    27392                       # Total read bytes from the system interface side
system.mem_ctrl.bytesWrittenSys                     0                       # Total written bytes from the system interface side
system.mem_ctrl.servicedByWrQ                       0                       # Number of DRAM read bursts serviced by the write queue
system.mem_ctrl.mergedWrBursts                      0                       # Number of DRAM write bursts merged with an existing one
system.mem_ctrl.neitherReadNorWriteReqs             0                       # Number of requests that are neither read nor write
system.mem_ctrl.perBankRdBursts::0                 70                       # Per bank write bursts
system.mem_ctrl.perBankRdBursts::1                 51                       # Per bank write bursts
system.mem_ctrl.perBankRdBursts::2                 40                       # Per bank write bursts
system.mem_ctrl.perBankRdBursts::3                 12                       # Per bank write bursts
system.mem_ctrl.perBankRdBursts::4                 10                       # Per bank write bursts
system.mem_ctrl.perBankRdBursts::5                 33                       # Per bank write bursts
system.mem_ctrl.perBankRdBursts::6                 17                       # Per bank write bursts
system.mem_ctrl.perBankRdBursts::7                 54                       # Per bank write bursts
system.mem_ctrl.perBankRdBursts::8                 74                       # Per bank write bursts
system.mem_ctrl.perBankRdBursts::9                 63                       # Per bank write bursts
system.mem_ctrl.perBankRdBursts::10                 4                       # Per bank write bursts
system.mem_ctrl.perBankRdBursts::11                 0                       # Per bank write bursts
system.mem_ctrl.perBankRdBursts::12                 0                       # Per bank write bursts
system.mem_ctrl.perBankRdBursts::13                 0                       # Per bank write bursts
system.mem_ctrl.perBankRdBursts::14                 0                       # Per bank write bursts
system.mem_ctrl.perBankRdBursts::15                 0                       # Per bank write bursts
system.mem_ctrl.perBankWrBursts::0                  0                       # Per bank write bursts
system.mem_ctrl.perBankWrBursts::1                  0                       # Per bank write bursts
system.mem_ctrl.perBankWrBursts::2                  0                       # Per bank write bursts
system.mem_ctrl.perBankWrBursts::3                  0                       # Per bank write bursts
system.mem_ctrl.perBankWrBursts::4                  0                       # Per bank write bursts
system.mem_ctrl.perBankWrBursts::5                  0                       # Per bank write bursts
system.mem_ctrl.perBankWrBursts::6                  0                       # Per bank write bursts
system.mem_ctrl.perBankWrBursts::7                  0                       # Per bank write bursts
system.mem_ctrl.perBankWrBursts::8                  0                       # Per bank write bursts
system.mem_ctrl.perBankWrBursts::9                  0                       # Per bank write bursts
system.mem_ctrl.perBankWrBursts::10                 0                       # Per bank write bursts
system.mem_ctrl.perBankWrBursts::11                 0                       # Per bank write bursts
system.mem_ctrl.perBankWrBursts::12                 0                       # Per bank write bursts
system.mem_ctrl.perBankWrBursts::13                 0                       # Per bank write bursts
system.mem_ctrl.perBankWrBursts::14                 0                       # Per bank write bursts
system.mem_ctrl.perBankWrBursts::15                 0                       # Per bank write bursts
system.mem_ctrl.numRdRetry                          0                       # Number of times read queue was full causing retry
system.mem_ctrl.numWrRetry                          0                       # Number of times write queue was full causing retry
system.mem_ctrl.totGap                      140065309                       # Total gap between requests
system.mem_ctrl.readPktSize::0                      0                       # Read request sizes (log2)
system.mem_ctrl.readPktSize::1                      0                       # Read request sizes (log2)
system.mem_ctrl.readPktSize::2                      0                       # Read request sizes (log2)
system.mem_ctrl.readPktSize::3                      0                       # Read request sizes (log2)
system.mem_ctrl.readPktSize::4                      0                       # Read request sizes (log2)
system.mem_ctrl.readPktSize::5                      0                       # Read request sizes (log2)
system.mem_ctrl.readPktSize::6                    428                       # Read request sizes (log2)
system.mem_ctrl.writePktSize::0                     0                       # Write request sizes (log2)
system.mem_ctrl.writePktSize::1                     0                       # Write request sizes (log2)
system.mem_ctrl.writePktSize::2                     0                       # Write request sizes (log2)
system.mem_ctrl.writePktSize::3                     0                       # Write request sizes (log2)
system.mem_ctrl.writePktSize::4                     0                       # Write request sizes (log2)
system.mem_ctrl.writePktSize::5                     0                       # Write request sizes (log2)
system.mem_ctrl.writePktSize::6                     0                       # Write request sizes (log2)
system.mem_ctrl.rdQLenPdf::0                      330                       # What read queue length does an incoming req see
system.mem_ctrl.rdQLenPdf::1                       94                       # What read queue length does an incoming req see
system.mem_ctrl.rdQLenPdf::2                        4                       # What read queue length does an incoming req see
system.mem_ctrl.rdQLenPdf::3                        0                       # What read queue length does an incoming req see
system.mem_ctrl.rdQLenPdf::4                        0                       # What read queue length does an incoming req see
system.mem_ctrl.rdQLenPdf::5                        0                       # What read queue length does an incoming req see
system.mem_ctrl.rdQLenPdf::6                        0                       # What read queue length does an incoming req see
system.mem_ctrl.rdQLenPdf::7                        0                       # What read queue length does an incoming req see
system.mem_ctrl.rdQLenPdf::8                        0                       # What read queue length does an incoming req see
system.mem_ctrl.rdQLenPdf::9                        0                       # What read queue length does an incoming req see
system.mem_ctrl.rdQLenPdf::10                       0                       # What read queue length does an incoming req see
system.mem_ctrl.rdQLenPdf::11                       0                       # What read queue length does an incoming req see
system.mem_ctrl.rdQLenPdf::12                       0                       # What read queue length does an incoming req see
system.mem_ctrl.rdQLenPdf::13                       0                       # What read queue length does an incoming req see
system.mem_ctrl.rdQLenPdf::14                       0                       # What read queue length does an incoming req see
system.mem_ctrl.rdQLenPdf::15                       0                       # What read queue length does an incoming req see
system.mem_ctrl.rdQLenPdf::16                       0                       # What read queue length does an incoming req see
system.mem_ctrl.rdQLenPdf::17                       0                       # What read queue length does an incoming req see
system.mem_ctrl.rdQLenPdf::18                       0                       # What read queue length does an incoming req see
system.mem_ctrl.rdQLenPdf::19                       0                       # What read queue length does an incoming req see
system.mem_ctrl.rdQLenPdf::20                       0                       # What read queue length does an incoming req see
system.mem_ctrl.rdQLenPdf::21                       0                       # What read queue length does an incoming req see
system.mem_ctrl.rdQLenPdf::22                       0                       # What read queue length does an incoming req see
system.mem_ctrl.rdQLenPdf::23                       0                       # What read queue length does an incoming req see
system.mem_ctrl.rdQLenPdf::24                       0                       # What read queue length does an incoming req see
system.mem_ctrl.rdQLenPdf::25                       0                       # What read queue length does an incoming req see
system.mem_ctrl.rdQLenPdf::26                       0                       # What read queue length does an incoming req see
system.mem_ctrl.rdQLenPdf::27                       0                       # What read queue length does an incoming req see
system.mem_ctrl.rdQLenPdf::28                       0                       # What read queue length does an incoming req see
system.mem_ctrl.rdQLenPdf::29                       0                       # What read queue length does an incoming req see
system.mem_ctrl.rdQLenPdf::30                       0                       # What read queue length does an incoming req see
system.mem_ctrl.rdQLenPdf::31                       0                       # What read queue length does an incoming req see
system.mem_ctrl.wrQLenPdf::0                        0                       # What write queue length does an incoming req see
system.mem_ctrl.wrQLenPdf::1                        0                       # What write queue length does an incoming req see
system.mem_ctrl.wrQLenPdf::2                        0                       # What write queue length does an incoming req see
system.mem_ctrl.wrQLenPdf::3                        0                       # What write queue length does an incoming req see
system.mem_ctrl.wrQLenPdf::4                        0                       # What write queue length does an incoming req see
system.mem_ctrl.wrQLenPdf::5                        0                       # What write queue length does an incoming req see
system.mem_ctrl.wrQLenPdf::6                        0                       # What write queue length does an incoming req see
system.mem_ctrl.wrQLenPdf::7                        0                       # What write queue length does an incoming req see
system.mem_ctrl.wrQLenPdf::8                        0                       # What write queue length does an incoming req see
system.mem_ctrl.wrQLenPdf::9                        0                       # What write queue length does an incoming req see
system.mem_ctrl.wrQLenPdf::10                       0                       # What write queue length does an incoming req see
system.mem_ctrl.wrQLenPdf::11                       0                       # What write queue length does an incoming req see
system.mem_ctrl.wrQLenPdf::12                       0                       # What write queue length does an incoming req see
system.mem_ctrl.wrQLenPdf::13                       0                       # What write queue length does an incoming req see
system.mem_ctrl.wrQLenPdf::14                       0                       # What write queue length does an incoming req see
system.mem_ctrl.wrQLenPdf::15                       0                       # What write queue length does an incoming req see
system.mem_ctrl.wrQLenPdf::16                       0                       # What write queue length does an incoming req see
system.mem_ctrl.wrQLenPdf::17                       0                       # What write queue length does an incoming req see
system.mem_ctrl.wrQLenPdf::18                       0                       # What write queue length does an incoming req see
system.mem_ctrl.wrQLenPdf::19                       0                       # What write queue length does an incoming req see
system.mem_ctrl.wrQLenPdf::20                       0                       # What write queue length does an incoming req see
system.mem_ctrl.wrQLenPdf::21                       0                       # What write queue length does an incoming req see
system.mem_ctrl.wrQLenPdf::22                       0                       # What write queue length does an incoming req see
system.mem_ctrl.wrQLenPdf::23                       0                       # What write queue length does an incoming req see
system.mem_ctrl.wrQLenPdf::24                       0                       # What write queue length does an incoming req see
system.mem_ctrl.wrQLenPdf::25                       0                       # What write queue length does an incoming req see
system.mem_ctrl.wrQLenPdf::26                       0                       # What write queue length does an incoming req see
system.mem_ctrl.wrQLenPdf::27                       0                       # What write queue length does an incoming req see
system.mem_ctrl.wrQLenPdf::28                       0                       # What write queue length does an incoming req see
system.mem_ctrl.wrQLenPdf::29                       0                       # What write queue length does an incoming req see
system.mem_ctrl.wrQLenPdf::30                       0                       # What write queue length does an incoming req see
system.mem_ctrl.wrQLenPdf::31                       0                       # What write queue length does an incoming req see
system.mem_ctrl.wrQLenPdf::32                       0                       # What write queue length does an incoming req see
system.mem_ctrl.wrQLenPdf::33                       0                       # What write queue length does an incoming req see
system.mem_ctrl.wrQLenPdf::34                       0                       # What write queue length does an incoming req see
system.mem_ctrl.wrQLenPdf::35                       0                       # What write queue length does an incoming req see
system.mem_ctrl.wrQLenPdf::36                       0                       # What write queue length does an incoming req see
system.mem_ctrl.wrQLenPdf::37                       0                       # What write queue length does an incoming req see
system.mem_ctrl.wrQLenPdf::38                       0                       # What write queue length does an incoming req see
system.mem_ctrl.wrQLenPdf::39                       0                       # What write queue length does an incoming req see
system.mem_ctrl.wrQLenPdf::40                       0                       # What write queue length does an incoming req see
system.mem_ctrl.wrQLenPdf::41                       0                       # What write queue length does an incoming req see
system.mem_ctrl.wrQLenPdf::42                       0                       # What write queue length does an incoming req see
system.mem_ctrl.wrQLenPdf::43                       0                       # What write queue length does an incoming req see
system.mem_ctrl.wrQLenPdf::44                       0                       # What write queue length does an incoming req see
system.mem_ctrl.wrQLenPdf::45                       0                       # What write queue length does an incoming req see
system.mem_ctrl.wrQLenPdf::46                       0                       # What write queue length does an incoming req see
system.mem_ctrl.wrQLenPdf::47                       0                       # What write queue length does an incoming req see
system.mem_ctrl.wrQLenPdf::48                       0                       # What write queue length does an incoming req see
system.mem_ctrl.wrQLenPdf::49                       0                       # What write queue length does an incoming req see
system.mem_ctrl.wrQLenPdf::50                       0                       # What write queue length does an incoming req see
system.mem_ctrl.wrQLenPdf::51                       0                       # What write queue length does an incoming req see
system.mem_ctrl.wrQLenPdf::52                       0                       # What write queue length does an incoming req see
system.mem_ctrl.wrQLenPdf::53                       0                       # What write queue length does an incoming req see
system.mem_ctrl.wrQLenPdf::54                       0                       # What write queue length does an incoming req see
system.mem_ctrl.wrQLenPdf::55                       0                       # What write queue length does an incoming req see
system.mem_ctrl.wrQLenPdf::56                       0                       # What write queue length does an incoming req see
system.mem_ctrl.wrQLenPdf::57                       0                       # What write queue length does an incoming req see
system.mem_ctrl.wrQLenPdf::58                       0                       # What write queue length does an incoming req see
system.mem_ctrl.wrQLenPdf::59                       0                       # What write queue length does an incoming req see
system.mem_ctrl.wrQLenPdf::60                       0                       # What write queue length does an incoming req see
system.mem_ctrl.wrQLenPdf::61                       0                       # What write queue length does an incoming req see
system.mem_ctrl.wrQLenPdf::62                       0                       # What write queue length does an incoming req see
system.mem_ctrl.wrQLenPdf::63                       0                       # What write queue length does an incoming req see
system.mem_ctrl.bytesPerActivate::samples           59                       # Bytes accessed per row activation
system.mem_ctrl.bytesPerActivate::mean     463.186441                       # Bytes accessed per row activation
system.mem_ctrl.bytesPerActivate::gmean    299.674462                       # Bytes accessed per row activation
system.mem_ctrl.bytesPerActivate::stdev    385.713690                       # Bytes accessed per row activation
system.mem_ctrl.bytesPerActivate::0-127             9     15.25%     15.25% # Bytes accessed per row activation
system.mem_ctrl.bytesPerActivate::128-255           17     28.81%     44.07% # Bytes accessed per row activation
system.mem_ctrl.bytesPerActivate::256-383            6     10.17%     54.24% # Bytes accessed per row activation
system.mem_ctrl.bytesPerActivate::384-511            4      6.78%     61.02% # Bytes accessed per row activation
system.mem_ctrl.bytesPerActivate::512-639            4      6.78%     67.80% # Bytes accessed per row activation
system.mem_ctrl.bytesPerActivate::640-767            1      1.69%     69.49% # Bytes accessed per row activation
system.mem_ctrl.bytesPerActivate::768-895            2      3.39%     72.88% # Bytes accessed per row activation
system.mem_ctrl.bytesPerActivate::896-1023            1      1.69%     74.58% # Bytes accessed per row activation
system.mem_ctrl.bytesPerActivate::1024-1151           15     25.42%    100.00% # Bytes accessed per row activation
system.mem_ctrl.bytesPerActivate::total            59                       # Bytes accessed per row activation
system.mem_ctrl.totQLat                       5248593                       # Total ticks spent queuing
system.mem_ctrl.totMemAccLat                 13273593                       # Total ticks spent from burst creation until serviced by the DRAM
system.mem_ctrl.totBusLat                     2140000                       # Total ticks spent in databus transfers
system.mem_ctrl.avgQLat                      12263.07                       # Average queueing delay per DRAM burst
system.mem_ctrl.avgBusLat                     5000.00                       # Average bus latency per DRAM burst
system.mem_ctrl.avgMemAccLat                 31013.07                       # Average memory access latency per DRAM burst
system.mem_ctrl.avgRdBW                        195.30                       # Average DRAM read bandwidth in MiByte/s
system.mem_ctrl.avgWrBW                          0.00                       # Average achieved write bandwidth in MiByte/s
system.mem_ctrl.avgRdBWSys                     195.30                       # Average system read bandwidth in MiByte/s
system.mem_ctrl.avgWrBWSys                       0.00                       # Average system write bandwidth in MiByte/s
system.mem_ctrl.peakBW                       12800.00                       # Theoretical peak bandwidth in MiByte/s
system.mem_ctrl.busUtil                          1.53                       # Data bus utilization in percentage
system.mem_ctrl.busUtilRead                      1.53                       # Data bus utilization in percentage for reads
system.mem_ctrl.busUtilWrite                     0.00                       # Data bus utilization in percentage for writes
system.mem_ctrl.avgRdQLen                        1.05                       # Average read queue length when enqueuing
system.mem_ctrl.avgWrQLen                        0.00                       # Average write queue length when enqueuing
system.mem_ctrl.readRowHits                       368                       # Number of row buffer hits during reads
system.mem_ctrl.writeRowHits                        0                       # Number of row buffer hits during writes
system.mem_ctrl.readRowHitRate                  85.98                       # Row buffer hit rate for reads
system.mem_ctrl.writeRowHitRate                   nan                       # Row buffer hit rate for writes
system.mem_ctrl.avgGap                      327255.39                       # Average gap between requests
system.mem_ctrl.pageHitRate                     85.98                       # Row buffer hit rate, read and write combined
system.mem_ctrl_0.actEnergy                    328440                       # Energy for activate commands per rank (pJ)
system.mem_ctrl_0.preEnergy                    174570                       # Energy for precharge commands per rank (pJ)
system.mem_ctrl_0.readEnergy                  2049180                       # Energy for read commands per rank (pJ)
system.mem_ctrl_0.writeEnergy                       0                       # Energy for write commands per rank (pJ)
system.mem_ctrl_0.refreshEnergy          11063520.000000                       # Energy for refresh commands per rank (pJ)
system.mem_ctrl_0.actBackEnergy               5842500                       # Energy for active background per rank (pJ)
system.mem_ctrl_0.preBackEnergy                227040                       # Energy for precharge background per rank (pJ)
system.mem_ctrl_0.actPowerDownEnergy         43175220                       # Energy for active power-down per rank (pJ)
system.mem_ctrl_0.prePowerDownEnergy         12415680                       # Energy for precharge power-down per rank (pJ)
system.mem_ctrl_0.selfRefreshEnergy                 0                       # Energy for self refresh per rank (pJ)
system.mem_ctrl_0.totalEnergy                75276150                       # Total energy per rank (pJ)
system.mem_ctrl_0.averagePower             536.704467                       # Core power per rank (mW)
system.mem_ctrl_0.totalIdleTime             127018591                       # Total Idle time Per DRAM Rank
system.mem_ctrl_0.memoryStateTime::IDLE        108260                       # Time in different power states
system.mem_ctrl_0.memoryStateTime::REF        4503989                       # Time in different power states
system.mem_ctrl_0.memoryStateTime::SREF             0                       # Time in different power states
system.mem_ctrl_0.memoryStateTime::PRE_PDN     32328966                       # Time in different power states
system.mem_ctrl_0.memoryStateTime::ACT        8625399                       # Time in different power states
system.mem_ctrl_0.memoryStateTime::ACT_PDN     94689625                       # Time in different power states
system.mem_ctrl_1.actEnergy                     99960                       # Energy for activate commands per rank (pJ)
system.mem_ctrl_1.preEnergy                     49335                       # Energy for precharge commands per rank (pJ)
system.mem_ctrl_1.readEnergy                  1006740                       # Energy for read commands per rank (pJ)
system.mem_ctrl_1.writeEnergy                       0                       # Energy for write commands per rank (pJ)
system.mem_ctrl_1.refreshEnergy          4302480.000000                       # Energy for refresh commands per rank (pJ)
system.mem_ctrl_1.actBackEnergy               2242380                       # Energy for active background per rank (pJ)
system.mem_ctrl_1.preBackEnergy                322080                       # Energy for precharge background per rank (pJ)
system.mem_ctrl_1.actPowerDownEnergy          9743580                       # Energy for active power-down per rank (pJ)
system.mem_ctrl_1.prePowerDownEnergy          5765280                       # Energy for precharge power-down per rank (pJ)
system.mem_ctrl_1.selfRefreshEnergy          24652980                       # Energy for self refresh per rank (pJ)
system.mem_ctrl_1.totalEnergy                48184815                       # Total energy per rank (pJ)
system.mem_ctrl_1.averagePower             343.548461                       # Core power per rank (mW)
system.mem_ctrl_1.totalIdleTime             132663609                       # Total Idle time Per DRAM Rank
system.mem_ctrl_1.memoryStateTime::IDLE        687476                       # Time in different power states
system.mem_ctrl_1.memoryStateTime::REF        1832000                       # Time in different power states
system.mem_ctrl_1.memoryStateTime::SREF      98118523                       # Time in different power states
system.mem_ctrl_1.memoryStateTime::PRE_PDN     15014250                       # Time in different power states
system.mem_ctrl_1.memoryStateTime::ACT        3231188                       # Time in different power states
system.mem_ctrl_1.memoryStateTime::ACT_PDN     21372802                       # Time in different power states
system.pwrStateResidencyTicks::UNDEFINED    140256239                       # Cumulative time (in ticks) in various power states
system.cpu.branchPred.lookups                   68181                       # Number of BP lookups
system.cpu.branchPred.condPredicted             50086                       # Number of conditional branches predicted
system.cpu.branchPred.condIncorrect              2746                       # Number of conditional branches incorrect
system.cpu.branchPred.BTBLookups                55324                       # Number of BTB lookups
system.cpu.branchPred.BTBHits                   50302                       # Number of BTB hits
system.cpu.branchPred.BTBCorrect                    0                       # Number of correct BTB predictions (this stat may not work properly.
system.cpu.branchPred.BTBHitPct             90.922565                       # BTB Hit Percentage
system.cpu.branchPred.usedRAS                       0                       # Number of times the RAS was used to get a target.
system.cpu.branchPred.RASInCorrect                  0                       # Number of incorrect RAS predictions.
system.cpu.branchPred.indirectLookups            3574                       # Number of indirect predictor lookups.
system.cpu.branchPred.indirectHits               3039                       # Number of indirect target hits.
system.cpu.branchPred.indirectMisses              535                       # Number of indirect misses.
system.cpu.branchPredindirectMispredicted          429                       # Number of mispredicted indirect branches.
system.cpu.dtb.read_hits                            0                       # DTB read hits
system.cpu.dtb.read_misses                          0                       # DTB read misses
system.cpu.dtb.read_accesses                        0                       # DTB read accesses
system.cpu.dtb.write_hits                           0                       # DTB write hits
system.cpu.dtb.write_misses                         0                       # DTB write misses
system.cpu.dtb.write_accesses                       0                       # DTB write accesses
system.cpu.dtb.hits                                 0                       # DTB hits
system.cpu.dtb.misses                               0                       # DTB misses
system.cpu.dtb.accesses                             0                       # DTB accesses
system.cpu.itb.read_hits                            0                       # DTB read hits
system.cpu.itb.read_misses                          0                       # DTB read misses
system.cpu.itb.read_accesses                        0                       # DTB read accesses
system.cpu.itb.write_hits                           0                       # DTB write hits
system.cpu.itb.write_misses                         0                       # DTB write misses
system.cpu.itb.write_accesses                       0                       # DTB write accesses
system.cpu.itb.hits                                 0                       # DTB hits
system.cpu.itb.misses                               0                       # DTB misses
system.cpu.itb.accesses                             0                       # DTB accesses
system.cpu.workload.numSyscalls                    66                       # Number of system calls
system.cpu.pwrStateResidencyTicks::ON       140256239                       # Cumulative time (in ticks) in various power states
system.cpu.numCycles                           448103                       # number of cpu cycles simulated
system.cpu.numWorkItemsStarted                      0                       # number of work items this cpu started
system.cpu.numWorkItemsCompleted                    0                       # number of work items this cpu completed
system.cpu.committedInsts                      207329                       # Number of instructions committed
system.cpu.committedOps                        207329                       # Number of ops (including micro ops) committed
system.cpu.discardedOps                          4909                       # Number of ops (including micro ops) which were discarded before commit
system.cpu.numFetchSuspends                         0                       # Number of times Execute suspended instruction fetching
system.cpu.cpi                               2.161314                       # CPI: cycles per instruction
system.cpu.ipc                               0.462682                       # IPC: instructions per cycle
system.cpu.op_class_0::No_OpClass                  66      0.03%      0.03% # Class of committed instruction
system.cpu.op_class_0::IntAdd                       0      0.00%      0.03% # Class of committed instruction
system.cpu.op_class_0::IntSub                       0      0.00%      0.03% # Class of committed instruction
system.cpu.op_class_0::IntMult                      1      0.00%      0.03% # Class of committed instruction
system.cpu.op_class_0::IntDiv                       1      0.00%      0.03% # Class of committed instruction
system.cpu.op_class_0::IntLogic                     0      0.00%      0.03% # Class of committed instruction
system.cpu.op_class_0::IntShift                     0      0.00%      0.03% # Class of committed instruction
system.cpu.op_class_0::IntMov                       0      0.00%      0.03% # Class of committed instruction
system.cpu.op_class_0::IntCtrl                      0      0.00%      0.03% # Class of committed instruction
system.cpu.op_class_0::IntALU                  133840     64.55%     64.59% # Class of committed instruction
system.cpu.op_class_0::FloatAdd                     0      0.00%     64.59% # Class of committed instruction
system.cpu.op_class_0::FloatCmp                     0      0.00%     64.59% # Class of committed instruction
system.cpu.op_class_0::FloatCvt                     0      0.00%     64.59% # Class of committed instruction
system.cpu.op_class_0::FloatMult                    0      0.00%     64.59% # Class of committed instruction
system.cpu.op_class_0::FloatMultAcc                 0      0.00%     64.59% # Class of committed instruction
system.cpu.op_class_0::FloatDiv                     0      0.00%     64.59% # Class of committed instruction
system.cpu.op_class_0::FloatMisc                    0      0.00%     64.59% # Class of committed instruction
system.cpu.op_class_0::FloatSqrt                    0      0.00%     64.59% # Class of committed instruction
system.cpu.op_class_0::SimdAdd                      0      0.00%     64.59% # Class of committed instruction
system.cpu.op_class_0::SimdAddAcc                   0      0.00%     64.59% # Class of committed instruction
system.cpu.op_class_0::SimdAlu                      0      0.00%     64.59% # Class of committed instruction
system.cpu.op_class_0::SimdCmp                      0      0.00%     64.59% # Class of committed instruction
system.cpu.op_class_0::SimdCvt                      0      0.00%     64.59% # Class of committed instruction
system.cpu.op_class_0::SimdMisc                     0      0.00%     64.59% # Class of committed instruction
system.cpu.op_class_0::SimdMult                     0      0.00%     64.59% # Class of committed instruction
system.cpu.op_class_0::SimdMultAcc                  0      0.00%     64.59% # Class of committed instruction
system.cpu.op_class_0::SimdShift                    0      0.00%     64.59% # Class of committed instruction
system.cpu.op_class_0::SimdShiftAcc                 0      0.00%     64.59% # Class of committed instruction
system.cpu.op_class_0::SimdSqrt                     0      0.00%     64.59% # Class of committed instruction
system.cpu.op_class_0::SimdFloatAdd                 0      0.00%     64.59% # Class of committed instruction
system.cpu.op_class_0::SimdFloatAlu                 0      0.00%     64.59% # Class of committed instruction
system.cpu.op_class_0::SimdFloatCmp                 0      0.00%     64.59% # Class of committed instruction
system.cpu.op_class_0::SimdFloatCvt                 0      0.00%     64.59% # Class of committed instruction
system.cpu.op_class_0::SimdFloatDiv                 0      0.00%     64.59% # Class of committed instruction
system.cpu.op_class_0::SimdFloatMisc                0      0.00%     64.59% # Class of committed instruction
system.cpu.op_class_0::SimdFloatMult                0      0.00%     64.59% # Class of committed instruction
system.cpu.op_class_0::SimdFloatMultAcc             0      0.00%     64.59% # Class of committed instruction
system.cpu.op_class_0::SimdFloatSqrt                0      0.00%     64.59% # Class of committed instruction
system.cpu.op_class_0::MemRead                  36439     17.58%     82.16% # Class of committed instruction
system.cpu.op_class_0::MemWrite                 36982     17.84%    100.00% # Class of committed instruction
system.cpu.op_class_0::FloatMemRead                 0      0.00%    100.00% # Class of committed instruction
system.cpu.op_class_0::FloatMemWrite                0      0.00%    100.00% # Class of committed instruction
system.cpu.op_class_0::IprAccess                    0      0.00%    100.00% # Class of committed instruction
system.cpu.op_class_0::InstPrefetch                 0      0.00%    100.00% # Class of committed instruction
system.cpu.op_class_0::total                   207329                       # Class of committed instruction
system.cpu.tickCycles                          381796                       # Number of cycles that the object actually ticked
system.cpu.idleCycles                           66307                       # Total number of cycles that the object has spent stopped
system.cpu.fetch2.int_instructions             144548                       # Number of integer instructions successfully decoded
system.cpu.fetch2.fp_instructions                   0                       # Number of floating point instructions successfully decoded
system.cpu.fetch2.vec_instructions                  0                       # Number of SIMD instructions successfully decoded
system.cpu.fetch2.load_instructions             40094                       # Number of memory load instructions successfully decoded
system.cpu.fetch2.store_instructions            39012                       # Number of memory store instructions successfully decoded
system.cpu.dcache.tags.pwrStateResidencyTicks::UNDEFINED    140256239                       # Cumulative time (in ticks) in various power states
system.cpu.dcache.tags.replacements                 0                       # number of replacements
system.cpu.dcache.tags.tagsinuse           167.360553                       # Cycle average of tags in use
system.cpu.dcache.tags.total_refs               73543                       # Total number of references to valid blocks.
system.cpu.dcache.tags.sampled_refs               193                       # Sample count of references to valid blocks.
system.cpu.dcache.tags.avg_refs            381.051813                       # Average number of references to valid blocks.
system.cpu.dcache.tags.warmup_cycle            200633                       # Cycle when the warmup percentage was hit.
system.cpu.dcache.tags.occ_blocks::cpu.data   167.360553                       # Average occupied blocks per requestor
system.cpu.dcache.tags.occ_percent::cpu.data     0.326876                       # Average percentage of cache occupancy
system.cpu.dcache.tags.occ_percent::total     0.326876                       # Average percentage of cache occupancy
system.cpu.dcache.tags.occ_task_id_blocks::1024          193                       # Occupied blocks per task id
system.cpu.dcache.tags.age_task_id_blocks_1024::0            3                       # Occupied blocks per task id
system.cpu.dcache.tags.age_task_id_blocks_1024::1           29                       # Occupied blocks per task id
system.cpu.dcache.tags.age_task_id_blocks_1024::2          161                       # Occupied blocks per task id
system.cpu.dcache.tags.occ_task_id_percent::1024     0.376953                       # Percentage of cache occupancy per task id
system.cpu.dcache.tags.tag_accesses            295613                       # Number of tag accesses
system.cpu.dcache.tags.data_accesses           295613                       # Number of data accesses
system.cpu.dcache.pwrStateResidencyTicks::UNDEFINED    140256239                       # Cumulative time (in ticks) in various power states
system.cpu.dcache.ReadReq_hits::cpu.data        36802                       # number of ReadReq hits
system.cpu.dcache.ReadReq_hits::total           36802                       # number of ReadReq hits
system.cpu.dcache.WriteReq_hits::cpu.data        36741                       # number of WriteReq hits
system.cpu.dcache.WriteReq_hits::total          36741                       # number of WriteReq hits
system.cpu.dcache.demand_hits::cpu.data         73543                       # number of demand (read+write) hits
system.cpu.dcache.demand_hits::total            73543                       # number of demand (read+write) hits
system.cpu.dcache.overall_hits::cpu.data        73543                       # number of overall hits
system.cpu.dcache.overall_hits::total           73543                       # number of overall hits
system.cpu.dcache.ReadReq_misses::cpu.data           71                       # number of ReadReq misses
system.cpu.dcache.ReadReq_misses::total            71                       # number of ReadReq misses
system.cpu.dcache.WriteReq_misses::cpu.data          241                       # number of WriteReq misses
system.cpu.dcache.WriteReq_misses::total          241                       # number of WriteReq misses
system.cpu.dcache.demand_misses::cpu.data          312                       # number of demand (read+write) misses
system.cpu.dcache.demand_misses::total            312                       # number of demand (read+write) misses
system.cpu.dcache.overall_misses::cpu.data          312                       # number of overall misses
system.cpu.dcache.overall_misses::total           312                       # number of overall misses
system.cpu.dcache.ReadReq_miss_latency::cpu.data      5033666                       # number of ReadReq miss cycles
system.cpu.dcache.ReadReq_miss_latency::total      5033666                       # number of ReadReq miss cycles
system.cpu.dcache.WriteReq_miss_latency::cpu.data      9840407                       # number of WriteReq miss cycles
system.cpu.dcache.WriteReq_miss_latency::total      9840407                       # number of WriteReq miss cycles
system.cpu.dcache.demand_miss_latency::cpu.data     14874073                       # number of demand (read+write) miss cycles
system.cpu.dcache.demand_miss_latency::total     14874073                       # number of demand (read+write) miss cycles
system.cpu.dcache.overall_miss_latency::cpu.data     14874073                       # number of overall miss cycles
system.cpu.dcache.overall_miss_latency::total     14874073                       # number of overall miss cycles
system.cpu.dcache.ReadReq_accesses::cpu.data        36873                       # number of ReadReq accesses(hits+misses)
system.cpu.dcache.ReadReq_accesses::total        36873                       # number of ReadReq accesses(hits+misses)
system.cpu.dcache.WriteReq_accesses::cpu.data        36982                       # number of WriteReq accesses(hits+misses)
system.cpu.dcache.WriteReq_accesses::total        36982                       # number of WriteReq accesses(hits+misses)
system.cpu.dcache.demand_accesses::cpu.data        73855                       # number of demand (read+write) accesses
system.cpu.dcache.demand_accesses::total        73855                       # number of demand (read+write) accesses
system.cpu.dcache.overall_accesses::cpu.data        73855                       # number of overall (read+write) accesses
system.cpu.dcache.overall_accesses::total        73855                       # number of overall (read+write) accesses
system.cpu.dcache.ReadReq_miss_rate::cpu.data     0.001926                       # miss rate for ReadReq accesses
system.cpu.dcache.ReadReq_miss_rate::total     0.001926                       # miss rate for ReadReq accesses
system.cpu.dcache.WriteReq_miss_rate::cpu.data     0.006517                       # miss rate for WriteReq accesses
system.cpu.dcache.WriteReq_miss_rate::total     0.006517                       # miss rate for WriteReq accesses
system.cpu.dcache.demand_miss_rate::cpu.data     0.004224                       # miss rate for demand accesses
system.cpu.dcache.demand_miss_rate::total     0.004224                       # miss rate for demand accesses
system.cpu.dcache.overall_miss_rate::cpu.data     0.004224                       # miss rate for overall accesses
system.cpu.dcache.overall_miss_rate::total     0.004224                       # miss rate for overall accesses
system.cpu.dcache.ReadReq_avg_miss_latency::cpu.data 70896.704225                       # average ReadReq miss latency
system.cpu.dcache.ReadReq_avg_miss_latency::total 70896.704225                       # average ReadReq miss latency
system.cpu.dcache.WriteReq_avg_miss_latency::cpu.data 40831.564315                       # average WriteReq miss latency
system.cpu.dcache.WriteReq_avg_miss_latency::total 40831.564315                       # average WriteReq miss latency
system.cpu.dcache.demand_avg_miss_latency::cpu.data 47673.310897                       # average overall miss latency
system.cpu.dcache.demand_avg_miss_latency::total 47673.310897                       # average overall miss latency
system.cpu.dcache.overall_avg_miss_latency::cpu.data 47673.310897                       # average overall miss latency
system.cpu.dcache.overall_avg_miss_latency::total 47673.310897                       # average overall miss latency
system.cpu.dcache.blocked_cycles::no_mshrs            0                       # number of cycles access was blocked
system.cpu.dcache.blocked_cycles::no_targets            0                       # number of cycles access was blocked
system.cpu.dcache.blocked::no_mshrs                 0                       # number of cycles access was blocked
system.cpu.dcache.blocked::no_targets               0                       # number of cycles access was blocked
system.cpu.dcache.avg_blocked_cycles::no_mshrs          nan                       # average number of cycles each access was blocked
system.cpu.dcache.avg_blocked_cycles::no_targets          nan                       # average number of cycles each access was blocked
system.cpu.dcache.ReadReq_mshr_hits::cpu.data            4                       # number of ReadReq MSHR hits
system.cpu.dcache.ReadReq_mshr_hits::total            4                       # number of ReadReq MSHR hits
system.cpu.dcache.WriteReq_mshr_hits::cpu.data          115                       # number of WriteReq MSHR hits
system.cpu.dcache.WriteReq_mshr_hits::total          115                       # number of WriteReq MSHR hits
system.cpu.dcache.demand_mshr_hits::cpu.data          119                       # number of demand (read+write) MSHR hits
system.cpu.dcache.demand_mshr_hits::total          119                       # number of demand (read+write) MSHR hits
system.cpu.dcache.overall_mshr_hits::cpu.data          119                       # number of overall MSHR hits
system.cpu.dcache.overall_mshr_hits::total          119                       # number of overall MSHR hits
system.cpu.dcache.ReadReq_mshr_misses::cpu.data           67                       # number of ReadReq MSHR misses
system.cpu.dcache.ReadReq_mshr_misses::total           67                       # number of ReadReq MSHR misses
system.cpu.dcache.WriteReq_mshr_misses::cpu.data          126                       # number of WriteReq MSHR misses
system.cpu.dcache.WriteReq_mshr_misses::total          126                       # number of WriteReq MSHR misses
system.cpu.dcache.demand_mshr_misses::cpu.data          193                       # number of demand (read+write) MSHR misses
system.cpu.dcache.demand_mshr_misses::total          193                       # number of demand (read+write) MSHR misses
system.cpu.dcache.overall_mshr_misses::cpu.data          193                       # number of overall MSHR misses
system.cpu.dcache.overall_mshr_misses::total          193                       # number of overall MSHR misses
system.cpu.dcache.ReadReq_mshr_miss_latency::cpu.data      4824269                       # number of ReadReq MSHR miss cycles
system.cpu.dcache.ReadReq_mshr_miss_latency::total      4824269                       # number of ReadReq MSHR miss cycles
system.cpu.dcache.WriteReq_mshr_miss_latency::cpu.data      5163561                       # number of WriteReq MSHR miss cycles
system.cpu.dcache.WriteReq_mshr_miss_latency::total      5163561                       # number of WriteReq MSHR miss cycles
system.cpu.dcache.demand_mshr_miss_latency::cpu.data      9987830                       # number of demand (read+write) MSHR miss cycles
system.cpu.dcache.demand_mshr_miss_latency::total      9987830                       # number of demand (read+write) MSHR miss cycles
system.cpu.dcache.overall_mshr_miss_latency::cpu.data      9987830                       # number of overall MSHR miss cycles
system.cpu.dcache.overall_mshr_miss_latency::total      9987830                       # number of overall MSHR miss cycles
system.cpu.dcache.ReadReq_mshr_miss_rate::cpu.data     0.001817                       # mshr miss rate for ReadReq accesses
system.cpu.dcache.ReadReq_mshr_miss_rate::total     0.001817                       # mshr miss rate for ReadReq accesses
system.cpu.dcache.WriteReq_mshr_miss_rate::cpu.data     0.003407                       # mshr miss rate for WriteReq accesses
system.cpu.dcache.WriteReq_mshr_miss_rate::total     0.003407                       # mshr miss rate for WriteReq accesses
system.cpu.dcache.demand_mshr_miss_rate::cpu.data     0.002613                       # mshr miss rate for demand accesses
system.cpu.dcache.demand_mshr_miss_rate::total     0.002613                       # mshr miss rate for demand accesses
system.cpu.dcache.overall_mshr_miss_rate::cpu.data     0.002613                       # mshr miss rate for overall accesses
system.cpu.dcache.overall_mshr_miss_rate::total     0.002613                       # mshr miss rate for overall accesses
system.cpu.dcache.ReadReq_avg_mshr_miss_latency::cpu.data 72004.014925                       # average ReadReq mshr miss latency
system.cpu.dcache.ReadReq_avg_mshr_miss_latency::total 72004.014925                       # average ReadReq mshr miss latency
system.cpu.dcache.WriteReq_avg_mshr_miss_latency::cpu.data 40980.642857                       # average WriteReq mshr miss latency
system.cpu.dcache.WriteReq_avg_mshr_miss_latency::total 40980.642857                       # average WriteReq mshr miss latency
system.cpu.dcache.demand_avg_mshr_miss_latency::cpu.data 51750.414508                       # average overall mshr miss latency
system.cpu.dcache.demand_avg_mshr_miss_latency::total 51750.414508                       # average overall mshr miss latency
system.cpu.dcache.overall_avg_mshr_miss_latency::cpu.data 51750.414508                       # average overall mshr miss latency
system.cpu.dcache.overall_avg_mshr_miss_latency::total 51750.414508                       # average overall mshr miss latency
system.cpu.icache.tags.pwrStateResidencyTicks::UNDEFINED    140256239                       # Cumulative time (in ticks) in various power states
system.cpu.icache.tags.replacements                13                       # number of replacements
system.cpu.icache.tags.tagsinuse           186.430167                       # Cycle average of tags in use
system.cpu.icache.tags.total_refs              123429                       # Total number of references to valid blocks.
system.cpu.icache.tags.sampled_refs               238                       # Sample count of references to valid blocks.
system.cpu.icache.tags.avg_refs            518.609244                       # Average number of references to valid blocks.
system.cpu.icache.tags.warmup_cycle             72929                       # Cycle when the warmup percentage was hit.
system.cpu.icache.tags.occ_blocks::cpu.inst   186.430167                       # Average occupied blocks per requestor
system.cpu.icache.tags.occ_percent::cpu.inst     0.364121                       # Average percentage of cache occupancy
system.cpu.icache.tags.occ_percent::total     0.364121                       # Average percentage of cache occupancy
system.cpu.icache.tags.occ_task_id_blocks::1024          225                       # Occupied blocks per task id
system.cpu.icache.tags.age_task_id_blocks_1024::0           30                       # Occupied blocks per task id
system.cpu.icache.tags.age_task_id_blocks_1024::2          195                       # Occupied blocks per task id
system.cpu.icache.tags.occ_task_id_percent::1024     0.439453                       # Percentage of cache occupancy per task id
system.cpu.icache.tags.tag_accesses            247572                       # Number of tag accesses
system.cpu.icache.tags.data_accesses           247572                       # Number of data accesses
system.cpu.icache.pwrStateResidencyTicks::UNDEFINED    140256239                       # Cumulative time (in ticks) in various power states
system.cpu.icache.ReadReq_hits::cpu.inst       123429                       # number of ReadReq hits
system.cpu.icache.ReadReq_hits::total          123429                       # number of ReadReq hits
system.cpu.icache.demand_hits::cpu.inst        123429                       # number of demand (read+write) hits
system.cpu.icache.demand_hits::total           123429                       # number of demand (read+write) hits
system.cpu.icache.overall_hits::cpu.inst       123429                       # number of overall hits
system.cpu.icache.overall_hits::total          123429                       # number of overall hits
system.cpu.icache.ReadReq_misses::cpu.inst          238                       # number of ReadReq misses
system.cpu.icache.ReadReq_misses::total           238                       # number of ReadReq misses
system.cpu.icache.demand_misses::cpu.inst          238                       # number of demand (read+write) misses
system.cpu.icache.demand_misses::total            238                       # number of demand (read+write) misses
system.cpu.icache.overall_misses::cpu.inst          238                       # number of overall misses
system.cpu.icache.overall_misses::total           238                       # number of overall misses
system.cpu.icache.ReadReq_miss_latency::cpu.inst     13933821                       # number of ReadReq miss cycles
system.cpu.icache.ReadReq_miss_latency::total     13933821                       # number of ReadReq miss cycles
system.cpu.icache.demand_miss_latency::cpu.inst     13933821                       # number of demand (read+write) miss cycles
system.cpu.icache.demand_miss_latency::total     13933821                       # number of demand (read+write) miss cycles
system.cpu.icache.overall_miss_latency::cpu.inst     13933821                       # number of overall miss cycles
system.cpu.icache.overall_miss_latency::total     13933821                       # number of overall miss cycles
system.cpu.icache.ReadReq_accesses::cpu.inst       123667                       # number of ReadReq accesses(hits+misses)
system.cpu.icache.ReadReq_accesses::total       123667                       # number of ReadReq accesses(hits+misses)
system.cpu.icache.demand_accesses::cpu.inst       123667                       # number of demand (read+write) accesses
system.cpu.icache.demand_accesses::total       123667                       # number of demand (read+write) accesses
system.cpu.icache.overall_accesses::cpu.inst       123667                       # number of overall (read+write) accesses
system.cpu.icache.overall_accesses::total       123667                       # number of overall (read+write) accesses
system.cpu.icache.ReadReq_miss_rate::cpu.inst     0.001925                       # miss rate for ReadReq accesses
system.cpu.icache.ReadReq_miss_rate::total     0.001925                       # miss rate for ReadReq accesses
system.cpu.icache.demand_miss_rate::cpu.inst     0.001925                       # miss rate for demand accesses
system.cpu.icache.demand_miss_rate::total     0.001925                       # miss rate for demand accesses
system.cpu.icache.overall_miss_rate::cpu.inst     0.001925                       # miss rate for overall accesses
system.cpu.icache.overall_miss_rate::total     0.001925                       # miss rate for overall accesses
system.cpu.icache.ReadReq_avg_miss_latency::cpu.inst 58545.466387                       # average ReadReq miss latency
system.cpu.icache.ReadReq_avg_miss_latency::total 58545.466387                       # average ReadReq miss latency
system.cpu.icache.demand_avg_miss_latency::cpu.inst 58545.466387                       # average overall miss latency
system.cpu.icache.demand_avg_miss_latency::total 58545.466387                       # average overall miss latency
system.cpu.icache.overall_avg_miss_latency::cpu.inst 58545.466387                       # average overall miss latency
system.cpu.icache.overall_avg_miss_latency::total 58545.466387                       # average overall miss latency
system.cpu.icache.blocked_cycles::no_mshrs            0                       # number of cycles access was blocked
system.cpu.icache.blocked_cycles::no_targets            0                       # number of cycles access was blocked
system.cpu.icache.blocked::no_mshrs                 0                       # number of cycles access was blocked
system.cpu.icache.blocked::no_targets               0                       # number of cycles access was blocked
system.cpu.icache.avg_blocked_cycles::no_mshrs          nan                       # average number of cycles each access was blocked
system.cpu.icache.avg_blocked_cycles::no_targets          nan                       # average number of cycles each access was blocked
system.cpu.icache.writebacks::writebacks           13                       # number of writebacks
system.cpu.icache.writebacks::total                13                       # number of writebacks
system.cpu.icache.ReadReq_mshr_misses::cpu.inst          238                       # number of ReadReq MSHR misses
system.cpu.icache.ReadReq_mshr_misses::total          238                       # number of ReadReq MSHR misses
system.cpu.icache.demand_mshr_misses::cpu.inst          238                       # number of demand (read+write) MSHR misses
system.cpu.icache.demand_mshr_misses::total          238                       # number of demand (read+write) MSHR misses
system.cpu.icache.overall_mshr_misses::cpu.inst          238                       # number of overall MSHR misses
system.cpu.icache.overall_mshr_misses::total          238                       # number of overall MSHR misses
system.cpu.icache.ReadReq_mshr_miss_latency::cpu.inst     13784833                       # number of ReadReq MSHR miss cycles
system.cpu.icache.ReadReq_mshr_miss_latency::total     13784833                       # number of ReadReq MSHR miss cycles
system.cpu.icache.demand_mshr_miss_latency::cpu.inst     13784833                       # number of demand (read+write) MSHR miss cycles
system.cpu.icache.demand_mshr_miss_latency::total     13784833                       # number of demand (read+write) MSHR miss cycles
system.cpu.icache.overall_mshr_miss_latency::cpu.inst     13784833                       # number of overall MSHR miss cycles
system.cpu.icache.overall_mshr_miss_latency::total     13784833                       # number of overall MSHR miss cycles
system.cpu.icache.ReadReq_mshr_miss_rate::cpu.inst     0.001925                       # mshr miss rate for ReadReq accesses
system.cpu.icache.ReadReq_mshr_miss_rate::total     0.001925                       # mshr miss rate for ReadReq accesses
system.cpu.icache.demand_mshr_miss_rate::cpu.inst     0.001925                       # mshr miss rate for demand accesses
system.cpu.icache.demand_mshr_miss_rate::total     0.001925                       # mshr miss rate for demand accesses
system.cpu.icache.overall_mshr_miss_rate::cpu.inst     0.001925                       # mshr miss rate for overall accesses
system.cpu.icache.overall_mshr_miss_rate::total     0.001925                       # mshr miss rate for overall accesses
system.cpu.icache.ReadReq_avg_mshr_miss_latency::cpu.inst 57919.466387                       # average ReadReq mshr miss latency
system.cpu.icache.ReadReq_avg_mshr_miss_latency::total 57919.466387                       # average ReadReq mshr miss latency
system.cpu.icache.demand_avg_mshr_miss_latency::cpu.inst 57919.466387                       # average overall mshr miss latency
system.cpu.icache.demand_avg_mshr_miss_latency::total 57919.466387                       # average overall mshr miss latency
system.cpu.icache.overall_avg_mshr_miss_latency::cpu.inst 57919.466387                       # average overall mshr miss latency
system.cpu.icache.overall_avg_mshr_miss_latency::total 57919.466387                       # average overall mshr miss latency
system.l2bus.snoop_filter.tot_requests            444                       # Total number of requests made to the snoop filter.
system.l2bus.snoop_filter.hit_single_requests           13                       # Number of requests hitting in the snoop filter with a single holder of the requested data.
system.l2bus.snoop_filter.hit_multi_requests            0                       # Number of requests hitting in the snoop filter with multiple (>1) holders of the requested data.
system.l2bus.snoop_filter.tot_snoops                3                       # Total number of snoops made to the snoop filter.
system.l2bus.snoop_filter.hit_single_snoops            3                       # Number of snoops hitting in the snoop filter with a single holder of the requested data.
system.l2bus.snoop_filter.hit_multi_snoops            0                       # Number of snoops hitting in the snoop filter with multiple (>1) holders of the requested data.
system.l2bus.pwrStateResidencyTicks::UNDEFINED    140256239                       # Cumulative time (in ticks) in various power states
system.l2bus.trans_dist::ReadResp                 305                       # Transaction distribution
system.l2bus.trans_dist::WritebackClean            13                       # Transaction distribution
system.l2bus.trans_dist::HardPFReq                104                       # Transaction distribution
system.l2bus.trans_dist::ReadExReq                126                       # Transaction distribution
system.l2bus.trans_dist::ReadExResp               126                       # Transaction distribution
system.l2bus.trans_dist::ReadCleanReq             238                       # Transaction distribution
system.l2bus.trans_dist::ReadSharedReq             67                       # Transaction distribution
system.l2bus.pkt_count_system.cpu.icache.mem_side::system.l2cache.cpu_side          489                       # Packet count per connected master and slave (bytes)
system.l2bus.pkt_count_system.cpu.dcache.mem_side::system.l2cache.cpu_side          386                       # Packet count per connected master and slave (bytes)
system.l2bus.pkt_count::total                     875                       # Packet count per connected master and slave (bytes)
system.l2bus.pkt_size_system.cpu.icache.mem_side::system.l2cache.cpu_side        16064                       # Cumulative packet size per connected master and slave (bytes)
system.l2bus.pkt_size_system.cpu.dcache.mem_side::system.l2cache.cpu_side        12352                       # Cumulative packet size per connected master and slave (bytes)
system.l2bus.pkt_size::total                    28416                       # Cumulative packet size per connected master and slave (bytes)
system.l2bus.snoops                               104                       # Total snoops (count)
system.l2bus.snoopTraffic                           0                       # Total snoop traffic (bytes)
system.l2bus.snoop_fanout::samples                535                       # Request fanout histogram
system.l2bus.snoop_fanout::mean              0.005607                       # Request fanout histogram
system.l2bus.snoop_fanout::stdev             0.074743                       # Request fanout histogram
system.l2bus.snoop_fanout::underflows               0      0.00%      0.00% # Request fanout histogram
system.l2bus.snoop_fanout::0                      532     99.44%     99.44% # Request fanout histogram
system.l2bus.snoop_fanout::1                        3      0.56%    100.00% # Request fanout histogram
system.l2bus.snoop_fanout::2                        0      0.00%    100.00% # Request fanout histogram
system.l2bus.snoop_fanout::overflows                0      0.00%    100.00% # Request fanout histogram
system.l2bus.snoop_fanout::min_value                0                       # Request fanout histogram
system.l2bus.snoop_fanout::max_value                1                       # Request fanout histogram
system.l2bus.snoop_fanout::total                  535                       # Request fanout histogram
system.l2bus.reqLayer0.occupancy               155248                       # Layer occupancy (ticks)
system.l2bus.reqLayer0.utilization                0.1                       # Layer utilization (%)
system.l2bus.respLayer0.occupancy              372470                       # Layer occupancy (ticks)
system.l2bus.respLayer0.utilization               0.3                       # Layer utilization (%)
system.l2bus.respLayer1.occupancy              302045                       # Layer occupancy (ticks)
system.l2bus.respLayer1.utilization               0.2                       # Layer utilization (%)
system.l2cache.prefetcher.pwrStateResidencyTicks::UNDEFINED    140256239                       # Cumulative time (in ticks) in various power states
system.l2cache.prefetcher.num_hwpf_issued          104                       # number of hwpf issued
system.l2cache.prefetcher.pfIdentified            104                       # number of prefetch candidates identified
system.l2cache.prefetcher.pfBufferHit               0                       # number of redundant prefetches already in prefetch queue
system.l2cache.prefetcher.pfInCache                 0                       # number of redundant prefetches already in cache/mshr dropped
system.l2cache.prefetcher.pfRemovedFull             0                       # number of prefetches dropped due to prefetch queue size
system.l2cache.prefetcher.pfSpanPage                1                       # number of prefetches not generated due to page crossing
system.l2cache.tags.pwrStateResidencyTicks::UNDEFINED    140256239                       # Cumulative time (in ticks) in various power states
system.l2cache.tags.replacements                    0                       # number of replacements
system.l2cache.tags.tagsinuse                5.475779                       # Cycle average of tags in use
system.l2cache.tags.total_refs                      0                       # Total number of references to valid blocks.
system.l2cache.tags.sampled_refs                   10                       # Sample count of references to valid blocks.
system.l2cache.tags.avg_refs                        0                       # Average number of references to valid blocks.
system.l2cache.tags.warmup_cycle               553384                       # Cycle when the warmup percentage was hit.
system.l2cache.tags.occ_blocks::writebacks     3.513375                       # Average occupied blocks per requestor
system.l2cache.tags.occ_blocks::l2cache.prefetcher     1.962404                       # Average occupied blocks per requestor
system.l2cache.tags.occ_percent::writebacks     0.000429                       # Average percentage of cache occupancy
system.l2cache.tags.occ_percent::l2cache.prefetcher     0.000240                       # Average percentage of cache occupancy
system.l2cache.tags.occ_percent::total       0.000668                       # Average percentage of cache occupancy
system.l2cache.tags.occ_task_id_blocks::1022            2                       # Occupied blocks per task id
system.l2cache.tags.occ_task_id_blocks::1024            8                       # Occupied blocks per task id
system.l2cache.tags.age_task_id_blocks_1022::2            2                       # Occupied blocks per task id
system.l2cache.tags.age_task_id_blocks_1024::0            7                       # Occupied blocks per task id
system.l2cache.tags.age_task_id_blocks_1024::2            1                       # Occupied blocks per task id
system.l2cache.tags.occ_task_id_percent::1022     0.000244                       # Percentage of cache occupancy per task id
system.l2cache.tags.occ_task_id_percent::1024     0.000977                       # Percentage of cache occupancy per task id
system.l2cache.tags.tag_accesses                 3666                       # Number of tag accesses
system.l2cache.tags.data_accesses                3666                       # Number of data accesses
system.l2cache.pwrStateResidencyTicks::UNDEFINED    140256239                       # Cumulative time (in ticks) in various power states
system.l2cache.WritebackClean_hits::writebacks           13                       # number of WritebackClean hits
system.l2cache.WritebackClean_hits::total           13                       # number of WritebackClean hits
system.l2cache.ReadExReq_hits::cpu.data            39                       # number of ReadExReq hits
system.l2cache.ReadExReq_hits::total               39                       # number of ReadExReq hits
system.l2cache.ReadCleanReq_hits::cpu.inst            5                       # number of ReadCleanReq hits
system.l2cache.ReadCleanReq_hits::total             5                       # number of ReadCleanReq hits
system.l2cache.ReadSharedReq_hits::cpu.data            4                       # number of ReadSharedReq hits
system.l2cache.ReadSharedReq_hits::total            4                       # number of ReadSharedReq hits
system.l2cache.demand_hits::cpu.inst                5                       # number of demand (read+write) hits
system.l2cache.demand_hits::cpu.data               43                       # number of demand (read+write) hits
system.l2cache.demand_hits::total                  48                       # number of demand (read+write) hits
system.l2cache.overall_hits::cpu.inst               5                       # number of overall hits
system.l2cache.overall_hits::cpu.data              43                       # number of overall hits
system.l2cache.overall_hits::total                 48                       # number of overall hits
system.l2cache.ReadExReq_misses::cpu.data           87                       # number of ReadExReq misses
system.l2cache.ReadExReq_misses::total             87                       # number of ReadExReq misses
system.l2cache.ReadCleanReq_misses::cpu.inst          233                       # number of ReadCleanReq misses
system.l2cache.ReadCleanReq_misses::total          233                       # number of ReadCleanReq misses
system.l2cache.ReadSharedReq_misses::cpu.data           63                       # number of ReadSharedReq misses
system.l2cache.ReadSharedReq_misses::total           63                       # number of ReadSharedReq misses
system.l2cache.demand_misses::cpu.inst            233                       # number of demand (read+write) misses
system.l2cache.demand_misses::cpu.data            150                       # number of demand (read+write) misses
system.l2cache.demand_misses::total               383                       # number of demand (read+write) misses
system.l2cache.overall_misses::cpu.inst           233                       # number of overall misses
system.l2cache.overall_misses::cpu.data           150                       # number of overall misses
system.l2cache.overall_misses::total              383                       # number of overall misses
system.l2cache.ReadExReq_miss_latency::cpu.data      4794534                       # number of ReadExReq miss cycles
system.l2cache.ReadExReq_miss_latency::total      4794534                       # number of ReadExReq miss cycles
system.l2cache.ReadCleanReq_miss_latency::cpu.inst     13458374                       # number of ReadCleanReq miss cycles
system.l2cache.ReadCleanReq_miss_latency::total     13458374                       # number of ReadCleanReq miss cycles
system.l2cache.ReadSharedReq_miss_latency::cpu.data      4718788                       # number of ReadSharedReq miss cycles
system.l2cache.ReadSharedReq_miss_latency::total      4718788                       # number of ReadSharedReq miss cycles
system.l2cache.demand_miss_latency::cpu.inst     13458374                       # number of demand (read+write) miss cycles
system.l2cache.demand_miss_latency::cpu.data      9513322                       # number of demand (read+write) miss cycles
system.l2cache.demand_miss_latency::total     22971696                       # number of demand (read+write) miss cycles
system.l2cache.overall_miss_latency::cpu.inst     13458374                       # number of overall miss cycles
system.l2cache.overall_miss_latency::cpu.data      9513322                       # number of overall miss cycles
system.l2cache.overall_miss_latency::total     22971696                       # number of overall miss cycles
system.l2cache.WritebackClean_accesses::writebacks           13                       # number of WritebackClean accesses(hits+misses)
system.l2cache.WritebackClean_accesses::total           13                       # number of WritebackClean accesses(hits+misses)
system.l2cache.ReadExReq_accesses::cpu.data          126                       # number of ReadExReq accesses(hits+misses)
system.l2cache.ReadExReq_accesses::total          126                       # number of ReadExReq accesses(hits+misses)
system.l2cache.ReadCleanReq_accesses::cpu.inst          238                       # number of ReadCleanReq accesses(hits+misses)
system.l2cache.ReadCleanReq_accesses::total          238                       # number of ReadCleanReq accesses(hits+misses)
system.l2cache.ReadSharedReq_accesses::cpu.data           67                       # number of ReadSharedReq accesses(hits+misses)
system.l2cache.ReadSharedReq_accesses::total           67                       # number of ReadSharedReq accesses(hits+misses)
system.l2cache.demand_accesses::cpu.inst          238                       # number of demand (read+write) accesses
system.l2cache.demand_accesses::cpu.data          193                       # number of demand (read+write) accesses
system.l2cache.demand_accesses::total             431                       # number of demand (read+write) accesses
system.l2cache.overall_accesses::cpu.inst          238                       # number of overall (read+write) accesses
system.l2cache.overall_accesses::cpu.data          193                       # number of overall (read+write) accesses
system.l2cache.overall_accesses::total            431                       # number of overall (read+write) accesses
system.l2cache.ReadExReq_miss_rate::cpu.data     0.690476                       # miss rate for ReadExReq accesses
system.l2cache.ReadExReq_miss_rate::total     0.690476                       # miss rate for ReadExReq accesses
system.l2cache.ReadCleanReq_miss_rate::cpu.inst     0.978992                       # miss rate for ReadCleanReq accesses
system.l2cache.ReadCleanReq_miss_rate::total     0.978992                       # miss rate for ReadCleanReq accesses
system.l2cache.ReadSharedReq_miss_rate::cpu.data     0.940299                       # miss rate for ReadSharedReq accesses
system.l2cache.ReadSharedReq_miss_rate::total     0.940299                       # miss rate for ReadSharedReq accesses
system.l2cache.demand_miss_rate::cpu.inst     0.978992                       # miss rate for demand accesses
system.l2cache.demand_miss_rate::cpu.data     0.777202                       # miss rate for demand accesses
system.l2cache.demand_miss_rate::total       0.888631                       # miss rate for demand accesses
system.l2cache.overall_miss_rate::cpu.inst     0.978992                       # miss rate for overall accesses
system.l2cache.overall_miss_rate::cpu.data     0.777202                       # miss rate for overall accesses
system.l2cache.overall_miss_rate::total      0.888631                       # miss rate for overall accesses
system.l2cache.ReadExReq_avg_miss_latency::cpu.data 55109.586207                       # average ReadExReq miss latency
system.l2cache.ReadExReq_avg_miss_latency::total 55109.586207                       # average ReadExReq miss latency
system.l2cache.ReadCleanReq_avg_miss_latency::cpu.inst 57761.261803                       # average ReadCleanReq miss latency
system.l2cache.ReadCleanReq_avg_miss_latency::total 57761.261803                       # average ReadCleanReq miss latency
system.l2cache.ReadSharedReq_avg_miss_latency::cpu.data 74901.396825                       # average ReadSharedReq miss latency
system.l2cache.ReadSharedReq_avg_miss_latency::total 74901.396825                       # average ReadSharedReq miss latency
system.l2cache.demand_avg_miss_latency::cpu.inst 57761.261803                       # average overall miss latency
system.l2cache.demand_avg_miss_latency::cpu.data 63422.146667                       # average overall miss latency
system.l2cache.demand_avg_miss_latency::total 59978.318538                       # average overall miss latency
system.l2cache.overall_avg_miss_latency::cpu.inst 57761.261803                       # average overall miss latency
system.l2cache.overall_avg_miss_latency::cpu.data 63422.146667                       # average overall miss latency
system.l2cache.overall_avg_miss_latency::total 59978.318538                       # average overall miss latency
system.l2cache.blocked_cycles::no_mshrs             0                       # number of cycles access was blocked
system.l2cache.blocked_cycles::no_targets            0                       # number of cycles access was blocked
system.l2cache.blocked::no_mshrs                    0                       # number of cycles access was blocked
system.l2cache.blocked::no_targets                  0                       # number of cycles access was blocked
system.l2cache.avg_blocked_cycles::no_mshrs          nan                       # average number of cycles each access was blocked
system.l2cache.avg_blocked_cycles::no_targets          nan                       # average number of cycles each access was blocked
system.l2cache.ReadExReq_mshr_hits::cpu.data           48                       # number of ReadExReq MSHR hits
system.l2cache.ReadExReq_mshr_hits::total           48                       # number of ReadExReq MSHR hits
system.l2cache.ReadSharedReq_mshr_hits::cpu.data            8                       # number of ReadSharedReq MSHR hits
system.l2cache.ReadSharedReq_mshr_hits::total            8                       # number of ReadSharedReq MSHR hits
system.l2cache.demand_mshr_hits::cpu.data           56                       # number of demand (read+write) MSHR hits
system.l2cache.demand_mshr_hits::total             56                       # number of demand (read+write) MSHR hits
system.l2cache.overall_mshr_hits::cpu.data           56                       # number of overall MSHR hits
system.l2cache.overall_mshr_hits::total            56                       # number of overall MSHR hits
system.l2cache.HardPFReq_mshr_misses::l2cache.prefetcher          104                       # number of HardPFReq MSHR misses
system.l2cache.HardPFReq_mshr_misses::total          104                       # number of HardPFReq MSHR misses
system.l2cache.ReadExReq_mshr_misses::cpu.data           39                       # number of ReadExReq MSHR misses
system.l2cache.ReadExReq_mshr_misses::total           39                       # number of ReadExReq MSHR misses
system.l2cache.ReadCleanReq_mshr_misses::cpu.inst          233                       # number of ReadCleanReq MSHR misses
system.l2cache.ReadCleanReq_mshr_misses::total          233                       # number of ReadCleanReq MSHR misses
system.l2cache.ReadSharedReq_mshr_misses::cpu.data           55                       # number of ReadSharedReq MSHR misses
system.l2cache.ReadSharedReq_mshr_misses::total           55                       # number of ReadSharedReq MSHR misses
system.l2cache.demand_mshr_misses::cpu.inst          233                       # number of demand (read+write) MSHR misses
system.l2cache.demand_mshr_misses::cpu.data           94                       # number of demand (read+write) MSHR misses
system.l2cache.demand_mshr_misses::total          327                       # number of demand (read+write) MSHR misses
system.l2cache.overall_mshr_misses::cpu.inst          233                       # number of overall MSHR misses
system.l2cache.overall_mshr_misses::cpu.data           94                       # number of overall MSHR misses
system.l2cache.overall_mshr_misses::l2cache.prefetcher          104                       # number of overall MSHR misses
system.l2cache.overall_mshr_misses::total          431                       # number of overall MSHR misses
system.l2cache.HardPFReq_mshr_miss_latency::l2cache.prefetcher      4726300                       # number of HardPFReq MSHR miss cycles
system.l2cache.HardPFReq_mshr_miss_latency::total      4726300                       # number of HardPFReq MSHR miss cycles
system.l2cache.ReadExReq_mshr_miss_latency::cpu.data      2967866                       # number of ReadExReq MSHR miss cycles
system.l2cache.ReadExReq_mshr_miss_latency::total      2967866                       # number of ReadExReq MSHR miss cycles
system.l2cache.ReadCleanReq_mshr_miss_latency::cpu.inst     12802013                       # number of ReadCleanReq MSHR miss cycles
system.l2cache.ReadCleanReq_mshr_miss_latency::total     12802013                       # number of ReadCleanReq MSHR miss cycles
system.l2cache.ReadSharedReq_mshr_miss_latency::cpu.data      4425194                       # number of ReadSharedReq MSHR miss cycles
system.l2cache.ReadSharedReq_mshr_miss_latency::total      4425194                       # number of ReadSharedReq MSHR miss cycles
system.l2cache.demand_mshr_miss_latency::cpu.inst     12802013                       # number of demand (read+write) MSHR miss cycles
system.l2cache.demand_mshr_miss_latency::cpu.data      7393060                       # number of demand (read+write) MSHR miss cycles
system.l2cache.demand_mshr_miss_latency::total     20195073                       # number of demand (read+write) MSHR miss cycles
system.l2cache.overall_mshr_miss_latency::cpu.inst     12802013                       # number of overall MSHR miss cycles
system.l2cache.overall_mshr_miss_latency::cpu.data      7393060                       # number of overall MSHR miss cycles
system.l2cache.overall_mshr_miss_latency::l2cache.prefetcher      4726300                       # number of overall MSHR miss cycles
system.l2cache.overall_mshr_miss_latency::total     24921373                       # number of overall MSHR miss cycles
system.l2cache.HardPFReq_mshr_miss_rate::l2cache.prefetcher          inf                       # mshr miss rate for HardPFReq accesses
system.l2cache.HardPFReq_mshr_miss_rate::total          inf                       # mshr miss rate for HardPFReq accesses
system.l2cache.ReadExReq_mshr_miss_rate::cpu.data     0.309524                       # mshr miss rate for ReadExReq accesses
system.l2cache.ReadExReq_mshr_miss_rate::total     0.309524                       # mshr miss rate for ReadExReq accesses
system.l2cache.ReadCleanReq_mshr_miss_rate::cpu.inst     0.978992                       # mshr miss rate for ReadCleanReq accesses
system.l2cache.ReadCleanReq_mshr_miss_rate::total     0.978992                       # mshr miss rate for ReadCleanReq accesses
system.l2cache.ReadSharedReq_mshr_miss_rate::cpu.data     0.820896                       # mshr miss rate for ReadSharedReq accesses
system.l2cache.ReadSharedReq_mshr_miss_rate::total     0.820896                       # mshr miss rate for ReadSharedReq accesses
system.l2cache.demand_mshr_miss_rate::cpu.inst     0.978992                       # mshr miss rate for demand accesses
system.l2cache.demand_mshr_miss_rate::cpu.data     0.487047                       # mshr miss rate for demand accesses
system.l2cache.demand_mshr_miss_rate::total     0.758701                       # mshr miss rate for demand accesses
system.l2cache.overall_mshr_miss_rate::cpu.inst     0.978992                       # mshr miss rate for overall accesses
system.l2cache.overall_mshr_miss_rate::cpu.data     0.487047                       # mshr miss rate for overall accesses
system.l2cache.overall_mshr_miss_rate::l2cache.prefetcher          inf                       # mshr miss rate for overall accesses
system.l2cache.overall_mshr_miss_rate::total            1                       # mshr miss rate for overall accesses
system.l2cache.HardPFReq_avg_mshr_miss_latency::l2cache.prefetcher 45445.192308                       # average HardPFReq mshr miss latency
system.l2cache.HardPFReq_avg_mshr_miss_latency::total 45445.192308                       # average HardPFReq mshr miss latency
system.l2cache.ReadExReq_avg_mshr_miss_latency::cpu.data 76099.128205                       # average ReadExReq mshr miss latency
system.l2cache.ReadExReq_avg_mshr_miss_latency::total 76099.128205                       # average ReadExReq mshr miss latency
system.l2cache.ReadCleanReq_avg_mshr_miss_latency::cpu.inst 54944.261803                       # average ReadCleanReq mshr miss latency
system.l2cache.ReadCleanReq_avg_mshr_miss_latency::total 54944.261803                       # average ReadCleanReq mshr miss latency
system.l2cache.ReadSharedReq_avg_mshr_miss_latency::cpu.data 80458.072727                       # average ReadSharedReq mshr miss latency
system.l2cache.ReadSharedReq_avg_mshr_miss_latency::total 80458.072727                       # average ReadSharedReq mshr miss latency
system.l2cache.demand_avg_mshr_miss_latency::cpu.inst 54944.261803                       # average overall mshr miss latency
system.l2cache.demand_avg_mshr_miss_latency::cpu.data 78649.574468                       # average overall mshr miss latency
system.l2cache.demand_avg_mshr_miss_latency::total 61758.633028                       # average overall mshr miss latency
system.l2cache.overall_avg_mshr_miss_latency::cpu.inst 54944.261803                       # average overall mshr miss latency
system.l2cache.overall_avg_mshr_miss_latency::cpu.data 78649.574468                       # average overall mshr miss latency
system.l2cache.overall_avg_mshr_miss_latency::l2cache.prefetcher 45445.192308                       # average overall mshr miss latency
system.l2cache.overall_avg_mshr_miss_latency::total 57822.211137                       # average overall mshr miss latency
system.membus.snoop_filter.tot_requests           428                       # Total number of requests made to the snoop filter.
system.membus.snoop_filter.hit_single_requests            0                       # Number of requests hitting in the snoop filter with a single holder of the requested data.
system.membus.snoop_filter.hit_multi_requests            0                       # Number of requests hitting in the snoop filter with multiple (>1) holders of the requested data.
system.membus.snoop_filter.tot_snoops               0                       # Total number of snoops made to the snoop filter.
system.membus.snoop_filter.hit_single_snoops            0                       # Number of snoops hitting in the snoop filter with a single holder of the requested data.
system.membus.snoop_filter.hit_multi_snoops            0                       # Number of snoops hitting in the snoop filter with multiple (>1) holders of the requested data.
system.membus.pwrStateResidencyTicks::UNDEFINED    140256239                       # Cumulative time (in ticks) in various power states
system.membus.trans_dist::ReadResp                389                       # Transaction distribution
system.membus.trans_dist::ReadExReq                39                       # Transaction distribution
system.membus.trans_dist::ReadExResp               39                       # Transaction distribution
system.membus.trans_dist::ReadCleanReq            389                       # Transaction distribution
system.membus.pkt_count_system.l2cache.mem_side::system.mem_ctrl.port          856                       # Packet count per connected master and slave (bytes)
system.membus.pkt_count::total                    856                       # Packet count per connected master and slave (bytes)
system.membus.pkt_size_system.l2cache.mem_side::system.mem_ctrl.port        27392                       # Cumulative packet size per connected master and slave (bytes)
system.membus.pkt_size::total                   27392                       # Cumulative packet size per connected master and slave (bytes)
system.membus.snoops                                0                       # Total snoops (count)
system.membus.snoopTraffic                          0                       # Total snoop traffic (bytes)
system.membus.snoop_fanout::samples               428                       # Request fanout histogram
system.membus.snoop_fanout::mean                    0                       # Request fanout histogram
system.membus.snoop_fanout::stdev                   0                       # Request fanout histogram
system.membus.snoop_fanout::underflows              0      0.00%      0.00% # Request fanout histogram
system.membus.snoop_fanout::0                     428    100.00%    100.00% # Request fanout histogram
system.membus.snoop_fanout::1                       0      0.00%    100.00% # Request fanout histogram
system.membus.snoop_fanout::overflows               0      0.00%    100.00% # Request fanout histogram
system.membus.snoop_fanout::min_value               0                       # Request fanout histogram
system.membus.snoop_fanout::max_value               0                       # Request fanout histogram
system.membus.snoop_fanout::total                 428                       # Request fanout histogram
system.membus.reqLayer0.occupancy              133964                       # Layer occupancy (ticks)
system.membus.reqLayer0.utilization               0.1                       # Layer utilization (%)
system.membus.respLayer0.occupancy             677993                       # Layer occupancy (ticks)
system.membus.respLayer0.utilization              0.5                       # Layer utilization (%)

---------- End Simulation Statistics   ----------
