
---------- Begin Simulation Statistics ----------
sim_seconds                                  0.009399                       # Number of seconds simulated
sim_ticks                                  9399870142                       # Number of ticks simulated
final_tick                                 9399870142                       # Number of ticks from beginning of simulation (restored from checkpoints and never reset)
sim_freq                                 1000000000000                       # Frequency of simulated ticks
host_inst_rate                                 520698                       # Simulator instruction rate (inst/s)
host_op_rate                                   520698                       # Simulator op (including micro ops) rate (op/s)
host_tick_rate                              237069049                       # Simulator tick rate (ticks/s)
host_mem_usage                                 634436                       # Number of bytes of host memory used
host_seconds                                    39.65                       # Real time elapsed on the host
sim_insts                                    20645865                       # Number of instructions simulated
sim_ops                                      20645865                       # Number of ops (including micro ops) simulated
system.clk_domain.voltage_domain.voltage            1                       # Voltage in Volts
system.clk_domain.clock                           313                       # Clock period in ticks
system.mem_ctrl.pwrStateResidencyTicks::UNDEFINED   9399870142                       # Cumulative time (in ticks) in various power states
system.mem_ctrl.bytes_read::cpu.inst            21952                       # Number of bytes read from this memory
system.mem_ctrl.bytes_read::cpu.data            14720                       # Number of bytes read from this memory
system.mem_ctrl.bytes_read::l2cache.prefetcher         9536                       # Number of bytes read from this memory
system.mem_ctrl.bytes_read::total               46208                       # Number of bytes read from this memory
system.mem_ctrl.bytes_inst_read::cpu.inst        21952                       # Number of instructions bytes read from this memory
system.mem_ctrl.bytes_inst_read::total          21952                       # Number of instructions bytes read from this memory
system.mem_ctrl.num_reads::writebacks               0                       # Number of read requests responded to by this memory
system.mem_ctrl.num_reads::functional               0                       # Number of read requests responded to by this memory
system.mem_ctrl.num_reads::interrupt                0                       # Number of read requests responded to by this memory
system.mem_ctrl.num_reads::cpu.inst               343                       # Number of read requests responded to by this memory
system.mem_ctrl.num_reads::cpu.data               230                       # Number of read requests responded to by this memory
system.mem_ctrl.num_reads::l2cache.prefetcher          149                       # Number of read requests responded to by this memory
system.mem_ctrl.num_reads::total                  722                       # Number of read requests responded to by this memory
system.mem_ctrl.num_writes::writebacks              0                       # Number of write requests responded to by this memory
system.mem_ctrl.num_writes::functional              0                       # Number of write requests responded to by this memory
system.mem_ctrl.num_writes::interrupt               0                       # Number of write requests responded to by this memory
system.mem_ctrl.num_writes::cpu.inst                0                       # Number of write requests responded to by this memory
system.mem_ctrl.num_writes::cpu.data                0                       # Number of write requests responded to by this memory
system.mem_ctrl.num_writes::l2cache.prefetcher            0                       # Number of write requests responded to by this memory
system.mem_ctrl.num_writes::total                   0                       # Number of write requests responded to by this memory
system.mem_ctrl.bw_read::cpu.inst             2335351                       # Total read bandwidth from this memory (bytes/s)
system.mem_ctrl.bw_read::cpu.data             1565979                       # Total read bandwidth from this memory (bytes/s)
system.mem_ctrl.bw_read::l2cache.prefetcher      1014482                       # Total read bandwidth from this memory (bytes/s)
system.mem_ctrl.bw_read::total                4915812                       # Total read bandwidth from this memory (bytes/s)
system.mem_ctrl.bw_inst_read::cpu.inst        2335351                       # Instruction read bandwidth from this memory (bytes/s)
system.mem_ctrl.bw_inst_read::total           2335351                       # Instruction read bandwidth from this memory (bytes/s)
system.mem_ctrl.bw_total::cpu.inst            2335351                       # Total bandwidth to/from this memory (bytes/s)
system.mem_ctrl.bw_total::cpu.data            1565979                       # Total bandwidth to/from this memory (bytes/s)
system.mem_ctrl.bw_total::l2cache.prefetcher      1014482                       # Total bandwidth to/from this memory (bytes/s)
system.mem_ctrl.bw_total::total               4915812                       # Total bandwidth to/from this memory (bytes/s)
system.mem_ctrl.readReqs                          722                       # Number of read requests accepted
system.mem_ctrl.writeReqs                           0                       # Number of write requests accepted
system.mem_ctrl.readBursts                        722                       # Number of DRAM read bursts, including those serviced by the write queue
system.mem_ctrl.writeBursts                         0                       # Number of DRAM write bursts, including those merged in the write queue
system.mem_ctrl.bytesReadDRAM                   46208                       # Total number of bytes read from DRAM
system.mem_ctrl.bytesReadWrQ                        0                       # Total number of bytes read from write queue
system.mem_ctrl.bytesWritten                        0                       # Total number of bytes written to DRAM
system.mem_ctrl.bytesReadSys                    46208                       # Total read bytes from the system interface side
system.mem_ctrl.bytesWrittenSys                     0                       # Total written bytes from the system interface side
system.mem_ctrl.servicedByWrQ                       0                       # Number of DRAM read bursts serviced by the write queue
system.mem_ctrl.mergedWrBursts                      0                       # Number of DRAM write bursts merged with an existing one
system.mem_ctrl.neitherReadNorWriteReqs             0                       # Number of requests that are neither read nor write
system.mem_ctrl.perBankRdBursts::0                 74                       # Per bank write bursts
system.mem_ctrl.perBankRdBursts::1                  0                       # Per bank write bursts
system.mem_ctrl.perBankRdBursts::2                  1                       # Per bank write bursts
system.mem_ctrl.perBankRdBursts::3                102                       # Per bank write bursts
system.mem_ctrl.perBankRdBursts::4                 50                       # Per bank write bursts
system.mem_ctrl.perBankRdBursts::5                 43                       # Per bank write bursts
system.mem_ctrl.perBankRdBursts::6                 38                       # Per bank write bursts
system.mem_ctrl.perBankRdBursts::7                  6                       # Per bank write bursts
system.mem_ctrl.perBankRdBursts::8                  4                       # Per bank write bursts
system.mem_ctrl.perBankRdBursts::9                 24                       # Per bank write bursts
system.mem_ctrl.perBankRdBursts::10                82                       # Per bank write bursts
system.mem_ctrl.perBankRdBursts::11                77                       # Per bank write bursts
system.mem_ctrl.perBankRdBursts::12               150                       # Per bank write bursts
system.mem_ctrl.perBankRdBursts::13                71                       # Per bank write bursts
system.mem_ctrl.perBankRdBursts::14                 0                       # Per bank write bursts
system.mem_ctrl.perBankRdBursts::15                 0                       # Per bank write bursts
system.mem_ctrl.perBankWrBursts::0                  0                       # Per bank write bursts
system.mem_ctrl.perBankWrBursts::1                  0                       # Per bank write bursts
system.mem_ctrl.perBankWrBursts::2                  0                       # Per bank write bursts
system.mem_ctrl.perBankWrBursts::3                  0                       # Per bank write bursts
system.mem_ctrl.perBankWrBursts::4                  0                       # Per bank write bursts
system.mem_ctrl.perBankWrBursts::5                  0                       # Per bank write bursts
system.mem_ctrl.perBankWrBursts::6                  0                       # Per bank write bursts
system.mem_ctrl.perBankWrBursts::7                  0                       # Per bank write bursts
system.mem_ctrl.perBankWrBursts::8                  0                       # Per bank write bursts
system.mem_ctrl.perBankWrBursts::9                  0                       # Per bank write bursts
system.mem_ctrl.perBankWrBursts::10                 0                       # Per bank write bursts
system.mem_ctrl.perBankWrBursts::11                 0                       # Per bank write bursts
system.mem_ctrl.perBankWrBursts::12                 0                       # Per bank write bursts
system.mem_ctrl.perBankWrBursts::13                 0                       # Per bank write bursts
system.mem_ctrl.perBankWrBursts::14                 0                       # Per bank write bursts
system.mem_ctrl.perBankWrBursts::15                 0                       # Per bank write bursts
system.mem_ctrl.numRdRetry                          0                       # Number of times read queue was full causing retry
system.mem_ctrl.numWrRetry                          0                       # Number of times write queue was full causing retry
system.mem_ctrl.totGap                     9399553386                       # Total gap between requests
system.mem_ctrl.readPktSize::0                      0                       # Read request sizes (log2)
system.mem_ctrl.readPktSize::1                      0                       # Read request sizes (log2)
system.mem_ctrl.readPktSize::2                      0                       # Read request sizes (log2)
system.mem_ctrl.readPktSize::3                      0                       # Read request sizes (log2)
system.mem_ctrl.readPktSize::4                      0                       # Read request sizes (log2)
system.mem_ctrl.readPktSize::5                      0                       # Read request sizes (log2)
system.mem_ctrl.readPktSize::6                    722                       # Read request sizes (log2)
system.mem_ctrl.writePktSize::0                     0                       # Write request sizes (log2)
system.mem_ctrl.writePktSize::1                     0                       # Write request sizes (log2)
system.mem_ctrl.writePktSize::2                     0                       # Write request sizes (log2)
system.mem_ctrl.writePktSize::3                     0                       # Write request sizes (log2)
system.mem_ctrl.writePktSize::4                     0                       # Write request sizes (log2)
system.mem_ctrl.writePktSize::5                     0                       # Write request sizes (log2)
system.mem_ctrl.writePktSize::6                     0                       # Write request sizes (log2)
system.mem_ctrl.rdQLenPdf::0                      660                       # What read queue length does an incoming req see
system.mem_ctrl.rdQLenPdf::1                       56                       # What read queue length does an incoming req see
system.mem_ctrl.rdQLenPdf::2                        6                       # What read queue length does an incoming req see
system.mem_ctrl.rdQLenPdf::3                        0                       # What read queue length does an incoming req see
system.mem_ctrl.rdQLenPdf::4                        0                       # What read queue length does an incoming req see
system.mem_ctrl.rdQLenPdf::5                        0                       # What read queue length does an incoming req see
system.mem_ctrl.rdQLenPdf::6                        0                       # What read queue length does an incoming req see
system.mem_ctrl.rdQLenPdf::7                        0                       # What read queue length does an incoming req see
system.mem_ctrl.rdQLenPdf::8                        0                       # What read queue length does an incoming req see
system.mem_ctrl.rdQLenPdf::9                        0                       # What read queue length does an incoming req see
system.mem_ctrl.rdQLenPdf::10                       0                       # What read queue length does an incoming req see
system.mem_ctrl.rdQLenPdf::11                       0                       # What read queue length does an incoming req see
system.mem_ctrl.rdQLenPdf::12                       0                       # What read queue length does an incoming req see
system.mem_ctrl.rdQLenPdf::13                       0                       # What read queue length does an incoming req see
system.mem_ctrl.rdQLenPdf::14                       0                       # What read queue length does an incoming req see
system.mem_ctrl.rdQLenPdf::15                       0                       # What read queue length does an incoming req see
system.mem_ctrl.rdQLenPdf::16                       0                       # What read queue length does an incoming req see
system.mem_ctrl.rdQLenPdf::17                       0                       # What read queue length does an incoming req see
system.mem_ctrl.rdQLenPdf::18                       0                       # What read queue length does an incoming req see
system.mem_ctrl.rdQLenPdf::19                       0                       # What read queue length does an incoming req see
system.mem_ctrl.rdQLenPdf::20                       0                       # What read queue length does an incoming req see
system.mem_ctrl.rdQLenPdf::21                       0                       # What read queue length does an incoming req see
system.mem_ctrl.rdQLenPdf::22                       0                       # What read queue length does an incoming req see
system.mem_ctrl.rdQLenPdf::23                       0                       # What read queue length does an incoming req see
system.mem_ctrl.rdQLenPdf::24                       0                       # What read queue length does an incoming req see
system.mem_ctrl.rdQLenPdf::25                       0                       # What read queue length does an incoming req see
system.mem_ctrl.rdQLenPdf::26                       0                       # What read queue length does an incoming req see
system.mem_ctrl.rdQLenPdf::27                       0                       # What read queue length does an incoming req see
system.mem_ctrl.rdQLenPdf::28                       0                       # What read queue length does an incoming req see
system.mem_ctrl.rdQLenPdf::29                       0                       # What read queue length does an incoming req see
system.mem_ctrl.rdQLenPdf::30                       0                       # What read queue length does an incoming req see
system.mem_ctrl.rdQLenPdf::31                       0                       # What read queue length does an incoming req see
system.mem_ctrl.wrQLenPdf::0                        0                       # What write queue length does an incoming req see
system.mem_ctrl.wrQLenPdf::1                        0                       # What write queue length does an incoming req see
system.mem_ctrl.wrQLenPdf::2                        0                       # What write queue length does an incoming req see
system.mem_ctrl.wrQLenPdf::3                        0                       # What write queue length does an incoming req see
system.mem_ctrl.wrQLenPdf::4                        0                       # What write queue length does an incoming req see
system.mem_ctrl.wrQLenPdf::5                        0                       # What write queue length does an incoming req see
system.mem_ctrl.wrQLenPdf::6                        0                       # What write queue length does an incoming req see
system.mem_ctrl.wrQLenPdf::7                        0                       # What write queue length does an incoming req see
system.mem_ctrl.wrQLenPdf::8                        0                       # What write queue length does an incoming req see
system.mem_ctrl.wrQLenPdf::9                        0                       # What write queue length does an incoming req see
system.mem_ctrl.wrQLenPdf::10                       0                       # What write queue length does an incoming req see
system.mem_ctrl.wrQLenPdf::11                       0                       # What write queue length does an incoming req see
system.mem_ctrl.wrQLenPdf::12                       0                       # What write queue length does an incoming req see
system.mem_ctrl.wrQLenPdf::13                       0                       # What write queue length does an incoming req see
system.mem_ctrl.wrQLenPdf::14                       0                       # What write queue length does an incoming req see
system.mem_ctrl.wrQLenPdf::15                       0                       # What write queue length does an incoming req see
system.mem_ctrl.wrQLenPdf::16                       0                       # What write queue length does an incoming req see
system.mem_ctrl.wrQLenPdf::17                       0                       # What write queue length does an incoming req see
system.mem_ctrl.wrQLenPdf::18                       0                       # What write queue length does an incoming req see
system.mem_ctrl.wrQLenPdf::19                       0                       # What write queue length does an incoming req see
system.mem_ctrl.wrQLenPdf::20                       0                       # What write queue length does an incoming req see
system.mem_ctrl.wrQLenPdf::21                       0                       # What write queue length does an incoming req see
system.mem_ctrl.wrQLenPdf::22                       0                       # What write queue length does an incoming req see
system.mem_ctrl.wrQLenPdf::23                       0                       # What write queue length does an incoming req see
system.mem_ctrl.wrQLenPdf::24                       0                       # What write queue length does an incoming req see
system.mem_ctrl.wrQLenPdf::25                       0                       # What write queue length does an incoming req see
system.mem_ctrl.wrQLenPdf::26                       0                       # What write queue length does an incoming req see
system.mem_ctrl.wrQLenPdf::27                       0                       # What write queue length does an incoming req see
system.mem_ctrl.wrQLenPdf::28                       0                       # What write queue length does an incoming req see
system.mem_ctrl.wrQLenPdf::29                       0                       # What write queue length does an incoming req see
system.mem_ctrl.wrQLenPdf::30                       0                       # What write queue length does an incoming req see
system.mem_ctrl.wrQLenPdf::31                       0                       # What write queue length does an incoming req see
system.mem_ctrl.wrQLenPdf::32                       0                       # What write queue length does an incoming req see
system.mem_ctrl.wrQLenPdf::33                       0                       # What write queue length does an incoming req see
system.mem_ctrl.wrQLenPdf::34                       0                       # What write queue length does an incoming req see
system.mem_ctrl.wrQLenPdf::35                       0                       # What write queue length does an incoming req see
system.mem_ctrl.wrQLenPdf::36                       0                       # What write queue length does an incoming req see
system.mem_ctrl.wrQLenPdf::37                       0                       # What write queue length does an incoming req see
system.mem_ctrl.wrQLenPdf::38                       0                       # What write queue length does an incoming req see
system.mem_ctrl.wrQLenPdf::39                       0                       # What write queue length does an incoming req see
system.mem_ctrl.wrQLenPdf::40                       0                       # What write queue length does an incoming req see
system.mem_ctrl.wrQLenPdf::41                       0                       # What write queue length does an incoming req see
system.mem_ctrl.wrQLenPdf::42                       0                       # What write queue length does an incoming req see
system.mem_ctrl.wrQLenPdf::43                       0                       # What write queue length does an incoming req see
system.mem_ctrl.wrQLenPdf::44                       0                       # What write queue length does an incoming req see
system.mem_ctrl.wrQLenPdf::45                       0                       # What write queue length does an incoming req see
system.mem_ctrl.wrQLenPdf::46                       0                       # What write queue length does an incoming req see
system.mem_ctrl.wrQLenPdf::47                       0                       # What write queue length does an incoming req see
system.mem_ctrl.wrQLenPdf::48                       0                       # What write queue length does an incoming req see
system.mem_ctrl.wrQLenPdf::49                       0                       # What write queue length does an incoming req see
system.mem_ctrl.wrQLenPdf::50                       0                       # What write queue length does an incoming req see
system.mem_ctrl.wrQLenPdf::51                       0                       # What write queue length does an incoming req see
system.mem_ctrl.wrQLenPdf::52                       0                       # What write queue length does an incoming req see
system.mem_ctrl.wrQLenPdf::53                       0                       # What write queue length does an incoming req see
system.mem_ctrl.wrQLenPdf::54                       0                       # What write queue length does an incoming req see
system.mem_ctrl.wrQLenPdf::55                       0                       # What write queue length does an incoming req see
system.mem_ctrl.wrQLenPdf::56                       0                       # What write queue length does an incoming req see
system.mem_ctrl.wrQLenPdf::57                       0                       # What write queue length does an incoming req see
system.mem_ctrl.wrQLenPdf::58                       0                       # What write queue length does an incoming req see
system.mem_ctrl.wrQLenPdf::59                       0                       # What write queue length does an incoming req see
system.mem_ctrl.wrQLenPdf::60                       0                       # What write queue length does an incoming req see
system.mem_ctrl.wrQLenPdf::61                       0                       # What write queue length does an incoming req see
system.mem_ctrl.wrQLenPdf::62                       0                       # What write queue length does an incoming req see
system.mem_ctrl.wrQLenPdf::63                       0                       # What write queue length does an incoming req see
system.mem_ctrl.bytesPerActivate::samples           87                       # Bytes accessed per row activation
system.mem_ctrl.bytesPerActivate::mean     516.413793                       # Bytes accessed per row activation
system.mem_ctrl.bytesPerActivate::gmean    341.099684                       # Bytes accessed per row activation
system.mem_ctrl.bytesPerActivate::stdev    378.603079                       # Bytes accessed per row activation
system.mem_ctrl.bytesPerActivate::0-127            17     19.54%     19.54% # Bytes accessed per row activation
system.mem_ctrl.bytesPerActivate::128-255           11     12.64%     32.18% # Bytes accessed per row activation
system.mem_ctrl.bytesPerActivate::256-383           10     11.49%     43.67% # Bytes accessed per row activation
system.mem_ctrl.bytesPerActivate::384-511           11     12.64%     56.32% # Bytes accessed per row activation
system.mem_ctrl.bytesPerActivate::512-639            3      3.44%     59.77% # Bytes accessed per row activation
system.mem_ctrl.bytesPerActivate::640-767            2      2.29%     62.06% # Bytes accessed per row activation
system.mem_ctrl.bytesPerActivate::768-895            6      6.89%     68.96% # Bytes accessed per row activation
system.mem_ctrl.bytesPerActivate::896-1023            8      9.19%     78.16% # Bytes accessed per row activation
system.mem_ctrl.bytesPerActivate::1024-1151           19     21.83%     99.99% # Bytes accessed per row activation
system.mem_ctrl.bytesPerActivate::total            87                       # Bytes accessed per row activation
system.mem_ctrl.totQLat                      10756628                       # Total ticks spent queuing
system.mem_ctrl.totMemAccLat                 24294128                       # Total ticks spent from burst creation until serviced by the DRAM
system.mem_ctrl.totBusLat                     3610000                       # Total ticks spent in databus transfers
system.mem_ctrl.avgQLat                      14898.37                       # Average queueing delay per DRAM burst
system.mem_ctrl.avgBusLat                     5000.00                       # Average bus latency per DRAM burst
system.mem_ctrl.avgMemAccLat                 33648.37                       # Average memory access latency per DRAM burst
system.mem_ctrl.avgRdBW                          4.91                       # Average DRAM read bandwidth in MiByte/s
system.mem_ctrl.avgWrBW                          0.00                       # Average achieved write bandwidth in MiByte/s
system.mem_ctrl.avgRdBWSys                       4.91                       # Average system read bandwidth in MiByte/s
system.mem_ctrl.avgWrBWSys                       0.00                       # Average system write bandwidth in MiByte/s
system.mem_ctrl.peakBW                       12800.00                       # Theoretical peak bandwidth in MiByte/s
system.mem_ctrl.busUtil                          0.03                       # Data bus utilization in percentage
system.mem_ctrl.busUtilRead                      0.03                       # Data bus utilization in percentage for reads
system.mem_ctrl.busUtilWrite                     0.00                       # Data bus utilization in percentage for writes
system.mem_ctrl.avgRdQLen                        1.00                       # Average read queue length when enqueuing
system.mem_ctrl.avgWrQLen                        0.00                       # Average write queue length when enqueuing
system.mem_ctrl.readRowHits                       629                       # Number of row buffer hits during reads
system.mem_ctrl.writeRowHits                        0                       # Number of row buffer hits during writes
system.mem_ctrl.readRowHitRate                  87.11                       # Row buffer hit rate for reads
system.mem_ctrl.writeRowHitRate                   nan                       # Row buffer hit rate for writes
system.mem_ctrl.avgGap                    13018772.00                       # Average gap between requests
system.mem_ctrl.pageHitRate                     87.11                       # Row buffer hit rate, read and write combined
system.mem_ctrl_0.actEnergy                    257040                       # Energy for activate commands per rank (pJ)
system.mem_ctrl_0.preEnergy                    121440                       # Energy for precharge commands per rank (pJ)
system.mem_ctrl_0.readEnergy                  2241960                       # Energy for read commands per rank (pJ)
system.mem_ctrl_0.writeEnergy                       0                       # Energy for write commands per rank (pJ)
system.mem_ctrl_0.refreshEnergy              10448880                       # Energy for refresh commands per rank (pJ)
system.mem_ctrl_0.actBackEnergy               6033450                       # Energy for active background per rank (pJ)
system.mem_ctrl_0.preBackEnergy                574080                       # Energy for precharge background per rank (pJ)
system.mem_ctrl_0.actPowerDownEnergy         25558230                       # Energy for active power-down per rank (pJ)
system.mem_ctrl_0.prePowerDownEnergy         15101760                       # Energy for precharge power-down per rank (pJ)
system.mem_ctrl_0.selfRefreshEnergy        2231753460                       # Energy for self refresh per rank (pJ)
system.mem_ctrl_0.totalEnergy              2292090300                       # Total energy per rank (pJ)
system.mem_ctrl_0.averagePower             243.842762                       # Core power per rank (mW)
system.mem_ctrl_0.totalIdleTime            9384880113                       # Total Idle time Per DRAM Rank
system.mem_ctrl_0.memoryStateTime::IDLE       1110260                       # Time in different power states
system.mem_ctrl_0.memoryStateTime::REF        4444000                       # Time in different power states
system.mem_ctrl_0.memoryStateTime::SREF    9289769388                       # Time in different power states
system.mem_ctrl_0.memoryStateTime::PRE_PDN     39328433                       # Time in different power states
system.mem_ctrl_0.memoryStateTime::ACT        9150023                       # Time in different power states
system.mem_ctrl_0.memoryStateTime::ACT_PDN     56068038                       # Time in different power states
system.mem_ctrl_1.actEnergy                    406980                       # Energy for activate commands per rank (pJ)
system.mem_ctrl_1.preEnergy                    208725                       # Energy for precharge commands per rank (pJ)
system.mem_ctrl_1.readEnergy                  2913120                       # Energy for read commands per rank (pJ)
system.mem_ctrl_1.writeEnergy                       0                       # Energy for write commands per rank (pJ)
system.mem_ctrl_1.refreshEnergy          9834240.000000                       # Energy for refresh commands per rank (pJ)
system.mem_ctrl_1.actBackEnergy               6875910                       # Energy for active background per rank (pJ)
system.mem_ctrl_1.preBackEnergy                445440                       # Energy for precharge background per rank (pJ)
system.mem_ctrl_1.actPowerDownEnergy         32765880                       # Energy for active power-down per rank (pJ)
system.mem_ctrl_1.prePowerDownEnergy         10679520                       # Energy for precharge power-down per rank (pJ)
system.mem_ctrl_1.selfRefreshEnergy        2229256380                       # Energy for self refresh per rank (pJ)
system.mem_ctrl_1.totalEnergy              2293386195                       # Total energy per rank (pJ)
system.mem_ctrl_1.averagePower             243.980625                       # Core power per rank (mW)
system.mem_ctrl_1.totalIdleTime            9383291931                       # Total Idle time Per DRAM Rank
system.mem_ctrl_1.memoryStateTime::IDLE        700945                       # Time in different power states
system.mem_ctrl_1.memoryStateTime::REF        4178000                       # Time in different power states
system.mem_ctrl_1.memoryStateTime::SREF    9283966594                       # Time in different power states
system.mem_ctrl_1.memoryStateTime::PRE_PDN     27809567                       # Time in different power states
system.mem_ctrl_1.memoryStateTime::ACT       11353111                       # Time in different power states
system.mem_ctrl_1.memoryStateTime::ACT_PDN     71861925                       # Time in different power states
system.pwrStateResidencyTicks::UNDEFINED   9399870142                       # Cumulative time (in ticks) in various power states
system.cpu.branchPred.lookups                 1899359                       # Number of BP lookups
system.cpu.branchPred.condPredicted           1883239                       # Number of conditional branches predicted
system.cpu.branchPred.condIncorrect            116614                       # Number of conditional branches incorrect
system.cpu.branchPred.BTBLookups              1898303                       # Number of BTB lookups
system.cpu.branchPred.BTBHits                 1883850                       # Number of BTB hits
system.cpu.branchPred.BTBCorrect                    0                       # Number of correct BTB predictions (this stat may not work properly.
system.cpu.branchPred.BTBHitPct             99.238635                       # BTB Hit Percentage
system.cpu.branchPred.usedRAS                       0                       # Number of times the RAS was used to get a target.
system.cpu.branchPred.RASInCorrect                  0                       # Number of incorrect RAS predictions.
system.cpu.branchPred.indirectLookups            2922                       # Number of indirect predictor lookups.
system.cpu.branchPred.indirectHits               2363                       # Number of indirect target hits.
system.cpu.branchPred.indirectMisses              559                       # Number of indirect misses.
system.cpu.branchPredindirectMispredicted          225                       # Number of mispredicted indirect branches.
system.cpu.dtb.read_hits                            0                       # DTB read hits
system.cpu.dtb.read_misses                          0                       # DTB read misses
system.cpu.dtb.read_accesses                        0                       # DTB read accesses
system.cpu.dtb.write_hits                           0                       # DTB write hits
system.cpu.dtb.write_misses                         0                       # DTB write misses
system.cpu.dtb.write_accesses                       0                       # DTB write accesses
system.cpu.dtb.hits                                 0                       # DTB hits
system.cpu.dtb.misses                               0                       # DTB misses
system.cpu.dtb.accesses                             0                       # DTB accesses
system.cpu.itb.read_hits                            0                       # DTB read hits
system.cpu.itb.read_misses                          0                       # DTB read misses
system.cpu.itb.read_accesses                        0                       # DTB read accesses
system.cpu.itb.write_hits                           0                       # DTB write hits
system.cpu.itb.write_misses                         0                       # DTB write misses
system.cpu.itb.write_accesses                       0                       # DTB write accesses
system.cpu.itb.hits                                 0                       # DTB hits
system.cpu.itb.misses                               0                       # DTB misses
system.cpu.itb.accesses                             0                       # DTB accesses
system.cpu.workload.numSyscalls                    26                       # Number of system calls
system.cpu.pwrStateResidencyTicks::ON      9399870142                       # Cumulative time (in ticks) in various power states
system.cpu.numCycles                         30031534                       # number of cpu cycles simulated
system.cpu.numWorkItemsStarted                      0                       # number of work items this cpu started
system.cpu.numWorkItemsCompleted                    0                       # number of work items this cpu completed
system.cpu.committedInsts                    20645865                       # Number of instructions committed
system.cpu.committedOps                      20645865                       # Number of ops (including micro ops) committed
system.cpu.discardedOps                        111410                       # Number of ops (including micro ops) which were discarded before commit
system.cpu.numFetchSuspends                         0                       # Number of times Execute suspended instruction fetching
system.cpu.cpi                               1.454602                       # CPI: cycles per instruction
system.cpu.ipc                               0.687472                       # IPC: instructions per cycle
system.cpu.op_class_0::No_OpClass                  26      0.00%      0.00% # Class of committed instruction
system.cpu.op_class_0::IntAdd                       0      0.00%      0.00% # Class of committed instruction
system.cpu.op_class_0::IntSub                       0      0.00%      0.00% # Class of committed instruction
system.cpu.op_class_0::IntMult                3272656     15.85%     15.85% # Class of committed instruction
system.cpu.op_class_0::IntDiv                    7230      0.03%     15.88% # Class of committed instruction
system.cpu.op_class_0::IntLogic                     0      0.00%     15.88% # Class of committed instruction
system.cpu.op_class_0::IntShift                     0      0.00%     15.88% # Class of committed instruction
system.cpu.op_class_0::IntMov                       0      0.00%     15.88% # Class of committed instruction
system.cpu.op_class_0::IntCtrl                      0      0.00%     15.88% # Class of committed instruction
system.cpu.op_class_0::IntALU                12381481     59.97%     75.85% # Class of committed instruction
system.cpu.op_class_0::FloatAdd                  3646      0.01%     75.87% # Class of committed instruction
system.cpu.op_class_0::FloatCmp                  1479      0.00%     75.88% # Class of committed instruction
system.cpu.op_class_0::FloatCvt                  9841      0.04%     75.92% # Class of committed instruction
system.cpu.op_class_0::FloatMult                 3373      0.01%     75.94% # Class of committed instruction
system.cpu.op_class_0::FloatMultAcc              4976      0.02%     75.97% # Class of committed instruction
system.cpu.op_class_0::FloatDiv                  1474      0.00%     75.97% # Class of committed instruction
system.cpu.op_class_0::FloatMisc                 3466      0.01%     75.99% # Class of committed instruction
system.cpu.op_class_0::FloatSqrt                    0      0.00%     75.99% # Class of committed instruction
system.cpu.op_class_0::SimdAdd                      0      0.00%     75.99% # Class of committed instruction
system.cpu.op_class_0::SimdAddAcc                   0      0.00%     75.99% # Class of committed instruction
system.cpu.op_class_0::SimdAlu                      0      0.00%     75.99% # Class of committed instruction
system.cpu.op_class_0::SimdCmp                      0      0.00%     75.99% # Class of committed instruction
system.cpu.op_class_0::SimdCvt                      0      0.00%     75.99% # Class of committed instruction
system.cpu.op_class_0::SimdMisc                     0      0.00%     75.99% # Class of committed instruction
system.cpu.op_class_0::SimdMult                     0      0.00%     75.99% # Class of committed instruction
system.cpu.op_class_0::SimdMultAcc                  0      0.00%     75.99% # Class of committed instruction
system.cpu.op_class_0::SimdShift                    0      0.00%     75.99% # Class of committed instruction
system.cpu.op_class_0::SimdShiftAcc                 0      0.00%     75.99% # Class of committed instruction
system.cpu.op_class_0::SimdSqrt                     0      0.00%     75.99% # Class of committed instruction
system.cpu.op_class_0::SimdFloatAdd                 0      0.00%     75.99% # Class of committed instruction
system.cpu.op_class_0::SimdFloatAlu                 0      0.00%     75.99% # Class of committed instruction
system.cpu.op_class_0::SimdFloatCmp                 0      0.00%     75.99% # Class of committed instruction
system.cpu.op_class_0::SimdFloatCvt                 0      0.00%     75.99% # Class of committed instruction
system.cpu.op_class_0::SimdFloatDiv                 0      0.00%     75.99% # Class of committed instruction
system.cpu.op_class_0::SimdFloatMisc                0      0.00%     75.99% # Class of committed instruction
system.cpu.op_class_0::SimdFloatMult                0      0.00%     75.99% # Class of committed instruction
system.cpu.op_class_0::SimdFloatMultAcc             0      0.00%     75.99% # Class of committed instruction
system.cpu.op_class_0::SimdFloatSqrt                0      0.00%     75.99% # Class of committed instruction
system.cpu.op_class_0::MemRead                4921281     23.83%     99.83% # Class of committed instruction
system.cpu.op_class_0::MemWrite                 22651      0.10%     99.94% # Class of committed instruction
system.cpu.op_class_0::FloatMemRead             10803      0.05%     99.99% # Class of committed instruction
system.cpu.op_class_0::FloatMemWrite             1482      0.00%     99.99% # Class of committed instruction
system.cpu.op_class_0::IprAccess                    0      0.00%     99.99% # Class of committed instruction
system.cpu.op_class_0::InstPrefetch                 0      0.00%     99.99% # Class of committed instruction
system.cpu.op_class_0::total                 20645865                       # Class of committed instruction
system.cpu.tickCycles                        29813074                       # Number of cycles that the object actually ticked
system.cpu.idleCycles                          218460                       # Total number of cycles that the object has spent stopped
system.cpu.fetch2.int_instructions           17416228                       # Number of integer instructions successfully decoded
system.cpu.fetch2.fp_instructions               28854                       # Number of floating point instructions successfully decoded
system.cpu.fetch2.vec_instructions                  0                       # Number of SIMD instructions successfully decoded
system.cpu.fetch2.load_instructions           5584117                       # Number of memory load instructions successfully decoded
system.cpu.fetch2.store_instructions            25609                       # Number of memory store instructions successfully decoded
system.cpu.dcache.tags.pwrStateResidencyTicks::UNDEFINED   9399870142                       # Cumulative time (in ticks) in various power states
system.cpu.dcache.tags.replacements                 6                       # number of replacements
system.cpu.dcache.tags.tagsinuse           339.620987                       # Cycle average of tags in use
system.cpu.dcache.tags.total_refs             4956051                       # Total number of references to valid blocks.
system.cpu.dcache.tags.sampled_refs               381                       # Sample count of references to valid blocks.
system.cpu.dcache.tags.avg_refs          13008.007874                       # Average number of references to valid blocks.
system.cpu.dcache.tags.warmup_cycle            142102                       # Cycle when the warmup percentage was hit.
system.cpu.dcache.tags.occ_blocks::cpu.data   339.620987                       # Average occupied blocks per requestor
system.cpu.dcache.tags.occ_percent::cpu.data     0.663322                       # Average percentage of cache occupancy
system.cpu.dcache.tags.occ_percent::total     0.663322                       # Average percentage of cache occupancy
system.cpu.dcache.tags.occ_task_id_blocks::1024          375                       # Occupied blocks per task id
system.cpu.dcache.tags.age_task_id_blocks_1024::0           24                       # Occupied blocks per task id
system.cpu.dcache.tags.age_task_id_blocks_1024::1           13                       # Occupied blocks per task id
system.cpu.dcache.tags.age_task_id_blocks_1024::3          338                       # Occupied blocks per task id
system.cpu.dcache.tags.occ_task_id_percent::1024     0.732421                       # Percentage of cache occupancy per task id
system.cpu.dcache.tags.tag_accesses          19827349                       # Number of tag accesses
system.cpu.dcache.tags.data_accesses         19827349                       # Number of data accesses
system.cpu.dcache.pwrStateResidencyTicks::UNDEFINED   9399870142                       # Cumulative time (in ticks) in various power states
system.cpu.dcache.ReadReq_hits::cpu.data      4932553                       # number of ReadReq hits
system.cpu.dcache.ReadReq_hits::total         4932553                       # number of ReadReq hits
system.cpu.dcache.WriteReq_hits::cpu.data        23498                       # number of WriteReq hits
system.cpu.dcache.WriteReq_hits::total          23498                       # number of WriteReq hits
system.cpu.dcache.demand_hits::cpu.data       4956051                       # number of demand (read+write) hits
system.cpu.dcache.demand_hits::total          4956051                       # number of demand (read+write) hits
system.cpu.dcache.overall_hits::cpu.data      4956051                       # number of overall hits
system.cpu.dcache.overall_hits::total         4956051                       # number of overall hits
system.cpu.dcache.ReadReq_misses::cpu.data           58                       # number of ReadReq misses
system.cpu.dcache.ReadReq_misses::total            58                       # number of ReadReq misses
system.cpu.dcache.WriteReq_misses::cpu.data          633                       # number of WriteReq misses
system.cpu.dcache.WriteReq_misses::total          633                       # number of WriteReq misses
system.cpu.dcache.demand_misses::cpu.data          691                       # number of demand (read+write) misses
system.cpu.dcache.demand_misses::total            691                       # number of demand (read+write) misses
system.cpu.dcache.overall_misses::cpu.data          691                       # number of overall misses
system.cpu.dcache.overall_misses::total           691                       # number of overall misses
system.cpu.dcache.ReadReq_miss_latency::cpu.data      4741011                       # number of ReadReq miss cycles
system.cpu.dcache.ReadReq_miss_latency::total      4741011                       # number of ReadReq miss cycles
system.cpu.dcache.WriteReq_miss_latency::cpu.data     23208637                       # number of WriteReq miss cycles
system.cpu.dcache.WriteReq_miss_latency::total     23208637                       # number of WriteReq miss cycles
system.cpu.dcache.demand_miss_latency::cpu.data     27949648                       # number of demand (read+write) miss cycles
system.cpu.dcache.demand_miss_latency::total     27949648                       # number of demand (read+write) miss cycles
system.cpu.dcache.overall_miss_latency::cpu.data     27949648                       # number of overall miss cycles
system.cpu.dcache.overall_miss_latency::total     27949648                       # number of overall miss cycles
system.cpu.dcache.ReadReq_accesses::cpu.data      4932611                       # number of ReadReq accesses(hits+misses)
system.cpu.dcache.ReadReq_accesses::total      4932611                       # number of ReadReq accesses(hits+misses)
system.cpu.dcache.WriteReq_accesses::cpu.data        24131                       # number of WriteReq accesses(hits+misses)
system.cpu.dcache.WriteReq_accesses::total        24131                       # number of WriteReq accesses(hits+misses)
system.cpu.dcache.demand_accesses::cpu.data      4956742                       # number of demand (read+write) accesses
system.cpu.dcache.demand_accesses::total      4956742                       # number of demand (read+write) accesses
system.cpu.dcache.overall_accesses::cpu.data      4956742                       # number of overall (read+write) accesses
system.cpu.dcache.overall_accesses::total      4956742                       # number of overall (read+write) accesses
system.cpu.dcache.ReadReq_miss_rate::cpu.data     0.000011                       # miss rate for ReadReq accesses
system.cpu.dcache.ReadReq_miss_rate::total     0.000011                       # miss rate for ReadReq accesses
system.cpu.dcache.WriteReq_miss_rate::cpu.data     0.026231                       # miss rate for WriteReq accesses
system.cpu.dcache.WriteReq_miss_rate::total     0.026231                       # miss rate for WriteReq accesses
system.cpu.dcache.demand_miss_rate::cpu.data     0.000139                       # miss rate for demand accesses
system.cpu.dcache.demand_miss_rate::total     0.000139                       # miss rate for demand accesses
system.cpu.dcache.overall_miss_rate::cpu.data     0.000139                       # miss rate for overall accesses
system.cpu.dcache.overall_miss_rate::total     0.000139                       # miss rate for overall accesses
system.cpu.dcache.ReadReq_avg_miss_latency::cpu.data 81741.568965                       # average ReadReq miss latency
system.cpu.dcache.ReadReq_avg_miss_latency::total 81741.568965                       # average ReadReq miss latency
system.cpu.dcache.WriteReq_avg_miss_latency::cpu.data 36664.513428                       # average WriteReq miss latency
system.cpu.dcache.WriteReq_avg_miss_latency::total 36664.513428                       # average WriteReq miss latency
system.cpu.dcache.demand_avg_miss_latency::cpu.data 40448.115774                       # average overall miss latency
system.cpu.dcache.demand_avg_miss_latency::total 40448.115774                       # average overall miss latency
system.cpu.dcache.overall_avg_miss_latency::cpu.data 40448.115774                       # average overall miss latency
system.cpu.dcache.overall_avg_miss_latency::total 40448.115774                       # average overall miss latency
system.cpu.dcache.blocked_cycles::no_mshrs            0                       # number of cycles access was blocked
system.cpu.dcache.blocked_cycles::no_targets            0                       # number of cycles access was blocked
system.cpu.dcache.blocked::no_mshrs                 0                       # number of cycles access was blocked
system.cpu.dcache.blocked::no_targets               0                       # number of cycles access was blocked
system.cpu.dcache.avg_blocked_cycles::no_mshrs          nan                       # average number of cycles each access was blocked
system.cpu.dcache.avg_blocked_cycles::no_targets          nan                       # average number of cycles each access was blocked
system.cpu.dcache.writebacks::writebacks            6                       # number of writebacks
system.cpu.dcache.writebacks::total                 6                       # number of writebacks
system.cpu.dcache.ReadReq_mshr_hits::cpu.data            3                       # number of ReadReq MSHR hits
system.cpu.dcache.ReadReq_mshr_hits::total            3                       # number of ReadReq MSHR hits
system.cpu.dcache.WriteReq_mshr_hits::cpu.data          307                       # number of WriteReq MSHR hits
system.cpu.dcache.WriteReq_mshr_hits::total          307                       # number of WriteReq MSHR hits
system.cpu.dcache.demand_mshr_hits::cpu.data          310                       # number of demand (read+write) MSHR hits
system.cpu.dcache.demand_mshr_hits::total          310                       # number of demand (read+write) MSHR hits
system.cpu.dcache.overall_mshr_hits::cpu.data          310                       # number of overall MSHR hits
system.cpu.dcache.overall_mshr_hits::total          310                       # number of overall MSHR hits
system.cpu.dcache.ReadReq_mshr_misses::cpu.data           55                       # number of ReadReq MSHR misses
system.cpu.dcache.ReadReq_mshr_misses::total           55                       # number of ReadReq MSHR misses
system.cpu.dcache.WriteReq_mshr_misses::cpu.data          326                       # number of WriteReq MSHR misses
system.cpu.dcache.WriteReq_mshr_misses::total          326                       # number of WriteReq MSHR misses
system.cpu.dcache.demand_mshr_misses::cpu.data          381                       # number of demand (read+write) MSHR misses
system.cpu.dcache.demand_mshr_misses::total          381                       # number of demand (read+write) MSHR misses
system.cpu.dcache.overall_mshr_misses::cpu.data          381                       # number of overall MSHR misses
system.cpu.dcache.overall_mshr_misses::total          381                       # number of overall MSHR misses
system.cpu.dcache.ReadReq_mshr_miss_latency::cpu.data      4581068                       # number of ReadReq MSHR miss cycles
system.cpu.dcache.ReadReq_mshr_miss_latency::total      4581068                       # number of ReadReq MSHR miss cycles
system.cpu.dcache.WriteReq_mshr_miss_latency::cpu.data     12212008                       # number of WriteReq MSHR miss cycles
system.cpu.dcache.WriteReq_mshr_miss_latency::total     12212008                       # number of WriteReq MSHR miss cycles
system.cpu.dcache.demand_mshr_miss_latency::cpu.data     16793076                       # number of demand (read+write) MSHR miss cycles
system.cpu.dcache.demand_mshr_miss_latency::total     16793076                       # number of demand (read+write) MSHR miss cycles
system.cpu.dcache.overall_mshr_miss_latency::cpu.data     16793076                       # number of overall MSHR miss cycles
system.cpu.dcache.overall_mshr_miss_latency::total     16793076                       # number of overall MSHR miss cycles
system.cpu.dcache.ReadReq_mshr_miss_rate::cpu.data     0.000011                       # mshr miss rate for ReadReq accesses
system.cpu.dcache.ReadReq_mshr_miss_rate::total     0.000011                       # mshr miss rate for ReadReq accesses
system.cpu.dcache.WriteReq_mshr_miss_rate::cpu.data     0.013509                       # mshr miss rate for WriteReq accesses
system.cpu.dcache.WriteReq_mshr_miss_rate::total     0.013509                       # mshr miss rate for WriteReq accesses
system.cpu.dcache.demand_mshr_miss_rate::cpu.data     0.000076                       # mshr miss rate for demand accesses
system.cpu.dcache.demand_mshr_miss_rate::total     0.000076                       # mshr miss rate for demand accesses
system.cpu.dcache.overall_mshr_miss_rate::cpu.data     0.000076                       # mshr miss rate for overall accesses
system.cpu.dcache.overall_mshr_miss_rate::total     0.000076                       # mshr miss rate for overall accesses
system.cpu.dcache.ReadReq_avg_mshr_miss_latency::cpu.data 83292.145454                       # average ReadReq mshr miss latency
system.cpu.dcache.ReadReq_avg_mshr_miss_latency::total 83292.145454                       # average ReadReq mshr miss latency
system.cpu.dcache.WriteReq_avg_mshr_miss_latency::cpu.data 37460.147239                       # average WriteReq mshr miss latency
system.cpu.dcache.WriteReq_avg_mshr_miss_latency::total 37460.147239                       # average WriteReq mshr miss latency
system.cpu.dcache.demand_avg_mshr_miss_latency::cpu.data 44076.314960                       # average overall mshr miss latency
system.cpu.dcache.demand_avg_mshr_miss_latency::total 44076.314960                       # average overall mshr miss latency
system.cpu.dcache.overall_avg_mshr_miss_latency::cpu.data 44076.314960                       # average overall mshr miss latency
system.cpu.dcache.overall_avg_mshr_miss_latency::total 44076.314960                       # average overall mshr miss latency
system.cpu.icache.tags.pwrStateResidencyTicks::UNDEFINED   9399870142                       # Cumulative time (in ticks) in various power states
system.cpu.icache.tags.replacements                59                       # number of replacements
system.cpu.icache.tags.tagsinuse           224.661768                       # Cycle average of tags in use
system.cpu.icache.tags.total_refs             5775707                       # Total number of references to valid blocks.
system.cpu.icache.tags.sampled_refs               367                       # Sample count of references to valid blocks.
system.cpu.icache.tags.avg_refs          15737.621253                       # Average number of references to valid blocks.
system.cpu.icache.tags.warmup_cycle             72929                       # Cycle when the warmup percentage was hit.
system.cpu.icache.tags.occ_blocks::cpu.inst   224.661768                       # Average occupied blocks per requestor
system.cpu.icache.tags.occ_percent::cpu.inst     0.438792                       # Average percentage of cache occupancy
system.cpu.icache.tags.occ_percent::total     0.438792                       # Average percentage of cache occupancy
system.cpu.icache.tags.occ_task_id_blocks::1024          308                       # Occupied blocks per task id
system.cpu.icache.tags.age_task_id_blocks_1024::0           66                       # Occupied blocks per task id
system.cpu.icache.tags.age_task_id_blocks_1024::1           53                       # Occupied blocks per task id
system.cpu.icache.tags.age_task_id_blocks_1024::3          189                       # Occupied blocks per task id
system.cpu.icache.tags.occ_task_id_percent::1024     0.601562                       # Percentage of cache occupancy per task id
system.cpu.icache.tags.tag_accesses          11552515                       # Number of tag accesses
system.cpu.icache.tags.data_accesses         11552515                       # Number of data accesses
system.cpu.icache.pwrStateResidencyTicks::UNDEFINED   9399870142                       # Cumulative time (in ticks) in various power states
system.cpu.icache.ReadReq_hits::cpu.inst      5775707                       # number of ReadReq hits
system.cpu.icache.ReadReq_hits::total         5775707                       # number of ReadReq hits
system.cpu.icache.demand_hits::cpu.inst       5775707                       # number of demand (read+write) hits
system.cpu.icache.demand_hits::total          5775707                       # number of demand (read+write) hits
system.cpu.icache.overall_hits::cpu.inst      5775707                       # number of overall hits
system.cpu.icache.overall_hits::total         5775707                       # number of overall hits
system.cpu.icache.ReadReq_misses::cpu.inst          367                       # number of ReadReq misses
system.cpu.icache.ReadReq_misses::total           367                       # number of ReadReq misses
system.cpu.icache.demand_misses::cpu.inst          367                       # number of demand (read+write) misses
system.cpu.icache.demand_misses::total            367                       # number of demand (read+write) misses
system.cpu.icache.overall_misses::cpu.inst          367                       # number of overall misses
system.cpu.icache.overall_misses::total           367                       # number of overall misses
system.cpu.icache.ReadReq_miss_latency::cpu.inst     23617102                       # number of ReadReq miss cycles
system.cpu.icache.ReadReq_miss_latency::total     23617102                       # number of ReadReq miss cycles
system.cpu.icache.demand_miss_latency::cpu.inst     23617102                       # number of demand (read+write) miss cycles
system.cpu.icache.demand_miss_latency::total     23617102                       # number of demand (read+write) miss cycles
system.cpu.icache.overall_miss_latency::cpu.inst     23617102                       # number of overall miss cycles
system.cpu.icache.overall_miss_latency::total     23617102                       # number of overall miss cycles
system.cpu.icache.ReadReq_accesses::cpu.inst      5776074                       # number of ReadReq accesses(hits+misses)
system.cpu.icache.ReadReq_accesses::total      5776074                       # number of ReadReq accesses(hits+misses)
system.cpu.icache.demand_accesses::cpu.inst      5776074                       # number of demand (read+write) accesses
system.cpu.icache.demand_accesses::total      5776074                       # number of demand (read+write) accesses
system.cpu.icache.overall_accesses::cpu.inst      5776074                       # number of overall (read+write) accesses
system.cpu.icache.overall_accesses::total      5776074                       # number of overall (read+write) accesses
system.cpu.icache.ReadReq_miss_rate::cpu.inst     0.000063                       # miss rate for ReadReq accesses
system.cpu.icache.ReadReq_miss_rate::total     0.000063                       # miss rate for ReadReq accesses
system.cpu.icache.demand_miss_rate::cpu.inst     0.000063                       # miss rate for demand accesses
system.cpu.icache.demand_miss_rate::total     0.000063                       # miss rate for demand accesses
system.cpu.icache.overall_miss_rate::cpu.inst     0.000063                       # miss rate for overall accesses
system.cpu.icache.overall_miss_rate::total     0.000063                       # miss rate for overall accesses
system.cpu.icache.ReadReq_avg_miss_latency::cpu.inst 64351.776566                       # average ReadReq miss latency
system.cpu.icache.ReadReq_avg_miss_latency::total 64351.776566                       # average ReadReq miss latency
system.cpu.icache.demand_avg_miss_latency::cpu.inst 64351.776566                       # average overall miss latency
system.cpu.icache.demand_avg_miss_latency::total 64351.776566                       # average overall miss latency
system.cpu.icache.overall_avg_miss_latency::cpu.inst 64351.776566                       # average overall miss latency
system.cpu.icache.overall_avg_miss_latency::total 64351.776566                       # average overall miss latency
system.cpu.icache.blocked_cycles::no_mshrs            0                       # number of cycles access was blocked
system.cpu.icache.blocked_cycles::no_targets            0                       # number of cycles access was blocked
system.cpu.icache.blocked::no_mshrs                 0                       # number of cycles access was blocked
system.cpu.icache.blocked::no_targets               0                       # number of cycles access was blocked
system.cpu.icache.avg_blocked_cycles::no_mshrs          nan                       # average number of cycles each access was blocked
system.cpu.icache.avg_blocked_cycles::no_targets          nan                       # average number of cycles each access was blocked
system.cpu.icache.writebacks::writebacks           59                       # number of writebacks
system.cpu.icache.writebacks::total                59                       # number of writebacks
system.cpu.icache.ReadReq_mshr_misses::cpu.inst          367                       # number of ReadReq MSHR misses
system.cpu.icache.ReadReq_mshr_misses::total          367                       # number of ReadReq MSHR misses
system.cpu.icache.demand_mshr_misses::cpu.inst          367                       # number of demand (read+write) MSHR misses
system.cpu.icache.demand_mshr_misses::total          367                       # number of demand (read+write) MSHR misses
system.cpu.icache.overall_mshr_misses::cpu.inst          367                       # number of overall MSHR misses
system.cpu.icache.overall_mshr_misses::total          367                       # number of overall MSHR misses
system.cpu.icache.ReadReq_mshr_miss_latency::cpu.inst     23387360                       # number of ReadReq MSHR miss cycles
system.cpu.icache.ReadReq_mshr_miss_latency::total     23387360                       # number of ReadReq MSHR miss cycles
system.cpu.icache.demand_mshr_miss_latency::cpu.inst     23387360                       # number of demand (read+write) MSHR miss cycles
system.cpu.icache.demand_mshr_miss_latency::total     23387360                       # number of demand (read+write) MSHR miss cycles
system.cpu.icache.overall_mshr_miss_latency::cpu.inst     23387360                       # number of overall MSHR miss cycles
system.cpu.icache.overall_mshr_miss_latency::total     23387360                       # number of overall MSHR miss cycles
system.cpu.icache.ReadReq_mshr_miss_rate::cpu.inst     0.000063                       # mshr miss rate for ReadReq accesses
system.cpu.icache.ReadReq_mshr_miss_rate::total     0.000063                       # mshr miss rate for ReadReq accesses
system.cpu.icache.demand_mshr_miss_rate::cpu.inst     0.000063                       # mshr miss rate for demand accesses
system.cpu.icache.demand_mshr_miss_rate::total     0.000063                       # mshr miss rate for demand accesses
system.cpu.icache.overall_mshr_miss_rate::cpu.inst     0.000063                       # mshr miss rate for overall accesses
system.cpu.icache.overall_mshr_miss_rate::total     0.000063                       # mshr miss rate for overall accesses
system.cpu.icache.ReadReq_avg_mshr_miss_latency::cpu.inst 63725.776566                       # average ReadReq mshr miss latency
system.cpu.icache.ReadReq_avg_mshr_miss_latency::total 63725.776566                       # average ReadReq mshr miss latency
system.cpu.icache.demand_avg_mshr_miss_latency::cpu.inst 63725.776566                       # average overall mshr miss latency
system.cpu.icache.demand_avg_mshr_miss_latency::total 63725.776566                       # average overall mshr miss latency
system.cpu.icache.overall_avg_mshr_miss_latency::cpu.inst 63725.776566                       # average overall mshr miss latency
system.cpu.icache.overall_avg_mshr_miss_latency::total 63725.776566                       # average overall mshr miss latency
system.l2bus.snoop_filter.tot_requests            813                       # Total number of requests made to the snoop filter.
system.l2bus.snoop_filter.hit_single_requests           65                       # Number of requests hitting in the snoop filter with a single holder of the requested data.
system.l2bus.snoop_filter.hit_multi_requests            0                       # Number of requests hitting in the snoop filter with multiple (>1) holders of the requested data.
system.l2bus.snoop_filter.tot_snoops                2                       # Total number of snoops made to the snoop filter.
system.l2bus.snoop_filter.hit_single_snoops            2                       # Number of snoops hitting in the snoop filter with a single holder of the requested data.
system.l2bus.snoop_filter.hit_multi_snoops            0                       # Number of snoops hitting in the snoop filter with multiple (>1) holders of the requested data.
system.l2bus.pwrStateResidencyTicks::UNDEFINED   9399870142                       # Cumulative time (in ticks) in various power states
system.l2bus.trans_dist::ReadResp                 422                       # Transaction distribution
system.l2bus.trans_dist::WritebackDirty             3                       # Transaction distribution
system.l2bus.trans_dist::WritebackClean            62                       # Transaction distribution
system.l2bus.trans_dist::HardPFReq                151                       # Transaction distribution
system.l2bus.trans_dist::ReadExReq                326                       # Transaction distribution
system.l2bus.trans_dist::ReadExResp               326                       # Transaction distribution
system.l2bus.trans_dist::ReadCleanReq             367                       # Transaction distribution
system.l2bus.trans_dist::ReadSharedReq             55                       # Transaction distribution
system.l2bus.pkt_count_system.cpu.icache.mem_side::system.l2cache.cpu_side          793                       # Packet count per connected master and slave (bytes)
system.l2bus.pkt_count_system.cpu.dcache.mem_side::system.l2cache.cpu_side          768                       # Packet count per connected master and slave (bytes)
system.l2bus.pkt_count::total                    1561                       # Packet count per connected master and slave (bytes)
system.l2bus.pkt_size_system.cpu.icache.mem_side::system.l2cache.cpu_side        27264                       # Cumulative packet size per connected master and slave (bytes)
system.l2bus.pkt_size_system.cpu.dcache.mem_side::system.l2cache.cpu_side        24768                       # Cumulative packet size per connected master and slave (bytes)
system.l2bus.pkt_size::total                    52032                       # Cumulative packet size per connected master and slave (bytes)
system.l2bus.snoops                               151                       # Total snoops (count)
system.l2bus.snoopTraffic                           0                       # Total snoop traffic (bytes)
system.l2bus.snoop_fanout::samples                899                       # Request fanout histogram
system.l2bus.snoop_fanout::mean              0.002224                       # Request fanout histogram
system.l2bus.snoop_fanout::stdev             0.047140                       # Request fanout histogram
system.l2bus.snoop_fanout::underflows               0      0.00%      0.00% # Request fanout histogram
system.l2bus.snoop_fanout::0                      897     99.77%     99.77% # Request fanout histogram
system.l2bus.snoop_fanout::1                        2      0.22%     99.99% # Request fanout histogram
system.l2bus.snoop_fanout::2                        0      0.00%     99.99% # Request fanout histogram
system.l2bus.snoop_fanout::overflows                0      0.00%     99.99% # Request fanout histogram
system.l2bus.snoop_fanout::min_value                0                       # Request fanout histogram
system.l2bus.snoop_fanout::max_value                1                       # Request fanout histogram
system.l2bus.snoop_fanout::total                  899                       # Request fanout histogram
system.l2bus.reqLayer0.occupancy               335849                       # Layer occupancy (ticks)
system.l2bus.reqLayer0.utilization                0.0                       # Layer utilization (%)
system.l2bus.respLayer0.occupancy              574355                       # Layer occupancy (ticks)
system.l2bus.respLayer0.utilization               0.0                       # Layer utilization (%)
system.l2bus.respLayer1.occupancy              596265                       # Layer occupancy (ticks)
system.l2bus.respLayer1.utilization               0.0                       # Layer utilization (%)
system.l2cache.prefetcher.pwrStateResidencyTicks::UNDEFINED   9399870142                       # Cumulative time (in ticks) in various power states
system.l2cache.prefetcher.num_hwpf_issued          151                       # number of hwpf issued
system.l2cache.prefetcher.pfIdentified            151                       # number of prefetch candidates identified
system.l2cache.prefetcher.pfBufferHit               0                       # number of redundant prefetches already in prefetch queue
system.l2cache.prefetcher.pfInCache                 0                       # number of redundant prefetches already in cache/mshr dropped
system.l2cache.prefetcher.pfRemovedFull             0                       # number of prefetches dropped due to prefetch queue size
system.l2cache.prefetcher.pfSpanPage                5                       # number of prefetches not generated due to page crossing
system.l2cache.tags.pwrStateResidencyTicks::UNDEFINED   9399870142                       # Cumulative time (in ticks) in various power states
system.l2cache.tags.replacements                    0                       # number of replacements
system.l2cache.tags.tagsinuse               13.004979                       # Cycle average of tags in use
system.l2cache.tags.total_refs                      0                       # Total number of references to valid blocks.
system.l2cache.tags.sampled_refs                   39                       # Sample count of references to valid blocks.
system.l2cache.tags.avg_refs                        0                       # Average number of references to valid blocks.
system.l2cache.tags.warmup_cycle               386868                       # Cycle when the warmup percentage was hit.
system.l2cache.tags.occ_blocks::writebacks    11.990199                       # Average occupied blocks per requestor
system.l2cache.tags.occ_blocks::l2cache.prefetcher     1.014779                       # Average occupied blocks per requestor
system.l2cache.tags.occ_percent::writebacks     0.001463                       # Average percentage of cache occupancy
system.l2cache.tags.occ_percent::l2cache.prefetcher     0.000123                       # Average percentage of cache occupancy
system.l2cache.tags.occ_percent::total       0.001587                       # Average percentage of cache occupancy
system.l2cache.tags.occ_task_id_blocks::1022            1                       # Occupied blocks per task id
system.l2cache.tags.occ_task_id_blocks::1024           38                       # Occupied blocks per task id
system.l2cache.tags.age_task_id_blocks_1022::3            1                       # Occupied blocks per task id
system.l2cache.tags.age_task_id_blocks_1024::0           13                       # Occupied blocks per task id
system.l2cache.tags.age_task_id_blocks_1024::1           20                       # Occupied blocks per task id
system.l2cache.tags.age_task_id_blocks_1024::3            5                       # Occupied blocks per task id
system.l2cache.tags.occ_task_id_percent::1022     0.000122                       # Percentage of cache occupancy per task id
system.l2cache.tags.occ_task_id_percent::1024     0.004638                       # Percentage of cache occupancy per task id
system.l2cache.tags.tag_accesses                 6718                       # Number of tag accesses
system.l2cache.tags.data_accesses                6718                       # Number of data accesses
system.l2cache.pwrStateResidencyTicks::UNDEFINED   9399870142                       # Cumulative time (in ticks) in various power states
system.l2cache.WritebackDirty_hits::writebacks            3                       # number of WritebackDirty hits
system.l2cache.WritebackDirty_hits::total            3                       # number of WritebackDirty hits
system.l2cache.WritebackClean_hits::writebacks           62                       # number of WritebackClean hits
system.l2cache.WritebackClean_hits::total           62                       # number of WritebackClean hits
system.l2cache.ReadExReq_hits::cpu.data           144                       # number of ReadExReq hits
system.l2cache.ReadExReq_hits::total              144                       # number of ReadExReq hits
system.l2cache.ReadCleanReq_hits::cpu.inst           24                       # number of ReadCleanReq hits
system.l2cache.ReadCleanReq_hits::total            24                       # number of ReadCleanReq hits
system.l2cache.ReadSharedReq_hits::cpu.data            3                       # number of ReadSharedReq hits
system.l2cache.ReadSharedReq_hits::total            3                       # number of ReadSharedReq hits
system.l2cache.demand_hits::cpu.inst               24                       # number of demand (read+write) hits
system.l2cache.demand_hits::cpu.data              147                       # number of demand (read+write) hits
system.l2cache.demand_hits::total                 171                       # number of demand (read+write) hits
system.l2cache.overall_hits::cpu.inst              24                       # number of overall hits
system.l2cache.overall_hits::cpu.data             147                       # number of overall hits
system.l2cache.overall_hits::total                171                       # number of overall hits
system.l2cache.ReadExReq_misses::cpu.data          182                       # number of ReadExReq misses
system.l2cache.ReadExReq_misses::total            182                       # number of ReadExReq misses
system.l2cache.ReadCleanReq_misses::cpu.inst          343                       # number of ReadCleanReq misses
system.l2cache.ReadCleanReq_misses::total          343                       # number of ReadCleanReq misses
system.l2cache.ReadSharedReq_misses::cpu.data           52                       # number of ReadSharedReq misses
system.l2cache.ReadSharedReq_misses::total           52                       # number of ReadSharedReq misses
system.l2cache.demand_misses::cpu.inst            343                       # number of demand (read+write) misses
system.l2cache.demand_misses::cpu.data            234                       # number of demand (read+write) misses
system.l2cache.demand_misses::total               577                       # number of demand (read+write) misses
system.l2cache.overall_misses::cpu.inst           343                       # number of overall misses
system.l2cache.overall_misses::cpu.data           234                       # number of overall misses
system.l2cache.overall_misses::total              577                       # number of overall misses
system.l2cache.ReadExReq_miss_latency::cpu.data     11033876                       # number of ReadExReq miss cycles
system.l2cache.ReadExReq_miss_latency::total     11033876                       # number of ReadExReq miss cycles
system.l2cache.ReadCleanReq_miss_latency::cpu.inst     22791721                       # number of ReadCleanReq miss cycles
system.l2cache.ReadCleanReq_miss_latency::total     22791721                       # number of ReadCleanReq miss cycles
system.l2cache.ReadSharedReq_miss_latency::cpu.data      4495619                       # number of ReadSharedReq miss cycles
system.l2cache.ReadSharedReq_miss_latency::total      4495619                       # number of ReadSharedReq miss cycles
system.l2cache.demand_miss_latency::cpu.inst     22791721                       # number of demand (read+write) miss cycles
system.l2cache.demand_miss_latency::cpu.data     15529495                       # number of demand (read+write) miss cycles
system.l2cache.demand_miss_latency::total     38321216                       # number of demand (read+write) miss cycles
system.l2cache.overall_miss_latency::cpu.inst     22791721                       # number of overall miss cycles
system.l2cache.overall_miss_latency::cpu.data     15529495                       # number of overall miss cycles
system.l2cache.overall_miss_latency::total     38321216                       # number of overall miss cycles
system.l2cache.WritebackDirty_accesses::writebacks            3                       # number of WritebackDirty accesses(hits+misses)
system.l2cache.WritebackDirty_accesses::total            3                       # number of WritebackDirty accesses(hits+misses)
system.l2cache.WritebackClean_accesses::writebacks           62                       # number of WritebackClean accesses(hits+misses)
system.l2cache.WritebackClean_accesses::total           62                       # number of WritebackClean accesses(hits+misses)
system.l2cache.ReadExReq_accesses::cpu.data          326                       # number of ReadExReq accesses(hits+misses)
system.l2cache.ReadExReq_accesses::total          326                       # number of ReadExReq accesses(hits+misses)
system.l2cache.ReadCleanReq_accesses::cpu.inst          367                       # number of ReadCleanReq accesses(hits+misses)
system.l2cache.ReadCleanReq_accesses::total          367                       # number of ReadCleanReq accesses(hits+misses)
system.l2cache.ReadSharedReq_accesses::cpu.data           55                       # number of ReadSharedReq accesses(hits+misses)
system.l2cache.ReadSharedReq_accesses::total           55                       # number of ReadSharedReq accesses(hits+misses)
system.l2cache.demand_accesses::cpu.inst          367                       # number of demand (read+write) accesses
system.l2cache.demand_accesses::cpu.data          381                       # number of demand (read+write) accesses
system.l2cache.demand_accesses::total             748                       # number of demand (read+write) accesses
system.l2cache.overall_accesses::cpu.inst          367                       # number of overall (read+write) accesses
system.l2cache.overall_accesses::cpu.data          381                       # number of overall (read+write) accesses
system.l2cache.overall_accesses::total            748                       # number of overall (read+write) accesses
system.l2cache.ReadExReq_miss_rate::cpu.data     0.558282                       # miss rate for ReadExReq accesses
system.l2cache.ReadExReq_miss_rate::total     0.558282                       # miss rate for ReadExReq accesses
system.l2cache.ReadCleanReq_miss_rate::cpu.inst     0.934604                       # miss rate for ReadCleanReq accesses
system.l2cache.ReadCleanReq_miss_rate::total     0.934604                       # miss rate for ReadCleanReq accesses
system.l2cache.ReadSharedReq_miss_rate::cpu.data     0.945454                       # miss rate for ReadSharedReq accesses
system.l2cache.ReadSharedReq_miss_rate::total     0.945454                       # miss rate for ReadSharedReq accesses
system.l2cache.demand_miss_rate::cpu.inst     0.934604                       # miss rate for demand accesses
system.l2cache.demand_miss_rate::cpu.data     0.614173                       # miss rate for demand accesses
system.l2cache.demand_miss_rate::total       0.771390                       # miss rate for demand accesses
system.l2cache.overall_miss_rate::cpu.inst     0.934604                       # miss rate for overall accesses
system.l2cache.overall_miss_rate::cpu.data     0.614173                       # miss rate for overall accesses
system.l2cache.overall_miss_rate::total      0.771390                       # miss rate for overall accesses
system.l2cache.ReadExReq_avg_miss_latency::cpu.data 60625.692307                       # average ReadExReq miss latency
system.l2cache.ReadExReq_avg_miss_latency::total 60625.692307                       # average ReadExReq miss latency
system.l2cache.ReadCleanReq_avg_miss_latency::cpu.inst 66448.166180                       # average ReadCleanReq miss latency
system.l2cache.ReadCleanReq_avg_miss_latency::total 66448.166180                       # average ReadCleanReq miss latency
system.l2cache.ReadSharedReq_avg_miss_latency::cpu.data 86454.211538                       # average ReadSharedReq miss latency
system.l2cache.ReadSharedReq_avg_miss_latency::total 86454.211538                       # average ReadSharedReq miss latency
system.l2cache.demand_avg_miss_latency::cpu.inst 66448.166180                       # average overall miss latency
system.l2cache.demand_avg_miss_latency::cpu.data 66365.363247                       # average overall miss latency
system.l2cache.demand_avg_miss_latency::total 66414.585788                       # average overall miss latency
system.l2cache.overall_avg_miss_latency::cpu.inst 66448.166180                       # average overall miss latency
system.l2cache.overall_avg_miss_latency::cpu.data 66365.363247                       # average overall miss latency
system.l2cache.overall_avg_miss_latency::total 66414.585788                       # average overall miss latency
system.l2cache.blocked_cycles::no_mshrs             0                       # number of cycles access was blocked
system.l2cache.blocked_cycles::no_targets            0                       # number of cycles access was blocked
system.l2cache.blocked::no_mshrs                    0                       # number of cycles access was blocked
system.l2cache.blocked::no_targets                  0                       # number of cycles access was blocked
system.l2cache.avg_blocked_cycles::no_mshrs          nan                       # average number of cycles each access was blocked
system.l2cache.avg_blocked_cycles::no_targets          nan                       # average number of cycles each access was blocked
system.l2cache.ReadExReq_mshr_hits::cpu.data            4                       # number of ReadExReq MSHR hits
system.l2cache.ReadExReq_mshr_hits::total            4                       # number of ReadExReq MSHR hits
system.l2cache.demand_mshr_hits::cpu.data            4                       # number of demand (read+write) MSHR hits
system.l2cache.demand_mshr_hits::total              4                       # number of demand (read+write) MSHR hits
system.l2cache.overall_mshr_hits::cpu.data            4                       # number of overall MSHR hits
system.l2cache.overall_mshr_hits::total             4                       # number of overall MSHR hits
system.l2cache.HardPFReq_mshr_misses::l2cache.prefetcher          151                       # number of HardPFReq MSHR misses
system.l2cache.HardPFReq_mshr_misses::total          151                       # number of HardPFReq MSHR misses
system.l2cache.ReadExReq_mshr_misses::cpu.data          178                       # number of ReadExReq MSHR misses
system.l2cache.ReadExReq_mshr_misses::total          178                       # number of ReadExReq MSHR misses
system.l2cache.ReadCleanReq_mshr_misses::cpu.inst          343                       # number of ReadCleanReq MSHR misses
system.l2cache.ReadCleanReq_mshr_misses::total          343                       # number of ReadCleanReq MSHR misses
system.l2cache.ReadSharedReq_mshr_misses::cpu.data           52                       # number of ReadSharedReq MSHR misses
system.l2cache.ReadSharedReq_mshr_misses::total           52                       # number of ReadSharedReq MSHR misses
system.l2cache.demand_mshr_misses::cpu.inst          343                       # number of demand (read+write) MSHR misses
system.l2cache.demand_mshr_misses::cpu.data          230                       # number of demand (read+write) MSHR misses
system.l2cache.demand_mshr_misses::total          573                       # number of demand (read+write) MSHR misses
system.l2cache.overall_mshr_misses::cpu.inst          343                       # number of overall MSHR misses
system.l2cache.overall_mshr_misses::cpu.data          230                       # number of overall MSHR misses
system.l2cache.overall_mshr_misses::l2cache.prefetcher          151                       # number of overall MSHR misses
system.l2cache.overall_mshr_misses::total          724                       # number of overall MSHR misses
system.l2cache.HardPFReq_mshr_miss_latency::l2cache.prefetcher      7586181                       # number of HardPFReq MSHR miss cycles
system.l2cache.HardPFReq_mshr_miss_latency::total      7586181                       # number of HardPFReq MSHR miss cycles
system.l2cache.ReadExReq_mshr_miss_latency::cpu.data     10295196                       # number of ReadExReq MSHR miss cycles
system.l2cache.ReadExReq_mshr_miss_latency::total     10295196                       # number of ReadExReq MSHR miss cycles
system.l2cache.ReadCleanReq_mshr_miss_latency::cpu.inst     21825490                       # number of ReadCleanReq MSHR miss cycles
system.l2cache.ReadCleanReq_mshr_miss_latency::total     21825490                       # number of ReadCleanReq MSHR miss cycles
system.l2cache.ReadSharedReq_mshr_miss_latency::cpu.data      4349135                       # number of ReadSharedReq MSHR miss cycles
system.l2cache.ReadSharedReq_mshr_miss_latency::total      4349135                       # number of ReadSharedReq MSHR miss cycles
system.l2cache.demand_mshr_miss_latency::cpu.inst     21825490                       # number of demand (read+write) MSHR miss cycles
system.l2cache.demand_mshr_miss_latency::cpu.data     14644331                       # number of demand (read+write) MSHR miss cycles
system.l2cache.demand_mshr_miss_latency::total     36469821                       # number of demand (read+write) MSHR miss cycles
system.l2cache.overall_mshr_miss_latency::cpu.inst     21825490                       # number of overall MSHR miss cycles
system.l2cache.overall_mshr_miss_latency::cpu.data     14644331                       # number of overall MSHR miss cycles
system.l2cache.overall_mshr_miss_latency::l2cache.prefetcher      7586181                       # number of overall MSHR miss cycles
system.l2cache.overall_mshr_miss_latency::total     44056002                       # number of overall MSHR miss cycles
system.l2cache.HardPFReq_mshr_miss_rate::l2cache.prefetcher          inf                       # mshr miss rate for HardPFReq accesses
system.l2cache.HardPFReq_mshr_miss_rate::total          inf                       # mshr miss rate for HardPFReq accesses
system.l2cache.ReadExReq_mshr_miss_rate::cpu.data     0.546012                       # mshr miss rate for ReadExReq accesses
system.l2cache.ReadExReq_mshr_miss_rate::total     0.546012                       # mshr miss rate for ReadExReq accesses
system.l2cache.ReadCleanReq_mshr_miss_rate::cpu.inst     0.934604                       # mshr miss rate for ReadCleanReq accesses
system.l2cache.ReadCleanReq_mshr_miss_rate::total     0.934604                       # mshr miss rate for ReadCleanReq accesses
system.l2cache.ReadSharedReq_mshr_miss_rate::cpu.data     0.945454                       # mshr miss rate for ReadSharedReq accesses
system.l2cache.ReadSharedReq_mshr_miss_rate::total     0.945454                       # mshr miss rate for ReadSharedReq accesses
system.l2cache.demand_mshr_miss_rate::cpu.inst     0.934604                       # mshr miss rate for demand accesses
system.l2cache.demand_mshr_miss_rate::cpu.data     0.603674                       # mshr miss rate for demand accesses
system.l2cache.demand_mshr_miss_rate::total     0.766042                       # mshr miss rate for demand accesses
system.l2cache.overall_mshr_miss_rate::cpu.inst     0.934604                       # mshr miss rate for overall accesses
system.l2cache.overall_mshr_miss_rate::cpu.data     0.603674                       # mshr miss rate for overall accesses
system.l2cache.overall_mshr_miss_rate::l2cache.prefetcher          inf                       # mshr miss rate for overall accesses
system.l2cache.overall_mshr_miss_rate::total     0.967914                       # mshr miss rate for overall accesses
system.l2cache.HardPFReq_avg_mshr_miss_latency::l2cache.prefetcher 50239.609271                       # average HardPFReq mshr miss latency
system.l2cache.HardPFReq_avg_mshr_miss_latency::total 50239.609271                       # average HardPFReq mshr miss latency
system.l2cache.ReadExReq_avg_mshr_miss_latency::cpu.data 57838.179775                       # average ReadExReq mshr miss latency
system.l2cache.ReadExReq_avg_mshr_miss_latency::total 57838.179775                       # average ReadExReq mshr miss latency
system.l2cache.ReadCleanReq_avg_mshr_miss_latency::cpu.inst 63631.166180                       # average ReadCleanReq mshr miss latency
system.l2cache.ReadCleanReq_avg_mshr_miss_latency::total 63631.166180                       # average ReadCleanReq mshr miss latency
system.l2cache.ReadSharedReq_avg_mshr_miss_latency::cpu.data 83637.211538                       # average ReadSharedReq mshr miss latency
system.l2cache.ReadSharedReq_avg_mshr_miss_latency::total 83637.211538                       # average ReadSharedReq mshr miss latency
system.l2cache.demand_avg_mshr_miss_latency::cpu.inst 63631.166180                       # average overall mshr miss latency
system.l2cache.demand_avg_mshr_miss_latency::cpu.data 63671.004347                       # average overall mshr miss latency
system.l2cache.demand_avg_mshr_miss_latency::total 63647.157068                       # average overall mshr miss latency
system.l2cache.overall_avg_mshr_miss_latency::cpu.inst 63631.166180                       # average overall mshr miss latency
system.l2cache.overall_avg_mshr_miss_latency::cpu.data 63671.004347                       # average overall mshr miss latency
system.l2cache.overall_avg_mshr_miss_latency::l2cache.prefetcher 50239.609271                       # average overall mshr miss latency
system.l2cache.overall_avg_mshr_miss_latency::total 60850.831491                       # average overall mshr miss latency
system.membus.snoop_filter.tot_requests           722                       # Total number of requests made to the snoop filter.
system.membus.snoop_filter.hit_single_requests            0                       # Number of requests hitting in the snoop filter with a single holder of the requested data.
system.membus.snoop_filter.hit_multi_requests            0                       # Number of requests hitting in the snoop filter with multiple (>1) holders of the requested data.
system.membus.snoop_filter.tot_snoops               0                       # Total number of snoops made to the snoop filter.
system.membus.snoop_filter.hit_single_snoops            0                       # Number of snoops hitting in the snoop filter with a single holder of the requested data.
system.membus.snoop_filter.hit_multi_snoops            0                       # Number of snoops hitting in the snoop filter with multiple (>1) holders of the requested data.
system.membus.pwrStateResidencyTicks::UNDEFINED   9399870142                       # Cumulative time (in ticks) in various power states
system.membus.trans_dist::ReadResp                544                       # Transaction distribution
system.membus.trans_dist::ReadExReq               178                       # Transaction distribution
system.membus.trans_dist::ReadExResp              178                       # Transaction distribution
system.membus.trans_dist::ReadCleanReq            544                       # Transaction distribution
system.membus.pkt_count_system.l2cache.mem_side::system.mem_ctrl.port         1444                       # Packet count per connected master and slave (bytes)
system.membus.pkt_count::total                   1444                       # Packet count per connected master and slave (bytes)
system.membus.pkt_size_system.l2cache.mem_side::system.mem_ctrl.port        46208                       # Cumulative packet size per connected master and slave (bytes)
system.membus.pkt_size::total                   46208                       # Cumulative packet size per connected master and slave (bytes)
system.membus.snoops                                0                       # Total snoops (count)
system.membus.snoopTraffic                          0                       # Total snoop traffic (bytes)
system.membus.snoop_fanout::samples               722                       # Request fanout histogram
system.membus.snoop_fanout::mean                    0                       # Request fanout histogram
system.membus.snoop_fanout::stdev                   0                       # Request fanout histogram
system.membus.snoop_fanout::underflows              0      0.00%      0.00% # Request fanout histogram
system.membus.snoop_fanout::0                     722    100.00%    100.00% # Request fanout histogram
system.membus.snoop_fanout::1                       0      0.00%    100.00% # Request fanout histogram
system.membus.snoop_fanout::overflows               0      0.00%    100.00% # Request fanout histogram
system.membus.snoop_fanout::min_value               0                       # Request fanout histogram
system.membus.snoop_fanout::max_value               0                       # Request fanout histogram
system.membus.snoop_fanout::total                 722                       # Request fanout histogram
system.membus.reqLayer0.occupancy              225986                       # Layer occupancy (ticks)
system.membus.reqLayer0.utilization               0.0                       # Layer utilization (%)
system.membus.respLayer0.occupancy            1143011                       # Layer occupancy (ticks)
system.membus.respLayer0.utilization              0.0                       # Layer utilization (%)

---------- End Simulation Statistics   ----------
