
---------- Begin Simulation Statistics ----------
sim_seconds                                  0.000374                       # Number of seconds simulated
sim_ticks                                   373832176                       # Number of ticks simulated
final_tick                                  373832176                       # Number of ticks from beginning of simulation (restored from checkpoints and never reset)
sim_freq                                 1000000000000                       # Frequency of simulated ticks
host_inst_rate                                 523636                       # Simulator instruction rate (inst/s)
host_op_rate                                   523633                       # Simulator op (including micro ops) rate (op/s)
host_tick_rate                              226749686                       # Simulator tick rate (ticks/s)
host_mem_usage                                 634568                       # Number of bytes of host memory used
host_seconds                                     1.65                       # Real time elapsed on the host
sim_insts                                      863286                       # Number of instructions simulated
sim_ops                                        863286                       # Number of ops (including micro ops) simulated
system.clk_domain.voltage_domain.voltage            1                       # Voltage in Volts
system.clk_domain.clock                           313                       # Clock period in ticks
system.mem_ctrl.pwrStateResidencyTicks::UNDEFINED    373832176                       # Cumulative time (in ticks) in various power states
system.mem_ctrl.bytes_read::cpu.inst            24448                       # Number of bytes read from this memory
system.mem_ctrl.bytes_read::cpu.data            15296                       # Number of bytes read from this memory
system.mem_ctrl.bytes_read::l2cache.prefetcher        29312                       # Number of bytes read from this memory
system.mem_ctrl.bytes_read::total               69056                       # Number of bytes read from this memory
system.mem_ctrl.bytes_inst_read::cpu.inst        24448                       # Number of instructions bytes read from this memory
system.mem_ctrl.bytes_inst_read::total          24448                       # Number of instructions bytes read from this memory
system.mem_ctrl.num_reads::writebacks               0                       # Number of read requests responded to by this memory
system.mem_ctrl.num_reads::functional               0                       # Number of read requests responded to by this memory
system.mem_ctrl.num_reads::interrupt                0                       # Number of read requests responded to by this memory
system.mem_ctrl.num_reads::cpu.inst               382                       # Number of read requests responded to by this memory
system.mem_ctrl.num_reads::cpu.data               239                       # Number of read requests responded to by this memory
system.mem_ctrl.num_reads::l2cache.prefetcher          458                       # Number of read requests responded to by this memory
system.mem_ctrl.num_reads::total                 1079                       # Number of read requests responded to by this memory
system.mem_ctrl.num_writes::writebacks              0                       # Number of write requests responded to by this memory
system.mem_ctrl.num_writes::functional              0                       # Number of write requests responded to by this memory
system.mem_ctrl.num_writes::interrupt               0                       # Number of write requests responded to by this memory
system.mem_ctrl.num_writes::cpu.inst                0                       # Number of write requests responded to by this memory
system.mem_ctrl.num_writes::cpu.data                0                       # Number of write requests responded to by this memory
system.mem_ctrl.num_writes::l2cache.prefetcher            0                       # Number of write requests responded to by this memory
system.mem_ctrl.num_writes::total                   0                       # Number of write requests responded to by this memory
system.mem_ctrl.bw_read::cpu.inst            65398330                       # Total read bandwidth from this memory (bytes/s)
system.mem_ctrl.bw_read::cpu.data            40916756                       # Total read bandwidth from this memory (bytes/s)
system.mem_ctrl.bw_read::l2cache.prefetcher     78409516                       # Total read bandwidth from this memory (bytes/s)
system.mem_ctrl.bw_read::total              184724602                       # Total read bandwidth from this memory (bytes/s)
system.mem_ctrl.bw_inst_read::cpu.inst       65398330                       # Instruction read bandwidth from this memory (bytes/s)
system.mem_ctrl.bw_inst_read::total          65398330                       # Instruction read bandwidth from this memory (bytes/s)
system.mem_ctrl.bw_total::cpu.inst           65398330                       # Total bandwidth to/from this memory (bytes/s)
system.mem_ctrl.bw_total::cpu.data           40916756                       # Total bandwidth to/from this memory (bytes/s)
system.mem_ctrl.bw_total::l2cache.prefetcher     78409516                       # Total bandwidth to/from this memory (bytes/s)
system.mem_ctrl.bw_total::total             184724602                       # Total bandwidth to/from this memory (bytes/s)
system.mem_ctrl.readReqs                         1079                       # Number of read requests accepted
system.mem_ctrl.writeReqs                           0                       # Number of write requests accepted
system.mem_ctrl.readBursts                       1079                       # Number of DRAM read bursts, including those serviced by the write queue
system.mem_ctrl.writeBursts                         0                       # Number of DRAM write bursts, including those merged in the write queue
system.mem_ctrl.bytesReadDRAM                   69056                       # Total number of bytes read from DRAM
system.mem_ctrl.bytesReadWrQ                        0                       # Total number of bytes read from write queue
system.mem_ctrl.bytesWritten                        0                       # Total number of bytes written to DRAM
system.mem_ctrl.bytesReadSys                    69056                       # Total read bytes from the system interface side
system.mem_ctrl.bytesWrittenSys                     0                       # Total written bytes from the system interface side
system.mem_ctrl.servicedByWrQ                       0                       # Number of DRAM read bursts serviced by the write queue
system.mem_ctrl.mergedWrBursts                      0                       # Number of DRAM write bursts merged with an existing one
system.mem_ctrl.neitherReadNorWriteReqs             0                       # Number of requests that are neither read nor write
system.mem_ctrl.perBankRdBursts::0                 52                       # Per bank write bursts
system.mem_ctrl.perBankRdBursts::1                  2                       # Per bank write bursts
system.mem_ctrl.perBankRdBursts::2                 66                       # Per bank write bursts
system.mem_ctrl.perBankRdBursts::3                106                       # Per bank write bursts
system.mem_ctrl.perBankRdBursts::4                 52                       # Per bank write bursts
system.mem_ctrl.perBankRdBursts::5                 47                       # Per bank write bursts
system.mem_ctrl.perBankRdBursts::6                 40                       # Per bank write bursts
system.mem_ctrl.perBankRdBursts::7                  6                       # Per bank write bursts
system.mem_ctrl.perBankRdBursts::8                  4                       # Per bank write bursts
system.mem_ctrl.perBankRdBursts::9                 26                       # Per bank write bursts
system.mem_ctrl.perBankRdBursts::10                82                       # Per bank write bursts
system.mem_ctrl.perBankRdBursts::11                77                       # Per bank write bursts
system.mem_ctrl.perBankRdBursts::12               149                       # Per bank write bursts
system.mem_ctrl.perBankRdBursts::13               145                       # Per bank write bursts
system.mem_ctrl.perBankRdBursts::14               128                       # Per bank write bursts
system.mem_ctrl.perBankRdBursts::15                97                       # Per bank write bursts
system.mem_ctrl.perBankWrBursts::0                  0                       # Per bank write bursts
system.mem_ctrl.perBankWrBursts::1                  0                       # Per bank write bursts
system.mem_ctrl.perBankWrBursts::2                  0                       # Per bank write bursts
system.mem_ctrl.perBankWrBursts::3                  0                       # Per bank write bursts
system.mem_ctrl.perBankWrBursts::4                  0                       # Per bank write bursts
system.mem_ctrl.perBankWrBursts::5                  0                       # Per bank write bursts
system.mem_ctrl.perBankWrBursts::6                  0                       # Per bank write bursts
system.mem_ctrl.perBankWrBursts::7                  0                       # Per bank write bursts
system.mem_ctrl.perBankWrBursts::8                  0                       # Per bank write bursts
system.mem_ctrl.perBankWrBursts::9                  0                       # Per bank write bursts
system.mem_ctrl.perBankWrBursts::10                 0                       # Per bank write bursts
system.mem_ctrl.perBankWrBursts::11                 0                       # Per bank write bursts
system.mem_ctrl.perBankWrBursts::12                 0                       # Per bank write bursts
system.mem_ctrl.perBankWrBursts::13                 0                       # Per bank write bursts
system.mem_ctrl.perBankWrBursts::14                 0                       # Per bank write bursts
system.mem_ctrl.perBankWrBursts::15                 0                       # Per bank write bursts
system.mem_ctrl.numRdRetry                          0                       # Number of times read queue was full causing retry
system.mem_ctrl.numWrRetry                          0                       # Number of times write queue was full causing retry
system.mem_ctrl.totGap                      373486624                       # Total gap between requests
system.mem_ctrl.readPktSize::0                      0                       # Read request sizes (log2)
system.mem_ctrl.readPktSize::1                      0                       # Read request sizes (log2)
system.mem_ctrl.readPktSize::2                      0                       # Read request sizes (log2)
system.mem_ctrl.readPktSize::3                      0                       # Read request sizes (log2)
system.mem_ctrl.readPktSize::4                      0                       # Read request sizes (log2)
system.mem_ctrl.readPktSize::5                      0                       # Read request sizes (log2)
system.mem_ctrl.readPktSize::6                   1079                       # Read request sizes (log2)
system.mem_ctrl.writePktSize::0                     0                       # Write request sizes (log2)
system.mem_ctrl.writePktSize::1                     0                       # Write request sizes (log2)
system.mem_ctrl.writePktSize::2                     0                       # Write request sizes (log2)
system.mem_ctrl.writePktSize::3                     0                       # Write request sizes (log2)
system.mem_ctrl.writePktSize::4                     0                       # Write request sizes (log2)
system.mem_ctrl.writePktSize::5                     0                       # Write request sizes (log2)
system.mem_ctrl.writePktSize::6                     0                       # Write request sizes (log2)
system.mem_ctrl.rdQLenPdf::0                      783                       # What read queue length does an incoming req see
system.mem_ctrl.rdQLenPdf::1                      291                       # What read queue length does an incoming req see
system.mem_ctrl.rdQLenPdf::2                        5                       # What read queue length does an incoming req see
system.mem_ctrl.rdQLenPdf::3                        0                       # What read queue length does an incoming req see
system.mem_ctrl.rdQLenPdf::4                        0                       # What read queue length does an incoming req see
system.mem_ctrl.rdQLenPdf::5                        0                       # What read queue length does an incoming req see
system.mem_ctrl.rdQLenPdf::6                        0                       # What read queue length does an incoming req see
system.mem_ctrl.rdQLenPdf::7                        0                       # What read queue length does an incoming req see
system.mem_ctrl.rdQLenPdf::8                        0                       # What read queue length does an incoming req see
system.mem_ctrl.rdQLenPdf::9                        0                       # What read queue length does an incoming req see
system.mem_ctrl.rdQLenPdf::10                       0                       # What read queue length does an incoming req see
system.mem_ctrl.rdQLenPdf::11                       0                       # What read queue length does an incoming req see
system.mem_ctrl.rdQLenPdf::12                       0                       # What read queue length does an incoming req see
system.mem_ctrl.rdQLenPdf::13                       0                       # What read queue length does an incoming req see
system.mem_ctrl.rdQLenPdf::14                       0                       # What read queue length does an incoming req see
system.mem_ctrl.rdQLenPdf::15                       0                       # What read queue length does an incoming req see
system.mem_ctrl.rdQLenPdf::16                       0                       # What read queue length does an incoming req see
system.mem_ctrl.rdQLenPdf::17                       0                       # What read queue length does an incoming req see
system.mem_ctrl.rdQLenPdf::18                       0                       # What read queue length does an incoming req see
system.mem_ctrl.rdQLenPdf::19                       0                       # What read queue length does an incoming req see
system.mem_ctrl.rdQLenPdf::20                       0                       # What read queue length does an incoming req see
system.mem_ctrl.rdQLenPdf::21                       0                       # What read queue length does an incoming req see
system.mem_ctrl.rdQLenPdf::22                       0                       # What read queue length does an incoming req see
system.mem_ctrl.rdQLenPdf::23                       0                       # What read queue length does an incoming req see
system.mem_ctrl.rdQLenPdf::24                       0                       # What read queue length does an incoming req see
system.mem_ctrl.rdQLenPdf::25                       0                       # What read queue length does an incoming req see
system.mem_ctrl.rdQLenPdf::26                       0                       # What read queue length does an incoming req see
system.mem_ctrl.rdQLenPdf::27                       0                       # What read queue length does an incoming req see
system.mem_ctrl.rdQLenPdf::28                       0                       # What read queue length does an incoming req see
system.mem_ctrl.rdQLenPdf::29                       0                       # What read queue length does an incoming req see
system.mem_ctrl.rdQLenPdf::30                       0                       # What read queue length does an incoming req see
system.mem_ctrl.rdQLenPdf::31                       0                       # What read queue length does an incoming req see
system.mem_ctrl.wrQLenPdf::0                        0                       # What write queue length does an incoming req see
system.mem_ctrl.wrQLenPdf::1                        0                       # What write queue length does an incoming req see
system.mem_ctrl.wrQLenPdf::2                        0                       # What write queue length does an incoming req see
system.mem_ctrl.wrQLenPdf::3                        0                       # What write queue length does an incoming req see
system.mem_ctrl.wrQLenPdf::4                        0                       # What write queue length does an incoming req see
system.mem_ctrl.wrQLenPdf::5                        0                       # What write queue length does an incoming req see
system.mem_ctrl.wrQLenPdf::6                        0                       # What write queue length does an incoming req see
system.mem_ctrl.wrQLenPdf::7                        0                       # What write queue length does an incoming req see
system.mem_ctrl.wrQLenPdf::8                        0                       # What write queue length does an incoming req see
system.mem_ctrl.wrQLenPdf::9                        0                       # What write queue length does an incoming req see
system.mem_ctrl.wrQLenPdf::10                       0                       # What write queue length does an incoming req see
system.mem_ctrl.wrQLenPdf::11                       0                       # What write queue length does an incoming req see
system.mem_ctrl.wrQLenPdf::12                       0                       # What write queue length does an incoming req see
system.mem_ctrl.wrQLenPdf::13                       0                       # What write queue length does an incoming req see
system.mem_ctrl.wrQLenPdf::14                       0                       # What write queue length does an incoming req see
system.mem_ctrl.wrQLenPdf::15                       0                       # What write queue length does an incoming req see
system.mem_ctrl.wrQLenPdf::16                       0                       # What write queue length does an incoming req see
system.mem_ctrl.wrQLenPdf::17                       0                       # What write queue length does an incoming req see
system.mem_ctrl.wrQLenPdf::18                       0                       # What write queue length does an incoming req see
system.mem_ctrl.wrQLenPdf::19                       0                       # What write queue length does an incoming req see
system.mem_ctrl.wrQLenPdf::20                       0                       # What write queue length does an incoming req see
system.mem_ctrl.wrQLenPdf::21                       0                       # What write queue length does an incoming req see
system.mem_ctrl.wrQLenPdf::22                       0                       # What write queue length does an incoming req see
system.mem_ctrl.wrQLenPdf::23                       0                       # What write queue length does an incoming req see
system.mem_ctrl.wrQLenPdf::24                       0                       # What write queue length does an incoming req see
system.mem_ctrl.wrQLenPdf::25                       0                       # What write queue length does an incoming req see
system.mem_ctrl.wrQLenPdf::26                       0                       # What write queue length does an incoming req see
system.mem_ctrl.wrQLenPdf::27                       0                       # What write queue length does an incoming req see
system.mem_ctrl.wrQLenPdf::28                       0                       # What write queue length does an incoming req see
system.mem_ctrl.wrQLenPdf::29                       0                       # What write queue length does an incoming req see
system.mem_ctrl.wrQLenPdf::30                       0                       # What write queue length does an incoming req see
system.mem_ctrl.wrQLenPdf::31                       0                       # What write queue length does an incoming req see
system.mem_ctrl.wrQLenPdf::32                       0                       # What write queue length does an incoming req see
system.mem_ctrl.wrQLenPdf::33                       0                       # What write queue length does an incoming req see
system.mem_ctrl.wrQLenPdf::34                       0                       # What write queue length does an incoming req see
system.mem_ctrl.wrQLenPdf::35                       0                       # What write queue length does an incoming req see
system.mem_ctrl.wrQLenPdf::36                       0                       # What write queue length does an incoming req see
system.mem_ctrl.wrQLenPdf::37                       0                       # What write queue length does an incoming req see
system.mem_ctrl.wrQLenPdf::38                       0                       # What write queue length does an incoming req see
system.mem_ctrl.wrQLenPdf::39                       0                       # What write queue length does an incoming req see
system.mem_ctrl.wrQLenPdf::40                       0                       # What write queue length does an incoming req see
system.mem_ctrl.wrQLenPdf::41                       0                       # What write queue length does an incoming req see
system.mem_ctrl.wrQLenPdf::42                       0                       # What write queue length does an incoming req see
system.mem_ctrl.wrQLenPdf::43                       0                       # What write queue length does an incoming req see
system.mem_ctrl.wrQLenPdf::44                       0                       # What write queue length does an incoming req see
system.mem_ctrl.wrQLenPdf::45                       0                       # What write queue length does an incoming req see
system.mem_ctrl.wrQLenPdf::46                       0                       # What write queue length does an incoming req see
system.mem_ctrl.wrQLenPdf::47                       0                       # What write queue length does an incoming req see
system.mem_ctrl.wrQLenPdf::48                       0                       # What write queue length does an incoming req see
system.mem_ctrl.wrQLenPdf::49                       0                       # What write queue length does an incoming req see
system.mem_ctrl.wrQLenPdf::50                       0                       # What write queue length does an incoming req see
system.mem_ctrl.wrQLenPdf::51                       0                       # What write queue length does an incoming req see
system.mem_ctrl.wrQLenPdf::52                       0                       # What write queue length does an incoming req see
system.mem_ctrl.wrQLenPdf::53                       0                       # What write queue length does an incoming req see
system.mem_ctrl.wrQLenPdf::54                       0                       # What write queue length does an incoming req see
system.mem_ctrl.wrQLenPdf::55                       0                       # What write queue length does an incoming req see
system.mem_ctrl.wrQLenPdf::56                       0                       # What write queue length does an incoming req see
system.mem_ctrl.wrQLenPdf::57                       0                       # What write queue length does an incoming req see
system.mem_ctrl.wrQLenPdf::58                       0                       # What write queue length does an incoming req see
system.mem_ctrl.wrQLenPdf::59                       0                       # What write queue length does an incoming req see
system.mem_ctrl.wrQLenPdf::60                       0                       # What write queue length does an incoming req see
system.mem_ctrl.wrQLenPdf::61                       0                       # What write queue length does an incoming req see
system.mem_ctrl.wrQLenPdf::62                       0                       # What write queue length does an incoming req see
system.mem_ctrl.wrQLenPdf::63                       0                       # What write queue length does an incoming req see
system.mem_ctrl.bytesPerActivate::samples          130                       # Bytes accessed per row activation
system.mem_ctrl.bytesPerActivate::mean     521.353846                       # Bytes accessed per row activation
system.mem_ctrl.bytesPerActivate::gmean    313.166869                       # Bytes accessed per row activation
system.mem_ctrl.bytesPerActivate::stdev    416.990042                       # Bytes accessed per row activation
system.mem_ctrl.bytesPerActivate::0-127            31     23.85%     23.85% # Bytes accessed per row activation
system.mem_ctrl.bytesPerActivate::128-255           22     16.92%     40.77% # Bytes accessed per row activation
system.mem_ctrl.bytesPerActivate::256-383            9      6.92%     47.69% # Bytes accessed per row activation
system.mem_ctrl.bytesPerActivate::384-511            9      6.92%     54.62% # Bytes accessed per row activation
system.mem_ctrl.bytesPerActivate::512-639            3      2.31%     56.92% # Bytes accessed per row activation
system.mem_ctrl.bytesPerActivate::640-767            3      2.31%     59.23% # Bytes accessed per row activation
system.mem_ctrl.bytesPerActivate::768-895            4      3.08%     62.31% # Bytes accessed per row activation
system.mem_ctrl.bytesPerActivate::896-1023            6      4.62%     66.92% # Bytes accessed per row activation
system.mem_ctrl.bytesPerActivate::1024-1151           43     33.08%    100.00% # Bytes accessed per row activation
system.mem_ctrl.bytesPerActivate::total           130                       # Bytes accessed per row activation
system.mem_ctrl.totQLat                      16195798                       # Total ticks spent queuing
system.mem_ctrl.totMemAccLat                 36427048                       # Total ticks spent from burst creation until serviced by the DRAM
system.mem_ctrl.totBusLat                     5395000                       # Total ticks spent in databus transfers
system.mem_ctrl.avgQLat                      15010.01                       # Average queueing delay per DRAM burst
system.mem_ctrl.avgBusLat                     5000.00                       # Average bus latency per DRAM burst
system.mem_ctrl.avgMemAccLat                 33760.01                       # Average memory access latency per DRAM burst
system.mem_ctrl.avgRdBW                        184.72                       # Average DRAM read bandwidth in MiByte/s
system.mem_ctrl.avgWrBW                          0.00                       # Average achieved write bandwidth in MiByte/s
system.mem_ctrl.avgRdBWSys                     184.72                       # Average system read bandwidth in MiByte/s
system.mem_ctrl.avgWrBWSys                       0.00                       # Average system write bandwidth in MiByte/s
system.mem_ctrl.peakBW                       12800.00                       # Theoretical peak bandwidth in MiByte/s
system.mem_ctrl.busUtil                          1.44                       # Data bus utilization in percentage
system.mem_ctrl.busUtilRead                      1.44                       # Data bus utilization in percentage for reads
system.mem_ctrl.busUtilWrite                     0.00                       # Data bus utilization in percentage for writes
system.mem_ctrl.avgRdQLen                        1.58                       # Average read queue length when enqueuing
system.mem_ctrl.avgWrQLen                        0.00                       # Average write queue length when enqueuing
system.mem_ctrl.readRowHits                       943                       # Number of row buffer hits during reads
system.mem_ctrl.writeRowHits                        0                       # Number of row buffer hits during writes
system.mem_ctrl.readRowHitRate                  87.40                       # Row buffer hit rate for reads
system.mem_ctrl.writeRowHitRate                   nan                       # Row buffer hit rate for writes
system.mem_ctrl.avgGap                      346141.45                       # Average gap between requests
system.mem_ctrl.pageHitRate                     87.40                       # Row buffer hit rate, read and write combined
system.mem_ctrl_0.actEnergy                    414120                       # Energy for activate commands per rank (pJ)
system.mem_ctrl_0.preEnergy                    204930                       # Energy for precharge commands per rank (pJ)
system.mem_ctrl_0.readEnergy                  2648940                       # Energy for read commands per rank (pJ)
system.mem_ctrl_0.writeEnergy                       0                       # Energy for write commands per rank (pJ)
system.mem_ctrl_0.refreshEnergy              21512400                       # Energy for refresh commands per rank (pJ)
system.mem_ctrl_0.actBackEnergy               8697060                       # Energy for active background per rank (pJ)
system.mem_ctrl_0.preBackEnergy               1165920                       # Energy for precharge background per rank (pJ)
system.mem_ctrl_0.actPowerDownEnergy         52719870                       # Energy for active power-down per rank (pJ)
system.mem_ctrl_0.prePowerDownEnergy         32152800                       # Energy for precharge power-down per rank (pJ)
system.mem_ctrl_0.selfRefreshEnergy          40988820                       # Energy for self refresh per rank (pJ)
system.mem_ctrl_0.totalEnergy               160504860                       # Total energy per rank (pJ)
system.mem_ctrl_0.averagePower             429.350041                       # Core power per rank (mW)
system.mem_ctrl_0.totalIdleTime             351402786                       # Total Idle time Per DRAM Rank
system.mem_ctrl_0.memoryStateTime::IDLE       2232260                       # Time in different power states
system.mem_ctrl_0.memoryStateTime::REF        9148000                       # Time in different power states
system.mem_ctrl_0.memoryStateTime::SREF     152376472                       # Time in different power states
system.mem_ctrl_0.memoryStateTime::PRE_PDN     83726274                       # Time in different power states
system.mem_ctrl_0.memoryStateTime::ACT       10734588                       # Time in different power states
system.mem_ctrl_0.memoryStateTime::ACT_PDN    115614582                       # Time in different power states
system.mem_ctrl_1.actEnergy                    556920                       # Energy for activate commands per rank (pJ)
system.mem_ctrl_1.preEnergy                    288420                       # Energy for precharge commands per rank (pJ)
system.mem_ctrl_1.readEnergy                  5055120                       # Energy for read commands per rank (pJ)
system.mem_ctrl_1.writeEnergy                       0                       # Energy for write commands per rank (pJ)
system.mem_ctrl_1.refreshEnergy               8604960                       # Energy for refresh commands per rank (pJ)
system.mem_ctrl_1.actBackEnergy               7908750                       # Energy for active background per rank (pJ)
system.mem_ctrl_1.preBackEnergy                577440                       # Energy for precharge background per rank (pJ)
system.mem_ctrl_1.actPowerDownEnergy         25111920                       # Energy for active power-down per rank (pJ)
system.mem_ctrl_1.prePowerDownEnergy          8319840                       # Energy for precharge power-down per rank (pJ)
system.mem_ctrl_1.selfRefreshEnergy          67884180                       # Energy for self refresh per rank (pJ)
system.mem_ctrl_1.totalEnergy               124307550                       # Total energy per rank (pJ)
system.mem_ctrl_1.averagePower             332.522340                       # Core power per rank (mW)
system.mem_ctrl_1.totalIdleTime             354601951                       # Total Idle time Per DRAM Rank
system.mem_ctrl_1.memoryStateTime::IDLE        778945                       # Time in different power states
system.mem_ctrl_1.memoryStateTime::REF        3652000                       # Time in different power states
system.mem_ctrl_1.memoryStateTime::SREF     278247020                       # Time in different power states
system.mem_ctrl_1.memoryStateTime::PRE_PDN     21664102                       # Time in different power states
system.mem_ctrl_1.memoryStateTime::ACT       14424299                       # Time in different power states
system.mem_ctrl_1.memoryStateTime::ACT_PDN     55065810                       # Time in different power states
system.pwrStateResidencyTicks::UNDEFINED    373832176                       # Cumulative time (in ticks) in various power states
system.cpu.branchPred.lookups                   61628                       # Number of BP lookups
system.cpu.branchPred.condPredicted             52591                       # Number of conditional branches predicted
system.cpu.branchPred.condIncorrect              2694                       # Number of conditional branches incorrect
system.cpu.branchPred.BTBLookups                42025                       # Number of BTB lookups
system.cpu.branchPred.BTBHits                   35503                       # Number of BTB hits
system.cpu.branchPred.BTBCorrect                    0                       # Number of correct BTB predictions (this stat may not work properly.
system.cpu.branchPred.BTBHitPct             84.480666                       # BTB Hit Percentage
system.cpu.branchPred.usedRAS                       0                       # Number of times the RAS was used to get a target.
system.cpu.branchPred.RASInCorrect                  0                       # Number of incorrect RAS predictions.
system.cpu.branchPred.indirectLookups            2911                       # Number of indirect predictor lookups.
system.cpu.branchPred.indirectHits               2384                       # Number of indirect target hits.
system.cpu.branchPred.indirectMisses              527                       # Number of indirect misses.
system.cpu.branchPredindirectMispredicted          225                       # Number of mispredicted indirect branches.
system.cpu.dtb.read_hits                            0                       # DTB read hits
system.cpu.dtb.read_misses                          0                       # DTB read misses
system.cpu.dtb.read_accesses                        0                       # DTB read accesses
system.cpu.dtb.write_hits                           0                       # DTB write hits
system.cpu.dtb.write_misses                         0                       # DTB write misses
system.cpu.dtb.write_accesses                       0                       # DTB write accesses
system.cpu.dtb.hits                                 0                       # DTB hits
system.cpu.dtb.misses                               0                       # DTB misses
system.cpu.dtb.accesses                             0                       # DTB accesses
system.cpu.itb.read_hits                            0                       # DTB read hits
system.cpu.itb.read_misses                          0                       # DTB read misses
system.cpu.itb.read_accesses                        0                       # DTB read accesses
system.cpu.itb.write_hits                           0                       # DTB write hits
system.cpu.itb.write_misses                         0                       # DTB write misses
system.cpu.itb.write_accesses                       0                       # DTB write accesses
system.cpu.itb.hits                                 0                       # DTB hits
system.cpu.itb.misses                               0                       # DTB misses
system.cpu.itb.accesses                             0                       # DTB accesses
system.cpu.workload.numSyscalls                    28                       # Number of system calls
system.cpu.pwrStateResidencyTicks::ON       373832176                       # Cumulative time (in ticks) in various power states
system.cpu.numCycles                          1194352                       # number of cpu cycles simulated
system.cpu.numWorkItemsStarted                      0                       # number of work items this cpu started
system.cpu.numWorkItemsCompleted                    0                       # number of work items this cpu completed
system.cpu.committedInsts                      863286                       # Number of instructions committed
system.cpu.committedOps                        863286                       # Number of ops (including micro ops) committed
system.cpu.discardedOps                          7053                       # Number of ops (including micro ops) which were discarded before commit
system.cpu.numFetchSuspends                         0                       # Number of times Execute suspended instruction fetching
system.cpu.cpi                               1.383495                       # CPI: cycles per instruction
system.cpu.ipc                               0.722807                       # IPC: instructions per cycle
system.cpu.op_class_0::No_OpClass                  28      0.00%      0.00% # Class of committed instruction
system.cpu.op_class_0::IntAdd                       0      0.00%      0.00% # Class of committed instruction
system.cpu.op_class_0::IntSub                       0      0.00%      0.00% # Class of committed instruction
system.cpu.op_class_0::IntMult                   4319      0.50%      0.50% # Class of committed instruction
system.cpu.op_class_0::IntDiv                      26      0.00%      0.51% # Class of committed instruction
system.cpu.op_class_0::IntLogic                     0      0.00%      0.51% # Class of committed instruction
system.cpu.op_class_0::IntShift                     0      0.00%      0.51% # Class of committed instruction
system.cpu.op_class_0::IntMov                       0      0.00%      0.51% # Class of committed instruction
system.cpu.op_class_0::IntCtrl                      0      0.00%      0.51% # Class of committed instruction
system.cpu.op_class_0::IntALU                  485603     56.25%     56.76% # Class of committed instruction
system.cpu.op_class_0::FloatAdd                   970      0.11%     56.87% # Class of committed instruction
system.cpu.op_class_0::FloatCmp                  2133      0.25%     57.12% # Class of committed instruction
system.cpu.op_class_0::FloatCvt                  5227      0.61%     57.72% # Class of committed instruction
system.cpu.op_class_0::FloatMult                 2480      0.29%     58.01% # Class of committed instruction
system.cpu.op_class_0::FloatMultAcc               760      0.09%     58.10% # Class of committed instruction
system.cpu.op_class_0::FloatDiv                   739      0.09%     58.18% # Class of committed instruction
system.cpu.op_class_0::FloatMisc                 2569      0.30%     58.48% # Class of committed instruction
system.cpu.op_class_0::FloatSqrt                    0      0.00%     58.48% # Class of committed instruction
system.cpu.op_class_0::SimdAdd                      0      0.00%     58.48% # Class of committed instruction
system.cpu.op_class_0::SimdAddAcc                   0      0.00%     58.48% # Class of committed instruction
system.cpu.op_class_0::SimdAlu                      0      0.00%     58.48% # Class of committed instruction
system.cpu.op_class_0::SimdCmp                      0      0.00%     58.48% # Class of committed instruction
system.cpu.op_class_0::SimdCvt                      0      0.00%     58.48% # Class of committed instruction
system.cpu.op_class_0::SimdMisc                     0      0.00%     58.48% # Class of committed instruction
system.cpu.op_class_0::SimdMult                     0      0.00%     58.48% # Class of committed instruction
system.cpu.op_class_0::SimdMultAcc                  0      0.00%     58.48% # Class of committed instruction
system.cpu.op_class_0::SimdShift                    0      0.00%     58.48% # Class of committed instruction
system.cpu.op_class_0::SimdShiftAcc                 0      0.00%     58.48% # Class of committed instruction
system.cpu.op_class_0::SimdSqrt                     0      0.00%     58.48% # Class of committed instruction
system.cpu.op_class_0::SimdFloatAdd                 0      0.00%     58.48% # Class of committed instruction
system.cpu.op_class_0::SimdFloatAlu                 0      0.00%     58.48% # Class of committed instruction
system.cpu.op_class_0::SimdFloatCmp                 0      0.00%     58.48% # Class of committed instruction
system.cpu.op_class_0::SimdFloatCvt                 0      0.00%     58.48% # Class of committed instruction
system.cpu.op_class_0::SimdFloatDiv                 0      0.00%     58.48% # Class of committed instruction
system.cpu.op_class_0::SimdFloatMisc                0      0.00%     58.48% # Class of committed instruction
system.cpu.op_class_0::SimdFloatMult                0      0.00%     58.48% # Class of committed instruction
system.cpu.op_class_0::SimdFloatMultAcc             0      0.00%     58.48% # Class of committed instruction
system.cpu.op_class_0::SimdFloatSqrt                0      0.00%     58.48% # Class of committed instruction
system.cpu.op_class_0::MemRead                 292587     33.89%     92.37% # Class of committed instruction
system.cpu.op_class_0::MemWrite                 59399      6.88%     99.25% # Class of committed instruction
system.cpu.op_class_0::FloatMemRead              4632      0.54%     99.79% # Class of committed instruction
system.cpu.op_class_0::FloatMemWrite             1814      0.21%    100.00% # Class of committed instruction
system.cpu.op_class_0::IprAccess                    0      0.00%    100.00% # Class of committed instruction
system.cpu.op_class_0::InstPrefetch                 0      0.00%    100.00% # Class of committed instruction
system.cpu.op_class_0::total                   863286                       # Class of committed instruction
system.cpu.tickCycles                          962035                       # Number of cycles that the object actually ticked
system.cpu.idleCycles                          232317                       # Total number of cycles that the object has spent stopped
system.cpu.fetch2.int_instructions             516744                       # Number of integer instructions successfully decoded
system.cpu.fetch2.fp_instructions               18144                       # Number of floating point instructions successfully decoded
system.cpu.fetch2.vec_instructions                  0                       # Number of SIMD instructions successfully decoded
system.cpu.fetch2.load_instructions            309392                       # Number of memory load instructions successfully decoded
system.cpu.fetch2.store_instructions            65252                       # Number of memory store instructions successfully decoded
system.cpu.dcache.tags.pwrStateResidencyTicks::UNDEFINED    373832176                       # Cumulative time (in ticks) in various power states
system.cpu.dcache.tags.replacements               527                       # number of replacements
system.cpu.dcache.tags.tagsinuse           454.406709                       # Cycle average of tags in use
system.cpu.dcache.tags.total_refs              358640                       # Total number of references to valid blocks.
system.cpu.dcache.tags.sampled_refs              1039                       # Sample count of references to valid blocks.
system.cpu.dcache.tags.avg_refs            345.178056                       # Average number of references to valid blocks.
system.cpu.dcache.tags.warmup_cycle            142102                       # Cycle when the warmup percentage was hit.
system.cpu.dcache.tags.occ_blocks::cpu.data   454.406709                       # Average occupied blocks per requestor
system.cpu.dcache.tags.occ_percent::cpu.data     0.887513                       # Average percentage of cache occupancy
system.cpu.dcache.tags.occ_percent::total     0.887513                       # Average percentage of cache occupancy
system.cpu.dcache.tags.occ_task_id_blocks::1024          512                       # Occupied blocks per task id
system.cpu.dcache.tags.age_task_id_blocks_1024::0           44                       # Occupied blocks per task id
system.cpu.dcache.tags.age_task_id_blocks_1024::1          224                       # Occupied blocks per task id
system.cpu.dcache.tags.age_task_id_blocks_1024::2          244                       # Occupied blocks per task id
system.cpu.dcache.tags.occ_task_id_percent::1024            1                       # Percentage of cache occupancy per task id
system.cpu.dcache.tags.tag_accesses           1442259                       # Number of tag accesses
system.cpu.dcache.tags.data_accesses          1442259                       # Number of data accesses
system.cpu.dcache.pwrStateResidencyTicks::UNDEFINED    373832176                       # Cumulative time (in ticks) in various power states
system.cpu.dcache.ReadReq_hits::cpu.data       298713                       # number of ReadReq hits
system.cpu.dcache.ReadReq_hits::total          298713                       # number of ReadReq hits
system.cpu.dcache.WriteReq_hits::cpu.data        59927                       # number of WriteReq hits
system.cpu.dcache.WriteReq_hits::total          59927                       # number of WriteReq hits
system.cpu.dcache.demand_hits::cpu.data        358640                       # number of demand (read+write) hits
system.cpu.dcache.demand_hits::total           358640                       # number of demand (read+write) hits
system.cpu.dcache.overall_hits::cpu.data       358640                       # number of overall hits
system.cpu.dcache.overall_hits::total          358640                       # number of overall hits
system.cpu.dcache.ReadReq_misses::cpu.data          381                       # number of ReadReq misses
system.cpu.dcache.ReadReq_misses::total           381                       # number of ReadReq misses
system.cpu.dcache.WriteReq_misses::cpu.data         1284                       # number of WriteReq misses
system.cpu.dcache.WriteReq_misses::total         1284                       # number of WriteReq misses
system.cpu.dcache.demand_misses::cpu.data         1665                       # number of demand (read+write) misses
system.cpu.dcache.demand_misses::total           1665                       # number of demand (read+write) misses
system.cpu.dcache.overall_misses::cpu.data         1665                       # number of overall misses
system.cpu.dcache.overall_misses::total          1665                       # number of overall misses
system.cpu.dcache.ReadReq_miss_latency::cpu.data      6035579                       # number of ReadReq miss cycles
system.cpu.dcache.ReadReq_miss_latency::total      6035579                       # number of ReadReq miss cycles
system.cpu.dcache.WriteReq_miss_latency::cpu.data     48995768                       # number of WriteReq miss cycles
system.cpu.dcache.WriteReq_miss_latency::total     48995768                       # number of WriteReq miss cycles
system.cpu.dcache.demand_miss_latency::cpu.data     55031347                       # number of demand (read+write) miss cycles
system.cpu.dcache.demand_miss_latency::total     55031347                       # number of demand (read+write) miss cycles
system.cpu.dcache.overall_miss_latency::cpu.data     55031347                       # number of overall miss cycles
system.cpu.dcache.overall_miss_latency::total     55031347                       # number of overall miss cycles
system.cpu.dcache.ReadReq_accesses::cpu.data       299094                       # number of ReadReq accesses(hits+misses)
system.cpu.dcache.ReadReq_accesses::total       299094                       # number of ReadReq accesses(hits+misses)
system.cpu.dcache.WriteReq_accesses::cpu.data        61211                       # number of WriteReq accesses(hits+misses)
system.cpu.dcache.WriteReq_accesses::total        61211                       # number of WriteReq accesses(hits+misses)
system.cpu.dcache.demand_accesses::cpu.data       360305                       # number of demand (read+write) accesses
system.cpu.dcache.demand_accesses::total       360305                       # number of demand (read+write) accesses
system.cpu.dcache.overall_accesses::cpu.data       360305                       # number of overall (read+write) accesses
system.cpu.dcache.overall_accesses::total       360305                       # number of overall (read+write) accesses
system.cpu.dcache.ReadReq_miss_rate::cpu.data     0.001274                       # miss rate for ReadReq accesses
system.cpu.dcache.ReadReq_miss_rate::total     0.001274                       # miss rate for ReadReq accesses
system.cpu.dcache.WriteReq_miss_rate::cpu.data     0.020977                       # miss rate for WriteReq accesses
system.cpu.dcache.WriteReq_miss_rate::total     0.020977                       # miss rate for WriteReq accesses
system.cpu.dcache.demand_miss_rate::cpu.data     0.004621                       # miss rate for demand accesses
system.cpu.dcache.demand_miss_rate::total     0.004621                       # miss rate for demand accesses
system.cpu.dcache.overall_miss_rate::cpu.data     0.004621                       # miss rate for overall accesses
system.cpu.dcache.overall_miss_rate::total     0.004621                       # miss rate for overall accesses
system.cpu.dcache.ReadReq_avg_miss_latency::cpu.data 15841.414698                       # average ReadReq miss latency
system.cpu.dcache.ReadReq_avg_miss_latency::total 15841.414698                       # average ReadReq miss latency
system.cpu.dcache.WriteReq_avg_miss_latency::cpu.data 38158.697819                       # average WriteReq miss latency
system.cpu.dcache.WriteReq_avg_miss_latency::total 38158.697819                       # average WriteReq miss latency
system.cpu.dcache.demand_avg_miss_latency::cpu.data 33051.860060                       # average overall miss latency
system.cpu.dcache.demand_avg_miss_latency::total 33051.860060                       # average overall miss latency
system.cpu.dcache.overall_avg_miss_latency::cpu.data 33051.860060                       # average overall miss latency
system.cpu.dcache.overall_avg_miss_latency::total 33051.860060                       # average overall miss latency
system.cpu.dcache.blocked_cycles::no_mshrs            0                       # number of cycles access was blocked
system.cpu.dcache.blocked_cycles::no_targets            0                       # number of cycles access was blocked
system.cpu.dcache.blocked::no_mshrs                 0                       # number of cycles access was blocked
system.cpu.dcache.blocked::no_targets               0                       # number of cycles access was blocked
system.cpu.dcache.avg_blocked_cycles::no_mshrs          nan                       # average number of cycles each access was blocked
system.cpu.dcache.avg_blocked_cycles::no_targets          nan                       # average number of cycles each access was blocked
system.cpu.dcache.writebacks::writebacks          527                       # number of writebacks
system.cpu.dcache.writebacks::total               527                       # number of writebacks
system.cpu.dcache.ReadReq_mshr_hits::cpu.data            4                       # number of ReadReq MSHR hits
system.cpu.dcache.ReadReq_mshr_hits::total            4                       # number of ReadReq MSHR hits
system.cpu.dcache.WriteReq_mshr_hits::cpu.data          622                       # number of WriteReq MSHR hits
system.cpu.dcache.WriteReq_mshr_hits::total          622                       # number of WriteReq MSHR hits
system.cpu.dcache.demand_mshr_hits::cpu.data          626                       # number of demand (read+write) MSHR hits
system.cpu.dcache.demand_mshr_hits::total          626                       # number of demand (read+write) MSHR hits
system.cpu.dcache.overall_mshr_hits::cpu.data          626                       # number of overall MSHR hits
system.cpu.dcache.overall_mshr_hits::total          626                       # number of overall MSHR hits
system.cpu.dcache.ReadReq_mshr_misses::cpu.data          377                       # number of ReadReq MSHR misses
system.cpu.dcache.ReadReq_mshr_misses::total          377                       # number of ReadReq MSHR misses
system.cpu.dcache.WriteReq_mshr_misses::cpu.data          662                       # number of WriteReq MSHR misses
system.cpu.dcache.WriteReq_mshr_misses::total          662                       # number of WriteReq MSHR misses
system.cpu.dcache.demand_mshr_misses::cpu.data         1039                       # number of demand (read+write) MSHR misses
system.cpu.dcache.demand_mshr_misses::total         1039                       # number of demand (read+write) MSHR misses
system.cpu.dcache.overall_mshr_misses::cpu.data         1039                       # number of overall MSHR misses
system.cpu.dcache.overall_mshr_misses::total         1039                       # number of overall MSHR misses
system.cpu.dcache.ReadReq_mshr_miss_latency::cpu.data      5665926                       # number of ReadReq MSHR miss cycles
system.cpu.dcache.ReadReq_mshr_miss_latency::total      5665926                       # number of ReadReq MSHR miss cycles
system.cpu.dcache.WriteReq_mshr_miss_latency::cpu.data     26248806                       # number of WriteReq MSHR miss cycles
system.cpu.dcache.WriteReq_mshr_miss_latency::total     26248806                       # number of WriteReq MSHR miss cycles
system.cpu.dcache.demand_mshr_miss_latency::cpu.data     31914732                       # number of demand (read+write) MSHR miss cycles
system.cpu.dcache.demand_mshr_miss_latency::total     31914732                       # number of demand (read+write) MSHR miss cycles
system.cpu.dcache.overall_mshr_miss_latency::cpu.data     31914732                       # number of overall MSHR miss cycles
system.cpu.dcache.overall_mshr_miss_latency::total     31914732                       # number of overall MSHR miss cycles
system.cpu.dcache.ReadReq_mshr_miss_rate::cpu.data     0.001260                       # mshr miss rate for ReadReq accesses
system.cpu.dcache.ReadReq_mshr_miss_rate::total     0.001260                       # mshr miss rate for ReadReq accesses
system.cpu.dcache.WriteReq_mshr_miss_rate::cpu.data     0.010815                       # mshr miss rate for WriteReq accesses
system.cpu.dcache.WriteReq_mshr_miss_rate::total     0.010815                       # mshr miss rate for WriteReq accesses
system.cpu.dcache.demand_mshr_miss_rate::cpu.data     0.002884                       # mshr miss rate for demand accesses
system.cpu.dcache.demand_mshr_miss_rate::total     0.002884                       # mshr miss rate for demand accesses
system.cpu.dcache.overall_mshr_miss_rate::cpu.data     0.002884                       # mshr miss rate for overall accesses
system.cpu.dcache.overall_mshr_miss_rate::total     0.002884                       # mshr miss rate for overall accesses
system.cpu.dcache.ReadReq_avg_mshr_miss_latency::cpu.data 15028.981432                       # average ReadReq mshr miss latency
system.cpu.dcache.ReadReq_avg_mshr_miss_latency::total 15028.981432                       # average ReadReq mshr miss latency
system.cpu.dcache.WriteReq_avg_mshr_miss_latency::cpu.data 39650.764350                       # average WriteReq mshr miss latency
system.cpu.dcache.WriteReq_avg_mshr_miss_latency::total 39650.764350                       # average WriteReq mshr miss latency
system.cpu.dcache.demand_avg_mshr_miss_latency::cpu.data 30716.777671                       # average overall mshr miss latency
system.cpu.dcache.demand_avg_mshr_miss_latency::total 30716.777671                       # average overall mshr miss latency
system.cpu.dcache.overall_avg_mshr_miss_latency::cpu.data 30716.777671                       # average overall mshr miss latency
system.cpu.dcache.overall_avg_mshr_miss_latency::total 30716.777671                       # average overall mshr miss latency
system.cpu.icache.tags.pwrStateResidencyTicks::UNDEFINED    373832176                       # Cumulative time (in ticks) in various power states
system.cpu.icache.tags.replacements               131                       # number of replacements
system.cpu.icache.tags.tagsinuse           213.582533                       # Cycle average of tags in use
system.cpu.icache.tags.total_refs              146558                       # Total number of references to valid blocks.
system.cpu.icache.tags.sampled_refs               431                       # Sample count of references to valid blocks.
system.cpu.icache.tags.avg_refs            340.041763                       # Average number of references to valid blocks.
system.cpu.icache.tags.warmup_cycle             72929                       # Cycle when the warmup percentage was hit.
system.cpu.icache.tags.occ_blocks::cpu.inst   213.582533                       # Average occupied blocks per requestor
system.cpu.icache.tags.occ_percent::cpu.inst     0.417153                       # Average percentage of cache occupancy
system.cpu.icache.tags.occ_percent::total     0.417153                       # Average percentage of cache occupancy
system.cpu.icache.tags.occ_task_id_blocks::1024          300                       # Occupied blocks per task id
system.cpu.icache.tags.age_task_id_blocks_1024::0           69                       # Occupied blocks per task id
system.cpu.icache.tags.age_task_id_blocks_1024::1           84                       # Occupied blocks per task id
system.cpu.icache.tags.age_task_id_blocks_1024::2          147                       # Occupied blocks per task id
system.cpu.icache.tags.occ_task_id_percent::1024     0.585938                       # Percentage of cache occupancy per task id
system.cpu.icache.tags.tag_accesses            294409                       # Number of tag accesses
system.cpu.icache.tags.data_accesses           294409                       # Number of data accesses
system.cpu.icache.pwrStateResidencyTicks::UNDEFINED    373832176                       # Cumulative time (in ticks) in various power states
system.cpu.icache.ReadReq_hits::cpu.inst       146558                       # number of ReadReq hits
system.cpu.icache.ReadReq_hits::total          146558                       # number of ReadReq hits
system.cpu.icache.demand_hits::cpu.inst        146558                       # number of demand (read+write) hits
system.cpu.icache.demand_hits::total           146558                       # number of demand (read+write) hits
system.cpu.icache.overall_hits::cpu.inst       146558                       # number of overall hits
system.cpu.icache.overall_hits::total          146558                       # number of overall hits
system.cpu.icache.ReadReq_misses::cpu.inst          431                       # number of ReadReq misses
system.cpu.icache.ReadReq_misses::total           431                       # number of ReadReq misses
system.cpu.icache.demand_misses::cpu.inst          431                       # number of demand (read+write) misses
system.cpu.icache.demand_misses::total            431                       # number of demand (read+write) misses
system.cpu.icache.overall_misses::cpu.inst          431                       # number of overall misses
system.cpu.icache.overall_misses::total           431                       # number of overall misses
system.cpu.icache.ReadReq_miss_latency::cpu.inst     27632892                       # number of ReadReq miss cycles
system.cpu.icache.ReadReq_miss_latency::total     27632892                       # number of ReadReq miss cycles
system.cpu.icache.demand_miss_latency::cpu.inst     27632892                       # number of demand (read+write) miss cycles
system.cpu.icache.demand_miss_latency::total     27632892                       # number of demand (read+write) miss cycles
system.cpu.icache.overall_miss_latency::cpu.inst     27632892                       # number of overall miss cycles
system.cpu.icache.overall_miss_latency::total     27632892                       # number of overall miss cycles
system.cpu.icache.ReadReq_accesses::cpu.inst       146989                       # number of ReadReq accesses(hits+misses)
system.cpu.icache.ReadReq_accesses::total       146989                       # number of ReadReq accesses(hits+misses)
system.cpu.icache.demand_accesses::cpu.inst       146989                       # number of demand (read+write) accesses
system.cpu.icache.demand_accesses::total       146989                       # number of demand (read+write) accesses
system.cpu.icache.overall_accesses::cpu.inst       146989                       # number of overall (read+write) accesses
system.cpu.icache.overall_accesses::total       146989                       # number of overall (read+write) accesses
system.cpu.icache.ReadReq_miss_rate::cpu.inst     0.002932                       # miss rate for ReadReq accesses
system.cpu.icache.ReadReq_miss_rate::total     0.002932                       # miss rate for ReadReq accesses
system.cpu.icache.demand_miss_rate::cpu.inst     0.002932                       # miss rate for demand accesses
system.cpu.icache.demand_miss_rate::total     0.002932                       # miss rate for demand accesses
system.cpu.icache.overall_miss_rate::cpu.inst     0.002932                       # miss rate for overall accesses
system.cpu.icache.overall_miss_rate::total     0.002932                       # miss rate for overall accesses
system.cpu.icache.ReadReq_avg_miss_latency::cpu.inst 64113.438515                       # average ReadReq miss latency
system.cpu.icache.ReadReq_avg_miss_latency::total 64113.438515                       # average ReadReq miss latency
system.cpu.icache.demand_avg_miss_latency::cpu.inst 64113.438515                       # average overall miss latency
system.cpu.icache.demand_avg_miss_latency::total 64113.438515                       # average overall miss latency
system.cpu.icache.overall_avg_miss_latency::cpu.inst 64113.438515                       # average overall miss latency
system.cpu.icache.overall_avg_miss_latency::total 64113.438515                       # average overall miss latency
system.cpu.icache.blocked_cycles::no_mshrs            0                       # number of cycles access was blocked
system.cpu.icache.blocked_cycles::no_targets            0                       # number of cycles access was blocked
system.cpu.icache.blocked::no_mshrs                 0                       # number of cycles access was blocked
system.cpu.icache.blocked::no_targets               0                       # number of cycles access was blocked
system.cpu.icache.avg_blocked_cycles::no_mshrs          nan                       # average number of cycles each access was blocked
system.cpu.icache.avg_blocked_cycles::no_targets          nan                       # average number of cycles each access was blocked
system.cpu.icache.writebacks::writebacks          131                       # number of writebacks
system.cpu.icache.writebacks::total               131                       # number of writebacks
system.cpu.icache.ReadReq_mshr_misses::cpu.inst          431                       # number of ReadReq MSHR misses
system.cpu.icache.ReadReq_mshr_misses::total          431                       # number of ReadReq MSHR misses
system.cpu.icache.demand_mshr_misses::cpu.inst          431                       # number of demand (read+write) MSHR misses
system.cpu.icache.demand_mshr_misses::total          431                       # number of demand (read+write) MSHR misses
system.cpu.icache.overall_mshr_misses::cpu.inst          431                       # number of overall MSHR misses
system.cpu.icache.overall_mshr_misses::total          431                       # number of overall MSHR misses
system.cpu.icache.ReadReq_mshr_miss_latency::cpu.inst     27363086                       # number of ReadReq MSHR miss cycles
system.cpu.icache.ReadReq_mshr_miss_latency::total     27363086                       # number of ReadReq MSHR miss cycles
system.cpu.icache.demand_mshr_miss_latency::cpu.inst     27363086                       # number of demand (read+write) MSHR miss cycles
system.cpu.icache.demand_mshr_miss_latency::total     27363086                       # number of demand (read+write) MSHR miss cycles
system.cpu.icache.overall_mshr_miss_latency::cpu.inst     27363086                       # number of overall MSHR miss cycles
system.cpu.icache.overall_mshr_miss_latency::total     27363086                       # number of overall MSHR miss cycles
system.cpu.icache.ReadReq_mshr_miss_rate::cpu.inst     0.002932                       # mshr miss rate for ReadReq accesses
system.cpu.icache.ReadReq_mshr_miss_rate::total     0.002932                       # mshr miss rate for ReadReq accesses
system.cpu.icache.demand_mshr_miss_rate::cpu.inst     0.002932                       # mshr miss rate for demand accesses
system.cpu.icache.demand_mshr_miss_rate::total     0.002932                       # mshr miss rate for demand accesses
system.cpu.icache.overall_mshr_miss_rate::cpu.inst     0.002932                       # mshr miss rate for overall accesses
system.cpu.icache.overall_mshr_miss_rate::total     0.002932                       # mshr miss rate for overall accesses
system.cpu.icache.ReadReq_avg_mshr_miss_latency::cpu.inst 63487.438515                       # average ReadReq mshr miss latency
system.cpu.icache.ReadReq_avg_mshr_miss_latency::total 63487.438515                       # average ReadReq mshr miss latency
system.cpu.icache.demand_avg_mshr_miss_latency::cpu.inst 63487.438515                       # average overall mshr miss latency
system.cpu.icache.demand_avg_mshr_miss_latency::total 63487.438515                       # average overall mshr miss latency
system.cpu.icache.overall_avg_mshr_miss_latency::cpu.inst 63487.438515                       # average overall mshr miss latency
system.cpu.icache.overall_avg_mshr_miss_latency::total 63487.438515                       # average overall mshr miss latency
system.l2bus.snoop_filter.tot_requests           2128                       # Total number of requests made to the snoop filter.
system.l2bus.snoop_filter.hit_single_requests          658                       # Number of requests hitting in the snoop filter with a single holder of the requested data.
system.l2bus.snoop_filter.hit_multi_requests            0                       # Number of requests hitting in the snoop filter with multiple (>1) holders of the requested data.
system.l2bus.snoop_filter.tot_snoops               29                       # Total number of snoops made to the snoop filter.
system.l2bus.snoop_filter.hit_single_snoops           29                       # Number of snoops hitting in the snoop filter with a single holder of the requested data.
system.l2bus.snoop_filter.hit_multi_snoops            0                       # Number of snoops hitting in the snoop filter with multiple (>1) holders of the requested data.
system.l2bus.pwrStateResidencyTicks::UNDEFINED    373832176                       # Cumulative time (in ticks) in various power states
system.l2bus.trans_dist::ReadResp                 808                       # Transaction distribution
system.l2bus.trans_dist::WritebackDirty           507                       # Transaction distribution
system.l2bus.trans_dist::WritebackClean           151                       # Transaction distribution
system.l2bus.trans_dist::HardPFReq                487                       # Transaction distribution
system.l2bus.trans_dist::ReadExReq                662                       # Transaction distribution
system.l2bus.trans_dist::ReadExResp               662                       # Transaction distribution
system.l2bus.trans_dist::ReadCleanReq             431                       # Transaction distribution
system.l2bus.trans_dist::ReadSharedReq            377                       # Transaction distribution
system.l2bus.pkt_count_system.cpu.icache.mem_side::system.l2cache.cpu_side          993                       # Packet count per connected master and slave (bytes)
system.l2bus.pkt_count_system.cpu.dcache.mem_side::system.l2cache.cpu_side         2605                       # Packet count per connected master and slave (bytes)
system.l2bus.pkt_count::total                    3598                       # Packet count per connected master and slave (bytes)
system.l2bus.pkt_size_system.cpu.icache.mem_side::system.l2cache.cpu_side        35968                       # Cumulative packet size per connected master and slave (bytes)
system.l2bus.pkt_size_system.cpu.dcache.mem_side::system.l2cache.cpu_side       100224                       # Cumulative packet size per connected master and slave (bytes)
system.l2bus.pkt_size::total                   136192                       # Cumulative packet size per connected master and slave (bytes)
system.l2bus.snoops                               487                       # Total snoops (count)
system.l2bus.snoopTraffic                           0                       # Total snoop traffic (bytes)
system.l2bus.snoop_fanout::samples               1957                       # Request fanout histogram
system.l2bus.snoop_fanout::mean              0.014819                       # Request fanout histogram
system.l2bus.snoop_fanout::stdev             0.120857                       # Request fanout histogram
system.l2bus.snoop_fanout::underflows               0      0.00%      0.00% # Request fanout histogram
system.l2bus.snoop_fanout::0                     1928     98.52%     98.52% # Request fanout histogram
system.l2bus.snoop_fanout::1                       29      1.48%    100.00% # Request fanout histogram
system.l2bus.snoop_fanout::2                        0      0.00%    100.00% # Request fanout histogram
system.l2bus.snoop_fanout::overflows                0      0.00%    100.00% # Request fanout histogram
system.l2bus.snoop_fanout::min_value                0                       # Request fanout histogram
system.l2bus.snoop_fanout::max_value                1                       # Request fanout histogram
system.l2bus.snoop_fanout::total                 1957                       # Request fanout histogram
system.l2bus.reqLayer0.occupancy              1489880                       # Layer occupancy (ticks)
system.l2bus.reqLayer0.utilization                0.4                       # Layer utilization (%)
system.l2bus.respLayer0.occupancy              674515                       # Layer occupancy (ticks)
system.l2bus.respLayer0.utilization               0.2                       # Layer utilization (%)
system.l2bus.respLayer1.occupancy             1626035                       # Layer occupancy (ticks)
system.l2bus.respLayer1.utilization               0.4                       # Layer utilization (%)
system.l2cache.prefetcher.pwrStateResidencyTicks::UNDEFINED    373832176                       # Cumulative time (in ticks) in various power states
system.l2cache.prefetcher.num_hwpf_issued          648                       # number of hwpf issued
system.l2cache.prefetcher.pfIdentified            648                       # number of prefetch candidates identified
system.l2cache.prefetcher.pfBufferHit               0                       # number of redundant prefetches already in prefetch queue
system.l2cache.prefetcher.pfInCache                 0                       # number of redundant prefetches already in cache/mshr dropped
system.l2cache.prefetcher.pfRemovedFull             0                       # number of prefetches dropped due to prefetch queue size
system.l2cache.prefetcher.pfSpanPage               14                       # number of prefetches not generated due to page crossing
system.l2cache.tags.pwrStateResidencyTicks::UNDEFINED    373832176                       # Cumulative time (in ticks) in various power states
system.l2cache.tags.replacements                    0                       # number of replacements
system.l2cache.tags.tagsinuse              151.613781                       # Cycle average of tags in use
system.l2cache.tags.total_refs                      0                       # Total number of references to valid blocks.
system.l2cache.tags.sampled_refs                  267                       # Sample count of references to valid blocks.
system.l2cache.tags.avg_refs                        0                       # Average number of references to valid blocks.
system.l2cache.tags.warmup_cycle               386868                       # Cycle when the warmup percentage was hit.
system.l2cache.tags.occ_blocks::writebacks   150.375901                       # Average occupied blocks per requestor
system.l2cache.tags.occ_blocks::l2cache.prefetcher     1.237880                       # Average occupied blocks per requestor
system.l2cache.tags.occ_percent::writebacks     0.018356                       # Average percentage of cache occupancy
system.l2cache.tags.occ_percent::l2cache.prefetcher     0.000151                       # Average percentage of cache occupancy
system.l2cache.tags.occ_percent::total       0.018508                       # Average percentage of cache occupancy
system.l2cache.tags.occ_task_id_blocks::1022            2                       # Occupied blocks per task id
system.l2cache.tags.occ_task_id_blocks::1024          265                       # Occupied blocks per task id
system.l2cache.tags.age_task_id_blocks_1022::1            1                       # Occupied blocks per task id
system.l2cache.tags.age_task_id_blocks_1022::2            1                       # Occupied blocks per task id
system.l2cache.tags.age_task_id_blocks_1024::0           69                       # Occupied blocks per task id
system.l2cache.tags.age_task_id_blocks_1024::1          136                       # Occupied blocks per task id
system.l2cache.tags.age_task_id_blocks_1024::2           60                       # Occupied blocks per task id
system.l2cache.tags.occ_task_id_percent::1022     0.000244                       # Percentage of cache occupancy per task id
system.l2cache.tags.occ_task_id_percent::1024     0.032349                       # Percentage of cache occupancy per task id
system.l2cache.tags.tag_accesses                18140                       # Number of tag accesses
system.l2cache.tags.data_accesses               18140                       # Number of data accesses
system.l2cache.pwrStateResidencyTicks::UNDEFINED    373832176                       # Cumulative time (in ticks) in various power states
system.l2cache.WritebackDirty_hits::writebacks          507                       # number of WritebackDirty hits
system.l2cache.WritebackDirty_hits::total          507                       # number of WritebackDirty hits
system.l2cache.WritebackClean_hits::writebacks          151                       # number of WritebackClean hits
system.l2cache.WritebackClean_hits::total          151                       # number of WritebackClean hits
system.l2cache.ReadExReq_hits::cpu.data           250                       # number of ReadExReq hits
system.l2cache.ReadExReq_hits::total              250                       # number of ReadExReq hits
system.l2cache.ReadCleanReq_hits::cpu.inst           49                       # number of ReadCleanReq hits
system.l2cache.ReadCleanReq_hits::total            49                       # number of ReadCleanReq hits
system.l2cache.ReadSharedReq_hits::cpu.data          325                       # number of ReadSharedReq hits
system.l2cache.ReadSharedReq_hits::total          325                       # number of ReadSharedReq hits
system.l2cache.demand_hits::cpu.inst               49                       # number of demand (read+write) hits
system.l2cache.demand_hits::cpu.data              575                       # number of demand (read+write) hits
system.l2cache.demand_hits::total                 624                       # number of demand (read+write) hits
system.l2cache.overall_hits::cpu.inst              49                       # number of overall hits
system.l2cache.overall_hits::cpu.data             575                       # number of overall hits
system.l2cache.overall_hits::total                624                       # number of overall hits
system.l2cache.ReadExReq_misses::cpu.data          412                       # number of ReadExReq misses
system.l2cache.ReadExReq_misses::total            412                       # number of ReadExReq misses
system.l2cache.ReadCleanReq_misses::cpu.inst          382                       # number of ReadCleanReq misses
system.l2cache.ReadCleanReq_misses::total          382                       # number of ReadCleanReq misses
system.l2cache.ReadSharedReq_misses::cpu.data           52                       # number of ReadSharedReq misses
system.l2cache.ReadSharedReq_misses::total           52                       # number of ReadSharedReq misses
system.l2cache.demand_misses::cpu.inst            382                       # number of demand (read+write) misses
system.l2cache.demand_misses::cpu.data            464                       # number of demand (read+write) misses
system.l2cache.demand_misses::total               846                       # number of demand (read+write) misses
system.l2cache.overall_misses::cpu.inst           382                       # number of overall misses
system.l2cache.overall_misses::cpu.data           464                       # number of overall misses
system.l2cache.overall_misses::total              846                       # number of overall misses
system.l2cache.ReadExReq_miss_latency::cpu.data     24088167                       # number of ReadExReq miss cycles
system.l2cache.ReadExReq_miss_latency::total     24088167                       # number of ReadExReq miss cycles
system.l2cache.ReadCleanReq_miss_latency::cpu.inst     26540209                       # number of ReadCleanReq miss cycles
system.l2cache.ReadCleanReq_miss_latency::total     26540209                       # number of ReadCleanReq miss cycles
system.l2cache.ReadSharedReq_miss_latency::cpu.data      3459902                       # number of ReadSharedReq miss cycles
system.l2cache.ReadSharedReq_miss_latency::total      3459902                       # number of ReadSharedReq miss cycles
system.l2cache.demand_miss_latency::cpu.inst     26540209                       # number of demand (read+write) miss cycles
system.l2cache.demand_miss_latency::cpu.data     27548069                       # number of demand (read+write) miss cycles
system.l2cache.demand_miss_latency::total     54088278                       # number of demand (read+write) miss cycles
system.l2cache.overall_miss_latency::cpu.inst     26540209                       # number of overall miss cycles
system.l2cache.overall_miss_latency::cpu.data     27548069                       # number of overall miss cycles
system.l2cache.overall_miss_latency::total     54088278                       # number of overall miss cycles
system.l2cache.WritebackDirty_accesses::writebacks          507                       # number of WritebackDirty accesses(hits+misses)
system.l2cache.WritebackDirty_accesses::total          507                       # number of WritebackDirty accesses(hits+misses)
system.l2cache.WritebackClean_accesses::writebacks          151                       # number of WritebackClean accesses(hits+misses)
system.l2cache.WritebackClean_accesses::total          151                       # number of WritebackClean accesses(hits+misses)
system.l2cache.ReadExReq_accesses::cpu.data          662                       # number of ReadExReq accesses(hits+misses)
system.l2cache.ReadExReq_accesses::total          662                       # number of ReadExReq accesses(hits+misses)
system.l2cache.ReadCleanReq_accesses::cpu.inst          431                       # number of ReadCleanReq accesses(hits+misses)
system.l2cache.ReadCleanReq_accesses::total          431                       # number of ReadCleanReq accesses(hits+misses)
system.l2cache.ReadSharedReq_accesses::cpu.data          377                       # number of ReadSharedReq accesses(hits+misses)
system.l2cache.ReadSharedReq_accesses::total          377                       # number of ReadSharedReq accesses(hits+misses)
system.l2cache.demand_accesses::cpu.inst          431                       # number of demand (read+write) accesses
system.l2cache.demand_accesses::cpu.data         1039                       # number of demand (read+write) accesses
system.l2cache.demand_accesses::total            1470                       # number of demand (read+write) accesses
system.l2cache.overall_accesses::cpu.inst          431                       # number of overall (read+write) accesses
system.l2cache.overall_accesses::cpu.data         1039                       # number of overall (read+write) accesses
system.l2cache.overall_accesses::total           1470                       # number of overall (read+write) accesses
system.l2cache.ReadExReq_miss_rate::cpu.data     0.622356                       # miss rate for ReadExReq accesses
system.l2cache.ReadExReq_miss_rate::total     0.622356                       # miss rate for ReadExReq accesses
system.l2cache.ReadCleanReq_miss_rate::cpu.inst     0.886311                       # miss rate for ReadCleanReq accesses
system.l2cache.ReadCleanReq_miss_rate::total     0.886311                       # miss rate for ReadCleanReq accesses
system.l2cache.ReadSharedReq_miss_rate::cpu.data     0.137931                       # miss rate for ReadSharedReq accesses
system.l2cache.ReadSharedReq_miss_rate::total     0.137931                       # miss rate for ReadSharedReq accesses
system.l2cache.demand_miss_rate::cpu.inst     0.886311                       # miss rate for demand accesses
system.l2cache.demand_miss_rate::cpu.data     0.446583                       # miss rate for demand accesses
system.l2cache.demand_miss_rate::total       0.575510                       # miss rate for demand accesses
system.l2cache.overall_miss_rate::cpu.inst     0.886311                       # miss rate for overall accesses
system.l2cache.overall_miss_rate::cpu.data     0.446583                       # miss rate for overall accesses
system.l2cache.overall_miss_rate::total      0.575510                       # miss rate for overall accesses
system.l2cache.ReadExReq_avg_miss_latency::cpu.data 58466.424757                       # average ReadExReq miss latency
system.l2cache.ReadExReq_avg_miss_latency::total 58466.424757                       # average ReadExReq miss latency
system.l2cache.ReadCleanReq_avg_miss_latency::cpu.inst 69476.986911                       # average ReadCleanReq miss latency
system.l2cache.ReadCleanReq_avg_miss_latency::total 69476.986911                       # average ReadCleanReq miss latency
system.l2cache.ReadSharedReq_avg_miss_latency::cpu.data 66536.576923                       # average ReadSharedReq miss latency
system.l2cache.ReadSharedReq_avg_miss_latency::total 66536.576923                       # average ReadSharedReq miss latency
system.l2cache.demand_avg_miss_latency::cpu.inst 69476.986911                       # average overall miss latency
system.l2cache.demand_avg_miss_latency::cpu.data 59370.838362                       # average overall miss latency
system.l2cache.demand_avg_miss_latency::total 63934.134752                       # average overall miss latency
system.l2cache.overall_avg_miss_latency::cpu.inst 69476.986911                       # average overall miss latency
system.l2cache.overall_avg_miss_latency::cpu.data 59370.838362                       # average overall miss latency
system.l2cache.overall_avg_miss_latency::total 63934.134752                       # average overall miss latency
system.l2cache.blocked_cycles::no_mshrs             0                       # number of cycles access was blocked
system.l2cache.blocked_cycles::no_targets            0                       # number of cycles access was blocked
system.l2cache.blocked::no_mshrs                    0                       # number of cycles access was blocked
system.l2cache.blocked::no_targets                  0                       # number of cycles access was blocked
system.l2cache.avg_blocked_cycles::no_mshrs          nan                       # average number of cycles each access was blocked
system.l2cache.avg_blocked_cycles::no_targets          nan                       # average number of cycles each access was blocked
system.l2cache.ReadExReq_mshr_hits::cpu.data          225                       # number of ReadExReq MSHR hits
system.l2cache.ReadExReq_mshr_hits::total          225                       # number of ReadExReq MSHR hits
system.l2cache.demand_mshr_hits::cpu.data          225                       # number of demand (read+write) MSHR hits
system.l2cache.demand_mshr_hits::total            225                       # number of demand (read+write) MSHR hits
system.l2cache.overall_mshr_hits::cpu.data          225                       # number of overall MSHR hits
system.l2cache.overall_mshr_hits::total           225                       # number of overall MSHR hits
system.l2cache.HardPFReq_mshr_misses::l2cache.prefetcher          487                       # number of HardPFReq MSHR misses
system.l2cache.HardPFReq_mshr_misses::total          487                       # number of HardPFReq MSHR misses
system.l2cache.ReadExReq_mshr_misses::cpu.data          187                       # number of ReadExReq MSHR misses
system.l2cache.ReadExReq_mshr_misses::total          187                       # number of ReadExReq MSHR misses
system.l2cache.ReadCleanReq_mshr_misses::cpu.inst          382                       # number of ReadCleanReq MSHR misses
system.l2cache.ReadCleanReq_mshr_misses::total          382                       # number of ReadCleanReq MSHR misses
system.l2cache.ReadSharedReq_mshr_misses::cpu.data           52                       # number of ReadSharedReq MSHR misses
system.l2cache.ReadSharedReq_mshr_misses::total           52                       # number of ReadSharedReq MSHR misses
system.l2cache.demand_mshr_misses::cpu.inst          382                       # number of demand (read+write) MSHR misses
system.l2cache.demand_mshr_misses::cpu.data          239                       # number of demand (read+write) MSHR misses
system.l2cache.demand_mshr_misses::total          621                       # number of demand (read+write) MSHR misses
system.l2cache.overall_mshr_misses::cpu.inst          382                       # number of overall MSHR misses
system.l2cache.overall_mshr_misses::cpu.data          239                       # number of overall MSHR misses
system.l2cache.overall_mshr_misses::l2cache.prefetcher          487                       # number of overall MSHR misses
system.l2cache.overall_mshr_misses::total         1108                       # number of overall MSHR misses
system.l2cache.HardPFReq_mshr_miss_latency::l2cache.prefetcher     21835193                       # number of HardPFReq MSHR miss cycles
system.l2cache.HardPFReq_mshr_miss_latency::total     21835193                       # number of HardPFReq MSHR miss cycles
system.l2cache.ReadExReq_mshr_miss_latency::cpu.data     14099398                       # number of ReadExReq MSHR miss cycles
system.l2cache.ReadExReq_mshr_miss_latency::total     14099398                       # number of ReadExReq MSHR miss cycles
system.l2cache.ReadCleanReq_mshr_miss_latency::cpu.inst     25464115                       # number of ReadCleanReq MSHR miss cycles
system.l2cache.ReadCleanReq_mshr_miss_latency::total     25464115                       # number of ReadCleanReq MSHR miss cycles
system.l2cache.ReadSharedReq_mshr_miss_latency::cpu.data      3313418                       # number of ReadSharedReq MSHR miss cycles
system.l2cache.ReadSharedReq_mshr_miss_latency::total      3313418                       # number of ReadSharedReq MSHR miss cycles
system.l2cache.demand_mshr_miss_latency::cpu.inst     25464115                       # number of demand (read+write) MSHR miss cycles
system.l2cache.demand_mshr_miss_latency::cpu.data     17412816                       # number of demand (read+write) MSHR miss cycles
system.l2cache.demand_mshr_miss_latency::total     42876931                       # number of demand (read+write) MSHR miss cycles
system.l2cache.overall_mshr_miss_latency::cpu.inst     25464115                       # number of overall MSHR miss cycles
system.l2cache.overall_mshr_miss_latency::cpu.data     17412816                       # number of overall MSHR miss cycles
system.l2cache.overall_mshr_miss_latency::l2cache.prefetcher     21835193                       # number of overall MSHR miss cycles
system.l2cache.overall_mshr_miss_latency::total     64712124                       # number of overall MSHR miss cycles
system.l2cache.HardPFReq_mshr_miss_rate::l2cache.prefetcher          inf                       # mshr miss rate for HardPFReq accesses
system.l2cache.HardPFReq_mshr_miss_rate::total          inf                       # mshr miss rate for HardPFReq accesses
system.l2cache.ReadExReq_mshr_miss_rate::cpu.data     0.282477                       # mshr miss rate for ReadExReq accesses
system.l2cache.ReadExReq_mshr_miss_rate::total     0.282477                       # mshr miss rate for ReadExReq accesses
system.l2cache.ReadCleanReq_mshr_miss_rate::cpu.inst     0.886311                       # mshr miss rate for ReadCleanReq accesses
system.l2cache.ReadCleanReq_mshr_miss_rate::total     0.886311                       # mshr miss rate for ReadCleanReq accesses
system.l2cache.ReadSharedReq_mshr_miss_rate::cpu.data     0.137931                       # mshr miss rate for ReadSharedReq accesses
system.l2cache.ReadSharedReq_mshr_miss_rate::total     0.137931                       # mshr miss rate for ReadSharedReq accesses
system.l2cache.demand_mshr_miss_rate::cpu.inst     0.886311                       # mshr miss rate for demand accesses
system.l2cache.demand_mshr_miss_rate::cpu.data     0.230029                       # mshr miss rate for demand accesses
system.l2cache.demand_mshr_miss_rate::total     0.422449                       # mshr miss rate for demand accesses
system.l2cache.overall_mshr_miss_rate::cpu.inst     0.886311                       # mshr miss rate for overall accesses
system.l2cache.overall_mshr_miss_rate::cpu.data     0.230029                       # mshr miss rate for overall accesses
system.l2cache.overall_mshr_miss_rate::l2cache.prefetcher          inf                       # mshr miss rate for overall accesses
system.l2cache.overall_mshr_miss_rate::total     0.753741                       # mshr miss rate for overall accesses
system.l2cache.HardPFReq_avg_mshr_miss_latency::l2cache.prefetcher 44836.125257                       # average HardPFReq mshr miss latency
system.l2cache.HardPFReq_avg_mshr_miss_latency::total 44836.125257                       # average HardPFReq mshr miss latency
system.l2cache.ReadExReq_avg_mshr_miss_latency::cpu.data 75397.850267                       # average ReadExReq mshr miss latency
system.l2cache.ReadExReq_avg_mshr_miss_latency::total 75397.850267                       # average ReadExReq mshr miss latency
system.l2cache.ReadCleanReq_avg_mshr_miss_latency::cpu.inst 66659.986911                       # average ReadCleanReq mshr miss latency
system.l2cache.ReadCleanReq_avg_mshr_miss_latency::total 66659.986911                       # average ReadCleanReq mshr miss latency
system.l2cache.ReadSharedReq_avg_mshr_miss_latency::cpu.data 63719.576923                       # average ReadSharedReq mshr miss latency
system.l2cache.ReadSharedReq_avg_mshr_miss_latency::total 63719.576923                       # average ReadSharedReq mshr miss latency
system.l2cache.demand_avg_mshr_miss_latency::cpu.inst 66659.986911                       # average overall mshr miss latency
system.l2cache.demand_avg_mshr_miss_latency::cpu.data 72856.970711                       # average overall mshr miss latency
system.l2cache.demand_avg_mshr_miss_latency::total 69044.977456                       # average overall mshr miss latency
system.l2cache.overall_avg_mshr_miss_latency::cpu.inst 66659.986911                       # average overall mshr miss latency
system.l2cache.overall_avg_mshr_miss_latency::cpu.data 72856.970711                       # average overall mshr miss latency
system.l2cache.overall_avg_mshr_miss_latency::l2cache.prefetcher 44836.125257                       # average overall mshr miss latency
system.l2cache.overall_avg_mshr_miss_latency::total 58404.444043                       # average overall mshr miss latency
system.membus.snoop_filter.tot_requests          1079                       # Total number of requests made to the snoop filter.
system.membus.snoop_filter.hit_single_requests            0                       # Number of requests hitting in the snoop filter with a single holder of the requested data.
system.membus.snoop_filter.hit_multi_requests            0                       # Number of requests hitting in the snoop filter with multiple (>1) holders of the requested data.
system.membus.snoop_filter.tot_snoops               0                       # Total number of snoops made to the snoop filter.
system.membus.snoop_filter.hit_single_snoops            0                       # Number of snoops hitting in the snoop filter with a single holder of the requested data.
system.membus.snoop_filter.hit_multi_snoops            0                       # Number of snoops hitting in the snoop filter with multiple (>1) holders of the requested data.
system.membus.pwrStateResidencyTicks::UNDEFINED    373832176                       # Cumulative time (in ticks) in various power states
system.membus.trans_dist::ReadResp                892                       # Transaction distribution
system.membus.trans_dist::ReadExReq               187                       # Transaction distribution
system.membus.trans_dist::ReadExResp              187                       # Transaction distribution
system.membus.trans_dist::ReadCleanReq            892                       # Transaction distribution
system.membus.pkt_count_system.l2cache.mem_side::system.mem_ctrl.port         2158                       # Packet count per connected master and slave (bytes)
system.membus.pkt_count::total                   2158                       # Packet count per connected master and slave (bytes)
system.membus.pkt_size_system.l2cache.mem_side::system.mem_ctrl.port        69056                       # Cumulative packet size per connected master and slave (bytes)
system.membus.pkt_size::total                   69056                       # Cumulative packet size per connected master and slave (bytes)
system.membus.snoops                                0                       # Total snoops (count)
system.membus.snoopTraffic                          0                       # Total snoop traffic (bytes)
system.membus.snoop_fanout::samples              1079                       # Request fanout histogram
system.membus.snoop_fanout::mean                    0                       # Request fanout histogram
system.membus.snoop_fanout::stdev                   0                       # Request fanout histogram
system.membus.snoop_fanout::underflows              0      0.00%      0.00% # Request fanout histogram
system.membus.snoop_fanout::0                    1079    100.00%    100.00% # Request fanout histogram
system.membus.snoop_fanout::1                       0      0.00%    100.00% # Request fanout histogram
system.membus.snoop_fanout::overflows               0      0.00%    100.00% # Request fanout histogram
system.membus.snoop_fanout::min_value               0                       # Request fanout histogram
system.membus.snoop_fanout::max_value               0                       # Request fanout histogram
system.membus.snoop_fanout::total                1079                       # Request fanout histogram
system.membus.reqLayer0.occupancy              337727                       # Layer occupancy (ticks)
system.membus.reqLayer0.utilization               0.1                       # Layer utilization (%)
system.membus.respLayer0.occupancy            1712100                       # Layer occupancy (ticks)
system.membus.respLayer0.utilization              0.5                       # Layer utilization (%)

---------- End Simulation Statistics   ----------
