
---------- Begin Simulation Statistics ----------
sim_seconds                                  0.000776                       # Number of seconds simulated
sim_ticks                                   776464108                       # Number of ticks simulated
final_tick                                  776464108                       # Number of ticks from beginning of simulation (restored from checkpoints and never reset)
sim_freq                                 1000000000000                       # Frequency of simulated ticks
host_inst_rate                                 566275                       # Simulator instruction rate (inst/s)
host_op_rate                                   566273                       # Simulator op (including micro ops) rate (op/s)
host_tick_rate                              216114749                       # Simulator tick rate (ticks/s)
host_mem_usage                                 634692                       # Number of bytes of host memory used
host_seconds                                     3.59                       # Real time elapsed on the host
sim_insts                                     2034523                       # Number of instructions simulated
sim_ops                                       2034523                       # Number of ops (including micro ops) simulated
system.clk_domain.voltage_domain.voltage            1                       # Voltage in Volts
system.clk_domain.clock                           313                       # Clock period in ticks
system.mem_ctrl.pwrStateResidencyTicks::UNDEFINED    776464108                       # Cumulative time (in ticks) in various power states
system.mem_ctrl.bytes_read::cpu.inst            29120                       # Number of bytes read from this memory
system.mem_ctrl.bytes_read::cpu.data            14272                       # Number of bytes read from this memory
system.mem_ctrl.bytes_read::l2cache.prefetcher        36224                       # Number of bytes read from this memory
system.mem_ctrl.bytes_read::total               79616                       # Number of bytes read from this memory
system.mem_ctrl.bytes_inst_read::cpu.inst        29120                       # Number of instructions bytes read from this memory
system.mem_ctrl.bytes_inst_read::total          29120                       # Number of instructions bytes read from this memory
system.mem_ctrl.num_reads::writebacks               0                       # Number of read requests responded to by this memory
system.mem_ctrl.num_reads::functional               0                       # Number of read requests responded to by this memory
system.mem_ctrl.num_reads::interrupt                0                       # Number of read requests responded to by this memory
system.mem_ctrl.num_reads::cpu.inst               455                       # Number of read requests responded to by this memory
system.mem_ctrl.num_reads::cpu.data               223                       # Number of read requests responded to by this memory
system.mem_ctrl.num_reads::l2cache.prefetcher          566                       # Number of read requests responded to by this memory
system.mem_ctrl.num_reads::total                 1244                       # Number of read requests responded to by this memory
system.mem_ctrl.num_writes::writebacks              0                       # Number of write requests responded to by this memory
system.mem_ctrl.num_writes::functional              0                       # Number of write requests responded to by this memory
system.mem_ctrl.num_writes::interrupt               0                       # Number of write requests responded to by this memory
system.mem_ctrl.num_writes::cpu.inst                0                       # Number of write requests responded to by this memory
system.mem_ctrl.num_writes::cpu.data                0                       # Number of write requests responded to by this memory
system.mem_ctrl.num_writes::l2cache.prefetcher            0                       # Number of write requests responded to by this memory
system.mem_ctrl.num_writes::total                   0                       # Number of write requests responded to by this memory
system.mem_ctrl.bw_read::cpu.inst            37503343                       # Total read bandwidth from this memory (bytes/s)
system.mem_ctrl.bw_read::cpu.data            18380759                       # Total read bandwidth from this memory (bytes/s)
system.mem_ctrl.bw_read::l2cache.prefetcher     46652510                       # Total read bandwidth from this memory (bytes/s)
system.mem_ctrl.bw_read::total              102536613                       # Total read bandwidth from this memory (bytes/s)
system.mem_ctrl.bw_inst_read::cpu.inst       37503343                       # Instruction read bandwidth from this memory (bytes/s)
system.mem_ctrl.bw_inst_read::total          37503343                       # Instruction read bandwidth from this memory (bytes/s)
system.mem_ctrl.bw_total::cpu.inst           37503343                       # Total bandwidth to/from this memory (bytes/s)
system.mem_ctrl.bw_total::cpu.data           18380759                       # Total bandwidth to/from this memory (bytes/s)
system.mem_ctrl.bw_total::l2cache.prefetcher     46652510                       # Total bandwidth to/from this memory (bytes/s)
system.mem_ctrl.bw_total::total             102536613                       # Total bandwidth to/from this memory (bytes/s)
system.mem_ctrl.readReqs                         1244                       # Number of read requests accepted
system.mem_ctrl.writeReqs                           0                       # Number of write requests accepted
system.mem_ctrl.readBursts                       1244                       # Number of DRAM read bursts, including those serviced by the write queue
system.mem_ctrl.writeBursts                         0                       # Number of DRAM write bursts, including those merged in the write queue
system.mem_ctrl.bytesReadDRAM                   79616                       # Total number of bytes read from DRAM
system.mem_ctrl.bytesReadWrQ                        0                       # Total number of bytes read from write queue
system.mem_ctrl.bytesWritten                        0                       # Total number of bytes written to DRAM
system.mem_ctrl.bytesReadSys                    79616                       # Total read bytes from the system interface side
system.mem_ctrl.bytesWrittenSys                     0                       # Total written bytes from the system interface side
system.mem_ctrl.servicedByWrQ                       0                       # Number of DRAM read bursts serviced by the write queue
system.mem_ctrl.mergedWrBursts                      0                       # Number of DRAM write bursts merged with an existing one
system.mem_ctrl.neitherReadNorWriteReqs             0                       # Number of requests that are neither read nor write
system.mem_ctrl.perBankRdBursts::0                149                       # Per bank write bursts
system.mem_ctrl.perBankRdBursts::1                118                       # Per bank write bursts
system.mem_ctrl.perBankRdBursts::2                  1                       # Per bank write bursts
system.mem_ctrl.perBankRdBursts::3                103                       # Per bank write bursts
system.mem_ctrl.perBankRdBursts::4                 50                       # Per bank write bursts
system.mem_ctrl.perBankRdBursts::5                 43                       # Per bank write bursts
system.mem_ctrl.perBankRdBursts::6                 38                       # Per bank write bursts
system.mem_ctrl.perBankRdBursts::7                  6                       # Per bank write bursts
system.mem_ctrl.perBankRdBursts::8                  4                       # Per bank write bursts
system.mem_ctrl.perBankRdBursts::9                 24                       # Per bank write bursts
system.mem_ctrl.perBankRdBursts::10                82                       # Per bank write bursts
system.mem_ctrl.perBankRdBursts::11                77                       # Per bank write bursts
system.mem_ctrl.perBankRdBursts::12               148                       # Per bank write bursts
system.mem_ctrl.perBankRdBursts::13               145                       # Per bank write bursts
system.mem_ctrl.perBankRdBursts::14               128                       # Per bank write bursts
system.mem_ctrl.perBankRdBursts::15               128                       # Per bank write bursts
system.mem_ctrl.perBankWrBursts::0                  0                       # Per bank write bursts
system.mem_ctrl.perBankWrBursts::1                  0                       # Per bank write bursts
system.mem_ctrl.perBankWrBursts::2                  0                       # Per bank write bursts
system.mem_ctrl.perBankWrBursts::3                  0                       # Per bank write bursts
system.mem_ctrl.perBankWrBursts::4                  0                       # Per bank write bursts
system.mem_ctrl.perBankWrBursts::5                  0                       # Per bank write bursts
system.mem_ctrl.perBankWrBursts::6                  0                       # Per bank write bursts
system.mem_ctrl.perBankWrBursts::7                  0                       # Per bank write bursts
system.mem_ctrl.perBankWrBursts::8                  0                       # Per bank write bursts
system.mem_ctrl.perBankWrBursts::9                  0                       # Per bank write bursts
system.mem_ctrl.perBankWrBursts::10                 0                       # Per bank write bursts
system.mem_ctrl.perBankWrBursts::11                 0                       # Per bank write bursts
system.mem_ctrl.perBankWrBursts::12                 0                       # Per bank write bursts
system.mem_ctrl.perBankWrBursts::13                 0                       # Per bank write bursts
system.mem_ctrl.perBankWrBursts::14                 0                       # Per bank write bursts
system.mem_ctrl.perBankWrBursts::15                 0                       # Per bank write bursts
system.mem_ctrl.numRdRetry                          0                       # Number of times read queue was full causing retry
system.mem_ctrl.numWrRetry                          0                       # Number of times write queue was full causing retry
system.mem_ctrl.totGap                      776119495                       # Total gap between requests
system.mem_ctrl.readPktSize::0                      0                       # Read request sizes (log2)
system.mem_ctrl.readPktSize::1                      0                       # Read request sizes (log2)
system.mem_ctrl.readPktSize::2                      0                       # Read request sizes (log2)
system.mem_ctrl.readPktSize::3                      0                       # Read request sizes (log2)
system.mem_ctrl.readPktSize::4                      0                       # Read request sizes (log2)
system.mem_ctrl.readPktSize::5                      0                       # Read request sizes (log2)
system.mem_ctrl.readPktSize::6                   1244                       # Read request sizes (log2)
system.mem_ctrl.writePktSize::0                     0                       # Write request sizes (log2)
system.mem_ctrl.writePktSize::1                     0                       # Write request sizes (log2)
system.mem_ctrl.writePktSize::2                     0                       # Write request sizes (log2)
system.mem_ctrl.writePktSize::3                     0                       # Write request sizes (log2)
system.mem_ctrl.writePktSize::4                     0                       # Write request sizes (log2)
system.mem_ctrl.writePktSize::5                     0                       # Write request sizes (log2)
system.mem_ctrl.writePktSize::6                     0                       # Write request sizes (log2)
system.mem_ctrl.rdQLenPdf::0                      896                       # What read queue length does an incoming req see
system.mem_ctrl.rdQLenPdf::1                      343                       # What read queue length does an incoming req see
system.mem_ctrl.rdQLenPdf::2                        5                       # What read queue length does an incoming req see
system.mem_ctrl.rdQLenPdf::3                        0                       # What read queue length does an incoming req see
system.mem_ctrl.rdQLenPdf::4                        0                       # What read queue length does an incoming req see
system.mem_ctrl.rdQLenPdf::5                        0                       # What read queue length does an incoming req see
system.mem_ctrl.rdQLenPdf::6                        0                       # What read queue length does an incoming req see
system.mem_ctrl.rdQLenPdf::7                        0                       # What read queue length does an incoming req see
system.mem_ctrl.rdQLenPdf::8                        0                       # What read queue length does an incoming req see
system.mem_ctrl.rdQLenPdf::9                        0                       # What read queue length does an incoming req see
system.mem_ctrl.rdQLenPdf::10                       0                       # What read queue length does an incoming req see
system.mem_ctrl.rdQLenPdf::11                       0                       # What read queue length does an incoming req see
system.mem_ctrl.rdQLenPdf::12                       0                       # What read queue length does an incoming req see
system.mem_ctrl.rdQLenPdf::13                       0                       # What read queue length does an incoming req see
system.mem_ctrl.rdQLenPdf::14                       0                       # What read queue length does an incoming req see
system.mem_ctrl.rdQLenPdf::15                       0                       # What read queue length does an incoming req see
system.mem_ctrl.rdQLenPdf::16                       0                       # What read queue length does an incoming req see
system.mem_ctrl.rdQLenPdf::17                       0                       # What read queue length does an incoming req see
system.mem_ctrl.rdQLenPdf::18                       0                       # What read queue length does an incoming req see
system.mem_ctrl.rdQLenPdf::19                       0                       # What read queue length does an incoming req see
system.mem_ctrl.rdQLenPdf::20                       0                       # What read queue length does an incoming req see
system.mem_ctrl.rdQLenPdf::21                       0                       # What read queue length does an incoming req see
system.mem_ctrl.rdQLenPdf::22                       0                       # What read queue length does an incoming req see
system.mem_ctrl.rdQLenPdf::23                       0                       # What read queue length does an incoming req see
system.mem_ctrl.rdQLenPdf::24                       0                       # What read queue length does an incoming req see
system.mem_ctrl.rdQLenPdf::25                       0                       # What read queue length does an incoming req see
system.mem_ctrl.rdQLenPdf::26                       0                       # What read queue length does an incoming req see
system.mem_ctrl.rdQLenPdf::27                       0                       # What read queue length does an incoming req see
system.mem_ctrl.rdQLenPdf::28                       0                       # What read queue length does an incoming req see
system.mem_ctrl.rdQLenPdf::29                       0                       # What read queue length does an incoming req see
system.mem_ctrl.rdQLenPdf::30                       0                       # What read queue length does an incoming req see
system.mem_ctrl.rdQLenPdf::31                       0                       # What read queue length does an incoming req see
system.mem_ctrl.wrQLenPdf::0                        0                       # What write queue length does an incoming req see
system.mem_ctrl.wrQLenPdf::1                        0                       # What write queue length does an incoming req see
system.mem_ctrl.wrQLenPdf::2                        0                       # What write queue length does an incoming req see
system.mem_ctrl.wrQLenPdf::3                        0                       # What write queue length does an incoming req see
system.mem_ctrl.wrQLenPdf::4                        0                       # What write queue length does an incoming req see
system.mem_ctrl.wrQLenPdf::5                        0                       # What write queue length does an incoming req see
system.mem_ctrl.wrQLenPdf::6                        0                       # What write queue length does an incoming req see
system.mem_ctrl.wrQLenPdf::7                        0                       # What write queue length does an incoming req see
system.mem_ctrl.wrQLenPdf::8                        0                       # What write queue length does an incoming req see
system.mem_ctrl.wrQLenPdf::9                        0                       # What write queue length does an incoming req see
system.mem_ctrl.wrQLenPdf::10                       0                       # What write queue length does an incoming req see
system.mem_ctrl.wrQLenPdf::11                       0                       # What write queue length does an incoming req see
system.mem_ctrl.wrQLenPdf::12                       0                       # What write queue length does an incoming req see
system.mem_ctrl.wrQLenPdf::13                       0                       # What write queue length does an incoming req see
system.mem_ctrl.wrQLenPdf::14                       0                       # What write queue length does an incoming req see
system.mem_ctrl.wrQLenPdf::15                       0                       # What write queue length does an incoming req see
system.mem_ctrl.wrQLenPdf::16                       0                       # What write queue length does an incoming req see
system.mem_ctrl.wrQLenPdf::17                       0                       # What write queue length does an incoming req see
system.mem_ctrl.wrQLenPdf::18                       0                       # What write queue length does an incoming req see
system.mem_ctrl.wrQLenPdf::19                       0                       # What write queue length does an incoming req see
system.mem_ctrl.wrQLenPdf::20                       0                       # What write queue length does an incoming req see
system.mem_ctrl.wrQLenPdf::21                       0                       # What write queue length does an incoming req see
system.mem_ctrl.wrQLenPdf::22                       0                       # What write queue length does an incoming req see
system.mem_ctrl.wrQLenPdf::23                       0                       # What write queue length does an incoming req see
system.mem_ctrl.wrQLenPdf::24                       0                       # What write queue length does an incoming req see
system.mem_ctrl.wrQLenPdf::25                       0                       # What write queue length does an incoming req see
system.mem_ctrl.wrQLenPdf::26                       0                       # What write queue length does an incoming req see
system.mem_ctrl.wrQLenPdf::27                       0                       # What write queue length does an incoming req see
system.mem_ctrl.wrQLenPdf::28                       0                       # What write queue length does an incoming req see
system.mem_ctrl.wrQLenPdf::29                       0                       # What write queue length does an incoming req see
system.mem_ctrl.wrQLenPdf::30                       0                       # What write queue length does an incoming req see
system.mem_ctrl.wrQLenPdf::31                       0                       # What write queue length does an incoming req see
system.mem_ctrl.wrQLenPdf::32                       0                       # What write queue length does an incoming req see
system.mem_ctrl.wrQLenPdf::33                       0                       # What write queue length does an incoming req see
system.mem_ctrl.wrQLenPdf::34                       0                       # What write queue length does an incoming req see
system.mem_ctrl.wrQLenPdf::35                       0                       # What write queue length does an incoming req see
system.mem_ctrl.wrQLenPdf::36                       0                       # What write queue length does an incoming req see
system.mem_ctrl.wrQLenPdf::37                       0                       # What write queue length does an incoming req see
system.mem_ctrl.wrQLenPdf::38                       0                       # What write queue length does an incoming req see
system.mem_ctrl.wrQLenPdf::39                       0                       # What write queue length does an incoming req see
system.mem_ctrl.wrQLenPdf::40                       0                       # What write queue length does an incoming req see
system.mem_ctrl.wrQLenPdf::41                       0                       # What write queue length does an incoming req see
system.mem_ctrl.wrQLenPdf::42                       0                       # What write queue length does an incoming req see
system.mem_ctrl.wrQLenPdf::43                       0                       # What write queue length does an incoming req see
system.mem_ctrl.wrQLenPdf::44                       0                       # What write queue length does an incoming req see
system.mem_ctrl.wrQLenPdf::45                       0                       # What write queue length does an incoming req see
system.mem_ctrl.wrQLenPdf::46                       0                       # What write queue length does an incoming req see
system.mem_ctrl.wrQLenPdf::47                       0                       # What write queue length does an incoming req see
system.mem_ctrl.wrQLenPdf::48                       0                       # What write queue length does an incoming req see
system.mem_ctrl.wrQLenPdf::49                       0                       # What write queue length does an incoming req see
system.mem_ctrl.wrQLenPdf::50                       0                       # What write queue length does an incoming req see
system.mem_ctrl.wrQLenPdf::51                       0                       # What write queue length does an incoming req see
system.mem_ctrl.wrQLenPdf::52                       0                       # What write queue length does an incoming req see
system.mem_ctrl.wrQLenPdf::53                       0                       # What write queue length does an incoming req see
system.mem_ctrl.wrQLenPdf::54                       0                       # What write queue length does an incoming req see
system.mem_ctrl.wrQLenPdf::55                       0                       # What write queue length does an incoming req see
system.mem_ctrl.wrQLenPdf::56                       0                       # What write queue length does an incoming req see
system.mem_ctrl.wrQLenPdf::57                       0                       # What write queue length does an incoming req see
system.mem_ctrl.wrQLenPdf::58                       0                       # What write queue length does an incoming req see
system.mem_ctrl.wrQLenPdf::59                       0                       # What write queue length does an incoming req see
system.mem_ctrl.wrQLenPdf::60                       0                       # What write queue length does an incoming req see
system.mem_ctrl.wrQLenPdf::61                       0                       # What write queue length does an incoming req see
system.mem_ctrl.wrQLenPdf::62                       0                       # What write queue length does an incoming req see
system.mem_ctrl.wrQLenPdf::63                       0                       # What write queue length does an incoming req see
system.mem_ctrl.bytesPerActivate::samples          128                       # Bytes accessed per row activation
system.mem_ctrl.bytesPerActivate::mean     612.500000                       # Bytes accessed per row activation
system.mem_ctrl.bytesPerActivate::gmean    410.414796                       # Bytes accessed per row activation
system.mem_ctrl.bytesPerActivate::stdev    404.427465                       # Bytes accessed per row activation
system.mem_ctrl.bytesPerActivate::0-127            21     16.40%     16.40% # Bytes accessed per row activation
system.mem_ctrl.bytesPerActivate::128-255           15     11.71%     28.12% # Bytes accessed per row activation
system.mem_ctrl.bytesPerActivate::256-383           10      7.81%     35.93% # Bytes accessed per row activation
system.mem_ctrl.bytesPerActivate::384-511           11      8.59%     44.53% # Bytes accessed per row activation
system.mem_ctrl.bytesPerActivate::512-639            5      3.90%     48.43% # Bytes accessed per row activation
system.mem_ctrl.bytesPerActivate::640-767            2      1.56%     50.00% # Bytes accessed per row activation
system.mem_ctrl.bytesPerActivate::768-895            6      4.68%     54.68% # Bytes accessed per row activation
system.mem_ctrl.bytesPerActivate::896-1023            7      5.46%     60.15% # Bytes accessed per row activation
system.mem_ctrl.bytesPerActivate::1024-1151           51     39.84%    100.00% # Bytes accessed per row activation
system.mem_ctrl.bytesPerActivate::total           128                       # Bytes accessed per row activation
system.mem_ctrl.totQLat                      16256883                       # Total ticks spent queuing
system.mem_ctrl.totMemAccLat                 39581883                       # Total ticks spent from burst creation until serviced by the DRAM
system.mem_ctrl.totBusLat                     6220000                       # Total ticks spent in databus transfers
system.mem_ctrl.avgQLat                      13068.23                       # Average queueing delay per DRAM burst
system.mem_ctrl.avgBusLat                     5000.00                       # Average bus latency per DRAM burst
system.mem_ctrl.avgMemAccLat                 31818.23                       # Average memory access latency per DRAM burst
system.mem_ctrl.avgRdBW                        102.53                       # Average DRAM read bandwidth in MiByte/s
system.mem_ctrl.avgWrBW                          0.00                       # Average achieved write bandwidth in MiByte/s
system.mem_ctrl.avgRdBWSys                     102.53                       # Average system read bandwidth in MiByte/s
system.mem_ctrl.avgWrBWSys                       0.00                       # Average system write bandwidth in MiByte/s
system.mem_ctrl.peakBW                       12800.00                       # Theoretical peak bandwidth in MiByte/s
system.mem_ctrl.busUtil                          0.80                       # Data bus utilization in percentage
system.mem_ctrl.busUtilRead                      0.80                       # Data bus utilization in percentage for reads
system.mem_ctrl.busUtilWrite                     0.00                       # Data bus utilization in percentage for writes
system.mem_ctrl.avgRdQLen                        1.02                       # Average read queue length when enqueuing
system.mem_ctrl.avgWrQLen                        0.00                       # Average write queue length when enqueuing
system.mem_ctrl.readRowHits                      1110                       # Number of row buffer hits during reads
system.mem_ctrl.writeRowHits                        0                       # Number of row buffer hits during writes
system.mem_ctrl.readRowHitRate                  89.22                       # Row buffer hit rate for reads
system.mem_ctrl.writeRowHitRate                   nan                       # Row buffer hit rate for writes
system.mem_ctrl.avgGap                      623890.26                       # Average gap between requests
system.mem_ctrl.pageHitRate                     89.22                       # Row buffer hit rate, read and write combined
system.mem_ctrl_0.actEnergy                    435540                       # Energy for activate commands per rank (pJ)
system.mem_ctrl_0.preEnergy                    216315                       # Energy for precharge commands per rank (pJ)
system.mem_ctrl_0.readEnergy                  3627120                       # Energy for read commands per rank (pJ)
system.mem_ctrl_0.writeEnergy                       0                       # Energy for write commands per rank (pJ)
system.mem_ctrl_0.refreshEnergy              17824560                       # Energy for refresh commands per rank (pJ)
system.mem_ctrl_0.actBackEnergy               9370800                       # Energy for active background per rank (pJ)
system.mem_ctrl_0.preBackEnergy               1077600                       # Energy for precharge background per rank (pJ)
system.mem_ctrl_0.actPowerDownEnergy         41552430                       # Energy for active power-down per rank (pJ)
system.mem_ctrl_0.prePowerDownEnergy         25536480                       # Energy for precharge power-down per rank (pJ)
system.mem_ctrl_0.selfRefreshEnergy         146781780                       # Energy for self refresh per rank (pJ)
system.mem_ctrl_0.totalEnergy               246422625                       # Total energy per rank (pJ)
system.mem_ctrl_0.averagePower             317.365120                       # Core power per rank (mW)
system.mem_ctrl_0.totalIdleTime             752797905                       # Total Idle time Per DRAM Rank
system.mem_ctrl_0.memoryStateTime::IDLE       1992260                       # Time in different power states
system.mem_ctrl_0.memoryStateTime::REF        7582000                       # Time in different power states
system.mem_ctrl_0.memoryStateTime::SREF     595484140                       # Time in different power states
system.mem_ctrl_0.memoryStateTime::PRE_PDN     66501886                       # Time in different power states
system.mem_ctrl_0.memoryStateTime::ACT       13778340                       # Time in different power states
system.mem_ctrl_0.memoryStateTime::ACT_PDN     91125482                       # Time in different power states
system.mem_ctrl_1.actEnergy                    521220                       # Energy for activate commands per rank (pJ)
system.mem_ctrl_1.preEnergy                    269445                       # Energy for precharge commands per rank (pJ)
system.mem_ctrl_1.readEnergy                  5255040                       # Energy for read commands per rank (pJ)
system.mem_ctrl_1.writeEnergy                       0                       # Energy for write commands per rank (pJ)
system.mem_ctrl_1.refreshEnergy              11678160                       # Energy for refresh commands per rank (pJ)
system.mem_ctrl_1.actBackEnergy               8678250                       # Energy for active background per rank (pJ)
system.mem_ctrl_1.preBackEnergy                747840                       # Energy for precharge background per rank (pJ)
system.mem_ctrl_1.actPowerDownEnergy         29525430                       # Energy for active power-down per rank (pJ)
system.mem_ctrl_1.prePowerDownEnergy         14792160                       # Energy for precharge power-down per rank (pJ)
system.mem_ctrl_1.selfRefreshEnergy         158740860                       # Energy for self refresh per rank (pJ)
system.mem_ctrl_1.totalEnergy               230208405                       # Total energy per rank (pJ)
system.mem_ctrl_1.averagePower             296.482995                       # Core power per rank (mW)
system.mem_ctrl_1.totalIdleTime             755116132                       # Total Idle time Per DRAM Rank
system.mem_ctrl_1.memoryStateTime::IDLE       1288945                       # Time in different power states
system.mem_ctrl_1.memoryStateTime::REF        4964000                       # Time in different power states
system.mem_ctrl_1.memoryStateTime::SREF     652216882                       # Time in different power states
system.mem_ctrl_1.memoryStateTime::PRE_PDN     38520467                       # Time in different power states
system.mem_ctrl_1.memoryStateTime::ACT       14720989                       # Time in different power states
system.mem_ctrl_1.memoryStateTime::ACT_PDN     64752825                       # Time in different power states
system.pwrStateResidencyTicks::UNDEFINED    776464108                       # Cumulative time (in ticks) in various power states
system.cpu.branchPred.lookups                   97058                       # Number of BP lookups
system.cpu.branchPred.condPredicted             86543                       # Number of conditional branches predicted
system.cpu.branchPred.condIncorrect              2870                       # Number of conditional branches incorrect
system.cpu.branchPred.BTBLookups                76063                       # Number of BTB lookups
system.cpu.branchPred.BTBHits                   70228                       # Number of BTB hits
system.cpu.branchPred.BTBCorrect                    0                       # Number of correct BTB predictions (this stat may not work properly.
system.cpu.branchPred.BTBHitPct             92.328727                       # BTB Hit Percentage
system.cpu.branchPred.usedRAS                       0                       # Number of times the RAS was used to get a target.
system.cpu.branchPred.RASInCorrect                  0                       # Number of incorrect RAS predictions.
system.cpu.branchPred.indirectLookups            2914                       # Number of indirect predictor lookups.
system.cpu.branchPred.indirectHits               2383                       # Number of indirect target hits.
system.cpu.branchPred.indirectMisses              531                       # Number of indirect misses.
system.cpu.branchPredindirectMispredicted          220                       # Number of mispredicted indirect branches.
system.cpu.dtb.read_hits                            0                       # DTB read hits
system.cpu.dtb.read_misses                          0                       # DTB read misses
system.cpu.dtb.read_accesses                        0                       # DTB read accesses
system.cpu.dtb.write_hits                           0                       # DTB write hits
system.cpu.dtb.write_misses                         0                       # DTB write misses
system.cpu.dtb.write_accesses                       0                       # DTB write accesses
system.cpu.dtb.hits                                 0                       # DTB hits
system.cpu.dtb.misses                               0                       # DTB misses
system.cpu.dtb.accesses                             0                       # DTB accesses
system.cpu.itb.read_hits                            0                       # DTB read hits
system.cpu.itb.read_misses                          0                       # DTB read misses
system.cpu.itb.read_accesses                        0                       # DTB read accesses
system.cpu.itb.write_hits                           0                       # DTB write hits
system.cpu.itb.write_misses                         0                       # DTB write misses
system.cpu.itb.write_accesses                       0                       # DTB write accesses
system.cpu.itb.hits                                 0                       # DTB hits
system.cpu.itb.misses                               0                       # DTB misses
system.cpu.itb.accesses                             0                       # DTB accesses
system.cpu.workload.numSyscalls                    27                       # Number of system calls
system.cpu.pwrStateResidencyTicks::ON       776464108                       # Cumulative time (in ticks) in various power states
system.cpu.numCycles                          2480716                       # number of cpu cycles simulated
system.cpu.numWorkItemsStarted                      0                       # number of work items this cpu started
system.cpu.numWorkItemsCompleted                    0                       # number of work items this cpu completed
system.cpu.committedInsts                     2034523                       # Number of instructions committed
system.cpu.committedOps                       2034523                       # Number of ops (including micro ops) committed
system.cpu.discardedOps                          7257                       # Number of ops (including micro ops) which were discarded before commit
system.cpu.numFetchSuspends                         0                       # Number of times Execute suspended instruction fetching
system.cpu.cpi                               1.219310                       # CPI: cycles per instruction
system.cpu.ipc                               0.820135                       # IPC: instructions per cycle
system.cpu.op_class_0::No_OpClass                1567      0.07%      0.07% # Class of committed instruction
system.cpu.op_class_0::IntAdd                       0      0.00%      0.07% # Class of committed instruction
system.cpu.op_class_0::IntSub                       0      0.00%      0.07% # Class of committed instruction
system.cpu.op_class_0::IntMult                   8492      0.41%      0.49% # Class of committed instruction
system.cpu.op_class_0::IntDiv                      10      0.00%      0.49% # Class of committed instruction
system.cpu.op_class_0::IntLogic                     0      0.00%      0.49% # Class of committed instruction
system.cpu.op_class_0::IntShift                     0      0.00%      0.49% # Class of committed instruction
system.cpu.op_class_0::IntMov                       0      0.00%      0.49% # Class of committed instruction
system.cpu.op_class_0::IntCtrl                      0      0.00%      0.49% # Class of committed instruction
system.cpu.op_class_0::IntALU                 1063566     52.27%     52.77% # Class of committed instruction
system.cpu.op_class_0::FloatAdd                   546      0.02%     52.79% # Class of committed instruction
system.cpu.op_class_0::FloatCmp                  4773      0.23%     53.03% # Class of committed instruction
system.cpu.op_class_0::FloatCvt                 11521      0.56%     53.59% # Class of committed instruction
system.cpu.op_class_0::FloatMult                 3144      0.15%     53.75% # Class of committed instruction
system.cpu.op_class_0::FloatMultAcc               760      0.03%     53.79% # Class of committed instruction
system.cpu.op_class_0::FloatDiv                  1383      0.06%     53.85% # Class of committed instruction
system.cpu.op_class_0::FloatMisc                 2566      0.12%     53.98% # Class of committed instruction
system.cpu.op_class_0::FloatSqrt                  770      0.03%     54.02% # Class of committed instruction
system.cpu.op_class_0::SimdAdd                      0      0.00%     54.02% # Class of committed instruction
system.cpu.op_class_0::SimdAddAcc                   0      0.00%     54.02% # Class of committed instruction
system.cpu.op_class_0::SimdAlu                      0      0.00%     54.02% # Class of committed instruction
system.cpu.op_class_0::SimdCmp                      0      0.00%     54.02% # Class of committed instruction
system.cpu.op_class_0::SimdCvt                      0      0.00%     54.02% # Class of committed instruction
system.cpu.op_class_0::SimdMisc                     0      0.00%     54.02% # Class of committed instruction
system.cpu.op_class_0::SimdMult                     0      0.00%     54.02% # Class of committed instruction
system.cpu.op_class_0::SimdMultAcc                  0      0.00%     54.02% # Class of committed instruction
system.cpu.op_class_0::SimdShift                    0      0.00%     54.02% # Class of committed instruction
system.cpu.op_class_0::SimdShiftAcc                 0      0.00%     54.02% # Class of committed instruction
system.cpu.op_class_0::SimdSqrt                     0      0.00%     54.02% # Class of committed instruction
system.cpu.op_class_0::SimdFloatAdd                 0      0.00%     54.02% # Class of committed instruction
system.cpu.op_class_0::SimdFloatAlu                 0      0.00%     54.02% # Class of committed instruction
system.cpu.op_class_0::SimdFloatCmp                 0      0.00%     54.02% # Class of committed instruction
system.cpu.op_class_0::SimdFloatCvt                 0      0.00%     54.02% # Class of committed instruction
system.cpu.op_class_0::SimdFloatDiv                 0      0.00%     54.02% # Class of committed instruction
system.cpu.op_class_0::SimdFloatMisc                0      0.00%     54.02% # Class of committed instruction
system.cpu.op_class_0::SimdFloatMult                0      0.00%     54.02% # Class of committed instruction
system.cpu.op_class_0::SimdFloatMultAcc             0      0.00%     54.02% # Class of committed instruction
system.cpu.op_class_0::SimdFloatSqrt                0      0.00%     54.02% # Class of committed instruction
system.cpu.op_class_0::MemRead                 753125     37.01%     91.03% # Class of committed instruction
system.cpu.op_class_0::MemWrite                175824      8.64%     99.68% # Class of committed instruction
system.cpu.op_class_0::FloatMemRead              4655      0.22%     99.91% # Class of committed instruction
system.cpu.op_class_0::FloatMemWrite             1821      0.08%     99.99% # Class of committed instruction
system.cpu.op_class_0::IprAccess                    0      0.00%     99.99% # Class of committed instruction
system.cpu.op_class_0::InstPrefetch                 0      0.00%     99.99% # Class of committed instruction
system.cpu.op_class_0::total                  2034523                       # Class of committed instruction
system.cpu.tickCycles                         2219518                       # Number of cycles that the object actually ticked
system.cpu.idleCycles                          261198                       # Total number of cycles that the object has spent stopped
system.cpu.fetch2.int_instructions            1097940                       # Number of integer instructions successfully decoded
system.cpu.fetch2.fp_instructions               26479                       # Number of floating point instructions successfully decoded
system.cpu.fetch2.vec_instructions                  0                       # Number of SIMD instructions successfully decoded
system.cpu.fetch2.load_instructions            770451                       # Number of memory load instructions successfully decoded
system.cpu.fetch2.store_instructions           181477                       # Number of memory store instructions successfully decoded
system.cpu.dcache.tags.pwrStateResidencyTicks::UNDEFINED    776464108                       # Cumulative time (in ticks) in various power states
system.cpu.dcache.tags.replacements               833                       # number of replacements
system.cpu.dcache.tags.tagsinuse           483.997412                       # Cycle average of tags in use
system.cpu.dcache.tags.total_refs              934860                       # Total number of references to valid blocks.
system.cpu.dcache.tags.sampled_refs              1345                       # Sample count of references to valid blocks.
system.cpu.dcache.tags.avg_refs            695.063197                       # Average number of references to valid blocks.
system.cpu.dcache.tags.warmup_cycle            142102                       # Cycle when the warmup percentage was hit.
system.cpu.dcache.tags.occ_blocks::cpu.data   483.997412                       # Average occupied blocks per requestor
system.cpu.dcache.tags.occ_percent::cpu.data     0.945307                       # Average percentage of cache occupancy
system.cpu.dcache.tags.occ_percent::total     0.945307                       # Average percentage of cache occupancy
system.cpu.dcache.tags.occ_task_id_blocks::1024          512                       # Occupied blocks per task id
system.cpu.dcache.tags.age_task_id_blocks_1024::0           50                       # Occupied blocks per task id
system.cpu.dcache.tags.age_task_id_blocks_1024::1          116                       # Occupied blocks per task id
system.cpu.dcache.tags.age_task_id_blocks_1024::2          346                       # Occupied blocks per task id
system.cpu.dcache.tags.occ_task_id_percent::1024            1                       # Percentage of cache occupancy per task id
system.cpu.dcache.tags.tag_accesses           3749141                       # Number of tag accesses
system.cpu.dcache.tags.data_accesses          3749141                       # Number of data accesses
system.cpu.dcache.pwrStateResidencyTicks::UNDEFINED    776464108                       # Cumulative time (in ticks) in various power states
system.cpu.dcache.ReadReq_hits::cpu.data       758782                       # number of ReadReq hits
system.cpu.dcache.ReadReq_hits::total          758782                       # number of ReadReq hits
system.cpu.dcache.WriteReq_hits::cpu.data       176078                       # number of WriteReq hits
system.cpu.dcache.WriteReq_hits::total         176078                       # number of WriteReq hits
system.cpu.dcache.demand_hits::cpu.data        934860                       # number of demand (read+write) hits
system.cpu.dcache.demand_hits::total           934860                       # number of demand (read+write) hits
system.cpu.dcache.overall_hits::cpu.data       934860                       # number of overall hits
system.cpu.dcache.overall_hits::total          934860                       # number of overall hits
system.cpu.dcache.ReadReq_misses::cpu.data          524                       # number of ReadReq misses
system.cpu.dcache.ReadReq_misses::total           524                       # number of ReadReq misses
system.cpu.dcache.WriteReq_misses::cpu.data         1565                       # number of WriteReq misses
system.cpu.dcache.WriteReq_misses::total         1565                       # number of WriteReq misses
system.cpu.dcache.demand_misses::cpu.data         2089                       # number of demand (read+write) misses
system.cpu.dcache.demand_misses::total           2089                       # number of demand (read+write) misses
system.cpu.dcache.overall_misses::cpu.data         2089                       # number of overall misses
system.cpu.dcache.overall_misses::total          2089                       # number of overall misses
system.cpu.dcache.ReadReq_miss_latency::cpu.data      7200878                       # number of ReadReq miss cycles
system.cpu.dcache.ReadReq_miss_latency::total      7200878                       # number of ReadReq miss cycles
system.cpu.dcache.WriteReq_miss_latency::cpu.data     53672301                       # number of WriteReq miss cycles
system.cpu.dcache.WriteReq_miss_latency::total     53672301                       # number of WriteReq miss cycles
system.cpu.dcache.demand_miss_latency::cpu.data     60873179                       # number of demand (read+write) miss cycles
system.cpu.dcache.demand_miss_latency::total     60873179                       # number of demand (read+write) miss cycles
system.cpu.dcache.overall_miss_latency::cpu.data     60873179                       # number of overall miss cycles
system.cpu.dcache.overall_miss_latency::total     60873179                       # number of overall miss cycles
system.cpu.dcache.ReadReq_accesses::cpu.data       759306                       # number of ReadReq accesses(hits+misses)
system.cpu.dcache.ReadReq_accesses::total       759306                       # number of ReadReq accesses(hits+misses)
system.cpu.dcache.WriteReq_accesses::cpu.data       177643                       # number of WriteReq accesses(hits+misses)
system.cpu.dcache.WriteReq_accesses::total       177643                       # number of WriteReq accesses(hits+misses)
system.cpu.dcache.demand_accesses::cpu.data       936949                       # number of demand (read+write) accesses
system.cpu.dcache.demand_accesses::total       936949                       # number of demand (read+write) accesses
system.cpu.dcache.overall_accesses::cpu.data       936949                       # number of overall (read+write) accesses
system.cpu.dcache.overall_accesses::total       936949                       # number of overall (read+write) accesses
system.cpu.dcache.ReadReq_miss_rate::cpu.data     0.000690                       # miss rate for ReadReq accesses
system.cpu.dcache.ReadReq_miss_rate::total     0.000690                       # miss rate for ReadReq accesses
system.cpu.dcache.WriteReq_miss_rate::cpu.data     0.008809                       # miss rate for WriteReq accesses
system.cpu.dcache.WriteReq_miss_rate::total     0.008809                       # miss rate for WriteReq accesses
system.cpu.dcache.demand_miss_rate::cpu.data     0.002229                       # miss rate for demand accesses
system.cpu.dcache.demand_miss_rate::total     0.002229                       # miss rate for demand accesses
system.cpu.dcache.overall_miss_rate::cpu.data     0.002229                       # miss rate for overall accesses
system.cpu.dcache.overall_miss_rate::total     0.002229                       # miss rate for overall accesses
system.cpu.dcache.ReadReq_avg_miss_latency::cpu.data 13742.133587                       # average ReadReq miss latency
system.cpu.dcache.ReadReq_avg_miss_latency::total 13742.133587                       # average ReadReq miss latency
system.cpu.dcache.WriteReq_avg_miss_latency::cpu.data 34295.399999                       # average WriteReq miss latency
system.cpu.dcache.WriteReq_avg_miss_latency::total 34295.399999                       # average WriteReq miss latency
system.cpu.dcache.demand_avg_miss_latency::cpu.data 29139.865485                       # average overall miss latency
system.cpu.dcache.demand_avg_miss_latency::total 29139.865485                       # average overall miss latency
system.cpu.dcache.overall_avg_miss_latency::cpu.data 29139.865485                       # average overall miss latency
system.cpu.dcache.overall_avg_miss_latency::total 29139.865485                       # average overall miss latency
system.cpu.dcache.blocked_cycles::no_mshrs            0                       # number of cycles access was blocked
system.cpu.dcache.blocked_cycles::no_targets            0                       # number of cycles access was blocked
system.cpu.dcache.blocked::no_mshrs                 0                       # number of cycles access was blocked
system.cpu.dcache.blocked::no_targets               0                       # number of cycles access was blocked
system.cpu.dcache.avg_blocked_cycles::no_mshrs          nan                       # average number of cycles each access was blocked
system.cpu.dcache.avg_blocked_cycles::no_targets          nan                       # average number of cycles each access was blocked
system.cpu.dcache.writebacks::writebacks          833                       # number of writebacks
system.cpu.dcache.writebacks::total               833                       # number of writebacks
system.cpu.dcache.ReadReq_mshr_hits::cpu.data            7                       # number of ReadReq MSHR hits
system.cpu.dcache.ReadReq_mshr_hits::total            7                       # number of ReadReq MSHR hits
system.cpu.dcache.WriteReq_mshr_hits::cpu.data          737                       # number of WriteReq MSHR hits
system.cpu.dcache.WriteReq_mshr_hits::total          737                       # number of WriteReq MSHR hits
system.cpu.dcache.demand_mshr_hits::cpu.data          744                       # number of demand (read+write) MSHR hits
system.cpu.dcache.demand_mshr_hits::total          744                       # number of demand (read+write) MSHR hits
system.cpu.dcache.overall_mshr_hits::cpu.data          744                       # number of overall MSHR hits
system.cpu.dcache.overall_mshr_hits::total          744                       # number of overall MSHR hits
system.cpu.dcache.ReadReq_mshr_misses::cpu.data          517                       # number of ReadReq MSHR misses
system.cpu.dcache.ReadReq_mshr_misses::total          517                       # number of ReadReq MSHR misses
system.cpu.dcache.WriteReq_mshr_misses::cpu.data          828                       # number of WriteReq MSHR misses
system.cpu.dcache.WriteReq_mshr_misses::total          828                       # number of WriteReq MSHR misses
system.cpu.dcache.demand_mshr_misses::cpu.data         1345                       # number of demand (read+write) MSHR misses
system.cpu.dcache.demand_mshr_misses::total         1345                       # number of demand (read+write) MSHR misses
system.cpu.dcache.overall_mshr_misses::cpu.data         1345                       # number of overall MSHR misses
system.cpu.dcache.overall_mshr_misses::total         1345                       # number of overall MSHR misses
system.cpu.dcache.ReadReq_mshr_miss_latency::cpu.data      6725118                       # number of ReadReq MSHR miss cycles
system.cpu.dcache.ReadReq_mshr_miss_latency::total      6725118                       # number of ReadReq MSHR miss cycles
system.cpu.dcache.WriteReq_mshr_miss_latency::cpu.data     27137413                       # number of WriteReq MSHR miss cycles
system.cpu.dcache.WriteReq_mshr_miss_latency::total     27137413                       # number of WriteReq MSHR miss cycles
system.cpu.dcache.demand_mshr_miss_latency::cpu.data     33862531                       # number of demand (read+write) MSHR miss cycles
system.cpu.dcache.demand_mshr_miss_latency::total     33862531                       # number of demand (read+write) MSHR miss cycles
system.cpu.dcache.overall_mshr_miss_latency::cpu.data     33862531                       # number of overall MSHR miss cycles
system.cpu.dcache.overall_mshr_miss_latency::total     33862531                       # number of overall MSHR miss cycles
system.cpu.dcache.ReadReq_mshr_miss_rate::cpu.data     0.000680                       # mshr miss rate for ReadReq accesses
system.cpu.dcache.ReadReq_mshr_miss_rate::total     0.000680                       # mshr miss rate for ReadReq accesses
system.cpu.dcache.WriteReq_mshr_miss_rate::cpu.data     0.004661                       # mshr miss rate for WriteReq accesses
system.cpu.dcache.WriteReq_mshr_miss_rate::total     0.004661                       # mshr miss rate for WriteReq accesses
system.cpu.dcache.demand_mshr_miss_rate::cpu.data     0.001435                       # mshr miss rate for demand accesses
system.cpu.dcache.demand_mshr_miss_rate::total     0.001435                       # mshr miss rate for demand accesses
system.cpu.dcache.overall_mshr_miss_rate::cpu.data     0.001435                       # mshr miss rate for overall accesses
system.cpu.dcache.overall_mshr_miss_rate::total     0.001435                       # mshr miss rate for overall accesses
system.cpu.dcache.ReadReq_avg_mshr_miss_latency::cpu.data 13007.965183                       # average ReadReq mshr miss latency
system.cpu.dcache.ReadReq_avg_mshr_miss_latency::total 13007.965183                       # average ReadReq mshr miss latency
system.cpu.dcache.WriteReq_avg_mshr_miss_latency::cpu.data 32774.653381                       # average WriteReq mshr miss latency
system.cpu.dcache.WriteReq_avg_mshr_miss_latency::total 32774.653381                       # average WriteReq mshr miss latency
system.cpu.dcache.demand_avg_mshr_miss_latency::cpu.data 25176.602973                       # average overall mshr miss latency
system.cpu.dcache.demand_avg_mshr_miss_latency::total 25176.602973                       # average overall mshr miss latency
system.cpu.dcache.overall_avg_mshr_miss_latency::cpu.data 25176.602973                       # average overall mshr miss latency
system.cpu.dcache.overall_avg_mshr_miss_latency::total 25176.602973                       # average overall mshr miss latency
system.cpu.icache.tags.pwrStateResidencyTicks::UNDEFINED    776464108                       # Cumulative time (in ticks) in various power states
system.cpu.icache.tags.replacements               124                       # number of replacements
system.cpu.icache.tags.tagsinuse           259.550493                       # Cycle average of tags in use
system.cpu.icache.tags.total_refs              299024                       # Total number of references to valid blocks.
system.cpu.icache.tags.sampled_refs               497                       # Sample count of references to valid blocks.
system.cpu.icache.tags.avg_refs            601.657947                       # Average number of references to valid blocks.
system.cpu.icache.tags.warmup_cycle             72929                       # Cycle when the warmup percentage was hit.
system.cpu.icache.tags.occ_blocks::cpu.inst   259.550493                       # Average occupied blocks per requestor
system.cpu.icache.tags.occ_percent::cpu.inst     0.506934                       # Average percentage of cache occupancy
system.cpu.icache.tags.occ_percent::total     0.506934                       # Average percentage of cache occupancy
system.cpu.icache.tags.occ_task_id_blocks::1024          373                       # Occupied blocks per task id
system.cpu.icache.tags.age_task_id_blocks_1024::0           84                       # Occupied blocks per task id
system.cpu.icache.tags.age_task_id_blocks_1024::1           87                       # Occupied blocks per task id
system.cpu.icache.tags.age_task_id_blocks_1024::2          202                       # Occupied blocks per task id
system.cpu.icache.tags.occ_task_id_percent::1024     0.728515                       # Percentage of cache occupancy per task id
system.cpu.icache.tags.tag_accesses            599539                       # Number of tag accesses
system.cpu.icache.tags.data_accesses           599539                       # Number of data accesses
system.cpu.icache.pwrStateResidencyTicks::UNDEFINED    776464108                       # Cumulative time (in ticks) in various power states
system.cpu.icache.ReadReq_hits::cpu.inst       299024                       # number of ReadReq hits
system.cpu.icache.ReadReq_hits::total          299024                       # number of ReadReq hits
system.cpu.icache.demand_hits::cpu.inst        299024                       # number of demand (read+write) hits
system.cpu.icache.demand_hits::total           299024                       # number of demand (read+write) hits
system.cpu.icache.overall_hits::cpu.inst       299024                       # number of overall hits
system.cpu.icache.overall_hits::total          299024                       # number of overall hits
system.cpu.icache.ReadReq_misses::cpu.inst          497                       # number of ReadReq misses
system.cpu.icache.ReadReq_misses::total           497                       # number of ReadReq misses
system.cpu.icache.demand_misses::cpu.inst          497                       # number of demand (read+write) misses
system.cpu.icache.demand_misses::total            497                       # number of demand (read+write) misses
system.cpu.icache.overall_misses::cpu.inst          497                       # number of overall misses
system.cpu.icache.overall_misses::total           497                       # number of overall misses
system.cpu.icache.ReadReq_miss_latency::cpu.inst     31377311                       # number of ReadReq miss cycles
system.cpu.icache.ReadReq_miss_latency::total     31377311                       # number of ReadReq miss cycles
system.cpu.icache.demand_miss_latency::cpu.inst     31377311                       # number of demand (read+write) miss cycles
system.cpu.icache.demand_miss_latency::total     31377311                       # number of demand (read+write) miss cycles
system.cpu.icache.overall_miss_latency::cpu.inst     31377311                       # number of overall miss cycles
system.cpu.icache.overall_miss_latency::total     31377311                       # number of overall miss cycles
system.cpu.icache.ReadReq_accesses::cpu.inst       299521                       # number of ReadReq accesses(hits+misses)
system.cpu.icache.ReadReq_accesses::total       299521                       # number of ReadReq accesses(hits+misses)
system.cpu.icache.demand_accesses::cpu.inst       299521                       # number of demand (read+write) accesses
system.cpu.icache.demand_accesses::total       299521                       # number of demand (read+write) accesses
system.cpu.icache.overall_accesses::cpu.inst       299521                       # number of overall (read+write) accesses
system.cpu.icache.overall_accesses::total       299521                       # number of overall (read+write) accesses
system.cpu.icache.ReadReq_miss_rate::cpu.inst     0.001659                       # miss rate for ReadReq accesses
system.cpu.icache.ReadReq_miss_rate::total     0.001659                       # miss rate for ReadReq accesses
system.cpu.icache.demand_miss_rate::cpu.inst     0.001659                       # miss rate for demand accesses
system.cpu.icache.demand_miss_rate::total     0.001659                       # miss rate for demand accesses
system.cpu.icache.overall_miss_rate::cpu.inst     0.001659                       # miss rate for overall accesses
system.cpu.icache.overall_miss_rate::total     0.001659                       # miss rate for overall accesses
system.cpu.icache.ReadReq_avg_miss_latency::cpu.inst 63133.422535                       # average ReadReq miss latency
system.cpu.icache.ReadReq_avg_miss_latency::total 63133.422535                       # average ReadReq miss latency
system.cpu.icache.demand_avg_miss_latency::cpu.inst 63133.422535                       # average overall miss latency
system.cpu.icache.demand_avg_miss_latency::total 63133.422535                       # average overall miss latency
system.cpu.icache.overall_avg_miss_latency::cpu.inst 63133.422535                       # average overall miss latency
system.cpu.icache.overall_avg_miss_latency::total 63133.422535                       # average overall miss latency
system.cpu.icache.blocked_cycles::no_mshrs            0                       # number of cycles access was blocked
system.cpu.icache.blocked_cycles::no_targets            0                       # number of cycles access was blocked
system.cpu.icache.blocked::no_mshrs                 0                       # number of cycles access was blocked
system.cpu.icache.blocked::no_targets               0                       # number of cycles access was blocked
system.cpu.icache.avg_blocked_cycles::no_mshrs          nan                       # average number of cycles each access was blocked
system.cpu.icache.avg_blocked_cycles::no_targets          nan                       # average number of cycles each access was blocked
system.cpu.icache.writebacks::writebacks          124                       # number of writebacks
system.cpu.icache.writebacks::total               124                       # number of writebacks
system.cpu.icache.ReadReq_mshr_misses::cpu.inst          497                       # number of ReadReq MSHR misses
system.cpu.icache.ReadReq_mshr_misses::total          497                       # number of ReadReq MSHR misses
system.cpu.icache.demand_mshr_misses::cpu.inst          497                       # number of demand (read+write) MSHR misses
system.cpu.icache.demand_mshr_misses::total          497                       # number of demand (read+write) MSHR misses
system.cpu.icache.overall_mshr_misses::cpu.inst          497                       # number of overall MSHR misses
system.cpu.icache.overall_mshr_misses::total          497                       # number of overall MSHR misses
system.cpu.icache.ReadReq_mshr_miss_latency::cpu.inst     31066189                       # number of ReadReq MSHR miss cycles
system.cpu.icache.ReadReq_mshr_miss_latency::total     31066189                       # number of ReadReq MSHR miss cycles
system.cpu.icache.demand_mshr_miss_latency::cpu.inst     31066189                       # number of demand (read+write) MSHR miss cycles
system.cpu.icache.demand_mshr_miss_latency::total     31066189                       # number of demand (read+write) MSHR miss cycles
system.cpu.icache.overall_mshr_miss_latency::cpu.inst     31066189                       # number of overall MSHR miss cycles
system.cpu.icache.overall_mshr_miss_latency::total     31066189                       # number of overall MSHR miss cycles
system.cpu.icache.ReadReq_mshr_miss_rate::cpu.inst     0.001659                       # mshr miss rate for ReadReq accesses
system.cpu.icache.ReadReq_mshr_miss_rate::total     0.001659                       # mshr miss rate for ReadReq accesses
system.cpu.icache.demand_mshr_miss_rate::cpu.inst     0.001659                       # mshr miss rate for demand accesses
system.cpu.icache.demand_mshr_miss_rate::total     0.001659                       # mshr miss rate for demand accesses
system.cpu.icache.overall_mshr_miss_rate::cpu.inst     0.001659                       # mshr miss rate for overall accesses
system.cpu.icache.overall_mshr_miss_rate::total     0.001659                       # mshr miss rate for overall accesses
system.cpu.icache.ReadReq_avg_mshr_miss_latency::cpu.inst 62507.422535                       # average ReadReq mshr miss latency
system.cpu.icache.ReadReq_avg_mshr_miss_latency::total 62507.422535                       # average ReadReq mshr miss latency
system.cpu.icache.demand_avg_mshr_miss_latency::cpu.inst 62507.422535                       # average overall mshr miss latency
system.cpu.icache.demand_avg_mshr_miss_latency::total 62507.422535                       # average overall mshr miss latency
system.cpu.icache.overall_avg_mshr_miss_latency::cpu.inst 62507.422535                       # average overall mshr miss latency
system.cpu.icache.overall_avg_mshr_miss_latency::total 62507.422535                       # average overall mshr miss latency
system.l2bus.snoop_filter.tot_requests           2799                       # Total number of requests made to the snoop filter.
system.l2bus.snoop_filter.hit_single_requests          957                       # Number of requests hitting in the snoop filter with a single holder of the requested data.
system.l2bus.snoop_filter.hit_multi_requests            0                       # Number of requests hitting in the snoop filter with multiple (>1) holders of the requested data.
system.l2bus.snoop_filter.tot_snoops               11                       # Total number of snoops made to the snoop filter.
system.l2bus.snoop_filter.hit_single_snoops           11                       # Number of snoops hitting in the snoop filter with a single holder of the requested data.
system.l2bus.snoop_filter.hit_multi_snoops            0                       # Number of snoops hitting in the snoop filter with multiple (>1) holders of the requested data.
system.l2bus.pwrStateResidencyTicks::UNDEFINED    776464108                       # Cumulative time (in ticks) in various power states
system.l2bus.trans_dist::ReadResp                1014                       # Transaction distribution
system.l2bus.trans_dist::WritebackDirty           810                       # Transaction distribution
system.l2bus.trans_dist::WritebackClean           147                       # Transaction distribution
system.l2bus.trans_dist::HardPFReq                577                       # Transaction distribution
system.l2bus.trans_dist::ReadExReq                828                       # Transaction distribution
system.l2bus.trans_dist::ReadExResp               828                       # Transaction distribution
system.l2bus.trans_dist::ReadCleanReq             497                       # Transaction distribution
system.l2bus.trans_dist::ReadSharedReq            517                       # Transaction distribution
system.l2bus.pkt_count_system.cpu.icache.mem_side::system.l2cache.cpu_side         1118                       # Packet count per connected master and slave (bytes)
system.l2bus.pkt_count_system.cpu.dcache.mem_side::system.l2cache.cpu_side         3523                       # Packet count per connected master and slave (bytes)
system.l2bus.pkt_count::total                    4641                       # Packet count per connected master and slave (bytes)
system.l2bus.pkt_size_system.cpu.icache.mem_side::system.l2cache.cpu_side        39744                       # Cumulative packet size per connected master and slave (bytes)
system.l2bus.pkt_size_system.cpu.dcache.mem_side::system.l2cache.cpu_side       139392                       # Cumulative packet size per connected master and slave (bytes)
system.l2bus.pkt_size::total                   179136                       # Cumulative packet size per connected master and slave (bytes)
system.l2bus.snoops                               577                       # Total snoops (count)
system.l2bus.snoopTraffic                           0                       # Total snoop traffic (bytes)
system.l2bus.snoop_fanout::samples               2419                       # Request fanout histogram
system.l2bus.snoop_fanout::mean              0.004547                       # Request fanout histogram
system.l2bus.snoop_fanout::stdev             0.067294                       # Request fanout histogram
system.l2bus.snoop_fanout::underflows               0      0.00%      0.00% # Request fanout histogram
system.l2bus.snoop_fanout::0                     2408     99.54%     99.54% # Request fanout histogram
system.l2bus.snoop_fanout::1                       11      0.45%     99.99% # Request fanout histogram
system.l2bus.snoop_fanout::2                        0      0.00%     99.99% # Request fanout histogram
system.l2bus.snoop_fanout::overflows                0      0.00%     99.99% # Request fanout histogram
system.l2bus.snoop_fanout::min_value                0                       # Request fanout histogram
system.l2bus.snoop_fanout::max_value                1                       # Request fanout histogram
system.l2bus.snoop_fanout::total                 2419                       # Request fanout histogram
system.l2bus.reqLayer0.occupancy              2074251                       # Layer occupancy (ticks)
system.l2bus.reqLayer0.utilization                0.2                       # Layer utilization (%)
system.l2bus.respLayer0.occupancy              777805                       # Layer occupancy (ticks)
system.l2bus.respLayer0.utilization               0.1                       # Layer utilization (%)
system.l2bus.respLayer1.occupancy             2104925                       # Layer occupancy (ticks)
system.l2bus.respLayer1.utilization               0.2                       # Layer utilization (%)
system.l2cache.prefetcher.pwrStateResidencyTicks::UNDEFINED    776464108                       # Cumulative time (in ticks) in various power states
system.l2cache.prefetcher.num_hwpf_issued          911                       # number of hwpf issued
system.l2cache.prefetcher.pfIdentified            911                       # number of prefetch candidates identified
system.l2cache.prefetcher.pfBufferHit               0                       # number of redundant prefetches already in prefetch queue
system.l2cache.prefetcher.pfInCache                 0                       # number of redundant prefetches already in cache/mshr dropped
system.l2cache.prefetcher.pfRemovedFull             0                       # number of prefetches dropped due to prefetch queue size
system.l2cache.prefetcher.pfSpanPage               22                       # number of prefetches not generated due to page crossing
system.l2cache.tags.pwrStateResidencyTicks::UNDEFINED    776464108                       # Cumulative time (in ticks) in various power states
system.l2cache.tags.replacements                    0                       # number of replacements
system.l2cache.tags.tagsinuse              243.161658                       # Cycle average of tags in use
system.l2cache.tags.total_refs                      0                       # Total number of references to valid blocks.
system.l2cache.tags.sampled_refs                  359                       # Sample count of references to valid blocks.
system.l2cache.tags.avg_refs                        0                       # Average number of references to valid blocks.
system.l2cache.tags.warmup_cycle               386868                       # Cycle when the warmup percentage was hit.
system.l2cache.tags.occ_blocks::writebacks   242.016197                       # Average occupied blocks per requestor
system.l2cache.tags.occ_blocks::l2cache.prefetcher     1.145460                       # Average occupied blocks per requestor
system.l2cache.tags.occ_percent::writebacks     0.029542                       # Average percentage of cache occupancy
system.l2cache.tags.occ_percent::l2cache.prefetcher     0.000139                       # Average percentage of cache occupancy
system.l2cache.tags.occ_percent::total       0.029682                       # Average percentage of cache occupancy
system.l2cache.tags.occ_task_id_blocks::1022            1                       # Occupied blocks per task id
system.l2cache.tags.occ_task_id_blocks::1024          358                       # Occupied blocks per task id
system.l2cache.tags.age_task_id_blocks_1022::2            1                       # Occupied blocks per task id
system.l2cache.tags.age_task_id_blocks_1024::0          100                       # Occupied blocks per task id
system.l2cache.tags.age_task_id_blocks_1024::1          132                       # Occupied blocks per task id
system.l2cache.tags.age_task_id_blocks_1024::2          126                       # Occupied blocks per task id
system.l2cache.tags.occ_task_id_percent::1022     0.000122                       # Percentage of cache occupancy per task id
system.l2cache.tags.occ_task_id_percent::1024     0.043701                       # Percentage of cache occupancy per task id
system.l2cache.tags.tag_accesses                23915                       # Number of tag accesses
system.l2cache.tags.data_accesses               23915                       # Number of data accesses
system.l2cache.pwrStateResidencyTicks::UNDEFINED    776464108                       # Cumulative time (in ticks) in various power states
system.l2cache.WritebackDirty_hits::writebacks          810                       # number of WritebackDirty hits
system.l2cache.WritebackDirty_hits::total          810                       # number of WritebackDirty hits
system.l2cache.WritebackClean_hits::writebacks          147                       # number of WritebackClean hits
system.l2cache.WritebackClean_hits::total          147                       # number of WritebackClean hits
system.l2cache.ReadExReq_hits::cpu.data           377                       # number of ReadExReq hits
system.l2cache.ReadExReq_hits::total              377                       # number of ReadExReq hits
system.l2cache.ReadCleanReq_hits::cpu.inst           42                       # number of ReadCleanReq hits
system.l2cache.ReadCleanReq_hits::total            42                       # number of ReadCleanReq hits
system.l2cache.ReadSharedReq_hits::cpu.data          467                       # number of ReadSharedReq hits
system.l2cache.ReadSharedReq_hits::total          467                       # number of ReadSharedReq hits
system.l2cache.demand_hits::cpu.inst               42                       # number of demand (read+write) hits
system.l2cache.demand_hits::cpu.data              844                       # number of demand (read+write) hits
system.l2cache.demand_hits::total                 886                       # number of demand (read+write) hits
system.l2cache.overall_hits::cpu.inst              42                       # number of overall hits
system.l2cache.overall_hits::cpu.data             844                       # number of overall hits
system.l2cache.overall_hits::total                886                       # number of overall hits
system.l2cache.ReadExReq_misses::cpu.data          451                       # number of ReadExReq misses
system.l2cache.ReadExReq_misses::total            451                       # number of ReadExReq misses
system.l2cache.ReadCleanReq_misses::cpu.inst          455                       # number of ReadCleanReq misses
system.l2cache.ReadCleanReq_misses::total          455                       # number of ReadCleanReq misses
system.l2cache.ReadSharedReq_misses::cpu.data           50                       # number of ReadSharedReq misses
system.l2cache.ReadSharedReq_misses::total           50                       # number of ReadSharedReq misses
system.l2cache.demand_misses::cpu.inst            455                       # number of demand (read+write) misses
system.l2cache.demand_misses::cpu.data            501                       # number of demand (read+write) misses
system.l2cache.demand_misses::total               956                       # number of demand (read+write) misses
system.l2cache.overall_misses::cpu.inst           455                       # number of overall misses
system.l2cache.overall_misses::cpu.data           501                       # number of overall misses
system.l2cache.overall_misses::total              956                       # number of overall misses
system.l2cache.ReadExReq_miss_latency::cpu.data     24093488                       # number of ReadExReq miss cycles
system.l2cache.ReadExReq_miss_latency::total     24093488                       # number of ReadExReq miss cycles
system.l2cache.ReadCleanReq_miss_latency::cpu.inst     30200744                       # number of ReadCleanReq miss cycles
system.l2cache.ReadCleanReq_miss_latency::total     30200744                       # number of ReadCleanReq miss cycles
system.l2cache.ReadSharedReq_miss_latency::cpu.data      3588858                       # number of ReadSharedReq miss cycles
system.l2cache.ReadSharedReq_miss_latency::total      3588858                       # number of ReadSharedReq miss cycles
system.l2cache.demand_miss_latency::cpu.inst     30200744                       # number of demand (read+write) miss cycles
system.l2cache.demand_miss_latency::cpu.data     27682346                       # number of demand (read+write) miss cycles
system.l2cache.demand_miss_latency::total     57883090                       # number of demand (read+write) miss cycles
system.l2cache.overall_miss_latency::cpu.inst     30200744                       # number of overall miss cycles
system.l2cache.overall_miss_latency::cpu.data     27682346                       # number of overall miss cycles
system.l2cache.overall_miss_latency::total     57883090                       # number of overall miss cycles
system.l2cache.WritebackDirty_accesses::writebacks          810                       # number of WritebackDirty accesses(hits+misses)
system.l2cache.WritebackDirty_accesses::total          810                       # number of WritebackDirty accesses(hits+misses)
system.l2cache.WritebackClean_accesses::writebacks          147                       # number of WritebackClean accesses(hits+misses)
system.l2cache.WritebackClean_accesses::total          147                       # number of WritebackClean accesses(hits+misses)
system.l2cache.ReadExReq_accesses::cpu.data          828                       # number of ReadExReq accesses(hits+misses)
system.l2cache.ReadExReq_accesses::total          828                       # number of ReadExReq accesses(hits+misses)
system.l2cache.ReadCleanReq_accesses::cpu.inst          497                       # number of ReadCleanReq accesses(hits+misses)
system.l2cache.ReadCleanReq_accesses::total          497                       # number of ReadCleanReq accesses(hits+misses)
system.l2cache.ReadSharedReq_accesses::cpu.data          517                       # number of ReadSharedReq accesses(hits+misses)
system.l2cache.ReadSharedReq_accesses::total          517                       # number of ReadSharedReq accesses(hits+misses)
system.l2cache.demand_accesses::cpu.inst          497                       # number of demand (read+write) accesses
system.l2cache.demand_accesses::cpu.data         1345                       # number of demand (read+write) accesses
system.l2cache.demand_accesses::total            1842                       # number of demand (read+write) accesses
system.l2cache.overall_accesses::cpu.inst          497                       # number of overall (read+write) accesses
system.l2cache.overall_accesses::cpu.data         1345                       # number of overall (read+write) accesses
system.l2cache.overall_accesses::total           1842                       # number of overall (read+write) accesses
system.l2cache.ReadExReq_miss_rate::cpu.data     0.544685                       # miss rate for ReadExReq accesses
system.l2cache.ReadExReq_miss_rate::total     0.544685                       # miss rate for ReadExReq accesses
system.l2cache.ReadCleanReq_miss_rate::cpu.inst     0.915492                       # miss rate for ReadCleanReq accesses
system.l2cache.ReadCleanReq_miss_rate::total     0.915492                       # miss rate for ReadCleanReq accesses
system.l2cache.ReadSharedReq_miss_rate::cpu.data     0.096711                       # miss rate for ReadSharedReq accesses
system.l2cache.ReadSharedReq_miss_rate::total     0.096711                       # miss rate for ReadSharedReq accesses
system.l2cache.demand_miss_rate::cpu.inst     0.915492                       # miss rate for demand accesses
system.l2cache.demand_miss_rate::cpu.data     0.372490                       # miss rate for demand accesses
system.l2cache.demand_miss_rate::total       0.519001                       # miss rate for demand accesses
system.l2cache.overall_miss_rate::cpu.inst     0.915492                       # miss rate for overall accesses
system.l2cache.overall_miss_rate::cpu.data     0.372490                       # miss rate for overall accesses
system.l2cache.overall_miss_rate::total      0.519001                       # miss rate for overall accesses
system.l2cache.ReadExReq_avg_miss_latency::cpu.data 53422.368070                       # average ReadExReq miss latency
system.l2cache.ReadExReq_avg_miss_latency::total 53422.368070                       # average ReadExReq miss latency
system.l2cache.ReadCleanReq_avg_miss_latency::cpu.inst 66375.261538                       # average ReadCleanReq miss latency
system.l2cache.ReadCleanReq_avg_miss_latency::total 66375.261538                       # average ReadCleanReq miss latency
system.l2cache.ReadSharedReq_avg_miss_latency::cpu.data 71777.159999                       # average ReadSharedReq miss latency
system.l2cache.ReadSharedReq_avg_miss_latency::total 71777.159999                       # average ReadSharedReq miss latency
system.l2cache.demand_avg_miss_latency::cpu.inst 66375.261538                       # average overall miss latency
system.l2cache.demand_avg_miss_latency::cpu.data 55254.183632                       # average overall miss latency
system.l2cache.demand_avg_miss_latency::total 60547.165271                       # average overall miss latency
system.l2cache.overall_avg_miss_latency::cpu.inst 66375.261538                       # average overall miss latency
system.l2cache.overall_avg_miss_latency::cpu.data 55254.183632                       # average overall miss latency
system.l2cache.overall_avg_miss_latency::total 60547.165271                       # average overall miss latency
system.l2cache.blocked_cycles::no_mshrs             0                       # number of cycles access was blocked
system.l2cache.blocked_cycles::no_targets            0                       # number of cycles access was blocked
system.l2cache.blocked::no_mshrs                    0                       # number of cycles access was blocked
system.l2cache.blocked::no_targets                  0                       # number of cycles access was blocked
system.l2cache.avg_blocked_cycles::no_mshrs          nan                       # average number of cycles each access was blocked
system.l2cache.avg_blocked_cycles::no_targets          nan                       # average number of cycles each access was blocked
system.l2cache.ReadExReq_mshr_hits::cpu.data          278                       # number of ReadExReq MSHR hits
system.l2cache.ReadExReq_mshr_hits::total          278                       # number of ReadExReq MSHR hits
system.l2cache.demand_mshr_hits::cpu.data          278                       # number of demand (read+write) MSHR hits
system.l2cache.demand_mshr_hits::total            278                       # number of demand (read+write) MSHR hits
system.l2cache.overall_mshr_hits::cpu.data          278                       # number of overall MSHR hits
system.l2cache.overall_mshr_hits::total           278                       # number of overall MSHR hits
system.l2cache.HardPFReq_mshr_misses::l2cache.prefetcher          577                       # number of HardPFReq MSHR misses
system.l2cache.HardPFReq_mshr_misses::total          577                       # number of HardPFReq MSHR misses
system.l2cache.ReadExReq_mshr_misses::cpu.data          173                       # number of ReadExReq MSHR misses
system.l2cache.ReadExReq_mshr_misses::total          173                       # number of ReadExReq MSHR misses
system.l2cache.ReadCleanReq_mshr_misses::cpu.inst          455                       # number of ReadCleanReq MSHR misses
system.l2cache.ReadCleanReq_mshr_misses::total          455                       # number of ReadCleanReq MSHR misses
system.l2cache.ReadSharedReq_mshr_misses::cpu.data           50                       # number of ReadSharedReq MSHR misses
system.l2cache.ReadSharedReq_mshr_misses::total           50                       # number of ReadSharedReq MSHR misses
system.l2cache.demand_mshr_misses::cpu.inst          455                       # number of demand (read+write) MSHR misses
system.l2cache.demand_mshr_misses::cpu.data          223                       # number of demand (read+write) MSHR misses
system.l2cache.demand_mshr_misses::total          678                       # number of demand (read+write) MSHR misses
system.l2cache.overall_mshr_misses::cpu.inst          455                       # number of overall MSHR misses
system.l2cache.overall_mshr_misses::cpu.data          223                       # number of overall MSHR misses
system.l2cache.overall_mshr_misses::l2cache.prefetcher          577                       # number of overall MSHR misses
system.l2cache.overall_mshr_misses::total         1255                       # number of overall MSHR misses
system.l2cache.HardPFReq_mshr_miss_latency::l2cache.prefetcher     27991277                       # number of HardPFReq MSHR miss cycles
system.l2cache.HardPFReq_mshr_miss_latency::total     27991277                       # number of HardPFReq MSHR miss cycles
system.l2cache.ReadExReq_mshr_miss_latency::cpu.data     11629515                       # number of ReadExReq MSHR miss cycles
system.l2cache.ReadExReq_mshr_miss_latency::total     11629515                       # number of ReadExReq MSHR miss cycles
system.l2cache.ReadCleanReq_mshr_miss_latency::cpu.inst     28919009                       # number of ReadCleanReq MSHR miss cycles
system.l2cache.ReadCleanReq_mshr_miss_latency::total     28919009                       # number of ReadCleanReq MSHR miss cycles
system.l2cache.ReadSharedReq_mshr_miss_latency::cpu.data      3448008                       # number of ReadSharedReq MSHR miss cycles
system.l2cache.ReadSharedReq_mshr_miss_latency::total      3448008                       # number of ReadSharedReq MSHR miss cycles
system.l2cache.demand_mshr_miss_latency::cpu.inst     28919009                       # number of demand (read+write) MSHR miss cycles
system.l2cache.demand_mshr_miss_latency::cpu.data     15077523                       # number of demand (read+write) MSHR miss cycles
system.l2cache.demand_mshr_miss_latency::total     43996532                       # number of demand (read+write) MSHR miss cycles
system.l2cache.overall_mshr_miss_latency::cpu.inst     28919009                       # number of overall MSHR miss cycles
system.l2cache.overall_mshr_miss_latency::cpu.data     15077523                       # number of overall MSHR miss cycles
system.l2cache.overall_mshr_miss_latency::l2cache.prefetcher     27991277                       # number of overall MSHR miss cycles
system.l2cache.overall_mshr_miss_latency::total     71987809                       # number of overall MSHR miss cycles
system.l2cache.HardPFReq_mshr_miss_rate::l2cache.prefetcher          inf                       # mshr miss rate for HardPFReq accesses
system.l2cache.HardPFReq_mshr_miss_rate::total          inf                       # mshr miss rate for HardPFReq accesses
system.l2cache.ReadExReq_mshr_miss_rate::cpu.data     0.208937                       # mshr miss rate for ReadExReq accesses
system.l2cache.ReadExReq_mshr_miss_rate::total     0.208937                       # mshr miss rate for ReadExReq accesses
system.l2cache.ReadCleanReq_mshr_miss_rate::cpu.inst     0.915492                       # mshr miss rate for ReadCleanReq accesses
system.l2cache.ReadCleanReq_mshr_miss_rate::total     0.915492                       # mshr miss rate for ReadCleanReq accesses
system.l2cache.ReadSharedReq_mshr_miss_rate::cpu.data     0.096711                       # mshr miss rate for ReadSharedReq accesses
system.l2cache.ReadSharedReq_mshr_miss_rate::total     0.096711                       # mshr miss rate for ReadSharedReq accesses
system.l2cache.demand_mshr_miss_rate::cpu.inst     0.915492                       # mshr miss rate for demand accesses
system.l2cache.demand_mshr_miss_rate::cpu.data     0.165799                       # mshr miss rate for demand accesses
system.l2cache.demand_mshr_miss_rate::total     0.368078                       # mshr miss rate for demand accesses
system.l2cache.overall_mshr_miss_rate::cpu.inst     0.915492                       # mshr miss rate for overall accesses
system.l2cache.overall_mshr_miss_rate::cpu.data     0.165799                       # mshr miss rate for overall accesses
system.l2cache.overall_mshr_miss_rate::l2cache.prefetcher          inf                       # mshr miss rate for overall accesses
system.l2cache.overall_mshr_miss_rate::total     0.681324                       # mshr miss rate for overall accesses
system.l2cache.HardPFReq_avg_mshr_miss_latency::l2cache.prefetcher 48511.745233                       # average HardPFReq mshr miss latency
system.l2cache.HardPFReq_avg_mshr_miss_latency::total 48511.745233                       # average HardPFReq mshr miss latency
system.l2cache.ReadExReq_avg_mshr_miss_latency::cpu.data 67222.630057                       # average ReadExReq mshr miss latency
system.l2cache.ReadExReq_avg_mshr_miss_latency::total 67222.630057                       # average ReadExReq mshr miss latency
system.l2cache.ReadCleanReq_avg_mshr_miss_latency::cpu.inst 63558.261538                       # average ReadCleanReq mshr miss latency
system.l2cache.ReadCleanReq_avg_mshr_miss_latency::total 63558.261538                       # average ReadCleanReq mshr miss latency
system.l2cache.ReadSharedReq_avg_mshr_miss_latency::cpu.data 68960.159999                       # average ReadSharedReq mshr miss latency
system.l2cache.ReadSharedReq_avg_mshr_miss_latency::total 68960.159999                       # average ReadSharedReq mshr miss latency
system.l2cache.demand_avg_mshr_miss_latency::cpu.inst 63558.261538                       # average overall mshr miss latency
system.l2cache.demand_avg_mshr_miss_latency::cpu.data 67612.210762                       # average overall mshr miss latency
system.l2cache.demand_avg_mshr_miss_latency::total 64891.640117                       # average overall mshr miss latency
system.l2cache.overall_avg_mshr_miss_latency::cpu.inst 63558.261538                       # average overall mshr miss latency
system.l2cache.overall_avg_mshr_miss_latency::cpu.data 67612.210762                       # average overall mshr miss latency
system.l2cache.overall_avg_mshr_miss_latency::l2cache.prefetcher 48511.745233                       # average overall mshr miss latency
system.l2cache.overall_avg_mshr_miss_latency::total 57360.803984                       # average overall mshr miss latency
system.membus.snoop_filter.tot_requests          1244                       # Total number of requests made to the snoop filter.
system.membus.snoop_filter.hit_single_requests            0                       # Number of requests hitting in the snoop filter with a single holder of the requested data.
system.membus.snoop_filter.hit_multi_requests            0                       # Number of requests hitting in the snoop filter with multiple (>1) holders of the requested data.
system.membus.snoop_filter.tot_snoops               0                       # Total number of snoops made to the snoop filter.
system.membus.snoop_filter.hit_single_snoops            0                       # Number of snoops hitting in the snoop filter with a single holder of the requested data.
system.membus.snoop_filter.hit_multi_snoops            0                       # Number of snoops hitting in the snoop filter with multiple (>1) holders of the requested data.
system.membus.pwrStateResidencyTicks::UNDEFINED    776464108                       # Cumulative time (in ticks) in various power states
system.membus.trans_dist::ReadResp               1071                       # Transaction distribution
system.membus.trans_dist::ReadExReq               173                       # Transaction distribution
system.membus.trans_dist::ReadExResp              173                       # Transaction distribution
system.membus.trans_dist::ReadCleanReq           1071                       # Transaction distribution
system.membus.pkt_count_system.l2cache.mem_side::system.mem_ctrl.port         2488                       # Packet count per connected master and slave (bytes)
system.membus.pkt_count::total                   2488                       # Packet count per connected master and slave (bytes)
system.membus.pkt_size_system.l2cache.mem_side::system.mem_ctrl.port        79616                       # Cumulative packet size per connected master and slave (bytes)
system.membus.pkt_size::total                   79616                       # Cumulative packet size per connected master and slave (bytes)
system.membus.snoops                                0                       # Total snoops (count)
system.membus.snoopTraffic                          0                       # Total snoop traffic (bytes)
system.membus.snoop_fanout::samples              1244                       # Request fanout histogram
system.membus.snoop_fanout::mean                    0                       # Request fanout histogram
system.membus.snoop_fanout::stdev                   0                       # Request fanout histogram
system.membus.snoop_fanout::underflows              0      0.00%      0.00% # Request fanout histogram
system.membus.snoop_fanout::0                    1244    100.00%    100.00% # Request fanout histogram
system.membus.snoop_fanout::1                       0      0.00%    100.00% # Request fanout histogram
system.membus.snoop_fanout::overflows               0      0.00%    100.00% # Request fanout histogram
system.membus.snoop_fanout::min_value               0                       # Request fanout histogram
system.membus.snoop_fanout::max_value               0                       # Request fanout histogram
system.membus.snoop_fanout::total                1244                       # Request fanout histogram
system.membus.reqLayer0.occupancy              389372                       # Layer occupancy (ticks)
system.membus.reqLayer0.utilization               0.0                       # Layer utilization (%)
system.membus.respLayer0.occupancy            1971428                       # Layer occupancy (ticks)
system.membus.respLayer0.utilization              0.2                       # Layer utilization (%)

---------- End Simulation Statistics   ----------
