  78563: system.cpu.commit: 78563;s;i;0
1088927: system.cpu.commit: 1088927;f;i;0
1088927: system.cpu.commit: 1088927;s;f;0
28199109: system.cpu.commit: 28199109;f;f;0
28199109: system.cpu.commit: 28199109;s;f;1
44768703: system.cpu.commit: 44768703;f;f;1
44769016: system.cpu.commit: 44769016;s;i;1
47146251: system.cpu.commit: 47146251;f;i;1
47146877: system.cpu.commit: 47146877;s;i;2
49489056: system.cpu.commit: 49489056;f;i;2
49489682: system.cpu.commit: 49489682;s;i;3
51851580: system.cpu.commit: 51851580;f;i;3
51851893: system.cpu.commit: 51851893;s;i;4
54182804: system.cpu.commit: 54182804;f;i;4
54182804: system.cpu.commit: 54182804;s;i;5
56514341: system.cpu.commit: 56514341;f;i;5
56514341: system.cpu.commit: 56514341;s;i;6
58846504: system.cpu.commit: 58846504;f;i;6
58846817: system.cpu.commit: 58846817;s;i;7
61178354: system.cpu.commit: 61178354;f;i;7
61178667: system.cpu.commit: 61178667;s;i;8
63509891: system.cpu.commit: 63509891;f;i;8
63510517: system.cpu.commit: 63510517;s;i;9
65841741: system.cpu.commit: 65841741;f;i;9
65842367: system.cpu.commit: 65842367;s;i;10
68173591: system.cpu.commit: 68173591;f;i;10
68173904: system.cpu.commit: 68173904;s;i;11
70505128: system.cpu.commit: 70505128;f;i;11
70506067: system.cpu.commit: 70506067;s;i;12
72832909: system.cpu.commit: 72832909;f;i;12
72833848: system.cpu.commit: 72833848;s;i;13
75164759: system.cpu.commit: 75164759;f;i;13
75165385: system.cpu.commit: 75165385;s;i;14
77496609: system.cpu.commit: 77496609;f;i;14
77496609: system.cpu.commit: 77496609;s;i;15
79828146: system.cpu.commit: 79828146;f;i;15
79828772: system.cpu.commit: 79828772;s;i;16
82160622: system.cpu.commit: 82160622;f;i;16
82160622: system.cpu.commit: 82160622;s;i;17
84492472: system.cpu.commit: 84492472;f;i;17
84492472: system.cpu.commit: 84492472;s;i;18
86843415: system.cpu.commit: 86843415;f;i;18
86843728: system.cpu.commit: 86843728;s;i;19
89224093: system.cpu.commit: 89224093;f;i;19
89224406: system.cpu.commit: 89224406;s;i;20
91626681: system.cpu.commit: 91626681;f;i;20
91626994: system.cpu.commit: 91626994;s;i;21
93974181: system.cpu.commit: 93974181;f;i;21
93974494: system.cpu.commit: 93974494;s;i;22
96325437: system.cpu.commit: 96325437;f;i;22
96325750: system.cpu.commit: 96325750;s;i;23
98701107: system.cpu.commit: 98701107;f;i;23
98701733: system.cpu.commit: 98701733;s;i;24
101052050: system.cpu.commit: 101052050;f;i;24
101052363: system.cpu.commit: 101052363;s;i;25
103424590: system.cpu.commit: 103424590;f;i;25
103424903: system.cpu.commit: 103424903;s;i;26
105786488: system.cpu.commit: 105786488;f;i;26
105786488: system.cpu.commit: 105786488;s;i;27
108136805: system.cpu.commit: 108136805;f;i;27
108136805: system.cpu.commit: 108136805;s;i;28
110485244: system.cpu.commit: 110485244;f;i;28
110485557: system.cpu.commit: 110485557;s;i;29
112838691: system.cpu.commit: 112838691;f;i;29
112839317: system.cpu.commit: 112839317;s;i;30
115190573: system.cpu.commit: 115190573;f;i;30
115190573: system.cpu.commit: 115190573;s;i;31
117536195: system.cpu.commit: 117536195;f;i;31
117536195: system.cpu.commit: 117536195;s;i;32
119884947: system.cpu.commit: 119884947;f;i;32
119885260: system.cpu.commit: 119885260;s;i;33
122231195: system.cpu.commit: 122231195;f;i;33
122231508: system.cpu.commit: 122231508;s;i;34
124581199: system.cpu.commit: 124581199;f;i;34
124581825: system.cpu.commit: 124581825;s;i;35
126934959: system.cpu.commit: 126934959;f;i;35
126934959: system.cpu.commit: 126934959;s;i;36
129280268: system.cpu.commit: 129280268;f;i;36
129280894: system.cpu.commit: 129280894;s;i;37
131625577: system.cpu.commit: 131625577;f;i;37
131625890: system.cpu.commit: 131625890;s;i;38
133975894: system.cpu.commit: 133975894;f;i;38
133976520: system.cpu.commit: 133976520;s;i;39
136314004: system.cpu.commit: 136314004;f;i;39
136314317: system.cpu.commit: 136314317;s;i;40
138685918: system.cpu.commit: 138685918;f;i;40
138686544: system.cpu.commit: 138686544;s;i;41
141027471: system.cpu.commit: 141027471;f;i;41
141027784: system.cpu.commit: 141027784;s;i;42
143373719: system.cpu.commit: 143373719;f;i;42
143374032: system.cpu.commit: 143374032;s;i;43
145742816: system.cpu.commit: 145742816;f;i;43
145742816: system.cpu.commit: 145742816;s;i;44
148093133: system.cpu.commit: 148093133;f;i;44
148093446: system.cpu.commit: 148093446;s;i;45
150447206: system.cpu.commit: 150447206;f;i;45
150447519: system.cpu.commit: 150447519;s;i;46
152788446: system.cpu.commit: 152788446;f;i;46
152788446: system.cpu.commit: 152788446;s;i;47
155146275: system.cpu.commit: 155146275;f;i;47
155146275: system.cpu.commit: 155146275;s;i;48
157488454: system.cpu.commit: 157488454;f;i;48
157488767: system.cpu.commit: 157488767;s;i;49
159834076: system.cpu.commit: 159834076;f;i;49
159834076: system.cpu.commit: 159834076;s;i;50
162179385: system.cpu.commit: 162179385;f;i;50
162180324: system.cpu.commit: 162180324;s;i;51
164530328: system.cpu.commit: 164530328;f;i;51
164530328: system.cpu.commit: 164530328;s;i;52
166882836: system.cpu.commit: 166882836;f;i;52
166883149: system.cpu.commit: 166883149;s;i;53
169240039: system.cpu.commit: 169240039;f;i;53
169240978: system.cpu.commit: 169240978;s;i;54
171591295: system.cpu.commit: 171591295;f;i;54
171591295: system.cpu.commit: 171591295;s;i;55
173931909: system.cpu.commit: 173931909;f;i;55
173932222: system.cpu.commit: 173932222;s;i;56
176277844: system.cpu.commit: 176277844;f;i;56
176278157: system.cpu.commit: 176278157;s;i;57
178615954: system.cpu.commit: 178615954;f;i;57
178615954: system.cpu.commit: 178615954;s;i;58
180973783: system.cpu.commit: 180973783;f;i;58
180973783: system.cpu.commit: 180973783;s;i;59
183349766: system.cpu.commit: 183349766;f;i;59
183350079: system.cpu.commit: 183350079;s;i;60
185695388: system.cpu.commit: 185695388;f;i;60
185696014: system.cpu.commit: 185696014;s;i;61
188041636: system.cpu.commit: 188041636;f;i;61
188041949: system.cpu.commit: 188041949;s;i;62
190391640: system.cpu.commit: 190391640;f;i;62
190391953: system.cpu.commit: 190391953;s;i;63
192737262: system.cpu.commit: 192737262;f;i;63
192737575: system.cpu.commit: 192737575;s;i;64
195082884: system.cpu.commit: 195082884;f;i;64
195083197: system.cpu.commit: 195083197;s;i;65
197440713: system.cpu.commit: 197440713;f;i;65
197441026: system.cpu.commit: 197441026;s;i;66
199783205: system.cpu.commit: 199783205;f;i;66
199784144: system.cpu.commit: 199784144;s;i;67
202129140: system.cpu.commit: 202129140;f;i;67
202129766: system.cpu.commit: 202129766;s;i;68
204483526: system.cpu.commit: 204483526;f;i;68
204483839: system.cpu.commit: 204483839;s;i;69
206830087: system.cpu.commit: 206830087;f;i;69
206830400: system.cpu.commit: 206830400;s;i;70
209183534: system.cpu.commit: 209183534;f;i;70
209183534: system.cpu.commit: 209183534;s;i;71
211541050: system.cpu.commit: 211541050;f;i;71
211541050: system.cpu.commit: 211541050;s;i;72
213890115: system.cpu.commit: 213890115;f;i;72
213890115: system.cpu.commit: 213890115;s;i;73
216231981: system.cpu.commit: 216231981;f;i;73
216232294: system.cpu.commit: 216232294;s;i;74
218581985: system.cpu.commit: 218581985;f;i;74
218581985: system.cpu.commit: 218581985;s;i;75
220920095: system.cpu.commit: 220920095;f;i;75
220920408: system.cpu.commit: 220920408;s;i;76
223277298: system.cpu.commit: 223277298;f;i;76
223277924: system.cpu.commit: 223277924;s;i;77
225621981: system.cpu.commit: 225621981;f;i;77
225621981: system.cpu.commit: 225621981;s;i;78
227972611: system.cpu.commit: 227972611;f;i;78
227972611: system.cpu.commit: 227972611;s;i;79
230326684: system.cpu.commit: 230326684;f;i;79
230326684: system.cpu.commit: 230326684;s;i;80
232690773: system.cpu.commit: 232690773;f;i;80
232690773: system.cpu.commit: 232690773;s;i;81
235050793: system.cpu.commit: 235050793;f;i;81
235050793: system.cpu.commit: 235050793;s;i;82
237414882: system.cpu.commit: 237414882;f;i;82
237415195: system.cpu.commit: 237415195;s;i;83
239774276: system.cpu.commit: 239774276;f;i;83
239774902: system.cpu.commit: 239774902;s;i;84
242148694: system.cpu.commit: 242148694;f;i;84
242149007: system.cpu.commit: 242149007;s;i;85
244508714: system.cpu.commit: 244508714;f;i;85
244509340: system.cpu.commit: 244509340;s;i;86
246844633: system.cpu.commit: 246844633;f;i;86
246844946: system.cpu.commit: 246844946;s;i;87
249180865: system.cpu.commit: 249180865;f;i;87
249181178: system.cpu.commit: 249181178;s;i;88
251512089: system.cpu.commit: 251512089;f;i;88
251512715: system.cpu.commit: 251512715;s;i;89
253843939: system.cpu.commit: 253843939;f;i;89
253843939: system.cpu.commit: 253843939;s;i;90
256175789: system.cpu.commit: 256175789;f;i;90
256175789: system.cpu.commit: 256175789;s;i;91
258507952: system.cpu.commit: 258507952;f;i;91
258507952: system.cpu.commit: 258507952;s;i;92
260838863: system.cpu.commit: 260838863;f;i;92
260839802: system.cpu.commit: 260839802;s;i;93
263167270: system.cpu.commit: 263167270;f;i;93
263167583: system.cpu.commit: 263167583;s;i;94
265498807: system.cpu.commit: 265498807;f;i;94
265499746: system.cpu.commit: 265499746;s;i;95
267830970: system.cpu.commit: 267830970;f;i;95
267831283: system.cpu.commit: 267831283;s;i;96
270161881: system.cpu.commit: 270161881;f;i;96
270162820: system.cpu.commit: 270162820;s;i;97
272494670: system.cpu.commit: 272494670;f;i;97
272494670: system.cpu.commit: 272494670;s;i;98
274825268: system.cpu.commit: 274825268;f;i;98
274826520: system.cpu.commit: 274826520;s;i;99
277157431: system.cpu.commit: 277157431;f;i;99
277157431: system.cpu.commit: 277157431;s;i;100
279070487: system.cpu.commit: 279070487;f;i;100
279070487: system.cpu.commit: 279070487;s;f;2
444055604: system.cpu.commit: 444055604;f;f;2
444055604: system.cpu.commit: 444055604;s;f;3
484874873: system.cpu.commit: 484874873;f;f;3
484876125: system.cpu.commit: 484876125;s;i;101
488137272: system.cpu.commit: 488137272;f;i;101
488137272: system.cpu.commit: 488137272;s;i;102
488423041: system.cpu.commit: 488423041;f;i;102
488423041: system.cpu.commit: 488423041;s;f;4
502473298: system.cpu.commit: 502473298;f;f;4
502473298: system.cpu.commit: 502473298;s;i;103
505382320: system.cpu.commit: 505382320;f;i;103
505382320: system.cpu.commit: 505382320;s;i;104
508388998: system.cpu.commit: 508388998;f;i;104
508388998: system.cpu.commit: 508388998;s;i;105
511219457: system.cpu.commit: 511219457;f;i;105
511219457: system.cpu.commit: 511219457;s;i;106
514054298: system.cpu.commit: 514054298;f;i;106
514054298: system.cpu.commit: 514054298;s;i;107
516859404: system.cpu.commit: 516859404;f;i;107
516859717: system.cpu.commit: 516859717;s;i;108
519549952: system.cpu.commit: 519549952;f;i;108
519549952: system.cpu.commit: 519549952;s;i;109
522487770: system.cpu.commit: 522487770;f;i;109
522487770: system.cpu.commit: 522487770;s;i;110
525235597: system.cpu.commit: 525235597;f;i;110
525236849: system.cpu.commit: 525236849;s;i;111
528033817: system.cpu.commit: 528033817;f;i;111
528034130: system.cpu.commit: 528034130;s;i;112
536156793: system.cpu.commit: 536156793;f;i;112
536156793: system.cpu.commit: 536156793;s;i;113
538912445: system.cpu.commit: 538912445;f;i;113
538912445: system.cpu.commit: 538912445;s;f;5
539820145: system.cpu.commit: 539820145;f;f;5
