  75746: system.cpu.execute: 75746;s;i;0
19532452: system.cpu.execute: 19532452;f;i;0
19532765: system.cpu.execute: 19532765;s;i;1
35327684: system.cpu.execute: 35327684;f;i;1
35327997: system.cpu.execute: 35327997;s;i;2
38474273: system.cpu.execute: 38474273;f;i;2
38474586: system.cpu.execute: 38474586;s;i;3
41627748: system.cpu.execute: 41627748;f;i;3
41628061: system.cpu.execute: 41628061;s;i;4
44773398: system.cpu.execute: 44773398;f;i;4
44773398: system.cpu.execute: 44773398;s;i;5
47921552: system.cpu.execute: 47921552;f;i;5
47921865: system.cpu.execute: 47921865;s;i;6
51067828: system.cpu.execute: 51067828;f;i;6
51068454: system.cpu.execute: 51068454;s;i;7
54214417: system.cpu.execute: 54214417;f;i;7
54215043: system.cpu.execute: 54215043;s;i;8
57359128: system.cpu.execute: 57359128;f;i;8
57359441: system.cpu.execute: 57359441;s;i;9
60510412: system.cpu.execute: 60510412;f;i;9
60510412: system.cpu.execute: 60510412;s;i;10
63651680: system.cpu.execute: 63651680;f;i;10
63651680: system.cpu.execute: 63651680;s;i;11
66797017: system.cpu.execute: 66797017;f;i;11
66797017: system.cpu.execute: 66797017;s;i;12
69946423: system.cpu.execute: 69946423;f;i;12
69947362: system.cpu.execute: 69947362;s;i;13
73092699: system.cpu.execute: 73092699;f;i;13
73093012: system.cpu.execute: 73093012;s;i;14
76239914: system.cpu.execute: 76239914;f;i;14
76239914: system.cpu.execute: 76239914;s;i;15
79383373: system.cpu.execute: 79383373;f;i;15
79384312: system.cpu.execute: 79384312;s;i;16
82533405: system.cpu.execute: 82533405;f;i;16
82534344: system.cpu.execute: 82534344;s;i;17
85674673: system.cpu.execute: 85674673;f;i;17
85674986: system.cpu.execute: 85674986;s;i;18
88824705: system.cpu.execute: 88824705;f;i;18
88824705: system.cpu.execute: 88824705;s;i;19
91972546: system.cpu.execute: 91972546;f;i;19
91972859: system.cpu.execute: 91972859;s;i;20
95120387: system.cpu.execute: 95120387;f;i;20
95120700: system.cpu.execute: 95120700;s;i;21
98265724: system.cpu.execute: 98265724;f;i;21
98266037: system.cpu.execute: 98266037;s;i;22
101412939: system.cpu.execute: 101412939;f;i;22
101413878: system.cpu.execute: 101413878;s;i;23
104558589: system.cpu.execute: 104558589;f;i;23
104559215: system.cpu.execute: 104559215;s;i;24
107705491: system.cpu.execute: 107705491;f;i;24
107705491: system.cpu.execute: 107705491;s;i;25
110850515: system.cpu.execute: 110850515;f;i;25
110850828: system.cpu.execute: 110850828;s;i;26
113997104: system.cpu.execute: 113997104;f;i;26
113997417: system.cpu.execute: 113997417;s;i;27
117143380: system.cpu.execute: 117143380;f;i;27
117143693: system.cpu.execute: 117143693;s;i;28
120289030: system.cpu.execute: 120289030;f;i;28
120289030: system.cpu.execute: 120289030;s;i;29
123437497: system.cpu.execute: 123437497;f;i;29
123437810: system.cpu.execute: 123437810;s;i;30
126584086: system.cpu.execute: 126584086;f;i;30
126584086: system.cpu.execute: 126584086;s;i;31
129730675: system.cpu.execute: 129730675;f;i;31
129731301: system.cpu.execute: 129731301;s;i;32
132875073: system.cpu.execute: 132875073;f;i;32
132875386: system.cpu.execute: 132875386;s;i;33
136026044: system.cpu.execute: 136026044;f;i;33
136026044: system.cpu.execute: 136026044;s;i;34
139167312: system.cpu.execute: 139167312;f;i;34
139167625: system.cpu.execute: 139167625;s;i;35
142317344: system.cpu.execute: 142317344;f;i;35
142317344: system.cpu.execute: 142317344;s;i;36
145463620: system.cpu.execute: 145463620;f;i;36
145464246: system.cpu.execute: 145464246;s;i;37
148613026: system.cpu.execute: 148613026;f;i;37
148613339: system.cpu.execute: 148613339;s;i;38
151755859: system.cpu.execute: 151755859;f;i;38
151756172: system.cpu.execute: 151756172;s;i;39
154899631: system.cpu.execute: 154899631;f;i;39
154899944: system.cpu.execute: 154899944;s;i;40
158049663: system.cpu.execute: 158049663;f;i;40
158050602: system.cpu.execute: 158050602;s;i;41
161190305: system.cpu.execute: 161190305;f;i;41
161190618: system.cpu.execute: 161190618;s;i;42
164340337: system.cpu.execute: 164340337;f;i;42
164340650: system.cpu.execute: 164340650;s;i;43
167488491: system.cpu.execute: 167488491;f;i;43
167488804: system.cpu.execute: 167488804;s;i;44
170636019: system.cpu.execute: 170636019;f;i;44
170636332: system.cpu.execute: 170636332;s;i;45
173781356: system.cpu.execute: 173781356;f;i;45
173781669: system.cpu.execute: 173781669;s;i;46
176929197: system.cpu.execute: 176929197;f;i;46
176929510: system.cpu.execute: 176929510;s;i;47
180075160: system.cpu.execute: 180075160;f;i;47
180075473: system.cpu.execute: 180075473;s;i;48
183221123: system.cpu.execute: 183221123;f;i;48
183221123: system.cpu.execute: 183221123;s;i;49
186366460: system.cpu.execute: 186366460;f;i;49
186366773: system.cpu.execute: 186366773;s;i;50
189517431: system.cpu.execute: 189517431;f;i;50
189517744: system.cpu.execute: 189517744;s;i;51
192659012: system.cpu.execute: 192659012;f;i;51
192659325: system.cpu.execute: 192659325;s;i;52
195804662: system.cpu.execute: 195804662;f;i;52
195804662: system.cpu.execute: 195804662;s;i;53
198953755: system.cpu.execute: 198953755;f;i;53
198953755: system.cpu.execute: 198953755;s;i;54
202099718: system.cpu.execute: 202099718;f;i;54
202100344: system.cpu.execute: 202100344;s;i;55
205247246: system.cpu.execute: 205247246;f;i;55
205247559: system.cpu.execute: 205247559;s;i;56
208390705: system.cpu.execute: 208390705;f;i;56
208391331: system.cpu.execute: 208391331;s;i;57
211541676: system.cpu.execute: 211541676;f;i;57
211541676: system.cpu.execute: 211541676;s;i;58
214682944: system.cpu.execute: 214682944;f;i;58
214683257: system.cpu.execute: 214683257;s;i;59
217832976: system.cpu.execute: 217832976;f;i;59
217832976: system.cpu.execute: 217832976;s;i;60
220979565: system.cpu.execute: 220979565;f;i;60
220979878: system.cpu.execute: 220979878;s;i;61
224128658: system.cpu.execute: 224128658;f;i;61
224128971: system.cpu.execute: 224128971;s;i;62
227273056: system.cpu.execute: 227273056;f;i;62
227273995: system.cpu.execute: 227273995;s;i;63
230419958: system.cpu.execute: 230419958;f;i;63
230420271: system.cpu.execute: 230420271;s;i;64
233566234: system.cpu.execute: 233566234;f;i;64
233566234: system.cpu.execute: 233566234;s;i;65
236705937: system.cpu.execute: 236705937;f;i;65
236707502: system.cpu.execute: 236707502;s;i;66
239856282: system.cpu.execute: 239856282;f;i;66
239857847: system.cpu.execute: 239857847;s;i;67
243004436: system.cpu.execute: 243004436;f;i;67
243004749: system.cpu.execute: 243004749;s;i;68
246151651: system.cpu.execute: 246151651;f;i;68
246151964: system.cpu.execute: 246151964;s;i;69
249297301: system.cpu.execute: 249297301;f;i;69
249297301: system.cpu.execute: 249297301;s;i;70
252445142: system.cpu.execute: 252445142;f;i;70
252445455: system.cpu.execute: 252445455;s;i;71
255591105: system.cpu.execute: 255591105;f;i;71
255591105: system.cpu.execute: 255591105;s;i;72
258737694: system.cpu.execute: 258737694;f;i;72
258738320: system.cpu.execute: 258738320;s;i;73
261882405: system.cpu.execute: 261882405;f;i;73
261882718: system.cpu.execute: 261882718;s;i;74
265033689: system.cpu.execute: 265033689;f;i;74
265033689: system.cpu.execute: 265033689;s;i;75
268174957: system.cpu.execute: 268174957;f;i;75
268174957: system.cpu.execute: 268174957;s;i;76
271324989: system.cpu.execute: 271324989;f;i;76
271324989: system.cpu.execute: 271324989;s;i;77
274470013: system.cpu.execute: 274470013;f;i;77
274470952: system.cpu.execute: 274470952;s;i;78
277620045: system.cpu.execute: 277620045;f;i;78
277620671: system.cpu.execute: 277620671;s;i;79
280763504: system.cpu.execute: 280763504;f;i;79
280763817: system.cpu.execute: 280763817;s;i;80
283906963: system.cpu.execute: 283906963;f;i;80
283906963: system.cpu.execute: 283906963;s;i;81
287057308: system.cpu.execute: 287057308;f;i;81
287057308: system.cpu.execute: 287057308;s;i;82
290198576: system.cpu.execute: 290198576;f;i;82
290198889: system.cpu.execute: 290198889;s;i;83
293348608: system.cpu.execute: 293348608;f;i;83
293348608: system.cpu.execute: 293348608;s;i;84
296496136: system.cpu.execute: 296496136;f;i;84
296496449: system.cpu.execute: 296496449;s;i;85
299644290: system.cpu.execute: 299644290;f;i;85
299644603: system.cpu.execute: 299644603;s;i;86
302789314: system.cpu.execute: 302789314;f;i;86
302789627: system.cpu.execute: 302789627;s;i;87
305935590: system.cpu.execute: 305935590;f;i;87
305935903: system.cpu.execute: 305935903;s;i;88
309081866: system.cpu.execute: 309081866;f;i;88
309081866: system.cpu.execute: 309081866;s;i;89
312226264: system.cpu.execute: 312226264;f;i;89
312227829: system.cpu.execute: 312227829;s;i;90
315373479: system.cpu.execute: 315373479;f;i;90
315374105: system.cpu.execute: 315374105;s;i;91
318524763: system.cpu.execute: 318524763;f;i;91
318525076: system.cpu.execute: 318525076;s;i;92
321667283: system.cpu.execute: 321667283;f;i;92
321667596: system.cpu.execute: 321667596;s;i;93
324812933: system.cpu.execute: 324812933;f;i;93
324812933: system.cpu.execute: 324812933;s;i;94
327960774: system.cpu.execute: 327960774;f;i;94
327961087: system.cpu.execute: 327961087;s;i;95
331107363: system.cpu.execute: 331107363;f;i;95
331107363: system.cpu.execute: 331107363;s;i;96
334253952: system.cpu.execute: 334253952;f;i;96
334253952: system.cpu.execute: 334253952;s;i;97
337398350: system.cpu.execute: 337398350;f;i;97
337398663: system.cpu.execute: 337398663;s;i;98
340549947: system.cpu.execute: 340549947;f;i;98
340549947: system.cpu.execute: 340549947;s;i;99
343691215: system.cpu.execute: 343691215;f;i;99
343691215: system.cpu.execute: 343691215;s;i;100
346841247: system.cpu.execute: 346841247;f;i;100
346841247: system.cpu.execute: 346841247;s;i;101
349985645: system.cpu.execute: 349985645;f;i;101
349985958: system.cpu.execute: 349985958;s;i;102
353136303: system.cpu.execute: 353136303;f;i;102
353136616: system.cpu.execute: 353136616;s;i;103
356279449: system.cpu.execute: 356279449;f;i;103
356279449: system.cpu.execute: 356279449;s;i;104
359427290: system.cpu.execute: 359427290;f;i;104
359427290: system.cpu.execute: 359427290;s;i;105
362572940: system.cpu.execute: 362572940;f;i;105
362573253: system.cpu.execute: 362573253;s;i;106
365714208: system.cpu.execute: 365714208;f;i;106
365714521: system.cpu.execute: 365714521;s;i;107
368864240: system.cpu.execute: 368864240;f;i;107
368864240: system.cpu.execute: 368864240;s;i;108
372011768: system.cpu.execute: 372011768;f;i;108
372012081: system.cpu.execute: 372012081;s;i;109
375159922: system.cpu.execute: 375159922;f;i;109
375160235: system.cpu.execute: 375160235;s;i;110
378304946: system.cpu.execute: 378304946;f;i;110
378305259: system.cpu.execute: 378305259;s;i;111
381452474: system.cpu.execute: 381452474;f;i;111
381452474: system.cpu.execute: 381452474;s;i;112
384597498: system.cpu.execute: 384597498;f;i;112
384597498: system.cpu.execute: 384597498;s;i;113
387743148: system.cpu.execute: 387743148;f;i;113
387745026: system.cpu.execute: 387745026;s;i;114
390889737: system.cpu.execute: 390889737;f;i;114
390890050: system.cpu.execute: 390890050;s;i;115
394040708: system.cpu.execute: 394040708;f;i;115
394041021: system.cpu.execute: 394041021;s;i;116
397182915: system.cpu.execute: 397182915;f;i;116
397183228: system.cpu.execute: 397183228;s;i;117
400333260: system.cpu.execute: 400333260;f;i;117
400333260: system.cpu.execute: 400333260;s;i;118
403476719: system.cpu.execute: 403476719;f;i;118
403477032: system.cpu.execute: 403477032;s;i;119
406622995: system.cpu.execute: 406622995;f;i;119
406623621: system.cpu.execute: 406623621;s;i;120
409769584: system.cpu.execute: 409769584;f;i;120
409770210: system.cpu.execute: 409770210;s;i;121
412914295: system.cpu.execute: 412914295;f;i;121
412914608: system.cpu.execute: 412914608;s;i;122
416065579: system.cpu.execute: 416065579;f;i;122
416065579: system.cpu.execute: 416065579;s;i;123
419206847: system.cpu.execute: 419206847;f;i;123
419206847: system.cpu.execute: 419206847;s;i;124
422356879: system.cpu.execute: 422356879;f;i;124
422356879: system.cpu.execute: 422356879;s;i;125
425501590: system.cpu.execute: 425501590;f;i;125
425502529: system.cpu.execute: 425502529;s;i;126
428651935: system.cpu.execute: 428651935;f;i;126
428652874: system.cpu.execute: 428652874;s;i;127
431795081: system.cpu.execute: 431795081;f;i;127
431795081: system.cpu.execute: 431795081;s;i;128
434943235: system.cpu.execute: 434943235;f;i;128
434943548: system.cpu.execute: 434943548;s;i;129
438088572: system.cpu.execute: 438088572;f;i;129
438089511: system.cpu.execute: 438089511;s;i;130
441234535: system.cpu.execute: 441234535;f;i;130
441234848: system.cpu.execute: 441234848;s;i;131
444379872: system.cpu.execute: 444379872;f;i;131
444379872: system.cpu.execute: 444379872;s;i;132
447532095: system.cpu.execute: 447532095;f;i;132
447532408: system.cpu.execute: 447532408;s;i;133
450675554: system.cpu.execute: 450675554;f;i;133
450675867: system.cpu.execute: 450675867;s;i;134
453820891: system.cpu.execute: 453820891;f;i;134
453821204: system.cpu.execute: 453821204;s;i;135
456968106: system.cpu.execute: 456968106;f;i;135
456969045: system.cpu.execute: 456969045;s;i;136
460113756: system.cpu.execute: 460113756;f;i;136
460114382: system.cpu.execute: 460114382;s;i;137
463260658: system.cpu.execute: 463260658;f;i;137
463260658: system.cpu.execute: 463260658;s;i;138
466405682: system.cpu.execute: 466405682;f;i;138
466405995: system.cpu.execute: 466405995;s;i;139
469556653: system.cpu.execute: 469556653;f;i;139
469556966: system.cpu.execute: 469556966;s;i;140
472698547: system.cpu.execute: 472698547;f;i;140
472698860: system.cpu.execute: 472698860;s;i;141
475848892: system.cpu.execute: 475848892;f;i;141
475848892: system.cpu.execute: 475848892;s;i;142
478992664: system.cpu.execute: 478992664;f;i;142
478992977: system.cpu.execute: 478992977;s;i;143
482143322: system.cpu.execute: 482143322;f;i;143
482143948: system.cpu.execute: 482143948;s;i;144
485285842: system.cpu.execute: 485285842;f;i;144
485286468: system.cpu.execute: 485286468;s;i;145
488434622: system.cpu.execute: 488434622;f;i;145
488434935: system.cpu.execute: 488434935;s;i;146
491581211: system.cpu.execute: 491581211;f;i;146
491581211: system.cpu.execute: 491581211;s;i;147
494722479: system.cpu.execute: 494722479;f;i;147
494722792: system.cpu.execute: 494722792;s;i;148
497872511: system.cpu.execute: 497872511;f;i;148
497872511: system.cpu.execute: 497872511;s;i;149
501018787: system.cpu.execute: 501018787;f;i;149
501019413: system.cpu.execute: 501019413;s;i;150
504168193: system.cpu.execute: 504168193;f;i;150
504168506: system.cpu.execute: 504168506;s;i;151
507311026: system.cpu.execute: 507311026;f;i;151
507311339: system.cpu.execute: 507311339;s;i;152
510458867: system.cpu.execute: 510458867;f;i;152
510459806: system.cpu.execute: 510459806;s;i;153
513604830: system.cpu.execute: 513604830;f;i;153
513605769: system.cpu.execute: 513605769;s;i;154
516750167: system.cpu.execute: 516750167;f;i;154
516750480: system.cpu.execute: 516750480;s;i;155
519895504: system.cpu.execute: 519895504;f;i;155
519895817: system.cpu.execute: 519895817;s;i;156
523048040: system.cpu.execute: 523048040;f;i;156
523048353: system.cpu.execute: 523048353;s;i;157
526191186: system.cpu.execute: 526191186;f;i;157
526191499: system.cpu.execute: 526191499;s;i;158
529341218: system.cpu.execute: 529341218;f;i;158
529341531: system.cpu.execute: 529341531;s;i;159
532484364: system.cpu.execute: 532484364;f;i;159
532484677: system.cpu.execute: 532484677;s;i;160
535630327: system.cpu.execute: 535630327;f;i;160
535630640: system.cpu.execute: 535630640;s;i;161
538776290: system.cpu.execute: 538776290;f;i;161
538776290: system.cpu.execute: 538776290;s;i;162
541921627: system.cpu.execute: 541921627;f;i;162
541921940: system.cpu.execute: 541921940;s;i;163
545072598: system.cpu.execute: 545072598;f;i;163
545072911: system.cpu.execute: 545072911;s;i;164
548214179: system.cpu.execute: 548214179;f;i;164
548214492: system.cpu.execute: 548214492;s;i;165
551364524: system.cpu.execute: 551364524;f;i;165
551364524: system.cpu.execute: 551364524;s;i;166
554508922: system.cpu.execute: 554508922;f;i;166
554508922: system.cpu.execute: 554508922;s;i;167
557659580: system.cpu.execute: 557659580;f;i;167
557659580: system.cpu.execute: 557659580;s;i;168
560802413: system.cpu.execute: 560802413;f;i;168
560802726: system.cpu.execute: 560802726;s;i;169
563950567: system.cpu.execute: 563950567;f;i;169
563950880: system.cpu.execute: 563950880;s;i;170
567096843: system.cpu.execute: 567096843;f;i;170
567096843: system.cpu.execute: 567096843;s;i;171
570242806: system.cpu.execute: 570242806;f;i;171
570243119: system.cpu.execute: 570243119;s;i;172
573388143: system.cpu.execute: 573388143;f;i;172
573388143: system.cpu.execute: 573388143;s;i;173
576534732: system.cpu.execute: 576534732;f;i;173
576535045: system.cpu.execute: 576535045;s;i;174
579683825: system.cpu.execute: 579683825;f;i;174
579684138: system.cpu.execute: 579684138;s;i;175
582828223: system.cpu.execute: 582828223;f;i;175
582829162: system.cpu.execute: 582829162;s;i;176
585975125: system.cpu.execute: 585975125;f;i;176
585975438: system.cpu.execute: 585975438;s;i;177
589121401: system.cpu.execute: 589121401;f;i;177
589121401: system.cpu.execute: 589121401;s;i;178
592265799: system.cpu.execute: 592265799;f;i;178
592266112: system.cpu.execute: 592266112;s;i;179
595411449: system.cpu.execute: 595411449;f;i;179
595413014: system.cpu.execute: 595413014;s;i;180
598563985: system.cpu.execute: 598563985;f;i;180
598564298: system.cpu.execute: 598564298;s;i;181
601706818: system.cpu.execute: 601706818;f;i;181
601707131: system.cpu.execute: 601707131;s;i;182
604856850: system.cpu.execute: 604856850;f;i;182
604857163: system.cpu.execute: 604857163;s;i;183
608000309: system.cpu.execute: 608000309;f;i;183
608000622: system.cpu.execute: 608000622;s;i;184
611150654: system.cpu.execute: 611150654;f;i;184
611150967: system.cpu.execute: 611150967;s;i;185
614292861: system.cpu.execute: 614292861;f;i;185
614293487: system.cpu.execute: 614293487;s;i;186
617441954: system.cpu.execute: 617441954;f;i;186
617442267: system.cpu.execute: 617442267;s;i;187
620588856: system.cpu.execute: 620588856;f;i;187
620588856: system.cpu.execute: 620588856;s;i;188
623730124: system.cpu.execute: 623730124;f;i;188
623730124: system.cpu.execute: 623730124;s;i;189
626880156: system.cpu.execute: 626880156;f;i;189
626880156: system.cpu.execute: 626880156;s;i;190
630024554: system.cpu.execute: 630024554;f;i;190
630025493: system.cpu.execute: 630025493;s;i;191
633175212: system.cpu.execute: 633175212;f;i;191
633175838: system.cpu.execute: 633175838;s;i;192
636318671: system.cpu.execute: 636318671;f;i;192
636318984: system.cpu.execute: 636318984;s;i;193
639466199: system.cpu.execute: 639466199;f;i;193
639466825: system.cpu.execute: 639466825;s;i;194
642612475: system.cpu.execute: 642612475;f;i;194
642612475: system.cpu.execute: 642612475;s;i;195
645758438: system.cpu.execute: 645758438;f;i;195
645758751: system.cpu.execute: 645758751;s;i;196
648903775: system.cpu.execute: 648903775;f;i;196
648903775: system.cpu.execute: 648903775;s;i;197
652055059: system.cpu.execute: 652055059;f;i;197
652055372: system.cpu.execute: 652055372;s;i;198
655199457: system.cpu.execute: 655199457;f;i;198
655199770: system.cpu.execute: 655199770;s;i;199
658348550: system.cpu.execute: 658348550;f;i;199
658349489: system.cpu.execute: 658349489;s;i;200
661490757: system.cpu.execute: 661490757;f;i;200
661491070: system.cpu.execute: 661491070;s;i;201
664637033: system.cpu.execute: 664637033;f;i;201
664637033: system.cpu.execute: 664637033;s;i;202
667781431: system.cpu.execute: 667781431;f;i;202
667782996: system.cpu.execute: 667782996;s;i;203
670928646: system.cpu.execute: 670928646;f;i;203
670929272: system.cpu.execute: 670929272;s;i;204
674079930: system.cpu.execute: 674079930;f;i;204
674080243: system.cpu.execute: 674080243;s;i;205
677222450: system.cpu.execute: 677222450;f;i;205
677222763: system.cpu.execute: 677222763;s;i;206
680372795: system.cpu.execute: 680372795;f;i;206
680372795: system.cpu.execute: 680372795;s;i;207
683515941: system.cpu.execute: 683515941;f;i;207
683516254: system.cpu.execute: 683516254;s;i;208
686666599: system.cpu.execute: 686666599;f;i;208
686666599: system.cpu.execute: 686666599;s;i;209
689809119: system.cpu.execute: 689809119;f;i;209
689809119: system.cpu.execute: 689809119;s;i;210
692957899: system.cpu.execute: 692957899;f;i;210
692958212: system.cpu.execute: 692958212;s;i;211
696105114: system.cpu.execute: 696105114;f;i;211
696105114: system.cpu.execute: 696105114;s;i;212
699250451: system.cpu.execute: 699250451;f;i;212
699250451: system.cpu.execute: 699250451;s;i;213
702396414: system.cpu.execute: 702396414;f;i;213
702396414: system.cpu.execute: 702396414;s;i;214
705540812: system.cpu.execute: 705540812;f;i;214
705541125: system.cpu.execute: 705541125;s;i;215
708691470: system.cpu.execute: 708691470;f;i;215
708691783: system.cpu.execute: 708691783;s;i;216
711834616: system.cpu.execute: 711834616;f;i;216
711834616: system.cpu.execute: 711834616;s;i;217
718736892: system.cpu.execute: 718736892;f;i;217
718736892: system.cpu.execute: 718736892;s;i;218
724222843: system.cpu.execute: 724222843;f;i;218
724223156: system.cpu.execute: 724223156;s;i;219
729815527: system.cpu.execute: 729815527;f;i;219
729815527: system.cpu.execute: 729815527;s;i;220
734101749: system.cpu.execute: 734101749;f;i;220
734102375: system.cpu.execute: 734102375;s;i;221
737657429: system.cpu.execute: 737657429;f;i;221
737657429: system.cpu.execute: 737657429;s;i;222
741211544: system.cpu.execute: 741211544;f;i;222
741212483: system.cpu.execute: 741212483;s;i;223
744720587: system.cpu.execute: 744720587;f;i;223
744720900: system.cpu.execute: 744720900;s;i;224
748249975: system.cpu.execute: 748249975;f;i;224
748250288: system.cpu.execute: 748250288;s;i;225
751818175: system.cpu.execute: 751818175;f;i;225
751818175: system.cpu.execute: 751818175;s;i;226
755330035: system.cpu.execute: 755330035;f;i;226
755330348: system.cpu.execute: 755330348;s;i;227
758838139: system.cpu.execute: 758838139;f;i;227
758838139: system.cpu.execute: 758838139;s;i;228
762348434: system.cpu.execute: 762348434;f;i;228
762349060: system.cpu.execute: 762349060;s;i;229
765854660: system.cpu.execute: 765854660;f;i;229
765854660: system.cpu.execute: 765854660;s;i;230
769388743: system.cpu.execute: 769388743;f;i;230
769389369: system.cpu.execute: 769389369;s;i;231
772943484: system.cpu.execute: 772943484;f;i;231
772944423: system.cpu.execute: 772944423;s;i;232
776474750: system.cpu.execute: 776474750;f;i;232
776475689: system.cpu.execute: 776475689;s;i;233
780011963: system.cpu.execute: 780011963;f;i;233
780012276: system.cpu.execute: 780012276;s;i;234
788598492: system.cpu.execute: 788598492;f;i;234
788599118: system.cpu.execute: 788599118;s;i;235
795629724: system.cpu.execute: 795629724;f;i;235
795629724: system.cpu.execute: 795629724;s;i;236
801086879: system.cpu.execute: 801086879;f;i;236
801086879: system.cpu.execute: 801086879;s;i;237
806696465: system.cpu.execute: 806696465;f;i;237
806697091: system.cpu.execute: 806697091;s;i;238
810225540: system.cpu.execute: 810225540;f;i;238
810225540: system.cpu.execute: 810225540;s;i;239
813746164: system.cpu.execute: 813746164;f;i;239
813746164: system.cpu.execute: 813746164;s;i;240
817273674: system.cpu.execute: 817273674;f;i;240
817273987: system.cpu.execute: 817273987;s;i;241
820776144: system.cpu.execute: 820776144;f;i;241
820776457: system.cpu.execute: 820776457;s;i;242
824287378: system.cpu.execute: 824287378;f;i;242
824287378: system.cpu.execute: 824287378;s;i;243
827794856: system.cpu.execute: 827794856;f;i;243
827795169: system.cpu.execute: 827795169;s;i;244
831303899: system.cpu.execute: 831303899;f;i;244
831303899: system.cpu.execute: 831303899;s;i;245
834814194: system.cpu.execute: 834814194;f;i;245
834814820: system.cpu.execute: 834814820;s;i;246
838339200: system.cpu.execute: 838339200;f;i;246
838339200: system.cpu.execute: 838339200;s;i;247
841870779: system.cpu.execute: 841870779;f;i;247
841871405: system.cpu.execute: 841871405;s;i;248
845403297: system.cpu.execute: 845403297;f;i;248
845403923: system.cpu.execute: 845403923;s;i;249
848928303: system.cpu.execute: 848928303;f;i;249
848928929: system.cpu.execute: 848928929;s;i;250
852468959: system.cpu.execute: 852468959;f;i;250
852469272: system.cpu.execute: 852469272;s;i;251
855999286: system.cpu.execute: 855999286;f;i;251
855999599: system.cpu.execute: 855999599;s;i;252
859818512: system.cpu.execute: 859818512;f;i;252
859819138: system.cpu.execute: 859819138;s;i;253
864788639: system.cpu.execute: 864788639;f;i;253
864788952: system.cpu.execute: 864788952;s;i;254
870141878: system.cpu.execute: 870141878;f;i;254
870142504: system.cpu.execute: 870142504;s;i;255
875728302: system.cpu.execute: 875728302;f;i;255
875728615: system.cpu.execute: 875728615;s;i;256
879304014: system.cpu.execute: 879304014;f;i;256
879304327: system.cpu.execute: 879304327;s;i;257
882823073: system.cpu.execute: 882823073;f;i;257
882823073: system.cpu.execute: 882823073;s;i;258
886339941: system.cpu.execute: 886339941;f;i;258
886340567: system.cpu.execute: 886340567;s;i;259
889848671: system.cpu.execute: 889848671;f;i;259
889849610: system.cpu.execute: 889849610;s;i;260
893367104: system.cpu.execute: 893367104;f;i;260
893367104: system.cpu.execute: 893367104;s;i;261
896867696: system.cpu.execute: 896867696;f;i;261
896868009: system.cpu.execute: 896868009;s;i;262
900377052: system.cpu.execute: 900377052;f;i;262
900377052: system.cpu.execute: 900377052;s;i;263
903889851: system.cpu.execute: 903889851;f;i;263
903890164: system.cpu.execute: 903890164;s;i;264
907412353: system.cpu.execute: 907412353;f;i;264
907412353: system.cpu.execute: 907412353;s;i;265
910947062: system.cpu.execute: 910947062;f;i;265
910947375: system.cpu.execute: 910947375;s;i;266
914475198: system.cpu.execute: 914475198;f;i;266
914475198: system.cpu.execute: 914475198;s;i;267
918000517: system.cpu.execute: 918000517;f;i;267
918001143: system.cpu.execute: 918001143;s;i;268
921529592: system.cpu.execute: 921529592;f;i;268
921530218: system.cpu.execute: 921530218;s;i;269
925066492: system.cpu.execute: 925066492;f;i;269
925066805: system.cpu.execute: 925066805;s;i;270
928695101: system.cpu.execute: 928695101;f;i;270
928695101: system.cpu.execute: 928695101;s;i;271
933627355: system.cpu.execute: 933627355;f;i;271
933627355: system.cpu.execute: 933627355;s;i;272
938957745: system.cpu.execute: 938957745;f;i;272
938958684: system.cpu.execute: 938958684;s;i;273
944543230: system.cpu.execute: 944543230;f;i;273
944543856: system.cpu.execute: 944543856;s;i;274
948197192: system.cpu.execute: 948197192;f;i;274
948197505: system.cpu.execute: 948197505;s;i;275
951712495: system.cpu.execute: 951712495;f;i;275
951713121: system.cpu.execute: 951713121;s;i;276
955230615: system.cpu.execute: 955230615;f;i;276
955230615: system.cpu.execute: 955230615;s;i;277
958739345: system.cpu.execute: 958739345;f;i;277
958739971: system.cpu.execute: 958739971;s;i;278
962252144: system.cpu.execute: 962252144;f;i;278
962252770: system.cpu.execute: 962252770;s;i;279
965757431: system.cpu.execute: 965757431;f;i;279
965758370: system.cpu.execute: 965758370;s;i;280
969268665: system.cpu.execute: 969268665;f;i;280
969269291: system.cpu.execute: 969269291;s;i;281
972779899: system.cpu.execute: 972779899;f;i;281
972780212: system.cpu.execute: 972780212;s;i;282
976302714: system.cpu.execute: 976302714;f;i;282
976302714: system.cpu.execute: 976302714;s;i;283
979832102: system.cpu.execute: 979832102;f;i;283
979832415: system.cpu.execute: 979832415;s;i;284
983363994: system.cpu.execute: 983363994;f;i;284
983363994: system.cpu.execute: 983363994;s;i;285
986883053: system.cpu.execute: 986883053;f;i;285
986883053: system.cpu.execute: 986883053;s;i;286
990419640: system.cpu.execute: 990419640;f;i;286
990419640: system.cpu.execute: 990419640;s;i;287
993956853: system.cpu.execute: 993956853;f;i;287
993957479: system.cpu.execute: 993957479;s;i;288
997487493: system.cpu.execute: 997487493;f;i;288
997488432: system.cpu.execute: 997488432;s;i;289
1002411296: system.cpu.execute: 1002411296;f;i;289
1002411296: system.cpu.execute: 1002411296;s;i;290
1007735426: system.cpu.execute: 1007735426;f;i;290
1007735739: system.cpu.execute: 1007735739;s;i;291
1013299627: system.cpu.execute: 1013299627;f;i;291
1013300566: system.cpu.execute: 1013300566;s;i;292
1017037786: system.cpu.execute: 1017037786;f;i;292
1017038099: system.cpu.execute: 1017038099;s;i;293
1020552150: system.cpu.execute: 1020552150;f;i;293
1020552150: system.cpu.execute: 1020552150;s;i;294
1024069331: system.cpu.execute: 1024069331;f;i;294
1024069331: system.cpu.execute: 1024069331;s;i;295
1027580252: system.cpu.execute: 1027580252;f;i;295
1027580565: system.cpu.execute: 1027580565;s;i;296
1031091799: system.cpu.execute: 1031091799;f;i;296
1031091799: system.cpu.execute: 1031091799;s;i;297
1034598651: system.cpu.execute: 1034598651;f;i;297
1034598964: system.cpu.execute: 1034598964;s;i;298
1038108007: system.cpu.execute: 1038108007;f;i;298
1038108633: system.cpu.execute: 1038108633;s;i;299
1041618615: system.cpu.execute: 1041618615;f;i;299
1041619554: system.cpu.execute: 1041619554;s;i;300
1045143934: system.cpu.execute: 1045143934;f;i;300
1045143934: system.cpu.execute: 1045143934;s;i;301
1048670192: system.cpu.execute: 1048670192;f;i;301
1048670505: system.cpu.execute: 1048670505;s;i;302
1052204275: system.cpu.execute: 1052204275;f;i;302
1052204275: system.cpu.execute: 1052204275;s;i;303
1055725838: system.cpu.execute: 1055725838;f;i;303
1055726151: system.cpu.execute: 1055726151;s;i;304
1059258982: system.cpu.execute: 1059258982;f;i;304
1059258982: system.cpu.execute: 1059258982;s;i;305
1062791500: system.cpu.execute: 1062791500;f;i;305
1062791500: system.cpu.execute: 1062791500;s;i;306
1066327148: system.cpu.execute: 1066327148;f;i;306
1066327774: system.cpu.execute: 1066327774;s;i;307
1071159242: system.cpu.execute: 1071159242;f;i;307
1071159242: system.cpu.execute: 1071159242;s;i;308
1076455515: system.cpu.execute: 1076455515;f;i;308
1076456454: system.cpu.execute: 1076456454;s;i;309
1082017212: system.cpu.execute: 1082017212;f;i;309
1082017525: system.cpu.execute: 1082017525;s;i;310
1085852088: system.cpu.execute: 1085852088;f;i;310
1085852401: system.cpu.execute: 1085852401;s;i;311
1089365826: system.cpu.execute: 1089365826;f;i;311
1089365826: system.cpu.execute: 1089365826;s;i;312
1092883946: system.cpu.execute: 1092883946;f;i;312
1092884572: system.cpu.execute: 1092884572;s;i;313
1096394554: system.cpu.execute: 1096394554;f;i;313
1096394867: system.cpu.execute: 1096394867;s;i;314
1099905475: system.cpu.execute: 1099905475;f;i;314
1099905475: system.cpu.execute: 1099905475;s;i;315
1103411075: system.cpu.execute: 1103411075;f;i;315
1103411388: system.cpu.execute: 1103411388;s;i;316
1106922622: system.cpu.execute: 1106922622;f;i;316
1106922622: system.cpu.execute: 1106922622;s;i;317
1110436360: system.cpu.execute: 1110436360;f;i;317
1110436360: system.cpu.execute: 1110436360;s;i;318
1113956671: system.cpu.execute: 1113956671;f;i;318
1113956984: system.cpu.execute: 1113956984;s;i;319
1117483242: system.cpu.execute: 1117483242;f;i;319
1117484181: system.cpu.execute: 1117484181;s;i;320
1121007935: system.cpu.execute: 1121007935;f;i;320
1121008561: system.cpu.execute: 1121008561;s;i;321
1124546713: system.cpu.execute: 1124546713;f;i;321
1124547026: system.cpu.execute: 1124547026;s;i;322
1128079231: system.cpu.execute: 1128079231;f;i;322
1128079231: system.cpu.execute: 1128079231;s;i;323
1131605802: system.cpu.execute: 1131605802;f;i;323
1131605802: system.cpu.execute: 1131605802;s;i;324
1135141137: system.cpu.execute: 1135141137;f;i;324
1135141137: system.cpu.execute: 1135141137;s;i;325
1139910005: system.cpu.execute: 1139910005;f;i;325
1139910318: system.cpu.execute: 1139910318;s;i;326
1145174352: system.cpu.execute: 1145174352;f;i;326
1145174352: system.cpu.execute: 1145174352;s;i;327
1150734484: system.cpu.execute: 1150734484;f;i;327
1150735110: system.cpu.execute: 1150735110;s;i;328
1154662008: system.cpu.execute: 1154662008;f;i;328
1154662634: system.cpu.execute: 1154662634;s;i;329
1158179815: system.cpu.execute: 1158179815;f;i;329
1158179815: system.cpu.execute: 1158179815;s;i;330
1161690110: system.cpu.execute: 1161690110;f;i;330
1161690110: system.cpu.execute: 1161690110;s;i;331
1165201031: system.cpu.execute: 1165201031;f;i;331
1165201657: system.cpu.execute: 1165201657;s;i;332
1168712265: system.cpu.execute: 1168712265;f;i;332
1168712891: system.cpu.execute: 1168712891;s;i;333
1172217552: system.cpu.execute: 1172217552;f;i;333
1172217865: system.cpu.execute: 1172217865;s;i;334
1175729725: system.cpu.execute: 1175729725;f;i;334
1175730038: system.cpu.execute: 1175730038;s;i;335
1179240959: system.cpu.execute: 1179240959;f;i;335
1179241272: system.cpu.execute: 1179241272;s;i;336
1182762522: system.cpu.execute: 1182762522;f;i;336
1182762522: system.cpu.execute: 1182762522;s;i;337
1186289093: system.cpu.execute: 1186289093;f;i;337
1186289093: system.cpu.execute: 1186289093;s;i;338
1189814412: system.cpu.execute: 1189814412;f;i;338
1189821924: system.cpu.execute: 1189821924;s;i;339
1193351312: system.cpu.execute: 1193351312;f;i;339
1193351938: system.cpu.execute: 1193351938;s;i;340
1196878822: system.cpu.execute: 1196878822;f;i;340
1196879761: system.cpu.execute: 1196879761;s;i;341
1200411340: system.cpu.execute: 1200411340;f;i;341
1200411653: system.cpu.execute: 1200411653;s;i;342
1203943858: system.cpu.execute: 1203943858;f;i;342
1203944171: system.cpu.execute: 1203944171;s;i;343
1208657012: system.cpu.execute: 1208657012;f;i;343
1208657638: system.cpu.execute: 1208657638;s;i;344
1213917603: system.cpu.execute: 1213917603;f;i;344
1213917916: system.cpu.execute: 1213917916;s;i;345
1219452069: system.cpu.execute: 1219452069;f;i;345
1219453008: system.cpu.execute: 1219453008;s;i;346
1223472241: system.cpu.execute: 1223472241;f;i;346
1223472867: system.cpu.execute: 1223472867;s;i;347
1226983162: system.cpu.execute: 1226983162;f;i;347
1226983162: system.cpu.execute: 1226983162;s;i;348
1230500969: system.cpu.execute: 1230500969;f;i;348
1230500969: system.cpu.execute: 1230500969;s;i;349
1234013768: system.cpu.execute: 1234013768;f;i;349
1234013768: system.cpu.execute: 1234013768;s;i;350
1237522811: system.cpu.execute: 1237522811;f;i;350
1237522811: system.cpu.execute: 1237522811;s;i;351
1241028411: system.cpu.execute: 1241028411;f;i;351
1241029037: system.cpu.execute: 1241029037;s;i;352
1244543088: system.cpu.execute: 1244543088;f;i;352
1244543714: system.cpu.execute: 1244543714;s;i;353
1248050253: system.cpu.execute: 1248050253;f;i;353
1248050566: system.cpu.execute: 1248050566;s;i;354
1251575885: system.cpu.execute: 1251575885;f;i;354
1251583397: system.cpu.execute: 1251583397;s;i;355
1255099013: system.cpu.execute: 1255099013;f;i;355
1255099326: system.cpu.execute: 1255099326;s;i;356
1258631531: system.cpu.execute: 1258631531;f;i;356
1258631531: system.cpu.execute: 1258631531;s;i;357
1262153720: system.cpu.execute: 1262153720;f;i;357
1262153720: system.cpu.execute: 1262153720;s;i;358
1265689994: system.cpu.execute: 1265689994;f;i;358
1265690620: system.cpu.execute: 1265690620;s;i;359
1269224390: system.cpu.execute: 1269224390;f;i;359
1269224703: system.cpu.execute: 1269224703;s;i;360
1272754717: system.cpu.execute: 1272754717;f;i;360
1272755030: system.cpu.execute: 1272755030;s;i;361
1277405271: system.cpu.execute: 1277405271;f;i;361
1277405584: system.cpu.execute: 1277405584;s;i;362
1282634249: system.cpu.execute: 1282634249;f;i;362
1282634562: system.cpu.execute: 1282634562;s;i;363
1288170906: system.cpu.execute: 1288170906;f;i;363
1288171219: system.cpu.execute: 1288171219;s;i;364
1292286543: system.cpu.execute: 1292286543;f;i;364
1292287169: system.cpu.execute: 1292287169;s;i;365
1295787448: system.cpu.execute: 1295787448;f;i;365
1295787761: system.cpu.execute: 1295787761;s;i;366
1299308072: system.cpu.execute: 1299308072;f;i;366
1299308072: system.cpu.execute: 1299308072;s;i;367
1302818993: system.cpu.execute: 1302818993;f;i;367
1302819306: system.cpu.execute: 1302819306;s;i;368
1306328036: system.cpu.execute: 1306328036;f;i;368
1306328036: system.cpu.execute: 1306328036;s;i;369
1309837392: system.cpu.execute: 1309837392;f;i;369
1309837705: system.cpu.execute: 1309837705;s;i;370
1313347061: system.cpu.execute: 1313347061;f;i;370
1313347061: system.cpu.execute: 1313347061;s;i;371
1316855478: system.cpu.execute: 1316855478;f;i;371
1316856104: system.cpu.execute: 1316856104;s;i;372
1320374537: system.cpu.execute: 1320374537;f;i;372
1320375163: system.cpu.execute: 1320375163;s;i;373
1323910498: system.cpu.execute: 1323910498;f;i;373
1323910811: system.cpu.execute: 1323910811;s;i;374
1327430183: system.cpu.execute: 1327430183;f;i;374
1327431122: system.cpu.execute: 1327431122;s;i;375
1330958006: system.cpu.execute: 1330958006;f;i;375
1330958319: system.cpu.execute: 1330958319;s;i;376
1334494906: system.cpu.execute: 1334494906;f;i;376
1334494906: system.cpu.execute: 1334494906;s;i;377
1338025546: system.cpu.execute: 1338025546;f;i;377
1338025546: system.cpu.execute: 1338025546;s;i;378
1341559942: system.cpu.execute: 1341559942;f;i;378
1341560568: system.cpu.execute: 1341560568;s;i;379
1346153217: system.cpu.execute: 1346153217;f;i;379
1346154156: system.cpu.execute: 1346154156;s;i;380
1351356216: system.cpu.execute: 1351356216;f;i;380
1351356529: system.cpu.execute: 1351356529;s;i;381
1356885048: system.cpu.execute: 1356885048;f;i;381
1356885048: system.cpu.execute: 1356885048;s;i;382
1361087073: system.cpu.execute: 1361087073;f;i;382
1361087699: system.cpu.execute: 1361087699;s;i;383
1364594551: system.cpu.execute: 1364594551;f;i;383
1364594864: system.cpu.execute: 1364594864;s;i;384
1368114549: system.cpu.execute: 1368114549;f;i;384
1368115175: system.cpu.execute: 1368115175;s;i;385
1371625783: system.cpu.execute: 1371625783;f;i;385
1371626096: system.cpu.execute: 1371626096;s;i;386
1375137643: system.cpu.execute: 1375137643;f;i;386
1375137956: system.cpu.execute: 1375137956;s;i;387
1378646686: system.cpu.execute: 1378646686;f;i;387
1378646999: system.cpu.execute: 1378646999;s;i;388
1382153538: system.cpu.execute: 1382153538;f;i;388
1382153538: system.cpu.execute: 1382153538;s;i;389
1385659138: system.cpu.execute: 1385659138;f;i;389
1385659138: system.cpu.execute: 1385659138;s;i;390
1389188213: system.cpu.execute: 1389188213;f;i;390
1389188213: system.cpu.execute: 1389188213;s;i;391
1392718540: system.cpu.execute: 1392718540;f;i;391
1392719166: system.cpu.execute: 1392719166;s;i;392
1396237599: system.cpu.execute: 1396237599;f;i;392
1396238225: system.cpu.execute: 1396238225;s;i;393
1399765109: system.cpu.execute: 1399765109;f;i;393
1399765422: system.cpu.execute: 1399765422;s;i;394
1403297314: system.cpu.execute: 1403297314;f;i;394
1403297627: system.cpu.execute: 1403297627;s;i;395
1406832649: system.cpu.execute: 1406832649;f;i;395
1406832649: system.cpu.execute: 1406832649;s;i;396
1410368297: system.cpu.execute: 1410368297;f;i;396
1410368297: system.cpu.execute: 1410368297;s;i;397
1414902102: system.cpu.execute: 1414902102;f;i;397
1414903041: system.cpu.execute: 1414903041;s;i;398
1420083817: system.cpu.execute: 1420083817;f;i;398
1420084130: system.cpu.execute: 1420084130;s;i;399
1425611397: system.cpu.execute: 1425611397;f;i;399
1425611710: system.cpu.execute: 1425611710;s;i;400
1429893550: system.cpu.execute: 1429893550;f;i;400
1429893550: system.cpu.execute: 1429893550;s;i;401
1433403845: system.cpu.execute: 1433403845;f;i;401
1433404158: system.cpu.execute: 1433404158;s;i;402
1436923843: system.cpu.execute: 1436923843;f;i;402
1436924469: system.cpu.execute: 1436924469;s;i;403
1440434451: system.cpu.execute: 1440434451;f;i;403
1440435390: system.cpu.execute: 1440435390;s;i;404
1443945372: system.cpu.execute: 1443945372;f;i;404
1443945372: system.cpu.execute: 1443945372;s;i;405
1447455041: system.cpu.execute: 1447455041;f;i;405
1447455354: system.cpu.execute: 1447455354;s;i;406
1450959389: system.cpu.execute: 1450959389;f;i;406
1450960015: system.cpu.execute: 1450960015;s;i;407
1454475318: system.cpu.execute: 1454475318;f;i;407
1454475631: system.cpu.execute: 1454475631;s;i;408
1457995942: system.cpu.execute: 1457995942;f;i;408
1457995942: system.cpu.execute: 1457995942;s;i;409
1461515001: system.cpu.execute: 1461515001;f;i;409
1461515001: system.cpu.execute: 1461515001;s;i;410
1465046580: system.cpu.execute: 1465046580;f;i;410
1465046580: system.cpu.execute: 1465046580;s;i;411
1468581289: system.cpu.execute: 1468581289;f;i;411
1468581289: system.cpu.execute: 1468581289;s;i;412
1472106295: system.cpu.execute: 1472106295;f;i;412
1472106608: system.cpu.execute: 1472106608;s;i;413
1475641943: system.cpu.execute: 1475641943;f;i;413
1475641943: system.cpu.execute: 1475641943;s;i;414
1479177904: system.cpu.execute: 1479177904;f;i;414
1479177904: system.cpu.execute: 1479177904;s;i;415
1483679470: system.cpu.execute: 1483679470;f;i;415
1483680096: system.cpu.execute: 1483680096;s;i;416
1488825816: system.cpu.execute: 1488825816;f;i;416
1488826129: system.cpu.execute: 1488826129;s;i;417
1494349327: system.cpu.execute: 1494349327;f;i;417
1494349640: system.cpu.execute: 1494349640;s;i;418
1498721624: system.cpu.execute: 1498721624;f;i;418
1498721624: system.cpu.execute: 1498721624;s;i;419
1502235049: system.cpu.execute: 1502235049;f;i;419
1502235675: system.cpu.execute: 1502235675;s;i;420
1505758803: system.cpu.execute: 1505758803;f;i;420
1505759116: system.cpu.execute: 1505759116;s;i;421
1509262838: system.cpu.execute: 1509262838;f;i;421
1509263151: system.cpu.execute: 1509263151;s;i;422
1512777202: system.cpu.execute: 1512777202;f;i;422
1512777515: system.cpu.execute: 1512777515;s;i;423
1516290314: system.cpu.execute: 1516290314;f;i;423
1516290314: system.cpu.execute: 1516290314;s;i;424
1519790906: system.cpu.execute: 1519790906;f;i;424
1519790906: system.cpu.execute: 1519790906;s;i;425
1523299636: system.cpu.execute: 1523299636;f;i;425
1523300262: system.cpu.execute: 1523300262;s;i;426
1526823703: system.cpu.execute: 1526823703;f;i;426
1526824329: system.cpu.execute: 1526824329;s;i;427
1530345892: system.cpu.execute: 1530345892;f;i;427
1530346831: system.cpu.execute: 1530346831;s;i;428
1533879349: system.cpu.execute: 1533879349;f;i;428
1533879662: system.cpu.execute: 1533879662;s;i;429
1537407798: system.cpu.execute: 1537407798;f;i;429
1537408111: system.cpu.execute: 1537408111;s;i;430
1540937499: system.cpu.execute: 1540937499;f;i;430
1540937499: system.cpu.execute: 1540937499;s;i;431
1544473460: system.cpu.execute: 1544473460;f;i;431
1544473460: system.cpu.execute: 1544473460;s;i;432
1548009734: system.cpu.execute: 1548009734;f;i;432
1548010360: system.cpu.execute: 1548010360;s;i;433
1552451517: system.cpu.execute: 1552451517;f;i;433
1552452143: system.cpu.execute: 1552452143;s;i;434
1557559051: system.cpu.execute: 1557559051;f;i;434
1557559677: system.cpu.execute: 1557559677;s;i;435
1563070355: system.cpu.execute: 1563070355;f;i;435
1563070668: system.cpu.execute: 1563070668;s;i;436
1567545629: system.cpu.execute: 1567545629;f;i;436
1567545942: system.cpu.execute: 1567545942;s;i;437
1571059680: system.cpu.execute: 1571059680;f;i;437
1571059680: system.cpu.execute: 1571059680;s;i;438
1574574983: system.cpu.execute: 1574574983;f;i;438
1574574983: system.cpu.execute: 1574574983;s;i;439
1578079957: system.cpu.execute: 1578079957;f;i;439
1578080583: system.cpu.execute: 1578080583;s;i;440
1581595260: system.cpu.execute: 1581595260;f;i;440
1581595886: system.cpu.execute: 1581595886;s;i;441
1585101799: system.cpu.execute: 1585101799;f;i;441
1585102425: system.cpu.execute: 1585102425;s;i;442
1588607712: system.cpu.execute: 1588607712;f;i;442
1588608025: system.cpu.execute: 1588608025;s;i;443
1592118946: system.cpu.execute: 1592118946;f;i;443
1592119572: system.cpu.execute: 1592119572;s;i;444
1595629867: system.cpu.execute: 1595629867;f;i;444
1595630180: system.cpu.execute: 1595630180;s;i;445
1599152369: system.cpu.execute: 1599152369;f;i;445
1599152369: system.cpu.execute: 1599152369;s;i;446
1602680192: system.cpu.execute: 1602680192;f;i;446
1602680505: system.cpu.execute: 1602680505;s;i;447
1606213649: system.cpu.execute: 1606213649;f;i;447
1606213649: system.cpu.execute: 1606213649;s;i;448
1609742098: system.cpu.execute: 1609742098;f;i;448
1609742098: system.cpu.execute: 1609742098;s;i;449
1613272112: system.cpu.execute: 1613272112;f;i;449
1613272425: system.cpu.execute: 1613272425;s;i;450
1616816837: system.cpu.execute: 1616816837;f;i;450
1616816837: system.cpu.execute: 1616816837;s;i;451
1621207288: system.cpu.execute: 1621207288;f;i;451
1621207601: system.cpu.execute: 1621207601;s;i;452
1626287278: system.cpu.execute: 1626287278;f;i;452
1626288217: system.cpu.execute: 1626288217;s;i;453
1631772290: system.cpu.execute: 1631772290;f;i;453
1631772603: system.cpu.execute: 1631772603;s;i;454
1636349602: system.cpu.execute: 1636349602;f;i;454
1636349602: system.cpu.execute: 1636349602;s;i;455
1639865218: system.cpu.execute: 1639865218;f;i;455
1639865531: system.cpu.execute: 1639865531;s;i;456
1643383964: system.cpu.execute: 1643383964;f;i;456
1643384590: system.cpu.execute: 1643384590;s;i;457
1646889564: system.cpu.execute: 1646889564;f;i;457
1646889877: system.cpu.execute: 1646889877;s;i;458
1650400485: system.cpu.execute: 1650400485;f;i;458
1650400798: system.cpu.execute: 1650400798;s;i;459
1653911406: system.cpu.execute: 1653911406;f;i;459
1653911406: system.cpu.execute: 1653911406;s;i;460
1657419197: system.cpu.execute: 1657419197;f;i;460
1657419197: system.cpu.execute: 1657419197;s;i;461
1660928553: system.cpu.execute: 1660928553;f;i;461
1660928553: system.cpu.execute: 1660928553;s;i;462
1664450429: system.cpu.execute: 1664450429;f;i;462
1664451055: system.cpu.execute: 1664451055;s;i;463
1667964480: system.cpu.execute: 1667964480;f;i;463
1667964793: system.cpu.execute: 1667964793;s;i;464
1671473523: system.cpu.execute: 1671473523;f;i;464
1671474149: system.cpu.execute: 1671474149;s;i;465
1675007606: system.cpu.execute: 1675007606;f;i;465
1675007919: system.cpu.execute: 1675007919;s;i;466
1678530734: system.cpu.execute: 1678530734;f;i;466
1678530734: system.cpu.execute: 1678530734;s;i;467
1682064504: system.cpu.execute: 1682064504;f;i;467
1682065130: system.cpu.execute: 1682065130;s;i;468
1685597022: system.cpu.execute: 1685597022;f;i;468
1685597648: system.cpu.execute: 1685597648;s;i;469
1689958364: system.cpu.execute: 1689958364;f;i;469
1689958990: system.cpu.execute: 1689958990;s;i;470
1694974502: system.cpu.execute: 1694974502;f;i;470
1694976380: system.cpu.execute: 1694976380;s;i;471
1700461079: system.cpu.execute: 1700461079;f;i;471
1700462018: system.cpu.execute: 1700462018;s;i;472
1705138551: system.cpu.execute: 1705138551;f;i;472
1705138551: system.cpu.execute: 1705138551;s;i;473
1708650411: system.cpu.execute: 1708650411;f;i;473
1708651037: system.cpu.execute: 1708651037;s;i;474
1712171348: system.cpu.execute: 1712171348;f;i;474
1712171348: system.cpu.execute: 1712171348;s;i;475
1715677261: system.cpu.execute: 1715677261;f;i;475
1715677261: system.cpu.execute: 1715677261;s;i;476
1719187556: system.cpu.execute: 1719187556;f;i;476
1719188182: system.cpu.execute: 1719188182;s;i;477
1722698164: system.cpu.execute: 1722698164;f;i;477
1722699103: system.cpu.execute: 1722699103;s;i;478
1726205642: system.cpu.execute: 1726205642;f;i;478
1726205642: system.cpu.execute: 1726205642;s;i;479
1729715311: system.cpu.execute: 1729715311;f;i;479
1729715624: system.cpu.execute: 1729715624;s;i;480
1733228736: system.cpu.execute: 1733228736;f;i;480
1733229362: system.cpu.execute: 1733229362;s;i;481
1736763758: system.cpu.execute: 1736763758;f;i;481
1736764071: system.cpu.execute: 1736764071;s;i;482
1740290016: system.cpu.execute: 1740290016;f;i;482
1740290016: system.cpu.execute: 1740290016;s;i;483
1743801250: system.cpu.execute: 1743801250;f;i;483
1743801250: system.cpu.execute: 1743801250;s;i;484
1747334394: system.cpu.execute: 1747334394;f;i;484
1747334707: system.cpu.execute: 1747334707;s;i;485
1750868790: system.cpu.execute: 1750868790;f;i;485
1750869103: system.cpu.execute: 1750869103;s;i;486
1754401308: system.cpu.execute: 1754401308;f;i;486
1754401308: system.cpu.execute: 1754401308;s;i;487
1758729159: system.cpu.execute: 1758729159;f;i;487
1758730098: system.cpu.execute: 1758730098;s;i;488
1763691461: system.cpu.execute: 1763691461;f;i;488
1763691774: system.cpu.execute: 1763691774;s;i;489
1769177725: system.cpu.execute: 1769177725;f;i;489
1769178351: system.cpu.execute: 1769178351;s;i;490
1773932508: system.cpu.execute: 1773932508;f;i;490
1773932821: system.cpu.execute: 1773932821;s;i;491
1777450628: system.cpu.execute: 1777450628;f;i;491
1777450628: system.cpu.execute: 1777450628;s;i;492
1780972817: system.cpu.execute: 1780972817;f;i;492
1780973130: system.cpu.execute: 1780973130;s;i;493
1784476226: system.cpu.execute: 1784476226;f;i;493
1784476852: system.cpu.execute: 1784476852;s;i;494
1787987147: system.cpu.execute: 1787987147;f;i;494
1787987460: system.cpu.execute: 1787987460;s;i;495
1791494625: system.cpu.execute: 1791494625;f;i;495
1791494938: system.cpu.execute: 1791494938;s;i;496
1795005546: system.cpu.execute: 1795005546;f;i;496
1795005859: system.cpu.execute: 1795005859;s;i;497
1798518658: system.cpu.execute: 1798518658;f;i;497
1798518658: system.cpu.execute: 1798518658;s;i;498
1802028327: system.cpu.execute: 1802028327;f;i;498
1802028327: system.cpu.execute: 1802028327;s;i;499
1805556150: system.cpu.execute: 1805556150;f;i;499
1805556776: system.cpu.execute: 1805556776;s;i;500
1809085851: system.cpu.execute: 1809085851;f;i;500
1809086477: system.cpu.execute: 1809086477;s;i;501
1812611483: system.cpu.execute: 1812611483;f;i;501
1812612422: system.cpu.execute: 1812612422;s;i;502
1816147131: system.cpu.execute: 1816147131;f;i;502
1816147444: system.cpu.execute: 1816147444;s;i;503
1819676519: system.cpu.execute: 1819676519;f;i;503
1819677145: system.cpu.execute: 1819677145;s;i;504
1823203090: system.cpu.execute: 1823203090;f;i;504
1823204029: system.cpu.execute: 1823204029;s;i;505
1827502458: system.cpu.execute: 1827502458;f;i;505
1827502458: system.cpu.execute: 1827502458;s;i;506
1832416871: system.cpu.execute: 1832416871;f;i;506
1832417497: system.cpu.execute: 1832417497;s;i;507
1837878095: system.cpu.execute: 1837878095;f;i;507
1837878721: system.cpu.execute: 1837878721;s;i;508
1842734916: system.cpu.execute: 1842734916;f;i;508
1842734916: system.cpu.execute: 1842734916;s;i;509
1846255853: system.cpu.execute: 1846255853;f;i;509
1846256479: system.cpu.execute: 1846256479;s;i;510
1849766774: system.cpu.execute: 1849766774;f;i;510
1849767087: system.cpu.execute: 1849767087;s;i;511
1853272374: system.cpu.execute: 1853272374;f;i;511
1853272374: system.cpu.execute: 1853272374;s;i;512
1856781417: system.cpu.execute: 1856781417;f;i;512
1856781417: system.cpu.execute: 1856781417;s;i;513
1860289834: system.cpu.execute: 1860289834;f;i;513
1860290460: system.cpu.execute: 1860290460;s;i;514
1863801694: system.cpu.execute: 1863801694;f;i;514
1863802320: system.cpu.execute: 1863802320;s;i;515
1867308233: system.cpu.execute: 1867308233;f;i;515
1867308859: system.cpu.execute: 1867308859;s;i;516
1870823223: system.cpu.execute: 1870823223;f;i;516
1870823536: system.cpu.execute: 1870823536;s;i;517
1874347916: system.cpu.execute: 1874347916;f;i;517
1874348542: system.cpu.execute: 1874348542;s;i;518
1877881373: system.cpu.execute: 1877881373;f;i;518
1877881686: system.cpu.execute: 1877881686;s;i;519
1881407318: system.cpu.execute: 1881407318;f;i;519
1881407318: system.cpu.execute: 1881407318;s;i;520
1884938271: system.cpu.execute: 1884938271;f;i;520
1884938897: system.cpu.execute: 1884938897;s;i;521
1888474858: system.cpu.execute: 1888474858;f;i;521
1888475171: system.cpu.execute: 1888475171;s;i;522
1892002055: system.cpu.execute: 1892002055;f;i;522
1892002368: system.cpu.execute: 1892002368;s;i;523
1896286399: system.cpu.execute: 1896286399;f;i;523
1896286712: system.cpu.execute: 1896286712;s;i;524
1901130074: system.cpu.execute: 1901130074;f;i;524
1901130387: system.cpu.execute: 1901130387;s;i;525
1906577839: system.cpu.execute: 1906577839;f;i;525
1906578465: system.cpu.execute: 1906578465;s;i;526
1911536385: system.cpu.execute: 1911536385;f;i;526
1911536698: system.cpu.execute: 1911536698;s;i;527
1915050436: system.cpu.execute: 1915050436;f;i;527
1915051062: system.cpu.execute: 1915051062;s;i;528
1918568556: system.cpu.execute: 1918568556;f;i;528
1918569182: system.cpu.execute: 1918569182;s;i;529
1922081668: system.cpu.execute: 1922081668;f;i;529
1922081981: system.cpu.execute: 1922081981;s;i;530
1925588207: system.cpu.execute: 1925588207;f;i;530
1925588833: system.cpu.execute: 1925588833;s;i;531
1929097250: system.cpu.execute: 1929097250;f;i;531
1929097563: system.cpu.execute: 1929097563;s;i;532
1932604728: system.cpu.execute: 1932604728;f;i;532
1932605041: system.cpu.execute: 1932605041;s;i;533
1936115649: system.cpu.execute: 1936115649;f;i;533
1936115649: system.cpu.execute: 1936115649;s;i;534
1939632517: system.cpu.execute: 1939632517;f;i;534
1939632517: system.cpu.execute: 1939632517;s;i;535
1943155332: system.cpu.execute: 1943155332;f;i;535
1943155332: system.cpu.execute: 1943155332;s;i;536
1946688476: system.cpu.execute: 1946688476;f;i;536
1946689102: system.cpu.execute: 1946689102;s;i;537
1950217238: system.cpu.execute: 1950217238;f;i;537
1950217551: system.cpu.execute: 1950217551;s;i;538
1953746626: system.cpu.execute: 1953746626;f;i;538
1953746626: system.cpu.execute: 1953746626;s;i;539
1957284778: system.cpu.execute: 1957284778;f;i;539
1957285404: system.cpu.execute: 1957285404;s;i;540
1960809158: system.cpu.execute: 1960809158;f;i;540
1960809784: system.cpu.execute: 1960809784;s;i;541
1965057820: system.cpu.execute: 1965057820;f;i;541
1965058759: system.cpu.execute: 1965058759;s;i;542
1969845155: system.cpu.execute: 1969845155;f;i;542
1969845468: system.cpu.execute: 1969845468;s;i;543
1975293859: system.cpu.execute: 1975293859;f;i;543
1975293859: system.cpu.execute: 1975293859;s;i;544
1980340045: system.cpu.execute: 1980340045;f;i;544
1980340358: system.cpu.execute: 1980340358;s;i;545
1983852218: system.cpu.execute: 1983852218;f;i;545
1983852218: system.cpu.execute: 1983852218;s;i;546
1987372529: system.cpu.execute: 1987372529;f;i;546
1987372842: system.cpu.execute: 1987372842;s;i;547
1990883763: system.cpu.execute: 1990883763;f;i;547
1990884076: system.cpu.execute: 1990884076;s;i;548
1994395310: system.cpu.execute: 1994395310;f;i;548
1994395310: system.cpu.execute: 1994395310;s;i;549
1997904666: system.cpu.execute: 1997904666;f;i;549
1997904666: system.cpu.execute: 1997904666;s;i;550
2001411518: system.cpu.execute: 2001411518;f;i;550
2001412144: system.cpu.execute: 2001412144;s;i;551
2004922126: system.cpu.execute: 2004922126;f;i;551
2004923065: system.cpu.execute: 2004923065;s;i;552
2008438681: system.cpu.execute: 2008438681;f;i;552
2008438681: system.cpu.execute: 2008438681;s;i;553
2011961809: system.cpu.execute: 2011961809;f;i;553
2011962122: system.cpu.execute: 2011962122;s;i;554
2015486502: system.cpu.execute: 2015486502;f;i;554
2015487128: system.cpu.execute: 2015487128;s;i;555
2019024967: system.cpu.execute: 2019024967;f;i;555
2019025280: system.cpu.execute: 2019025280;s;i;556
2022554042: system.cpu.execute: 2022554042;f;i;556
2022554355: system.cpu.execute: 2022554355;s;i;557
2026080613: system.cpu.execute: 2026080613;f;i;557
2026080926: system.cpu.execute: 2026080926;s;i;558
2029616261: system.cpu.execute: 2029616261;f;i;558
2029616261: system.cpu.execute: 2029616261;s;i;559
2033754747: system.cpu.execute: 2033754747;f;i;559
2033754747: system.cpu.execute: 2033754747;s;i;560
2038577451: system.cpu.execute: 2038577451;f;i;560
2038577764: system.cpu.execute: 2038577764;s;i;561
2044012696: system.cpu.execute: 2044012696;f;i;561
2044013635: system.cpu.execute: 2044013635;s;i;562
2049153408: system.cpu.execute: 2049153408;f;i;562
2049153408: system.cpu.execute: 2049153408;s;i;563
2052664642: system.cpu.execute: 2052664642;f;i;563
2052665268: system.cpu.execute: 2052665268;s;i;564
2056179319: system.cpu.execute: 2056179319;f;i;564
2056179319: system.cpu.execute: 2056179319;s;i;565
2059693057: system.cpu.execute: 2059693057;f;i;565
2059693683: system.cpu.execute: 2059693683;s;i;566
2063210864: system.cpu.execute: 2063210864;f;i;566
2063211177: system.cpu.execute: 2063211177;s;i;567
2066713647: system.cpu.execute: 2066713647;f;i;567
2066714273: system.cpu.execute: 2066714273;s;i;568
2070221125: system.cpu.execute: 2070221125;f;i;568
2070221438: system.cpu.execute: 2070221438;s;i;569
2073728603: system.cpu.execute: 2073728603;f;i;569
2073728916: system.cpu.execute: 2073728916;s;i;570
2077248601: system.cpu.execute: 2077248601;f;i;570
2077248914: system.cpu.execute: 2077248914;s;i;571
2080775172: system.cpu.execute: 2080775172;f;i;571
2080775172: system.cpu.execute: 2080775172;s;i;572
2084296109: system.cpu.execute: 2084296109;f;i;572
2084296109: system.cpu.execute: 2084296109;s;i;573
2087827375: system.cpu.execute: 2087827375;f;i;573
2087828001: system.cpu.execute: 2087828001;s;i;574
2091357389: system.cpu.execute: 2091357389;f;i;574
2091357389: system.cpu.execute: 2091357389;s;i;575
2094889907: system.cpu.execute: 2094889907;f;i;575
2094889907: system.cpu.execute: 2094889907;s;i;576
2098428998: system.cpu.execute: 2098428998;f;i;576
2098429624: system.cpu.execute: 2098429624;s;i;577
2102506449: system.cpu.execute: 2102506449;f;i;577
2102506449: system.cpu.execute: 2102506449;s;i;578
2105493408: system.cpu.execute: 2105493408;f;i;578
