{
    "cores": [
      {
        "core": {
          "hasFT": false,
          "hasFP": true,
          "canEmulate": false,
          "processor": "A15",
          "isAcc": false,
          "accType": null
        }
      },
      {
        "core": {
          "hasFT": false,
          "hasFP": false,
          "canEmulate": false,
          "processor": "video",
          "isAcc": true,
          "accType": "video"
        }
      }
    ]
}