{
  "cores": [
    {
      "core": {
        "hasFT": false,
        "hasFP": false,
        "processor": "A15"
      }
    },
    {
      "core": {
        "hasFT": false,
        "hasFP": false,
        "processor": "A15"
      }
    },
    {
      "core": {
        "hasFT": false,
        "hasFP": false,
        "processor": "A7"
      }
    },
    {
      "core": {
        "hasFT": false,
        "hasFP": false,
        "processor": "A7"
      }
    },
    {
      "core": {
        "hasFT": false,
        "hasFP": true,
        "processor": "A7"
      }
    },
    {  
      "core": {
        "hasFT": false,
        "hasFP": true,
        "processor": "A7"
      }
    }
  ]
  
}